M48
;Layer_Color=9474304
;FILE_FORMAT=2:3
INCH,LZ
;TYPE=PLATED
T1F00S00C0.028
;TYPE=NON_PLATED
T2F00S00C0.039
%
T01
X03661Y04051
X03858Y04248
X04201Y04043
X05995Y04106
X06547Y0411
X08264Y04094
X08819Y04114
X10547Y04083
X11091Y0411
X12854Y04063
X13374
X1676
X17331Y04114
X19039Y04063
X19614Y04114
X21331Y04063
X21898Y04161
X23618Y04063
X27543
X28106Y0411
X29827Y04063
X32134
X34413
X38343
X40622
X42921
X45201Y04083
T02
X15189Y04083
Y04185
X25976Y04185
X25976Y04083
X36763Y04079
Y04181
M30
