EESchema Schematic File Version 2
LIBS:power
LIBS:device
LIBS:switches
LIBS:relays
LIBS:motors
LIBS:transistors
LIBS:conn
LIBS:linear
LIBS:regul
LIBS:74xx
LIBS:cmos4000
LIBS:adc-dac
LIBS:memory
LIBS:xilinx
LIBS:microcontrollers
LIBS:dsp
LIBS:microchip
LIBS:analog_switches
LIBS:motorola
LIBS:texas
LIBS:intel
LIBS:audio
LIBS:interface
LIBS:digital-audio
LIBS:philips
LIBS:display
LIBS:cypress
LIBS:siliconi
LIBS:opto
LIBS:atmel
LIBS:contrib
LIBS:valves
LIBS:nxp_pct2075
LIBS:flex_pcb_vers2-cache
EELAYER 25 0
EELAYER END
$Descr User 33110 9843
encoding utf-8
Sheet 1 1
Title ""
Date ""
Rev ""
Comp ""
Comment1 ""
Comment2 ""
Comment3 ""
Comment4 ""
$EndDescr
$Comp
L NXP_PCT2075 U1
U 1 1 5C489C39
P 6000 5900
F 0 "U1" H 2800 8250 60  0000 C CNN
F 1 "NXP_PCT2075" H 2800 7800 60  0000 C CNN
F 2 ".pretty:SOIC-8-N2" H 6000 5900 60  0001 C CNN
F 3 "" H 6000 5900 60  0001 C CNN
	1    6000 5900
	1    0    0    -1  
$EndComp
$Comp
L NXP_PCT2075 U2
U 1 1 5C489CAB
P 9800 5900
F 0 "U2" H 6600 8250 60  0000 C CNN
F 1 "NXP_PCT2075" H 6600 7800 60  0000 C CNN
F 2 ".pretty:SOIC-8-N2" H 9800 5900 60  0001 C CNN
F 3 "" H 9800 5900 60  0001 C CNN
	1    9800 5900
	1    0    0    -1  
$EndComp
$Comp
L Conn_01x04 J1
U 1 1 5C489F43
P 1100 3550
F 0 "J1" H 1100 3750 50  0000 C CNN
F 1 "Conn_01x04" H 1100 3250 50  0000 C CNN
F 2 "Connectors:Grove_1x04" H 1100 3550 50  0001 C CNN
F 3 "" H 1100 3550 50  0001 C CNN
	1    1100 3550
	-1   0    0    -1  
$EndComp
$Comp
L NXP_PCT2075 U3
U 1 1 5C4AD294
P 13950 5950
F 0 "U3" H 10800 8300 60  0000 C CNN
F 1 "NXP_PCT2075" H 10750 7850 60  0000 C CNN
F 2 "" H 13950 5950 60  0001 C CNN
F 3 "" H 13950 5950 60  0001 C CNN
	1    13950 5950
	1    0    0    -1  
$EndComp
$Comp
L NXP_PCT2075 U4
U 1 1 5C4AD6AA
P 17600 5950
F 0 "U4" H 14400 8250 60  0000 C CNN
F 1 "NXP_PCT2075" H 14400 7800 60  0000 C CNN
F 2 "" H 17600 5950 60  0001 C CNN
F 3 "" H 17600 5950 60  0001 C CNN
	1    17600 5950
	1    0    0    -1  
$EndComp
$Comp
L NXP_PCT2075 U5
U 1 1 5C4ADDAF
P 21700 5950
F 0 "U5" H 18500 8250 60  0000 C CNN
F 1 "NXP_PCT2075" H 18500 7800 60  0000 C CNN
F 2 "" H 21700 5950 60  0001 C CNN
F 3 "" H 21700 5950 60  0001 C CNN
	1    21700 5950
	1    0    0    -1  
$EndComp
$Comp
L NXP_PCT2075 U6
U 1 1 5C4AE4F6
P 24850 5950
F 0 "U6" H 21700 8300 60  0000 C CNN
F 1 "NXP_PCT2075" H 21650 7800 60  0000 C CNN
F 2 "" H 24850 5950 60  0001 C CNN
F 3 "" H 24850 5950 60  0001 C CNN
	1    24850 5950
	1    0    0    -1  
$EndComp
$Comp
L NXP_PCT2075 U7
U 1 1 5C4AF41B
P 28500 5950
F 0 "U7" H 25300 8250 60  0000 C CNN
F 1 "NXP_PCT2075" H 25300 7800 60  0000 C CNN
F 2 "" H 28500 5950 60  0001 C CNN
F 3 "" H 28500 5950 60  0001 C CNN
	1    28500 5950
	1    0    0    -1  
$EndComp
$Comp
L NXP_PCT2075 U8
U 1 1 5C4AFA16
P 32050 5950
F 0 "U8" H 28850 8250 60  0000 C CNN
F 1 "NXP_PCT2075" H 28900 7800 60  0000 C CNN
F 2 "" H 32050 5950 60  0001 C CNN
F 3 "" H 32050 5950 60  0001 C CNN
	1    32050 5950
	1    0    0    -1  
$EndComp
$Comp
L NXP_PCT2075 U9
U 1 1 5C4B02FE
P 5950 9250
F 0 "U9" H 2800 11600 60  0000 C CNN
F 1 "NXP_PCT2075" H 2750 11150 60  0000 C CNN
F 2 "" H 5950 9250 60  0001 C CNN
F 3 "" H 5950 9250 60  0001 C CNN
	1    5950 9250
	1    0    0    -1  
$EndComp
$Comp
L NXP_PCT2075 U10
U 1 1 5C4B14C7
P 9850 9250
F 0 "U10" H 6700 11550 60  0000 C CNN
F 1 "NXP_PCT2075" H 6700 11150 60  0000 C CNN
F 2 "" H 9850 9250 60  0001 C CNN
F 3 "" H 9850 9250 60  0001 C CNN
	1    9850 9250
	1    0    0    -1  
$EndComp
$Comp
L NXP_PCT2075 U11
U 1 1 5C4B1DEF
P 13950 9250
F 0 "U11" H 10750 11600 60  0000 C CNN
F 1 "NXP_PCT2075" H 10750 11150 60  0000 C CNN
F 2 "" H 13950 9250 60  0001 C CNN
F 3 "" H 13950 9250 60  0001 C CNN
	1    13950 9250
	1    0    0    -1  
$EndComp
$Comp
L NXP_PCT2075 U12
U 1 1 5C4B25C8
P 17600 9250
F 0 "U12" H 14400 11550 60  0000 C CNN
F 1 "NXP_PCT2075" H 14400 11150 60  0000 C CNN
F 2 "" H 17600 9250 60  0001 C CNN
F 3 "" H 17600 9250 60  0001 C CNN
	1    17600 9250
	1    0    0    -1  
$EndComp
$Comp
L NXP_PCT2075 U13
U 1 1 5C4B2EA7
P 21700 9250
F 0 "U13" H 18500 11600 60  0000 C CNN
F 1 "NXP_PCT2075" H 18500 11150 60  0000 C CNN
F 2 "" H 21700 9250 60  0001 C CNN
F 3 "" H 21700 9250 60  0001 C CNN
	1    21700 9250
	1    0    0    -1  
$EndComp
$Comp
L NXP_PCT2075 U14
U 1 1 5C4B3778
P 24850 9250
F 0 "U14" H 21650 11600 60  0000 C CNN
F 1 "NXP_PCT2075" H 21650 11150 60  0000 C CNN
F 2 "" H 24850 9250 60  0001 C CNN
F 3 "" H 24850 9250 60  0001 C CNN
	1    24850 9250
	1    0    0    -1  
$EndComp
$Comp
L NXP_PCT2075 U15
U 1 1 5C4B420D
P 28500 9250
F 0 "U15" H 25350 11600 60  0000 C CNN
F 1 "NXP_PCT2075" H 25300 11150 60  0000 C CNN
F 2 "" H 28500 9250 60  0001 C CNN
F 3 "" H 28500 9250 60  0001 C CNN
	1    28500 9250
	1    0    0    -1  
$EndComp
$Comp
L NXP_PCT2075 U16
U 1 1 5C4B4A96
P 32050 9250
F 0 "U16" H 28900 11550 60  0000 C CNN
F 1 "NXP_PCT2075" H 28850 11150 60  0000 C CNN
F 2 "" H 32050 9250 60  0001 C CNN
F 3 "" H 32050 9250 60  0001 C CNN
	1    32050 9250
	1    0    0    -1  
$EndComp
Wire Wire Line
	1300 3450 1550 3450
Wire Wire Line
	1550 3450 1550 2750
Wire Wire Line
	1550 2750 30700 2750
Wire Wire Line
	3650 2750 3650 3350
Wire Wire Line
	3650 3350 3350 3350
Wire Wire Line
	1300 3550 1900 3550
Wire Wire Line
	1900 3550 1900 3350
Wire Wire Line
	1900 3350 2250 3350
Wire Wire Line
	1300 3750 2050 3750
Wire Wire Line
	2050 3750 2050 3800
Wire Wire Line
	2050 3800 2250 3800
Wire Wire Line
	2150 3800 2150 4300
Wire Wire Line
	2150 4300 30200 4300
Wire Wire Line
	3350 3800 3350 4300
Connection ~ 2150 3800
Wire Wire Line
	3350 3650 3550 3650
Wire Wire Line
	3550 3650 3550 4150
Wire Wire Line
	3550 4150 3350 4150
Connection ~ 3350 4150
Wire Wire Line
	3350 3500 3750 3500
Wire Wire Line
	3750 3500 3750 3950
Wire Wire Line
	3750 3950 3550 3950
Connection ~ 3550 3950
Wire Wire Line
	7600 2750 7600 3350
Wire Wire Line
	7600 3350 7150 3350
Connection ~ 3650 2750
Wire Wire Line
	7150 3500 7400 3500
Wire Wire Line
	7400 3500 7400 3350
Connection ~ 7400 3350
Wire Wire Line
	6050 3800 4800 3800
Wire Wire Line
	4800 3800 4800 4300
Connection ~ 3350 4300
Wire Wire Line
	7200 4300 7200 3800
Wire Wire Line
	7200 3800 7150 3800
Connection ~ 4800 4300
Wire Wire Line
	7200 4000 7450 4000
Wire Wire Line
	7450 4000 7450 3650
Wire Wire Line
	7450 3650 7150 3650
Connection ~ 7200 4000
Connection ~ 7450 4000
Wire Wire Line
	2150 3650 1300 3650
Wire Wire Line
	2150 3050 2150 3650
Wire Wire Line
	2150 3500 2250 3500
Wire Wire Line
	1950 3350 1950 2900
Wire Wire Line
	1950 2900 6050 2900
Wire Wire Line
	6050 2900 6050 3350
Connection ~ 1950 3350
Wire Wire Line
	2150 3050 5900 3050
Wire Wire Line
	5900 3050 5900 3500
Wire Wire Line
	5900 3500 6050 3500
Connection ~ 2150 3500
Connection ~ 5850 3050
Connection ~ 6050 2950
Wire Wire Line
	6050 2950 30500 2950
Wire Wire Line
	9850 2950 9850 3400
Wire Wire Line
	9850 3400 10200 3400
Wire Wire Line
	5850 3050 30350 3050
Wire Wire Line
	9500 3050 9500 3550
Wire Wire Line
	9500 3550 10200 3550
Wire Wire Line
	9850 4300 9850 3850
Wire Wire Line
	9850 3850 10200 3850
Connection ~ 7200 4300
Wire Wire Line
	11750 2750 11750 3700
Wire Wire Line
	11750 3400 11300 3400
Connection ~ 7600 2750
Wire Wire Line
	11750 3700 11300 3700
Connection ~ 11750 3400
Wire Wire Line
	11500 4300 11500 3550
Wire Wire Line
	11500 3550 11300 3550
Connection ~ 9850 4300
Wire Wire Line
	11300 3850 11500 3850
Connection ~ 11500 3850
Wire Wire Line
	13550 2950 13550 3400
Wire Wire Line
	13550 3400 13850 3400
Connection ~ 9850 2950
Wire Wire Line
	13350 3050 13350 3550
Wire Wire Line
	13350 3550 13850 3550
Connection ~ 9500 3050
Wire Wire Line
	15300 2750 15300 3700
Wire Wire Line
	15300 3400 14950 3400
Connection ~ 11750 2750
Wire Wire Line
	13600 4300 13600 3850
Wire Wire Line
	13600 3850 13850 3850
Connection ~ 11500 4300
Wire Wire Line
	15300 3700 14950 3700
Connection ~ 15300 3400
Wire Wire Line
	14950 3550 15300 3550
Connection ~ 15300 3550
Wire Wire Line
	14950 3850 15150 3850
Wire Wire Line
	15150 3850 15150 4300
Connection ~ 13600 4300
Wire Wire Line
	17400 2950 17400 3400
Wire Wire Line
	17400 3400 17950 3400
Wire Wire Line
	17150 3050 17150 3550
Wire Wire Line
	17150 3550 17950 3550
Connection ~ 13350 3050
Wire Wire Line
	17650 4300 17650 3850
Wire Wire Line
	17650 3850 17950 3850
Connection ~ 15150 4300
Wire Wire Line
	19500 2750 19500 3850
Wire Wire Line
	19500 3400 19050 3400
Connection ~ 15300 2750
Wire Wire Line
	19500 3850 19050 3850
Connection ~ 19500 3400
Wire Wire Line
	19350 4300 19350 3700
Wire Wire Line
	19350 3700 19050 3700
Connection ~ 17650 4300
Wire Wire Line
	19050 3550 19250 3550
Wire Wire Line
	19250 3550 19250 3700
Connection ~ 19250 3700
Wire Wire Line
	20600 2950 20600 3400
Wire Wire Line
	20600 3400 21100 3400
Connection ~ 17400 2950
Wire Wire Line
	20450 3050 20450 3550
Wire Wire Line
	20450 3550 21100 3550
Connection ~ 17150 3050
Wire Wire Line
	20900 4300 20900 3850
Wire Wire Line
	20900 3850 21100 3850
Connection ~ 19350 4300
Wire Wire Line
	22700 2750 22700 3850
Wire Wire Line
	22700 3400 22200 3400
Connection ~ 19500 2750
Wire Wire Line
	22700 3550 22200 3550
Connection ~ 22700 3400
Wire Wire Line
	22700 3850 22200 3850
Connection ~ 22700 3550
Wire Wire Line
	22200 3700 22450 3700
Wire Wire Line
	22450 3700 22450 4300
Connection ~ 20900 4300
Wire Wire Line
	24300 2950 24300 3400
Wire Wire Line
	24300 3400 24750 3400
Connection ~ 20600 2950
Wire Wire Line
	24200 3050 24200 3550
Wire Wire Line
	24200 3550 24750 3550
Connection ~ 20450 3050
Wire Wire Line
	24600 4300 24600 3850
Wire Wire Line
	24600 3850 24750 3850
Connection ~ 22450 4300
Wire Wire Line
	26150 2750 26150 3850
Wire Wire Line
	26150 3400 25850 3400
Connection ~ 22700 2750
Wire Wire Line
	26150 3850 25850 3850
Connection ~ 26150 3400
Wire Wire Line
	25850 3700 26150 3700
Connection ~ 26150 3700
Wire Wire Line
	25850 3550 26000 3550
Wire Wire Line
	26000 3550 26000 4300
Connection ~ 24600 4300
Wire Wire Line
	27950 2950 27950 3400
Wire Wire Line
	27950 3400 28300 3400
Connection ~ 24300 2950
Wire Wire Line
	27750 3050 27750 3550
Wire Wire Line
	27750 3550 28300 3550
Connection ~ 24200 3050
Wire Wire Line
	29650 2750 29650 3850
Wire Wire Line
	29650 3400 29400 3400
Connection ~ 26150 2750
Wire Wire Line
	28200 4300 28200 3850
Wire Wire Line
	28200 3850 28300 3850
Connection ~ 26000 4300
Wire Wire Line
	29650 3550 29400 3550
Connection ~ 29650 3400
Wire Wire Line
	29650 3700 29400 3700
Connection ~ 29650 3550
Wire Wire Line
	29650 3850 29400 3850
Connection ~ 29650 3700
Wire Wire Line
	30200 4300 30200 5000
Wire Wire Line
	30200 5000 1500 5000
Wire Wire Line
	1500 5000 1500 7150
Wire Wire Line
	1500 7150 2200 7150
Connection ~ 28200 4300
Wire Wire Line
	30350 3050 30350 5150
Wire Wire Line
	30350 5150 1650 5150
Wire Wire Line
	1650 5150 1650 6850
Wire Wire Line
	1650 6850 2200 6850
Connection ~ 27750 3050
Wire Wire Line
	30500 2950 30500 5300
Wire Wire Line
	30500 5300 1800 5300
Wire Wire Line
	1800 5300 1800 6700
Wire Wire Line
	1800 6700 2200 6700
Connection ~ 27950 2950
Wire Wire Line
	30700 2750 30700 5450
Wire Wire Line
	30700 5450 1950 5450
Wire Wire Line
	3300 6700 4150 6700
Connection ~ 29650 2750
Wire Wire Line
	1950 7150 1950 7550
Wire Wire Line
	1950 7550 7550 7550
Connection ~ 1950 7150
Wire Wire Line
	3300 7000 3600 7000
Wire Wire Line
	3600 7000 3600 7550
Wire Wire Line
	3300 7150 3600 7150
Connection ~ 3600 7150
Wire Wire Line
	1950 5450 1950 5900
Wire Wire Line
	1950 5900 29850 5900
Wire Wire Line
	4150 6700 4150 5900
Wire Wire Line
	5800 6200 5800 6700
Wire Wire Line
	5800 6700 6100 6700
Connection ~ 1800 6200
Wire Wire Line
	1650 6400 27700 6400
Wire Wire Line
	5550 6400 5550 6850
Wire Wire Line
	5550 6850 6100 6850
Connection ~ 1650 6400
Wire Wire Line
	7550 5900 7550 6700
Wire Wire Line
	7550 6700 7200 6700
Connection ~ 4150 5900
Wire Wire Line
	6000 7550 6000 7150
Wire Wire Line
	6000 7150 6100 7150
Connection ~ 3600 7550
Wire Wire Line
	7200 7000 7550 7000
Wire Wire Line
	7550 7000 7550 7550
Connection ~ 6000 7550
Wire Wire Line
	11650 5900 11650 6850
Wire Wire Line
	11650 6700 11300 6700
Connection ~ 7550 5900
Wire Wire Line
	9900 6200 9900 6700
Wire Wire Line
	9900 6700 10200 6700
Connection ~ 5800 6200
Wire Wire Line
	9750 6400 9750 6850
Wire Wire Line
	9750 6850 10200 6850
Connection ~ 5550 6400
Wire Wire Line
	7500 7550 28250 7550
Wire Wire Line
	9850 7550 9850 7150
Wire Wire Line
	9850 7150 10200 7150
Connection ~ 7500 7550
Wire Wire Line
	11650 6850 11300 6850
Connection ~ 11650 6700
Wire Wire Line
	11300 7000 11650 7000
Wire Wire Line
	11650 7000 11650 7550
Connection ~ 9850 7550
Wire Wire Line
	15300 5900 15300 7000
Wire Wire Line
	15300 6700 14950 6700
Connection ~ 11650 5900
Wire Wire Line
	13500 6200 13500 6700
Wire Wire Line
	13500 6700 13850 6700
Connection ~ 9900 6200
Wire Wire Line
	13350 6400 13350 6850
Wire Wire Line
	13350 6850 13850 6850
Connection ~ 9750 6400
Wire Wire Line
	13700 7550 13700 7150
Wire Wire Line
	13700 7150 13850 7150
Connection ~ 11650 7550
Wire Wire Line
	15300 7000 14950 7000
Connection ~ 15300 6700
Wire Wire Line
	14950 6850 15150 6850
Wire Wire Line
	15150 6850 15150 7550
Connection ~ 13700 7550
Wire Wire Line
	19500 5900 19500 7000
Wire Wire Line
	19500 6700 19050 6700
Connection ~ 15300 5900
Wire Wire Line
	17600 6200 17600 6700
Wire Wire Line
	17600 6700 17950 6700
Wire Wire Line
	17450 6400 17450 6850
Wire Wire Line
	17450 6850 17950 6850
Connection ~ 13350 6400
Connection ~ 13500 6200
Wire Wire Line
	17750 7550 17750 7150
Wire Wire Line
	17750 7150 17950 7150
Connection ~ 15150 7550
Wire Wire Line
	19500 7000 19050 7000
Connection ~ 19500 6700
Wire Wire Line
	22600 5900 22600 7000
Wire Wire Line
	22600 6700 22200 6700
Connection ~ 19500 5900
Wire Wire Line
	20850 6200 20850 6700
Wire Wire Line
	20850 6700 21100 6700
Connection ~ 17600 6200
Wire Wire Line
	20650 6400 20650 6850
Wire Wire Line
	20650 6850 21100 6850
Connection ~ 17450 6400
Wire Wire Line
	20850 7550 20850 7150
Wire Wire Line
	20850 7150 21100 7150
Connection ~ 17750 7550
Wire Wire Line
	22600 7000 22200 7000
Connection ~ 22600 6700
Wire Wire Line
	22200 6850 22600 6850
Connection ~ 22600 6850
Wire Wire Line
	26250 5900 26250 6700
Wire Wire Line
	26250 6700 25850 6700
Connection ~ 22600 5900
Wire Wire Line
	24300 6200 24300 6700
Wire Wire Line
	24300 6700 24750 6700
Connection ~ 20850 6200
Wire Wire Line
	24100 6400 24100 6850
Wire Wire Line
	24100 6850 24750 6850
Connection ~ 20650 6400
Wire Wire Line
	24400 7550 24400 7150
Wire Wire Line
	24400 7150 24750 7150
Connection ~ 20850 7550
Wire Wire Line
	25850 6850 26250 6850
Wire Wire Line
	26250 6850 26250 7550
Connection ~ 24400 7550
Wire Wire Line
	29850 5900 29850 6850
Wire Wire Line
	29850 6700 29400 6700
Connection ~ 24300 6200
Wire Wire Line
	1800 6200 27850 6200
Wire Wire Line
	27850 6200 27850 6700
Wire Wire Line
	27850 6700 28300 6700
Wire Wire Line
	27700 6400 27700 6850
Wire Wire Line
	27700 6850 28300 6850
Connection ~ 24100 6400
Wire Wire Line
	28250 7550 28250 7150
Wire Wire Line
	28250 7150 28300 7150
Connection ~ 26250 7550
Wire Wire Line
	29850 6850 29400 6850
Connection ~ 29850 6700
Connection ~ 13550 2950
Connection ~ 26250 5900
Text Notes 1300 3450 0    60   ~ 0
VCC
Text Notes 1300 3550 0    60   ~ 0
SDA
Text Notes 1300 3650 0    60   ~ 0
SCL
Text Notes 1300 3750 0    60   ~ 0
GND
Text Notes 2000 5900 0    60   ~ 0
VCC
Text Notes 2000 6700 0    60   ~ 0
SDA
Text Notes 2000 6850 0    60   ~ 0
SCL
Text Notes 2000 7150 0    60   ~ 0
GND
$EndSCHEMATC
