(module SOIC-8-N2 (layer F.Cu) (tedit 5C48AE13)
  (descr "Module Narrow CMS SOJ 8 pins large")
  (tags "CMS SOJ")
  (attr smd)
  (fp_text reference REF** (at 0 -1.27) (layer F.SilkS)
    (effects (font (size 1 1) (thickness 0.15)))
  )
  (fp_text value SOIC-8-N (at 0 1.27) (layer F.Fab)
    (effects (font (size 1 1) (thickness 0.15)))
  )
  (fp_line (start -2.54 -2.286) (end 2.54 -2.286) (layer F.SilkS) (width 0.15))
  (fp_line (start 2.54 -2.286) (end 2.54 2.286) (layer F.SilkS) (width 0.15))
  (fp_line (start 2.54 2.286) (end -2.54 2.286) (layer F.SilkS) (width 0.15))
  (fp_line (start -2.54 2.286) (end -2.54 -2.286) (layer F.SilkS) (width 0.15))
  (fp_line (start -2.54 -0.762) (end -2.032 -0.762) (layer F.SilkS) (width 0.15))
  (fp_line (start -2.032 -0.762) (end -2.032 0.508) (layer F.SilkS) (width 0.15))
  (fp_line (start -2.032 0.508) (end -2.54 0.508) (layer F.SilkS) (width 0.15))
  (pad 8 smd oval (at -1.905 -3.175) (size 1.008 1.143) (layers F.Cu F.Paste F.Mask))
  (pad 7 smd oval (at -0.635 -3.175) (size 1.008 1.143) (layers F.Cu F.Paste F.Mask))
  (pad 6 smd oval (at 0.635 -3.175) (size 1.008 1.143) (layers F.Cu F.Paste F.Mask))
  (pad 5 smd oval (at 1.905 -3.175) (size 1.008 1.143) (layers F.Cu F.Paste F.Mask))
  (pad 4 smd oval (at 1.905 3.175) (size 1.008 1.143) (layers F.Cu F.Paste F.Mask))
  (pad 3 smd oval (at 0.635 3.175) (size 1.008 1.143) (layers F.Cu F.Paste F.Mask))
  (pad 2 smd oval (at -0.635 3.175) (size 1.008 1.143) (layers F.Cu F.Paste F.Mask))
  (pad 1 smd oval (at -1.905 3.175) (size 1.008 1.143) (layers F.Cu F.Paste F.Mask))
  (model SMD_Packages.3dshapes/SOIC-8-N.wrl
    (at (xyz 0 0 0))
    (scale (xyz 0.5 0.38 0.5))
    (rotate (xyz 0 0 0))
  )
)
