(kicad_pcb (version 4) (host pcbnew 4.0.7)

  (general
    (links 68)
    (no_connects 0)
    (area 9.374287 166.094999 273.28 217.076001)
    (thickness 1.6)
    (drawings 37)
    (tracks 250)
    (zones 0)
    (modules 30)
    (nets 21)
  )

  (page A2)
  (layers
    (0 F.Cu signal)
    (31 B.Cu signal)
    (32 B.Adhes user)
    (33 F.Adhes user)
    (34 B.Paste user)
    (35 F.Paste user)
    (36 B.SilkS user)
    (37 F.SilkS user)
    (38 B.Mask user)
    (39 F.Mask user)
    (40 Dwgs.User user)
    (41 Cmts.User user)
    (42 Eco1.User user)
    (43 Eco2.User user)
    (44 Edge.Cuts user)
    (45 Margin user)
    (46 B.CrtYd user)
    (47 F.CrtYd user)
    (48 B.Fab user)
    (49 F.Fab user)
  )

  (setup
    (last_trace_width 0.25)
    (trace_clearance 0.2)
    (zone_clearance 0.508)
    (zone_45_only no)
    (trace_min 0.2)
    (segment_width 0.2)
    (edge_width 0.15)
    (via_size 0.6)
    (via_drill 0.4)
    (via_min_size 0.4)
    (via_min_drill 0.3)
    (uvia_size 0.3)
    (uvia_drill 0.1)
    (uvias_allowed no)
    (uvia_min_size 0.2)
    (uvia_min_drill 0.1)
    (pcb_text_width 0.3)
    (pcb_text_size 1.5 1.5)
    (mod_edge_width 0.15)
    (mod_text_size 1 1)
    (mod_text_width 0.15)
    (pad_size 1.524 2.54)
    (pad_drill 0.9)
    (pad_to_mask_clearance 0.2)
    (aux_axis_origin 0 0)
    (visible_elements 7FFFFFFF)
    (pcbplotparams
      (layerselection 0x01030_80000001)
      (usegerberextensions false)
      (excludeedgelayer true)
      (linewidth 0.100000)
      (plotframeref false)
      (viasonmask false)
      (mode 1)
      (useauxorigin false)
      (hpglpennumber 1)
      (hpglpenspeed 20)
      (hpglpendiameter 15)
      (hpglpenoverlay 2)
      (psnegative false)
      (psa4output false)
      (plotreference true)
      (plotvalue true)
      (plotinvisibletext false)
      (padsonsilk false)
      (subtractmaskfromsilk false)
      (outputformat 1)
      (mirror false)
      (drillshape 0)
      (scaleselection 1)
      (outputdirectory ./))
  )

  (net 0 "")
  (net 1 "Net-(J1-Pad1)")
  (net 2 "Net-(J1-Pad2)")
  (net 3 "Net-(J1-Pad3)")
  (net 4 "Net-(J1-Pad4)")
  (net 5 "Net-(R1-Pad1)")
  (net 6 "Net-(R3-Pad1)")
  (net 7 "Net-(R5-Pad1)")
  (net 8 "Net-(R7-Pad1)")
  (net 9 "Net-(R10-Pad2)")
  (net 10 "Net-(R11-Pad1)")
  (net 11 "Net-(R13-Pad1)")
  (net 12 "Net-(R15-Pad1)")
  (net 13 "Net-(R17-Pad1)")
  (net 14 "Net-(R19-Pad1)")
  (net 15 "Net-(R21-Pad1)")
  (net 16 "Net-(R23-Pad1)")
  (net 17 "Net-(U1-Pad3)")
  (net 18 "Net-(U2-Pad3)")
  (net 19 "Net-(U3-Pad3)")
  (net 20 "Net-(U4-Pad3)")

  (net_class Default "Dies ist die voreingestellte Netzklasse."
    (clearance 0.2)
    (trace_width 0.25)
    (via_dia 0.6)
    (via_drill 0.4)
    (uvia_dia 0.3)
    (uvia_drill 0.1)
    (add_net "Net-(J1-Pad1)")
    (add_net "Net-(J1-Pad2)")
    (add_net "Net-(J1-Pad3)")
    (add_net "Net-(J1-Pad4)")
    (add_net "Net-(R1-Pad1)")
    (add_net "Net-(R10-Pad2)")
    (add_net "Net-(R11-Pad1)")
    (add_net "Net-(R13-Pad1)")
    (add_net "Net-(R15-Pad1)")
    (add_net "Net-(R17-Pad1)")
    (add_net "Net-(R19-Pad1)")
    (add_net "Net-(R21-Pad1)")
    (add_net "Net-(R23-Pad1)")
    (add_net "Net-(R3-Pad1)")
    (add_net "Net-(R5-Pad1)")
    (add_net "Net-(R7-Pad1)")
    (add_net "Net-(U1-Pad3)")
    (add_net "Net-(U2-Pad3)")
    (add_net "Net-(U3-Pad3)")
    (add_net "Net-(U4-Pad3)")
  )

  (module .pretty:Connector1x4pin (layer F.Cu) (tedit 5BFBEE9C) (tstamp 5BFBE8A5)
    (at 21.8 167.64 270)
    (path /5BF7D215)
    (fp_text reference J1 (at 3.81 2.54 270) (layer F.SilkS)
      (effects (font (size 0.5 0.5) (thickness 0.125)))
    )
    (fp_text value conn_left (at 3.81 -2.54 270) (layer F.Fab)
      (effects (font (size 0.5 0.5) (thickness 0.125)))
    )
    (fp_line (start -1.27 -1.27) (end -1.27 1.27) (layer F.SilkS) (width 0.15))
    (fp_line (start -1.27 1.27) (end 8.89 1.27) (layer F.SilkS) (width 0.15))
    (fp_line (start 8.89 1.27) (end 8.89 -1.27) (layer F.SilkS) (width 0.15))
    (fp_line (start 8.89 -1.27) (end -1.27 -1.27) (layer F.SilkS) (width 0.15))
    (pad 1 thru_hole trapezoid (at 0 0 270) (size 1.524 2.54) (drill 0.9) (layers *.Cu *.Mask)
      (net 1 "Net-(J1-Pad1)"))
    (pad 2 thru_hole trapezoid (at 2.54 0 270) (size 1.524 2.54) (drill 0.9) (layers *.Cu *.Mask)
      (net 2 "Net-(J1-Pad2)"))
    (pad 3 thru_hole trapezoid (at 5.08 0 270) (size 1.524 2.54) (drill 0.9) (layers *.Cu *.Mask)
      (net 3 "Net-(J1-Pad3)"))
    (pad 4 thru_hole trapezoid (at 7.62 0 270) (size 1.524 2.54) (drill 0.9) (layers *.Cu *.Mask)
      (net 4 "Net-(J1-Pad4)"))
  )

  (module SMD_Packages:SOIC-8-N (layer F.Cu) (tedit 5BFBEF5D) (tstamp 5BF7E7A6)
    (at 50.8 171.45 270)
    (descr "Module Narrow CMS SOJ 8 pins large")
    (tags "CMS SOJ")
    (path /5BF7D214)
    (attr smd)
    (fp_text reference U1 (at 0 -1.27 270) (layer F.SilkS)
      (effects (font (size 1 1) (thickness 0.15)))
    )
    (fp_text value NXP_PCT2075 (at -3.4 0 360) (layer F.Fab)
      (effects (font (size 1 1) (thickness 0.15)))
    )
    (fp_line (start -2.54 -2.286) (end 2.54 -2.286) (layer F.SilkS) (width 0.15))
    (fp_line (start 2.54 -2.286) (end 2.54 2.286) (layer F.SilkS) (width 0.15))
    (fp_line (start 2.54 2.286) (end -2.54 2.286) (layer F.SilkS) (width 0.15))
    (fp_line (start -2.54 2.286) (end -2.54 -2.286) (layer F.SilkS) (width 0.15))
    (fp_line (start -2.54 -0.762) (end -2.032 -0.762) (layer F.SilkS) (width 0.15))
    (fp_line (start -2.032 -0.762) (end -2.032 0.508) (layer F.SilkS) (width 0.15))
    (fp_line (start -2.032 0.508) (end -2.54 0.508) (layer F.SilkS) (width 0.15))
    (pad 8 smd rect (at -1.905 -3.175 270) (size 0.508 1.143) (layers F.Cu F.Paste F.Mask)
      (net 1 "Net-(J1-Pad1)"))
    (pad 7 smd rect (at -0.635 -3.175 270) (size 0.508 1.143) (layers F.Cu F.Paste F.Mask)
      (net 5 "Net-(R1-Pad1)"))
    (pad 6 smd rect (at 0.635 -3.175 270) (size 0.508 1.143) (layers F.Cu F.Paste F.Mask)
      (net 6 "Net-(R3-Pad1)"))
    (pad 5 smd rect (at 1.905 -3.175 270) (size 0.508 1.143) (layers F.Cu F.Paste F.Mask)
      (net 7 "Net-(R5-Pad1)"))
    (pad 4 smd rect (at 1.905 3.175 270) (size 0.508 1.143) (layers F.Cu F.Paste F.Mask)
      (net 4 "Net-(J1-Pad4)"))
    (pad 3 smd rect (at 0.635 3.175 270) (size 0.508 1.143) (layers F.Cu F.Paste F.Mask)
      (net 17 "Net-(U1-Pad3)"))
    (pad 2 smd rect (at -0.635 3.175 270) (size 0.508 1.143) (layers F.Cu F.Paste F.Mask)
      (net 3 "Net-(J1-Pad3)"))
    (pad 1 smd rect (at -1.905 3.175 270) (size 0.508 1.143) (layers F.Cu F.Paste F.Mask)
      (net 2 "Net-(J1-Pad2)"))
    (model SMD_Packages.3dshapes/SOIC-8-N.wrl
      (at (xyz 0 0 0))
      (scale (xyz 0.5 0.38 0.5))
      (rotate (xyz 0 0 0))
    )
  )

  (module SMD_Packages:SOIC-8-N (layer F.Cu) (tedit 5BFBEF52) (tstamp 5BF7E7B2)
    (at 108.8 171.405 270)
    (descr "Module Narrow CMS SOJ 8 pins large")
    (tags "CMS SOJ")
    (path /5BF7E2B1)
    (attr smd)
    (fp_text reference U2 (at 0 -1.27 270) (layer F.SilkS)
      (effects (font (size 1 1) (thickness 0.15)))
    )
    (fp_text value NXP_PCT2075 (at -3.4 0 360) (layer F.Fab)
      (effects (font (size 1 1) (thickness 0.15)))
    )
    (fp_line (start -2.54 -2.286) (end 2.54 -2.286) (layer F.SilkS) (width 0.15))
    (fp_line (start 2.54 -2.286) (end 2.54 2.286) (layer F.SilkS) (width 0.15))
    (fp_line (start 2.54 2.286) (end -2.54 2.286) (layer F.SilkS) (width 0.15))
    (fp_line (start -2.54 2.286) (end -2.54 -2.286) (layer F.SilkS) (width 0.15))
    (fp_line (start -2.54 -0.762) (end -2.032 -0.762) (layer F.SilkS) (width 0.15))
    (fp_line (start -2.032 -0.762) (end -2.032 0.508) (layer F.SilkS) (width 0.15))
    (fp_line (start -2.032 0.508) (end -2.54 0.508) (layer F.SilkS) (width 0.15))
    (pad 8 smd rect (at -1.905 -3.175 270) (size 0.508 1.143) (layers F.Cu F.Paste F.Mask)
      (net 1 "Net-(J1-Pad1)"))
    (pad 7 smd rect (at -0.635 -3.175 270) (size 0.508 1.143) (layers F.Cu F.Paste F.Mask)
      (net 8 "Net-(R7-Pad1)"))
    (pad 6 smd rect (at 0.635 -3.175 270) (size 0.508 1.143) (layers F.Cu F.Paste F.Mask)
      (net 9 "Net-(R10-Pad2)"))
    (pad 5 smd rect (at 1.905 -3.175 270) (size 0.508 1.143) (layers F.Cu F.Paste F.Mask)
      (net 10 "Net-(R11-Pad1)"))
    (pad 4 smd rect (at 1.905 3.175 270) (size 0.508 1.143) (layers F.Cu F.Paste F.Mask)
      (net 4 "Net-(J1-Pad4)"))
    (pad 3 smd rect (at 0.635 3.175 270) (size 0.508 1.143) (layers F.Cu F.Paste F.Mask)
      (net 18 "Net-(U2-Pad3)"))
    (pad 2 smd rect (at -0.635 3.175 270) (size 0.508 1.143) (layers F.Cu F.Paste F.Mask)
      (net 3 "Net-(J1-Pad3)"))
    (pad 1 smd rect (at -1.905 3.175 270) (size 0.508 1.143) (layers F.Cu F.Paste F.Mask)
      (net 2 "Net-(J1-Pad2)"))
    (model SMD_Packages.3dshapes/SOIC-8-N.wrl
      (at (xyz 0 0 0))
      (scale (xyz 0.5 0.38 0.5))
      (rotate (xyz 0 0 0))
    )
  )

  (module SMD_Packages:SOIC-8-N (layer F.Cu) (tedit 5BFBEF46) (tstamp 5BF7E7BE)
    (at 166.8 171.45 270)
    (descr "Module Narrow CMS SOJ 8 pins large")
    (tags "CMS SOJ")
    (path /5BF7E996)
    (attr smd)
    (fp_text reference U3 (at 0 -1.27 270) (layer F.SilkS)
      (effects (font (size 1 1) (thickness 0.15)))
    )
    (fp_text value NXP_PCT2075 (at -3.4 0 360) (layer F.Fab)
      (effects (font (size 1 1) (thickness 0.15)))
    )
    (fp_line (start -2.54 -2.286) (end 2.54 -2.286) (layer F.SilkS) (width 0.15))
    (fp_line (start 2.54 -2.286) (end 2.54 2.286) (layer F.SilkS) (width 0.15))
    (fp_line (start 2.54 2.286) (end -2.54 2.286) (layer F.SilkS) (width 0.15))
    (fp_line (start -2.54 2.286) (end -2.54 -2.286) (layer F.SilkS) (width 0.15))
    (fp_line (start -2.54 -0.762) (end -2.032 -0.762) (layer F.SilkS) (width 0.15))
    (fp_line (start -2.032 -0.762) (end -2.032 0.508) (layer F.SilkS) (width 0.15))
    (fp_line (start -2.032 0.508) (end -2.54 0.508) (layer F.SilkS) (width 0.15))
    (pad 8 smd rect (at -1.905 -3.175 270) (size 0.508 1.143) (layers F.Cu F.Paste F.Mask)
      (net 1 "Net-(J1-Pad1)"))
    (pad 7 smd rect (at -0.635 -3.175 270) (size 0.508 1.143) (layers F.Cu F.Paste F.Mask)
      (net 11 "Net-(R13-Pad1)"))
    (pad 6 smd rect (at 0.635 -3.175 270) (size 0.508 1.143) (layers F.Cu F.Paste F.Mask)
      (net 12 "Net-(R15-Pad1)"))
    (pad 5 smd rect (at 1.905 -3.175 270) (size 0.508 1.143) (layers F.Cu F.Paste F.Mask)
      (net 13 "Net-(R17-Pad1)"))
    (pad 4 smd rect (at 1.905 3.175 270) (size 0.508 1.143) (layers F.Cu F.Paste F.Mask)
      (net 4 "Net-(J1-Pad4)"))
    (pad 3 smd rect (at 0.635 3.175 270) (size 0.508 1.143) (layers F.Cu F.Paste F.Mask)
      (net 19 "Net-(U3-Pad3)"))
    (pad 2 smd rect (at -0.635 3.175 270) (size 0.508 1.143) (layers F.Cu F.Paste F.Mask)
      (net 3 "Net-(J1-Pad3)"))
    (pad 1 smd rect (at -1.905 3.175 270) (size 0.508 1.143) (layers F.Cu F.Paste F.Mask)
      (net 2 "Net-(J1-Pad2)"))
    (model SMD_Packages.3dshapes/SOIC-8-N.wrl
      (at (xyz 0 0 0))
      (scale (xyz 0.5 0.38 0.5))
      (rotate (xyz 0 0 0))
    )
  )

  (module SMD_Packages:SOIC-8-N (layer F.Cu) (tedit 5BFBEF6B) (tstamp 5BF7E7CA)
    (at 224.8 171.45 270)
    (descr "Module Narrow CMS SOJ 8 pins large")
    (tags "CMS SOJ")
    (path /5BF80E7C)
    (attr smd)
    (fp_text reference U4 (at 0 -1.27 270) (layer F.SilkS)
      (effects (font (size 1 1) (thickness 0.15)))
    )
    (fp_text value NXP_PCT2075 (at -3.4 0 360) (layer F.Fab)
      (effects (font (size 1 1) (thickness 0.15)))
    )
    (fp_line (start -2.54 -2.286) (end 2.54 -2.286) (layer F.SilkS) (width 0.15))
    (fp_line (start 2.54 -2.286) (end 2.54 2.286) (layer F.SilkS) (width 0.15))
    (fp_line (start 2.54 2.286) (end -2.54 2.286) (layer F.SilkS) (width 0.15))
    (fp_line (start -2.54 2.286) (end -2.54 -2.286) (layer F.SilkS) (width 0.15))
    (fp_line (start -2.54 -0.762) (end -2.032 -0.762) (layer F.SilkS) (width 0.15))
    (fp_line (start -2.032 -0.762) (end -2.032 0.508) (layer F.SilkS) (width 0.15))
    (fp_line (start -2.032 0.508) (end -2.54 0.508) (layer F.SilkS) (width 0.15))
    (pad 8 smd rect (at -1.905 -3.175 270) (size 0.508 1.143) (layers F.Cu F.Paste F.Mask)
      (net 1 "Net-(J1-Pad1)"))
    (pad 7 smd rect (at -0.635 -3.175 270) (size 0.508 1.143) (layers F.Cu F.Paste F.Mask)
      (net 14 "Net-(R19-Pad1)"))
    (pad 6 smd rect (at 0.635 -3.175 270) (size 0.508 1.143) (layers F.Cu F.Paste F.Mask)
      (net 15 "Net-(R21-Pad1)"))
    (pad 5 smd rect (at 1.905 -3.175 270) (size 0.508 1.143) (layers F.Cu F.Paste F.Mask)
      (net 16 "Net-(R23-Pad1)"))
    (pad 4 smd rect (at 1.905 3.175 270) (size 0.508 1.143) (layers F.Cu F.Paste F.Mask)
      (net 4 "Net-(J1-Pad4)"))
    (pad 3 smd rect (at 0.635 3.175 270) (size 0.508 1.143) (layers F.Cu F.Paste F.Mask)
      (net 20 "Net-(U4-Pad3)"))
    (pad 2 smd rect (at -0.635 3.175 270) (size 0.508 1.143) (layers F.Cu F.Paste F.Mask)
      (net 3 "Net-(J1-Pad3)"))
    (pad 1 smd rect (at -1.905 3.175 270) (size 0.508 1.143) (layers F.Cu F.Paste F.Mask)
      (net 2 "Net-(J1-Pad2)"))
    (model SMD_Packages.3dshapes/SOIC-8-N.wrl
      (at (xyz 0 0 0))
      (scale (xyz 0.5 0.38 0.5))
      (rotate (xyz 0 0 0))
    )
  )

  (module .pretty:Connector1x4pin (layer F.Cu) (tedit 5BFBF980) (tstamp 5BFBEB1A)
    (at 253.8 167.64 270)
    (path /5BF80EC8)
    (fp_text reference J2 (at 3.88 -2 270) (layer F.SilkS)
      (effects (font (size 0.5 0.5) (thickness 0.125)))
    )
    (fp_text value conn_right (at 3.81 -2.54 270) (layer F.Fab)
      (effects (font (size 0.5 0.5) (thickness 0.125)))
    )
    (fp_line (start -1.27 -1.27) (end -1.27 1.27) (layer F.SilkS) (width 0.15))
    (fp_line (start -1.27 1.27) (end 8.89 1.27) (layer F.SilkS) (width 0.15))
    (fp_line (start 8.89 1.27) (end 8.89 -1.27) (layer F.SilkS) (width 0.15))
    (fp_line (start 8.89 -1.27) (end -1.27 -1.27) (layer F.SilkS) (width 0.15))
    (pad 1 thru_hole trapezoid (at 0 0 270) (size 1.524 2.54) (drill oval 0.9) (layers *.Cu *.Mask)
      (net 1 "Net-(J1-Pad1)"))
    (pad 2 thru_hole trapezoid (at 2.54 0 270) (size 1.27 2.54) (drill 0.9) (layers *.Cu *.Mask)
      (net 2 "Net-(J1-Pad2)"))
    (pad 3 thru_hole trapezoid (at 5.08 0 270) (size 1.524 2.54) (drill 0.9) (layers *.Cu *.Mask)
      (net 3 "Net-(J1-Pad3)"))
    (pad 4 thru_hole trapezoid (at 7.62 0 270) (size 1.524 2.54) (drill 0.9) (layers *.Cu *.Mask)
      (net 4 "Net-(J1-Pad4)"))
  )

  (module .pretty:R_0805_circuit_breaker (layer F.Cu) (tedit 5BFC231D) (tstamp 5BFC2653)
    (at 58.42 168.91 180)
    (descr "Resistor SMD 0805, reflow soldering, Vishay (see dcrcw.pdf)")
    (tags "resistor 0805")
    (path /5BF7D219)
    (attr smd)
    (fp_text reference R1 (at -3.81 0 180) (layer F.SilkS)
      (effects (font (size 1 1) (thickness 0.15)))
    )
    (fp_text value R (at 0 1.75 180) (layer F.Fab)
      (effects (font (size 1 1) (thickness 0.15)))
    )
    (fp_text user %R (at 0 0 180) (layer F.Fab)
      (effects (font (size 0.5 0.5) (thickness 0.075)))
    )
    (fp_line (start -1 0.62) (end -1 -0.62) (layer F.Fab) (width 0.1))
    (fp_line (start 1 0.62) (end -1 0.62) (layer F.Fab) (width 0.1))
    (fp_line (start 1 -0.62) (end 1 0.62) (layer F.Fab) (width 0.1))
    (fp_line (start -1 -0.62) (end 1 -0.62) (layer F.Fab) (width 0.1))
    (fp_line (start 0.6 0.88) (end -0.6 0.88) (layer F.SilkS) (width 0.12))
    (fp_line (start -0.6 -0.88) (end 0.6 -0.88) (layer F.SilkS) (width 0.12))
    (fp_line (start -1.55 -0.9) (end 1.55 -0.9) (layer F.CrtYd) (width 0.05))
    (fp_line (start -1.55 -0.9) (end -1.55 0.9) (layer F.CrtYd) (width 0.05))
    (fp_line (start 1.55 0.9) (end 1.55 -0.9) (layer F.CrtYd) (width 0.05))
    (fp_line (start 1.55 0.9) (end -1.55 0.9) (layer F.CrtYd) (width 0.05))
    (pad 1 smd rect (at -0.7 0 180) (size 1.2 1.3) (layers F.Cu F.Paste F.Mask)
      (net 5 "Net-(R1-Pad1)"))
    (pad 2 smd rect (at 0.7 0 180) (size 1.2 1.3) (layers F.Cu F.Paste F.Mask)
      (net 1 "Net-(J1-Pad1)"))
    (model ${KISYS3DMOD}/Resistors_SMD.3dshapes/R_0805.wrl
      (at (xyz 0 0 0))
      (scale (xyz 1 1 1))
      (rotate (xyz 0 0 0))
    )
  )

  (module .pretty:R_0805_circuit_breaker (layer F.Cu) (tedit 5BFC231D) (tstamp 5BFC22B2)
    (at 58.42 171.45 180)
    (descr "Resistor SMD 0805, reflow soldering, Vishay (see dcrcw.pdf)")
    (tags "resistor 0805")
    (path /5BF7D21B)
    (attr smd)
    (fp_text reference R3 (at -3.81 0 180) (layer F.SilkS)
      (effects (font (size 1 1) (thickness 0.15)))
    )
    (fp_text value R (at 0 1.75 180) (layer F.Fab)
      (effects (font (size 1 1) (thickness 0.15)))
    )
    (fp_text user %R (at 0 0 180) (layer F.Fab)
      (effects (font (size 0.5 0.5) (thickness 0.075)))
    )
    (fp_line (start -1 0.62) (end -1 -0.62) (layer F.Fab) (width 0.1))
    (fp_line (start 1 0.62) (end -1 0.62) (layer F.Fab) (width 0.1))
    (fp_line (start 1 -0.62) (end 1 0.62) (layer F.Fab) (width 0.1))
    (fp_line (start -1 -0.62) (end 1 -0.62) (layer F.Fab) (width 0.1))
    (fp_line (start 0.6 0.88) (end -0.6 0.88) (layer F.SilkS) (width 0.12))
    (fp_line (start -0.6 -0.88) (end 0.6 -0.88) (layer F.SilkS) (width 0.12))
    (fp_line (start -1.55 -0.9) (end 1.55 -0.9) (layer F.CrtYd) (width 0.05))
    (fp_line (start -1.55 -0.9) (end -1.55 0.9) (layer F.CrtYd) (width 0.05))
    (fp_line (start 1.55 0.9) (end 1.55 -0.9) (layer F.CrtYd) (width 0.05))
    (fp_line (start 1.55 0.9) (end -1.55 0.9) (layer F.CrtYd) (width 0.05))
    (pad 1 smd rect (at -0.7 0 180) (size 1.2 1.3) (layers F.Cu F.Paste F.Mask)
      (net 6 "Net-(R3-Pad1)"))
    (pad 2 smd rect (at 0.7 0 180) (size 1.2 1.3) (layers F.Cu F.Paste F.Mask)
      (net 1 "Net-(J1-Pad1)"))
    (model ${KISYS3DMOD}/Resistors_SMD.3dshapes/R_0805.wrl
      (at (xyz 0 0 0))
      (scale (xyz 1 1 1))
      (rotate (xyz 0 0 0))
    )
  )

  (module .pretty:R_0805_circuit_breaker (layer F.Cu) (tedit 5BFC231D) (tstamp 5BFC22D2)
    (at 58.42 173.99 180)
    (descr "Resistor SMD 0805, reflow soldering, Vishay (see dcrcw.pdf)")
    (tags "resistor 0805")
    (path /5BF7D21A)
    (attr smd)
    (fp_text reference R5 (at -3.81 0 180) (layer F.SilkS)
      (effects (font (size 1 1) (thickness 0.15)))
    )
    (fp_text value R (at 0 1.75 180) (layer F.Fab)
      (effects (font (size 1 1) (thickness 0.15)))
    )
    (fp_text user %R (at 0 0 180) (layer F.Fab)
      (effects (font (size 0.5 0.5) (thickness 0.075)))
    )
    (fp_line (start -1 0.62) (end -1 -0.62) (layer F.Fab) (width 0.1))
    (fp_line (start 1 0.62) (end -1 0.62) (layer F.Fab) (width 0.1))
    (fp_line (start 1 -0.62) (end 1 0.62) (layer F.Fab) (width 0.1))
    (fp_line (start -1 -0.62) (end 1 -0.62) (layer F.Fab) (width 0.1))
    (fp_line (start 0.6 0.88) (end -0.6 0.88) (layer F.SilkS) (width 0.12))
    (fp_line (start -0.6 -0.88) (end 0.6 -0.88) (layer F.SilkS) (width 0.12))
    (fp_line (start -1.55 -0.9) (end 1.55 -0.9) (layer F.CrtYd) (width 0.05))
    (fp_line (start -1.55 -0.9) (end -1.55 0.9) (layer F.CrtYd) (width 0.05))
    (fp_line (start 1.55 0.9) (end 1.55 -0.9) (layer F.CrtYd) (width 0.05))
    (fp_line (start 1.55 0.9) (end -1.55 0.9) (layer F.CrtYd) (width 0.05))
    (pad 1 smd rect (at -0.7 0 180) (size 1.2 1.3) (layers F.Cu F.Paste F.Mask)
      (net 7 "Net-(R5-Pad1)"))
    (pad 2 smd rect (at 0.7 0 180) (size 1.2 1.3) (layers F.Cu F.Paste F.Mask)
      (net 1 "Net-(J1-Pad1)"))
    (model ${KISYS3DMOD}/Resistors_SMD.3dshapes/R_0805.wrl
      (at (xyz 0 0 0))
      (scale (xyz 1 1 1))
      (rotate (xyz 0 0 0))
    )
  )

  (module .pretty:R_0805_circuit_breaker (layer F.Cu) (tedit 5BFC231D) (tstamp 5BFC22A2)
    (at 66.04 168.91 180)
    (descr "Resistor SMD 0805, reflow soldering, Vishay (see dcrcw.pdf)")
    (tags "resistor 0805")
    (path /5BF7D216)
    (attr smd)
    (fp_text reference R2 (at -3.81 0 180) (layer F.SilkS)
      (effects (font (size 1 1) (thickness 0.15)))
    )
    (fp_text value R (at 0 1.75 180) (layer F.Fab)
      (effects (font (size 1 1) (thickness 0.15)))
    )
    (fp_text user %R (at 0 0 180) (layer F.Fab)
      (effects (font (size 0.5 0.5) (thickness 0.075)))
    )
    (fp_line (start -1 0.62) (end -1 -0.62) (layer F.Fab) (width 0.1))
    (fp_line (start 1 0.62) (end -1 0.62) (layer F.Fab) (width 0.1))
    (fp_line (start 1 -0.62) (end 1 0.62) (layer F.Fab) (width 0.1))
    (fp_line (start -1 -0.62) (end 1 -0.62) (layer F.Fab) (width 0.1))
    (fp_line (start 0.6 0.88) (end -0.6 0.88) (layer F.SilkS) (width 0.12))
    (fp_line (start -0.6 -0.88) (end 0.6 -0.88) (layer F.SilkS) (width 0.12))
    (fp_line (start -1.55 -0.9) (end 1.55 -0.9) (layer F.CrtYd) (width 0.05))
    (fp_line (start -1.55 -0.9) (end -1.55 0.9) (layer F.CrtYd) (width 0.05))
    (fp_line (start 1.55 0.9) (end 1.55 -0.9) (layer F.CrtYd) (width 0.05))
    (fp_line (start 1.55 0.9) (end -1.55 0.9) (layer F.CrtYd) (width 0.05))
    (pad 1 smd rect (at -0.7 0 180) (size 1.2 1.3) (layers F.Cu F.Paste F.Mask)
      (net 4 "Net-(J1-Pad4)"))
    (pad 2 smd rect (at 0.7 0 180) (size 1.2 1.3) (layers F.Cu F.Paste F.Mask)
      (net 5 "Net-(R1-Pad1)"))
    (model ${KISYS3DMOD}/Resistors_SMD.3dshapes/R_0805.wrl
      (at (xyz 0 0 0))
      (scale (xyz 1 1 1))
      (rotate (xyz 0 0 0))
    )
  )

  (module .pretty:R_0805_circuit_breaker (layer F.Cu) (tedit 5BFC231D) (tstamp 5BFC22C2)
    (at 66.04 171.45 180)
    (descr "Resistor SMD 0805, reflow soldering, Vishay (see dcrcw.pdf)")
    (tags "resistor 0805")
    (path /5BF7D218)
    (attr smd)
    (fp_text reference R4 (at -3.81 0 180) (layer F.SilkS)
      (effects (font (size 1 1) (thickness 0.15)))
    )
    (fp_text value R (at 0 1.75 180) (layer F.Fab)
      (effects (font (size 1 1) (thickness 0.15)))
    )
    (fp_text user %R (at 0 0 180) (layer F.Fab)
      (effects (font (size 0.5 0.5) (thickness 0.075)))
    )
    (fp_line (start -1 0.62) (end -1 -0.62) (layer F.Fab) (width 0.1))
    (fp_line (start 1 0.62) (end -1 0.62) (layer F.Fab) (width 0.1))
    (fp_line (start 1 -0.62) (end 1 0.62) (layer F.Fab) (width 0.1))
    (fp_line (start -1 -0.62) (end 1 -0.62) (layer F.Fab) (width 0.1))
    (fp_line (start 0.6 0.88) (end -0.6 0.88) (layer F.SilkS) (width 0.12))
    (fp_line (start -0.6 -0.88) (end 0.6 -0.88) (layer F.SilkS) (width 0.12))
    (fp_line (start -1.55 -0.9) (end 1.55 -0.9) (layer F.CrtYd) (width 0.05))
    (fp_line (start -1.55 -0.9) (end -1.55 0.9) (layer F.CrtYd) (width 0.05))
    (fp_line (start 1.55 0.9) (end 1.55 -0.9) (layer F.CrtYd) (width 0.05))
    (fp_line (start 1.55 0.9) (end -1.55 0.9) (layer F.CrtYd) (width 0.05))
    (pad 1 smd rect (at -0.7 0 180) (size 1.2 1.3) (layers F.Cu F.Paste F.Mask)
      (net 4 "Net-(J1-Pad4)"))
    (pad 2 smd rect (at 0.7 0 180) (size 1.2 1.3) (layers F.Cu F.Paste F.Mask)
      (net 6 "Net-(R3-Pad1)"))
    (model ${KISYS3DMOD}/Resistors_SMD.3dshapes/R_0805.wrl
      (at (xyz 0 0 0))
      (scale (xyz 1 1 1))
      (rotate (xyz 0 0 0))
    )
  )

  (module .pretty:R_0805_circuit_breaker (layer F.Cu) (tedit 5BFC231D) (tstamp 5BFC22E2)
    (at 66.04 173.99 180)
    (descr "Resistor SMD 0805, reflow soldering, Vishay (see dcrcw.pdf)")
    (tags "resistor 0805")
    (path /5BF7D217)
    (attr smd)
    (fp_text reference R6 (at -3.81 0 180) (layer F.SilkS)
      (effects (font (size 1 1) (thickness 0.15)))
    )
    (fp_text value R (at 0 1.75 180) (layer F.Fab)
      (effects (font (size 1 1) (thickness 0.15)))
    )
    (fp_text user %R (at 0 0 180) (layer F.Fab)
      (effects (font (size 0.5 0.5) (thickness 0.075)))
    )
    (fp_line (start -1 0.62) (end -1 -0.62) (layer F.Fab) (width 0.1))
    (fp_line (start 1 0.62) (end -1 0.62) (layer F.Fab) (width 0.1))
    (fp_line (start 1 -0.62) (end 1 0.62) (layer F.Fab) (width 0.1))
    (fp_line (start -1 -0.62) (end 1 -0.62) (layer F.Fab) (width 0.1))
    (fp_line (start 0.6 0.88) (end -0.6 0.88) (layer F.SilkS) (width 0.12))
    (fp_line (start -0.6 -0.88) (end 0.6 -0.88) (layer F.SilkS) (width 0.12))
    (fp_line (start -1.55 -0.9) (end 1.55 -0.9) (layer F.CrtYd) (width 0.05))
    (fp_line (start -1.55 -0.9) (end -1.55 0.9) (layer F.CrtYd) (width 0.05))
    (fp_line (start 1.55 0.9) (end 1.55 -0.9) (layer F.CrtYd) (width 0.05))
    (fp_line (start 1.55 0.9) (end -1.55 0.9) (layer F.CrtYd) (width 0.05))
    (pad 1 smd rect (at -0.7 0 180) (size 1.2 1.3) (layers F.Cu F.Paste F.Mask)
      (net 4 "Net-(J1-Pad4)"))
    (pad 2 smd rect (at 0.7 0 180) (size 1.2 1.3) (layers F.Cu F.Paste F.Mask)
      (net 7 "Net-(R5-Pad1)"))
    (model ${KISYS3DMOD}/Resistors_SMD.3dshapes/R_0805.wrl
      (at (xyz 0 0 0))
      (scale (xyz 1 1 1))
      (rotate (xyz 0 0 0))
    )
  )

  (module .pretty:R_0805_circuit_breaker (layer F.Cu) (tedit 5BFC231D) (tstamp 5BFC22F2)
    (at 116.205 168.91 180)
    (descr "Resistor SMD 0805, reflow soldering, Vishay (see dcrcw.pdf)")
    (tags "resistor 0805")
    (path /5BF7E2DC)
    (attr smd)
    (fp_text reference R7 (at -3.81 0 180) (layer F.SilkS)
      (effects (font (size 1 1) (thickness 0.15)))
    )
    (fp_text value R (at 0 1.75 180) (layer F.Fab)
      (effects (font (size 1 1) (thickness 0.15)))
    )
    (fp_text user %R (at 0 0 180) (layer F.Fab)
      (effects (font (size 0.5 0.5) (thickness 0.075)))
    )
    (fp_line (start -1 0.62) (end -1 -0.62) (layer F.Fab) (width 0.1))
    (fp_line (start 1 0.62) (end -1 0.62) (layer F.Fab) (width 0.1))
    (fp_line (start 1 -0.62) (end 1 0.62) (layer F.Fab) (width 0.1))
    (fp_line (start -1 -0.62) (end 1 -0.62) (layer F.Fab) (width 0.1))
    (fp_line (start 0.6 0.88) (end -0.6 0.88) (layer F.SilkS) (width 0.12))
    (fp_line (start -0.6 -0.88) (end 0.6 -0.88) (layer F.SilkS) (width 0.12))
    (fp_line (start -1.55 -0.9) (end 1.55 -0.9) (layer F.CrtYd) (width 0.05))
    (fp_line (start -1.55 -0.9) (end -1.55 0.9) (layer F.CrtYd) (width 0.05))
    (fp_line (start 1.55 0.9) (end 1.55 -0.9) (layer F.CrtYd) (width 0.05))
    (fp_line (start 1.55 0.9) (end -1.55 0.9) (layer F.CrtYd) (width 0.05))
    (pad 1 smd rect (at -0.7 0 180) (size 1.2 1.3) (layers F.Cu F.Paste F.Mask)
      (net 8 "Net-(R7-Pad1)"))
    (pad 2 smd rect (at 0.7 0 180) (size 1.2 1.3) (layers F.Cu F.Paste F.Mask)
      (net 1 "Net-(J1-Pad1)"))
    (model ${KISYS3DMOD}/Resistors_SMD.3dshapes/R_0805.wrl
      (at (xyz 0 0 0))
      (scale (xyz 1 1 1))
      (rotate (xyz 0 0 0))
    )
  )

  (module .pretty:R_0805_circuit_breaker (layer F.Cu) (tedit 5BFC231D) (tstamp 5BFC2312)
    (at 116.205 171.45 180)
    (descr "Resistor SMD 0805, reflow soldering, Vishay (see dcrcw.pdf)")
    (tags "resistor 0805")
    (path /5BF7E2E8)
    (attr smd)
    (fp_text reference R9 (at -3.81 0 180) (layer F.SilkS)
      (effects (font (size 1 1) (thickness 0.15)))
    )
    (fp_text value R (at 0 1.75 180) (layer F.Fab)
      (effects (font (size 1 1) (thickness 0.15)))
    )
    (fp_text user %R (at 0 0 180) (layer F.Fab)
      (effects (font (size 0.5 0.5) (thickness 0.075)))
    )
    (fp_line (start -1 0.62) (end -1 -0.62) (layer F.Fab) (width 0.1))
    (fp_line (start 1 0.62) (end -1 0.62) (layer F.Fab) (width 0.1))
    (fp_line (start 1 -0.62) (end 1 0.62) (layer F.Fab) (width 0.1))
    (fp_line (start -1 -0.62) (end 1 -0.62) (layer F.Fab) (width 0.1))
    (fp_line (start 0.6 0.88) (end -0.6 0.88) (layer F.SilkS) (width 0.12))
    (fp_line (start -0.6 -0.88) (end 0.6 -0.88) (layer F.SilkS) (width 0.12))
    (fp_line (start -1.55 -0.9) (end 1.55 -0.9) (layer F.CrtYd) (width 0.05))
    (fp_line (start -1.55 -0.9) (end -1.55 0.9) (layer F.CrtYd) (width 0.05))
    (fp_line (start 1.55 0.9) (end 1.55 -0.9) (layer F.CrtYd) (width 0.05))
    (fp_line (start 1.55 0.9) (end -1.55 0.9) (layer F.CrtYd) (width 0.05))
    (pad 1 smd rect (at -0.7 0 180) (size 1.2 1.3) (layers F.Cu F.Paste F.Mask)
      (net 9 "Net-(R10-Pad2)"))
    (pad 2 smd rect (at 0.7 0 180) (size 1.2 1.3) (layers F.Cu F.Paste F.Mask)
      (net 1 "Net-(J1-Pad1)"))
    (model ${KISYS3DMOD}/Resistors_SMD.3dshapes/R_0805.wrl
      (at (xyz 0 0 0))
      (scale (xyz 1 1 1))
      (rotate (xyz 0 0 0))
    )
  )

  (module .pretty:R_0805_circuit_breaker (layer F.Cu) (tedit 5BFC231D) (tstamp 5BFC2332)
    (at 116.205 173.99 180)
    (descr "Resistor SMD 0805, reflow soldering, Vishay (see dcrcw.pdf)")
    (tags "resistor 0805")
    (path /5BF7E2E2)
    (attr smd)
    (fp_text reference R11 (at -3.81 0 180) (layer F.SilkS)
      (effects (font (size 1 1) (thickness 0.15)))
    )
    (fp_text value R (at 0 1.75 180) (layer F.Fab)
      (effects (font (size 1 1) (thickness 0.15)))
    )
    (fp_text user %R (at 0 0 180) (layer F.Fab)
      (effects (font (size 0.5 0.5) (thickness 0.075)))
    )
    (fp_line (start -1 0.62) (end -1 -0.62) (layer F.Fab) (width 0.1))
    (fp_line (start 1 0.62) (end -1 0.62) (layer F.Fab) (width 0.1))
    (fp_line (start 1 -0.62) (end 1 0.62) (layer F.Fab) (width 0.1))
    (fp_line (start -1 -0.62) (end 1 -0.62) (layer F.Fab) (width 0.1))
    (fp_line (start 0.6 0.88) (end -0.6 0.88) (layer F.SilkS) (width 0.12))
    (fp_line (start -0.6 -0.88) (end 0.6 -0.88) (layer F.SilkS) (width 0.12))
    (fp_line (start -1.55 -0.9) (end 1.55 -0.9) (layer F.CrtYd) (width 0.05))
    (fp_line (start -1.55 -0.9) (end -1.55 0.9) (layer F.CrtYd) (width 0.05))
    (fp_line (start 1.55 0.9) (end 1.55 -0.9) (layer F.CrtYd) (width 0.05))
    (fp_line (start 1.55 0.9) (end -1.55 0.9) (layer F.CrtYd) (width 0.05))
    (pad 1 smd rect (at -0.7 0 180) (size 1.2 1.3) (layers F.Cu F.Paste F.Mask)
      (net 10 "Net-(R11-Pad1)"))
    (pad 2 smd rect (at 0.7 0 180) (size 1.2 1.3) (layers F.Cu F.Paste F.Mask)
      (net 1 "Net-(J1-Pad1)"))
    (model ${KISYS3DMOD}/Resistors_SMD.3dshapes/R_0805.wrl
      (at (xyz 0 0 0))
      (scale (xyz 1 1 1))
      (rotate (xyz 0 0 0))
    )
  )

  (module .pretty:R_0805_circuit_breaker (layer F.Cu) (tedit 5BFC231D) (tstamp 5BFC2302)
    (at 123.19 168.91 180)
    (descr "Resistor SMD 0805, reflow soldering, Vishay (see dcrcw.pdf)")
    (tags "resistor 0805")
    (path /5BF7E2BD)
    (attr smd)
    (fp_text reference R8 (at -3.81 0 180) (layer F.SilkS)
      (effects (font (size 1 1) (thickness 0.15)))
    )
    (fp_text value R (at 0 1.75 180) (layer F.Fab)
      (effects (font (size 1 1) (thickness 0.15)))
    )
    (fp_text user %R (at 0 0 180) (layer F.Fab)
      (effects (font (size 0.5 0.5) (thickness 0.075)))
    )
    (fp_line (start -1 0.62) (end -1 -0.62) (layer F.Fab) (width 0.1))
    (fp_line (start 1 0.62) (end -1 0.62) (layer F.Fab) (width 0.1))
    (fp_line (start 1 -0.62) (end 1 0.62) (layer F.Fab) (width 0.1))
    (fp_line (start -1 -0.62) (end 1 -0.62) (layer F.Fab) (width 0.1))
    (fp_line (start 0.6 0.88) (end -0.6 0.88) (layer F.SilkS) (width 0.12))
    (fp_line (start -0.6 -0.88) (end 0.6 -0.88) (layer F.SilkS) (width 0.12))
    (fp_line (start -1.55 -0.9) (end 1.55 -0.9) (layer F.CrtYd) (width 0.05))
    (fp_line (start -1.55 -0.9) (end -1.55 0.9) (layer F.CrtYd) (width 0.05))
    (fp_line (start 1.55 0.9) (end 1.55 -0.9) (layer F.CrtYd) (width 0.05))
    (fp_line (start 1.55 0.9) (end -1.55 0.9) (layer F.CrtYd) (width 0.05))
    (pad 1 smd rect (at -0.7 0 180) (size 1.2 1.3) (layers F.Cu F.Paste F.Mask)
      (net 4 "Net-(J1-Pad4)"))
    (pad 2 smd rect (at 0.7 0 180) (size 1.2 1.3) (layers F.Cu F.Paste F.Mask)
      (net 8 "Net-(R7-Pad1)"))
    (model ${KISYS3DMOD}/Resistors_SMD.3dshapes/R_0805.wrl
      (at (xyz 0 0 0))
      (scale (xyz 1 1 1))
      (rotate (xyz 0 0 0))
    )
  )

  (module .pretty:R_0805_circuit_breaker (layer F.Cu) (tedit 5BFC231D) (tstamp 5BFC2322)
    (at 123.19 171.45 180)
    (descr "Resistor SMD 0805, reflow soldering, Vishay (see dcrcw.pdf)")
    (tags "resistor 0805")
    (path /5BF7E2C9)
    (attr smd)
    (fp_text reference R10 (at -3.81 0 180) (layer F.SilkS)
      (effects (font (size 1 1) (thickness 0.15)))
    )
    (fp_text value R (at 0 1.75 180) (layer F.Fab)
      (effects (font (size 1 1) (thickness 0.15)))
    )
    (fp_text user %R (at 0 0 180) (layer F.Fab)
      (effects (font (size 0.5 0.5) (thickness 0.075)))
    )
    (fp_line (start -1 0.62) (end -1 -0.62) (layer F.Fab) (width 0.1))
    (fp_line (start 1 0.62) (end -1 0.62) (layer F.Fab) (width 0.1))
    (fp_line (start 1 -0.62) (end 1 0.62) (layer F.Fab) (width 0.1))
    (fp_line (start -1 -0.62) (end 1 -0.62) (layer F.Fab) (width 0.1))
    (fp_line (start 0.6 0.88) (end -0.6 0.88) (layer F.SilkS) (width 0.12))
    (fp_line (start -0.6 -0.88) (end 0.6 -0.88) (layer F.SilkS) (width 0.12))
    (fp_line (start -1.55 -0.9) (end 1.55 -0.9) (layer F.CrtYd) (width 0.05))
    (fp_line (start -1.55 -0.9) (end -1.55 0.9) (layer F.CrtYd) (width 0.05))
    (fp_line (start 1.55 0.9) (end 1.55 -0.9) (layer F.CrtYd) (width 0.05))
    (fp_line (start 1.55 0.9) (end -1.55 0.9) (layer F.CrtYd) (width 0.05))
    (pad 1 smd rect (at -0.7 0 180) (size 1.2 1.3) (layers F.Cu F.Paste F.Mask)
      (net 4 "Net-(J1-Pad4)"))
    (pad 2 smd rect (at 0.7 0 180) (size 1.2 1.3) (layers F.Cu F.Paste F.Mask)
      (net 9 "Net-(R10-Pad2)"))
    (model ${KISYS3DMOD}/Resistors_SMD.3dshapes/R_0805.wrl
      (at (xyz 0 0 0))
      (scale (xyz 1 1 1))
      (rotate (xyz 0 0 0))
    )
  )

  (module .pretty:R_0805_circuit_breaker (layer F.Cu) (tedit 5BFC231D) (tstamp 5BFC2342)
    (at 123.19 173.99 180)
    (descr "Resistor SMD 0805, reflow soldering, Vishay (see dcrcw.pdf)")
    (tags "resistor 0805")
    (path /5BF7E2C3)
    (attr smd)
    (fp_text reference R12 (at -3.81 0 180) (layer F.SilkS)
      (effects (font (size 1 1) (thickness 0.15)))
    )
    (fp_text value R (at 0 1.75 180) (layer F.Fab)
      (effects (font (size 1 1) (thickness 0.15)))
    )
    (fp_text user %R (at 0 0 180) (layer F.Fab)
      (effects (font (size 0.5 0.5) (thickness 0.075)))
    )
    (fp_line (start -1 0.62) (end -1 -0.62) (layer F.Fab) (width 0.1))
    (fp_line (start 1 0.62) (end -1 0.62) (layer F.Fab) (width 0.1))
    (fp_line (start 1 -0.62) (end 1 0.62) (layer F.Fab) (width 0.1))
    (fp_line (start -1 -0.62) (end 1 -0.62) (layer F.Fab) (width 0.1))
    (fp_line (start 0.6 0.88) (end -0.6 0.88) (layer F.SilkS) (width 0.12))
    (fp_line (start -0.6 -0.88) (end 0.6 -0.88) (layer F.SilkS) (width 0.12))
    (fp_line (start -1.55 -0.9) (end 1.55 -0.9) (layer F.CrtYd) (width 0.05))
    (fp_line (start -1.55 -0.9) (end -1.55 0.9) (layer F.CrtYd) (width 0.05))
    (fp_line (start 1.55 0.9) (end 1.55 -0.9) (layer F.CrtYd) (width 0.05))
    (fp_line (start 1.55 0.9) (end -1.55 0.9) (layer F.CrtYd) (width 0.05))
    (pad 1 smd rect (at -0.7 0 180) (size 1.2 1.3) (layers F.Cu F.Paste F.Mask)
      (net 4 "Net-(J1-Pad4)"))
    (pad 2 smd rect (at 0.7 0 180) (size 1.2 1.3) (layers F.Cu F.Paste F.Mask)
      (net 10 "Net-(R11-Pad1)"))
    (model ${KISYS3DMOD}/Resistors_SMD.3dshapes/R_0805.wrl
      (at (xyz 0 0 0))
      (scale (xyz 1 1 1))
      (rotate (xyz 0 0 0))
    )
  )

  (module .pretty:R_0805_circuit_breaker (layer F.Cu) (tedit 5BFC231D) (tstamp 5BFC2352)
    (at 173.99 168.91 180)
    (descr "Resistor SMD 0805, reflow soldering, Vishay (see dcrcw.pdf)")
    (tags "resistor 0805")
    (path /5BF7E9B7)
    (attr smd)
    (fp_text reference R13 (at -3.81 0 180) (layer F.SilkS)
      (effects (font (size 1 1) (thickness 0.15)))
    )
    (fp_text value R (at 0 1.75 180) (layer F.Fab)
      (effects (font (size 1 1) (thickness 0.15)))
    )
    (fp_text user %R (at 0 0 180) (layer F.Fab)
      (effects (font (size 0.5 0.5) (thickness 0.075)))
    )
    (fp_line (start -1 0.62) (end -1 -0.62) (layer F.Fab) (width 0.1))
    (fp_line (start 1 0.62) (end -1 0.62) (layer F.Fab) (width 0.1))
    (fp_line (start 1 -0.62) (end 1 0.62) (layer F.Fab) (width 0.1))
    (fp_line (start -1 -0.62) (end 1 -0.62) (layer F.Fab) (width 0.1))
    (fp_line (start 0.6 0.88) (end -0.6 0.88) (layer F.SilkS) (width 0.12))
    (fp_line (start -0.6 -0.88) (end 0.6 -0.88) (layer F.SilkS) (width 0.12))
    (fp_line (start -1.55 -0.9) (end 1.55 -0.9) (layer F.CrtYd) (width 0.05))
    (fp_line (start -1.55 -0.9) (end -1.55 0.9) (layer F.CrtYd) (width 0.05))
    (fp_line (start 1.55 0.9) (end 1.55 -0.9) (layer F.CrtYd) (width 0.05))
    (fp_line (start 1.55 0.9) (end -1.55 0.9) (layer F.CrtYd) (width 0.05))
    (pad 1 smd rect (at -0.7 0 180) (size 1.2 1.3) (layers F.Cu F.Paste F.Mask)
      (net 11 "Net-(R13-Pad1)"))
    (pad 2 smd rect (at 0.7 0 180) (size 1.2 1.3) (layers F.Cu F.Paste F.Mask)
      (net 1 "Net-(J1-Pad1)"))
    (model ${KISYS3DMOD}/Resistors_SMD.3dshapes/R_0805.wrl
      (at (xyz 0 0 0))
      (scale (xyz 1 1 1))
      (rotate (xyz 0 0 0))
    )
  )

  (module .pretty:R_0805_circuit_breaker (layer F.Cu) (tedit 5BFC231D) (tstamp 5BFC2372)
    (at 173.99 171.45 180)
    (descr "Resistor SMD 0805, reflow soldering, Vishay (see dcrcw.pdf)")
    (tags "resistor 0805")
    (path /5BF7E9C3)
    (attr smd)
    (fp_text reference R15 (at -3.81 0 180) (layer F.SilkS)
      (effects (font (size 1 1) (thickness 0.15)))
    )
    (fp_text value R (at 0 1.75 180) (layer F.Fab)
      (effects (font (size 1 1) (thickness 0.15)))
    )
    (fp_text user %R (at 0 0 180) (layer F.Fab)
      (effects (font (size 0.5 0.5) (thickness 0.075)))
    )
    (fp_line (start -1 0.62) (end -1 -0.62) (layer F.Fab) (width 0.1))
    (fp_line (start 1 0.62) (end -1 0.62) (layer F.Fab) (width 0.1))
    (fp_line (start 1 -0.62) (end 1 0.62) (layer F.Fab) (width 0.1))
    (fp_line (start -1 -0.62) (end 1 -0.62) (layer F.Fab) (width 0.1))
    (fp_line (start 0.6 0.88) (end -0.6 0.88) (layer F.SilkS) (width 0.12))
    (fp_line (start -0.6 -0.88) (end 0.6 -0.88) (layer F.SilkS) (width 0.12))
    (fp_line (start -1.55 -0.9) (end 1.55 -0.9) (layer F.CrtYd) (width 0.05))
    (fp_line (start -1.55 -0.9) (end -1.55 0.9) (layer F.CrtYd) (width 0.05))
    (fp_line (start 1.55 0.9) (end 1.55 -0.9) (layer F.CrtYd) (width 0.05))
    (fp_line (start 1.55 0.9) (end -1.55 0.9) (layer F.CrtYd) (width 0.05))
    (pad 1 smd rect (at -0.7 0 180) (size 1.2 1.3) (layers F.Cu F.Paste F.Mask)
      (net 12 "Net-(R15-Pad1)"))
    (pad 2 smd rect (at 0.7 0 180) (size 1.2 1.3) (layers F.Cu F.Paste F.Mask)
      (net 1 "Net-(J1-Pad1)"))
    (model ${KISYS3DMOD}/Resistors_SMD.3dshapes/R_0805.wrl
      (at (xyz 0 0 0))
      (scale (xyz 1 1 1))
      (rotate (xyz 0 0 0))
    )
  )

  (module .pretty:R_0805_circuit_breaker (layer F.Cu) (tedit 5BFC231D) (tstamp 5BFC2362)
    (at 181.61 168.91 180)
    (descr "Resistor SMD 0805, reflow soldering, Vishay (see dcrcw.pdf)")
    (tags "resistor 0805")
    (path /5BF7E99C)
    (attr smd)
    (fp_text reference R14 (at -3.81 0 180) (layer F.SilkS)
      (effects (font (size 1 1) (thickness 0.15)))
    )
    (fp_text value R (at 0 1.75 180) (layer F.Fab)
      (effects (font (size 1 1) (thickness 0.15)))
    )
    (fp_text user %R (at 0 0 180) (layer F.Fab)
      (effects (font (size 0.5 0.5) (thickness 0.075)))
    )
    (fp_line (start -1 0.62) (end -1 -0.62) (layer F.Fab) (width 0.1))
    (fp_line (start 1 0.62) (end -1 0.62) (layer F.Fab) (width 0.1))
    (fp_line (start 1 -0.62) (end 1 0.62) (layer F.Fab) (width 0.1))
    (fp_line (start -1 -0.62) (end 1 -0.62) (layer F.Fab) (width 0.1))
    (fp_line (start 0.6 0.88) (end -0.6 0.88) (layer F.SilkS) (width 0.12))
    (fp_line (start -0.6 -0.88) (end 0.6 -0.88) (layer F.SilkS) (width 0.12))
    (fp_line (start -1.55 -0.9) (end 1.55 -0.9) (layer F.CrtYd) (width 0.05))
    (fp_line (start -1.55 -0.9) (end -1.55 0.9) (layer F.CrtYd) (width 0.05))
    (fp_line (start 1.55 0.9) (end 1.55 -0.9) (layer F.CrtYd) (width 0.05))
    (fp_line (start 1.55 0.9) (end -1.55 0.9) (layer F.CrtYd) (width 0.05))
    (pad 1 smd rect (at -0.7 0 180) (size 1.2 1.3) (layers F.Cu F.Paste F.Mask)
      (net 4 "Net-(J1-Pad4)"))
    (pad 2 smd rect (at 0.7 0 180) (size 1.2 1.3) (layers F.Cu F.Paste F.Mask)
      (net 11 "Net-(R13-Pad1)"))
    (model ${KISYS3DMOD}/Resistors_SMD.3dshapes/R_0805.wrl
      (at (xyz 0 0 0))
      (scale (xyz 1 1 1))
      (rotate (xyz 0 0 0))
    )
  )

  (module .pretty:R_0805_circuit_breaker (layer F.Cu) (tedit 5BFC231D) (tstamp 5BFC2382)
    (at 181.61 171.45 180)
    (descr "Resistor SMD 0805, reflow soldering, Vishay (see dcrcw.pdf)")
    (tags "resistor 0805")
    (path /5BF7E9A8)
    (attr smd)
    (fp_text reference R16 (at -3.81 0 180) (layer F.SilkS)
      (effects (font (size 1 1) (thickness 0.15)))
    )
    (fp_text value R (at 0 1.75 180) (layer F.Fab)
      (effects (font (size 1 1) (thickness 0.15)))
    )
    (fp_text user %R (at 0 0 180) (layer F.Fab)
      (effects (font (size 0.5 0.5) (thickness 0.075)))
    )
    (fp_line (start -1 0.62) (end -1 -0.62) (layer F.Fab) (width 0.1))
    (fp_line (start 1 0.62) (end -1 0.62) (layer F.Fab) (width 0.1))
    (fp_line (start 1 -0.62) (end 1 0.62) (layer F.Fab) (width 0.1))
    (fp_line (start -1 -0.62) (end 1 -0.62) (layer F.Fab) (width 0.1))
    (fp_line (start 0.6 0.88) (end -0.6 0.88) (layer F.SilkS) (width 0.12))
    (fp_line (start -0.6 -0.88) (end 0.6 -0.88) (layer F.SilkS) (width 0.12))
    (fp_line (start -1.55 -0.9) (end 1.55 -0.9) (layer F.CrtYd) (width 0.05))
    (fp_line (start -1.55 -0.9) (end -1.55 0.9) (layer F.CrtYd) (width 0.05))
    (fp_line (start 1.55 0.9) (end 1.55 -0.9) (layer F.CrtYd) (width 0.05))
    (fp_line (start 1.55 0.9) (end -1.55 0.9) (layer F.CrtYd) (width 0.05))
    (pad 1 smd rect (at -0.7 0 180) (size 1.2 1.3) (layers F.Cu F.Paste F.Mask)
      (net 4 "Net-(J1-Pad4)"))
    (pad 2 smd rect (at 0.7 0 180) (size 1.2 1.3) (layers F.Cu F.Paste F.Mask)
      (net 12 "Net-(R15-Pad1)"))
    (model ${KISYS3DMOD}/Resistors_SMD.3dshapes/R_0805.wrl
      (at (xyz 0 0 0))
      (scale (xyz 1 1 1))
      (rotate (xyz 0 0 0))
    )
  )

  (module .pretty:R_0805_circuit_breaker (layer F.Cu) (tedit 5BFC231D) (tstamp 5BFC2392)
    (at 173.99 173.99 180)
    (descr "Resistor SMD 0805, reflow soldering, Vishay (see dcrcw.pdf)")
    (tags "resistor 0805")
    (path /5BF7E9BD)
    (attr smd)
    (fp_text reference R17 (at -3.81 0 180) (layer F.SilkS)
      (effects (font (size 1 1) (thickness 0.15)))
    )
    (fp_text value R (at 0 1.75 180) (layer F.Fab)
      (effects (font (size 1 1) (thickness 0.15)))
    )
    (fp_text user %R (at 0 0 180) (layer F.Fab)
      (effects (font (size 0.5 0.5) (thickness 0.075)))
    )
    (fp_line (start -1 0.62) (end -1 -0.62) (layer F.Fab) (width 0.1))
    (fp_line (start 1 0.62) (end -1 0.62) (layer F.Fab) (width 0.1))
    (fp_line (start 1 -0.62) (end 1 0.62) (layer F.Fab) (width 0.1))
    (fp_line (start -1 -0.62) (end 1 -0.62) (layer F.Fab) (width 0.1))
    (fp_line (start 0.6 0.88) (end -0.6 0.88) (layer F.SilkS) (width 0.12))
    (fp_line (start -0.6 -0.88) (end 0.6 -0.88) (layer F.SilkS) (width 0.12))
    (fp_line (start -1.55 -0.9) (end 1.55 -0.9) (layer F.CrtYd) (width 0.05))
    (fp_line (start -1.55 -0.9) (end -1.55 0.9) (layer F.CrtYd) (width 0.05))
    (fp_line (start 1.55 0.9) (end 1.55 -0.9) (layer F.CrtYd) (width 0.05))
    (fp_line (start 1.55 0.9) (end -1.55 0.9) (layer F.CrtYd) (width 0.05))
    (pad 1 smd rect (at -0.7 0 180) (size 1.2 1.3) (layers F.Cu F.Paste F.Mask)
      (net 13 "Net-(R17-Pad1)"))
    (pad 2 smd rect (at 0.7 0 180) (size 1.2 1.3) (layers F.Cu F.Paste F.Mask)
      (net 1 "Net-(J1-Pad1)"))
    (model ${KISYS3DMOD}/Resistors_SMD.3dshapes/R_0805.wrl
      (at (xyz 0 0 0))
      (scale (xyz 1 1 1))
      (rotate (xyz 0 0 0))
    )
  )

  (module .pretty:R_0805_circuit_breaker (layer F.Cu) (tedit 5BFC231D) (tstamp 5BFC23A2)
    (at 181.61 173.99 180)
    (descr "Resistor SMD 0805, reflow soldering, Vishay (see dcrcw.pdf)")
    (tags "resistor 0805")
    (path /5BF7E9A2)
    (attr smd)
    (fp_text reference R18 (at -3.81 0 180) (layer F.SilkS)
      (effects (font (size 1 1) (thickness 0.15)))
    )
    (fp_text value R (at 0 1.75 180) (layer F.Fab)
      (effects (font (size 1 1) (thickness 0.15)))
    )
    (fp_text user %R (at 0 0 180) (layer F.Fab)
      (effects (font (size 0.5 0.5) (thickness 0.075)))
    )
    (fp_line (start -1 0.62) (end -1 -0.62) (layer F.Fab) (width 0.1))
    (fp_line (start 1 0.62) (end -1 0.62) (layer F.Fab) (width 0.1))
    (fp_line (start 1 -0.62) (end 1 0.62) (layer F.Fab) (width 0.1))
    (fp_line (start -1 -0.62) (end 1 -0.62) (layer F.Fab) (width 0.1))
    (fp_line (start 0.6 0.88) (end -0.6 0.88) (layer F.SilkS) (width 0.12))
    (fp_line (start -0.6 -0.88) (end 0.6 -0.88) (layer F.SilkS) (width 0.12))
    (fp_line (start -1.55 -0.9) (end 1.55 -0.9) (layer F.CrtYd) (width 0.05))
    (fp_line (start -1.55 -0.9) (end -1.55 0.9) (layer F.CrtYd) (width 0.05))
    (fp_line (start 1.55 0.9) (end 1.55 -0.9) (layer F.CrtYd) (width 0.05))
    (fp_line (start 1.55 0.9) (end -1.55 0.9) (layer F.CrtYd) (width 0.05))
    (pad 1 smd rect (at -0.7 0 180) (size 1.2 1.3) (layers F.Cu F.Paste F.Mask)
      (net 4 "Net-(J1-Pad4)"))
    (pad 2 smd rect (at 0.7 0 180) (size 1.2 1.3) (layers F.Cu F.Paste F.Mask)
      (net 13 "Net-(R17-Pad1)"))
    (model ${KISYS3DMOD}/Resistors_SMD.3dshapes/R_0805.wrl
      (at (xyz 0 0 0))
      (scale (xyz 1 1 1))
      (rotate (xyz 0 0 0))
    )
  )

  (module .pretty:R_0805_circuit_breaker (layer F.Cu) (tedit 5BFC231D) (tstamp 5BFC23B2)
    (at 232.41 168.91 180)
    (descr "Resistor SMD 0805, reflow soldering, Vishay (see dcrcw.pdf)")
    (tags "resistor 0805")
    (path /5BF80E9D)
    (attr smd)
    (fp_text reference R19 (at -3.81 0 180) (layer F.SilkS)
      (effects (font (size 1 1) (thickness 0.15)))
    )
    (fp_text value R (at 0 1.75 180) (layer F.Fab)
      (effects (font (size 1 1) (thickness 0.15)))
    )
    (fp_text user %R (at 0 0 180) (layer F.Fab)
      (effects (font (size 0.5 0.5) (thickness 0.075)))
    )
    (fp_line (start -1 0.62) (end -1 -0.62) (layer F.Fab) (width 0.1))
    (fp_line (start 1 0.62) (end -1 0.62) (layer F.Fab) (width 0.1))
    (fp_line (start 1 -0.62) (end 1 0.62) (layer F.Fab) (width 0.1))
    (fp_line (start -1 -0.62) (end 1 -0.62) (layer F.Fab) (width 0.1))
    (fp_line (start 0.6 0.88) (end -0.6 0.88) (layer F.SilkS) (width 0.12))
    (fp_line (start -0.6 -0.88) (end 0.6 -0.88) (layer F.SilkS) (width 0.12))
    (fp_line (start -1.55 -0.9) (end 1.55 -0.9) (layer F.CrtYd) (width 0.05))
    (fp_line (start -1.55 -0.9) (end -1.55 0.9) (layer F.CrtYd) (width 0.05))
    (fp_line (start 1.55 0.9) (end 1.55 -0.9) (layer F.CrtYd) (width 0.05))
    (fp_line (start 1.55 0.9) (end -1.55 0.9) (layer F.CrtYd) (width 0.05))
    (pad 1 smd rect (at -0.7 0 180) (size 1.2 1.3) (layers F.Cu F.Paste F.Mask)
      (net 14 "Net-(R19-Pad1)"))
    (pad 2 smd rect (at 0.7 0 180) (size 1.2 1.3) (layers F.Cu F.Paste F.Mask)
      (net 1 "Net-(J1-Pad1)"))
    (model ${KISYS3DMOD}/Resistors_SMD.3dshapes/R_0805.wrl
      (at (xyz 0 0 0))
      (scale (xyz 1 1 1))
      (rotate (xyz 0 0 0))
    )
  )

  (module .pretty:R_0805_circuit_breaker (layer F.Cu) (tedit 5BFC231D) (tstamp 5BFC23C2)
    (at 240.03 168.91 180)
    (descr "Resistor SMD 0805, reflow soldering, Vishay (see dcrcw.pdf)")
    (tags "resistor 0805")
    (path /5BF80E82)
    (attr smd)
    (fp_text reference R20 (at -3.81 0 180) (layer F.SilkS)
      (effects (font (size 1 1) (thickness 0.15)))
    )
    (fp_text value R (at 0 1.75 180) (layer F.Fab)
      (effects (font (size 1 1) (thickness 0.15)))
    )
    (fp_text user %R (at 0 0 180) (layer F.Fab)
      (effects (font (size 0.5 0.5) (thickness 0.075)))
    )
    (fp_line (start -1 0.62) (end -1 -0.62) (layer F.Fab) (width 0.1))
    (fp_line (start 1 0.62) (end -1 0.62) (layer F.Fab) (width 0.1))
    (fp_line (start 1 -0.62) (end 1 0.62) (layer F.Fab) (width 0.1))
    (fp_line (start -1 -0.62) (end 1 -0.62) (layer F.Fab) (width 0.1))
    (fp_line (start 0.6 0.88) (end -0.6 0.88) (layer F.SilkS) (width 0.12))
    (fp_line (start -0.6 -0.88) (end 0.6 -0.88) (layer F.SilkS) (width 0.12))
    (fp_line (start -1.55 -0.9) (end 1.55 -0.9) (layer F.CrtYd) (width 0.05))
    (fp_line (start -1.55 -0.9) (end -1.55 0.9) (layer F.CrtYd) (width 0.05))
    (fp_line (start 1.55 0.9) (end 1.55 -0.9) (layer F.CrtYd) (width 0.05))
    (fp_line (start 1.55 0.9) (end -1.55 0.9) (layer F.CrtYd) (width 0.05))
    (pad 1 smd rect (at -0.7 0 180) (size 1.2 1.3) (layers F.Cu F.Paste F.Mask)
      (net 4 "Net-(J1-Pad4)"))
    (pad 2 smd rect (at 0.7 0 180) (size 1.2 1.3) (layers F.Cu F.Paste F.Mask)
      (net 14 "Net-(R19-Pad1)"))
    (model ${KISYS3DMOD}/Resistors_SMD.3dshapes/R_0805.wrl
      (at (xyz 0 0 0))
      (scale (xyz 1 1 1))
      (rotate (xyz 0 0 0))
    )
  )

  (module .pretty:R_0805_circuit_breaker (layer F.Cu) (tedit 5BFC231D) (tstamp 5BFC23D2)
    (at 232.41 171.45 180)
    (descr "Resistor SMD 0805, reflow soldering, Vishay (see dcrcw.pdf)")
    (tags "resistor 0805")
    (path /5BF80EA9)
    (attr smd)
    (fp_text reference R21 (at -3.81 0 180) (layer F.SilkS)
      (effects (font (size 1 1) (thickness 0.15)))
    )
    (fp_text value R (at 0 1.75 180) (layer F.Fab)
      (effects (font (size 1 1) (thickness 0.15)))
    )
    (fp_text user %R (at 0 0 180) (layer F.Fab)
      (effects (font (size 0.5 0.5) (thickness 0.075)))
    )
    (fp_line (start -1 0.62) (end -1 -0.62) (layer F.Fab) (width 0.1))
    (fp_line (start 1 0.62) (end -1 0.62) (layer F.Fab) (width 0.1))
    (fp_line (start 1 -0.62) (end 1 0.62) (layer F.Fab) (width 0.1))
    (fp_line (start -1 -0.62) (end 1 -0.62) (layer F.Fab) (width 0.1))
    (fp_line (start 0.6 0.88) (end -0.6 0.88) (layer F.SilkS) (width 0.12))
    (fp_line (start -0.6 -0.88) (end 0.6 -0.88) (layer F.SilkS) (width 0.12))
    (fp_line (start -1.55 -0.9) (end 1.55 -0.9) (layer F.CrtYd) (width 0.05))
    (fp_line (start -1.55 -0.9) (end -1.55 0.9) (layer F.CrtYd) (width 0.05))
    (fp_line (start 1.55 0.9) (end 1.55 -0.9) (layer F.CrtYd) (width 0.05))
    (fp_line (start 1.55 0.9) (end -1.55 0.9) (layer F.CrtYd) (width 0.05))
    (pad 1 smd rect (at -0.7 0 180) (size 1.2 1.3) (layers F.Cu F.Paste F.Mask)
      (net 15 "Net-(R21-Pad1)"))
    (pad 2 smd rect (at 0.7 0 180) (size 1.2 1.3) (layers F.Cu F.Paste F.Mask)
      (net 1 "Net-(J1-Pad1)"))
    (model ${KISYS3DMOD}/Resistors_SMD.3dshapes/R_0805.wrl
      (at (xyz 0 0 0))
      (scale (xyz 1 1 1))
      (rotate (xyz 0 0 0))
    )
  )

  (module .pretty:R_0805_circuit_breaker (layer F.Cu) (tedit 5BFC231D) (tstamp 5BFC23E2)
    (at 240.03 171.45 180)
    (descr "Resistor SMD 0805, reflow soldering, Vishay (see dcrcw.pdf)")
    (tags "resistor 0805")
    (path /5BF80E8E)
    (attr smd)
    (fp_text reference R22 (at -3.81 0 180) (layer F.SilkS)
      (effects (font (size 1 1) (thickness 0.15)))
    )
    (fp_text value R (at 0 1.75 180) (layer F.Fab)
      (effects (font (size 1 1) (thickness 0.15)))
    )
    (fp_text user %R (at 0 0 180) (layer F.Fab)
      (effects (font (size 0.5 0.5) (thickness 0.075)))
    )
    (fp_line (start -1 0.62) (end -1 -0.62) (layer F.Fab) (width 0.1))
    (fp_line (start 1 0.62) (end -1 0.62) (layer F.Fab) (width 0.1))
    (fp_line (start 1 -0.62) (end 1 0.62) (layer F.Fab) (width 0.1))
    (fp_line (start -1 -0.62) (end 1 -0.62) (layer F.Fab) (width 0.1))
    (fp_line (start 0.6 0.88) (end -0.6 0.88) (layer F.SilkS) (width 0.12))
    (fp_line (start -0.6 -0.88) (end 0.6 -0.88) (layer F.SilkS) (width 0.12))
    (fp_line (start -1.55 -0.9) (end 1.55 -0.9) (layer F.CrtYd) (width 0.05))
    (fp_line (start -1.55 -0.9) (end -1.55 0.9) (layer F.CrtYd) (width 0.05))
    (fp_line (start 1.55 0.9) (end 1.55 -0.9) (layer F.CrtYd) (width 0.05))
    (fp_line (start 1.55 0.9) (end -1.55 0.9) (layer F.CrtYd) (width 0.05))
    (pad 1 smd rect (at -0.7 0 180) (size 1.2 1.3) (layers F.Cu F.Paste F.Mask)
      (net 4 "Net-(J1-Pad4)"))
    (pad 2 smd rect (at 0.7 0 180) (size 1.2 1.3) (layers F.Cu F.Paste F.Mask)
      (net 15 "Net-(R21-Pad1)"))
    (model ${KISYS3DMOD}/Resistors_SMD.3dshapes/R_0805.wrl
      (at (xyz 0 0 0))
      (scale (xyz 1 1 1))
      (rotate (xyz 0 0 0))
    )
  )

  (module .pretty:R_0805_circuit_breaker (layer F.Cu) (tedit 5BFC231D) (tstamp 5BFC23F2)
    (at 232.41 173.99 180)
    (descr "Resistor SMD 0805, reflow soldering, Vishay (see dcrcw.pdf)")
    (tags "resistor 0805")
    (path /5BF80EA3)
    (attr smd)
    (fp_text reference R23 (at -3.81 0 180) (layer F.SilkS)
      (effects (font (size 1 1) (thickness 0.15)))
    )
    (fp_text value R (at 0 1.75 180) (layer F.Fab)
      (effects (font (size 1 1) (thickness 0.15)))
    )
    (fp_text user %R (at 0 0 180) (layer F.Fab)
      (effects (font (size 0.5 0.5) (thickness 0.075)))
    )
    (fp_line (start -1 0.62) (end -1 -0.62) (layer F.Fab) (width 0.1))
    (fp_line (start 1 0.62) (end -1 0.62) (layer F.Fab) (width 0.1))
    (fp_line (start 1 -0.62) (end 1 0.62) (layer F.Fab) (width 0.1))
    (fp_line (start -1 -0.62) (end 1 -0.62) (layer F.Fab) (width 0.1))
    (fp_line (start 0.6 0.88) (end -0.6 0.88) (layer F.SilkS) (width 0.12))
    (fp_line (start -0.6 -0.88) (end 0.6 -0.88) (layer F.SilkS) (width 0.12))
    (fp_line (start -1.55 -0.9) (end 1.55 -0.9) (layer F.CrtYd) (width 0.05))
    (fp_line (start -1.55 -0.9) (end -1.55 0.9) (layer F.CrtYd) (width 0.05))
    (fp_line (start 1.55 0.9) (end 1.55 -0.9) (layer F.CrtYd) (width 0.05))
    (fp_line (start 1.55 0.9) (end -1.55 0.9) (layer F.CrtYd) (width 0.05))
    (pad 1 smd rect (at -0.7 0 180) (size 1.2 1.3) (layers F.Cu F.Paste F.Mask)
      (net 16 "Net-(R23-Pad1)"))
    (pad 2 smd rect (at 0.7 0 180) (size 1.2 1.3) (layers F.Cu F.Paste F.Mask)
      (net 1 "Net-(J1-Pad1)"))
    (model ${KISYS3DMOD}/Resistors_SMD.3dshapes/R_0805.wrl
      (at (xyz 0 0 0))
      (scale (xyz 1 1 1))
      (rotate (xyz 0 0 0))
    )
  )

  (module .pretty:R_0805_circuit_breaker (layer F.Cu) (tedit 5BFC231D) (tstamp 5BFC2402)
    (at 240.03 173.99 180)
    (descr "Resistor SMD 0805, reflow soldering, Vishay (see dcrcw.pdf)")
    (tags "resistor 0805")
    (path /5BF80E88)
    (attr smd)
    (fp_text reference R24 (at -3.81 0 180) (layer F.SilkS)
      (effects (font (size 1 1) (thickness 0.15)))
    )
    (fp_text value R (at 0 1.75 180) (layer F.Fab)
      (effects (font (size 1 1) (thickness 0.15)))
    )
    (fp_text user %R (at 0 0 180) (layer F.Fab)
      (effects (font (size 0.5 0.5) (thickness 0.075)))
    )
    (fp_line (start -1 0.62) (end -1 -0.62) (layer F.Fab) (width 0.1))
    (fp_line (start 1 0.62) (end -1 0.62) (layer F.Fab) (width 0.1))
    (fp_line (start 1 -0.62) (end 1 0.62) (layer F.Fab) (width 0.1))
    (fp_line (start -1 -0.62) (end 1 -0.62) (layer F.Fab) (width 0.1))
    (fp_line (start 0.6 0.88) (end -0.6 0.88) (layer F.SilkS) (width 0.12))
    (fp_line (start -0.6 -0.88) (end 0.6 -0.88) (layer F.SilkS) (width 0.12))
    (fp_line (start -1.55 -0.9) (end 1.55 -0.9) (layer F.CrtYd) (width 0.05))
    (fp_line (start -1.55 -0.9) (end -1.55 0.9) (layer F.CrtYd) (width 0.05))
    (fp_line (start 1.55 0.9) (end 1.55 -0.9) (layer F.CrtYd) (width 0.05))
    (fp_line (start 1.55 0.9) (end -1.55 0.9) (layer F.CrtYd) (width 0.05))
    (pad 1 smd rect (at -0.7 0 180) (size 1.2 1.3) (layers F.Cu F.Paste F.Mask)
      (net 4 "Net-(J1-Pad4)"))
    (pad 2 smd rect (at 0.7 0 180) (size 1.2 1.3) (layers F.Cu F.Paste F.Mask)
      (net 16 "Net-(R23-Pad1)"))
    (model ${KISYS3DMOD}/Resistors_SMD.3dshapes/R_0805.wrl
      (at (xyz 0 0 0))
      (scale (xyz 1 1 1))
      (rotate (xyz 0 0 0))
    )
  )

  (dimension 10.16 (width 0.3) (layer Eco1.User)
    (gr_text "10,160 mm" (at 266.78 171.45 270) (layer Eco1.User)
      (effects (font (size 1.5 1.5) (thickness 0.3)))
    )
    (feature1 (pts (xy 254 176.53) (xy 268.13 176.53)))
    (feature2 (pts (xy 254 166.37) (xy 268.13 166.37)))
    (crossbar (pts (xy 265.43 166.37) (xy 265.43 176.53)))
    (arrow1a (pts (xy 265.43 176.53) (xy 264.843579 175.403496)))
    (arrow1b (pts (xy 265.43 176.53) (xy 266.016421 175.403496)))
    (arrow2a (pts (xy 265.43 166.37) (xy 264.843579 167.496504)))
    (arrow2b (pts (xy 265.43 166.37) (xy 266.016421 167.496504)))
  )
  (dimension 242.824 (width 0.3) (layer Eco1.User)
    (gr_text "242,824 mm" (at 137.668 215.726) (layer Eco1.User)
      (effects (font (size 1.5 1.5) (thickness 0.3)))
    )
    (feature1 (pts (xy 16.256 171.196) (xy 16.256 217.076)))
    (feature2 (pts (xy 259.08 171.196) (xy 259.08 217.076)))
    (crossbar (pts (xy 259.08 214.376) (xy 16.256 214.376)))
    (arrow1a (pts (xy 16.256 214.376) (xy 17.382504 213.789579)))
    (arrow1b (pts (xy 16.256 214.376) (xy 17.382504 214.962421)))
    (arrow2a (pts (xy 259.08 214.376) (xy 257.953496 213.789579)))
    (arrow2b (pts (xy 259.08 214.376) (xy 257.953496 214.962421)))
  )
  (gr_text "PEUS-Testing 2018\nRev. A" (at 78.116 175.16) (layer F.SilkS)
    (effects (font (size 0.8 0.8) (thickness 0.2)))
  )
  (gr_text VCC (at 250.444 167.64) (layer F.SilkS) (tstamp 5BFBF94C)
    (effects (font (size 1 1) (thickness 0.25)))
  )
  (gr_text SCL (at 250.444 170.18) (layer F.SilkS) (tstamp 5BFBF94B)
    (effects (font (size 1 1) (thickness 0.25)))
  )
  (gr_text SDA (at 250.444 172.72) (layer F.SilkS) (tstamp 5BFBF94A)
    (effects (font (size 1 1) (thickness 0.25)))
  )
  (gr_text GND (at 250.444 175.26) (layer F.SilkS) (tstamp 5BFBF949)
    (effects (font (size 1 1) (thickness 0.25)))
  )
  (gr_text GND (at 24.892 175.26) (layer F.SilkS)
    (effects (font (size 1 1) (thickness 0.25)))
  )
  (gr_text SDA (at 24.892 172.72) (layer F.SilkS)
    (effects (font (size 1 1) (thickness 0.25)))
  )
  (gr_text SCL (at 24.892 170.18) (layer F.SilkS)
    (effects (font (size 1 1) (thickness 0.25)))
  )
  (gr_text VCC (at 24.892 167.64) (layer F.SilkS)
    (effects (font (size 1 1) (thickness 0.25)))
  )
  (gr_text A0 (at 229.4 170.8) (layer F.SilkS) (tstamp 5BFBF81C)
    (effects (font (size 0.5 0.5) (thickness 0.125)))
  )
  (gr_text A1 (at 229.4 172.1) (layer F.SilkS) (tstamp 5BFBF81B)
    (effects (font (size 0.5 0.5) (thickness 0.125)))
  )
  (gr_text A2 (at 229.4 173.4) (layer F.SilkS) (tstamp 5BFBF81A)
    (effects (font (size 0.5 0.5) (thickness 0.125)))
  )
  (gr_text A2 (at 171.3 173.4) (layer F.SilkS) (tstamp 5BFBF810)
    (effects (font (size 0.5 0.5) (thickness 0.125)))
  )
  (gr_text A1 (at 171.3 172.1) (layer F.SilkS) (tstamp 5BFBF80F)
    (effects (font (size 0.5 0.5) (thickness 0.125)))
  )
  (gr_text A0 (at 171.3 170.8) (layer F.SilkS) (tstamp 5BFBF80E)
    (effects (font (size 0.5 0.5) (thickness 0.125)))
  )
  (gr_text A0 (at 113.284 170.8) (layer F.SilkS) (tstamp 5BFBF800)
    (effects (font (size 0.5 0.5) (thickness 0.125)))
  )
  (gr_text A1 (at 113.284 172.1) (layer F.SilkS) (tstamp 5BFBF7FF)
    (effects (font (size 0.5 0.5) (thickness 0.125)))
  )
  (gr_text A2 (at 113.284 173.4) (layer F.SilkS) (tstamp 5BFBF7FE)
    (effects (font (size 0.5 0.5) (thickness 0.125)))
  )
  (gr_text A2 (at 55.372 173.4) (layer F.SilkS)
    (effects (font (size 0.5 0.5) (thickness 0.125)))
  )
  (gr_text A1 (at 55.372 172.1) (layer F.SilkS)
    (effects (font (size 0.5 0.5) (thickness 0.125)))
  )
  (gr_text A0 (at 55.372 170.8) (layer F.SilkS)
    (effects (font (size 0.5 0.5) (thickness 0.125)))
  )
  (gr_text "   I²C Addressierung\n\n          5V GND \n  ========\n R13| A0  x\n  R14| x   A0\n R15| A1  x\n  R16| x   A1\n R17| A2  x\n  R18| x   A2" (at 205.232 171.196) (layer F.SilkS)
    (effects (font (size 0.5 0.5) (thickness 0.125)))
  )
  (gr_text "   I²C Addressierung\n\n          5V GND \n  ========\n R13| A0  x\n  R14| x   A0\n R15| A1  x\n  R16| x   A1\n R17| A2  x\n  R18| x   A2" (at 146.304 171.196) (layer F.SilkS)
    (effects (font (size 0.5 0.5) (thickness 0.125)))
  )
  (gr_text "   I²C Addressierung\n\n          5V GND \n  ========\n  R7| A0  x\n   R8| x   A0\n  R9| A1  x\n  R10| x   A1\n R11| A2  x\n  R12| x   A2" (at 87.884 171.196) (layer F.SilkS)
    (effects (font (size 0.5 0.5) (thickness 0.125)))
  )
  (gr_text "   I²C Addressierung\n\n       5V GND \n  ========\nR1| A0  x\n R2| x   A0\nR3| A1  x\n R4| x   A1\n  R5| A2   x \n R6| x   A2" (at 36.068 171.196) (layer F.SilkS)
    (effects (font (size 0.5 0.5) (thickness 0.125)))
  )
  (gr_line (start 254 176.53) (end 21.59 176.53) (angle 90) (layer Edge.Cuts) (width 0.15))
  (gr_arc (start 254 171.45) (end 259.08 171.45) (angle 90) (layer Edge.Cuts) (width 0.15))
  (gr_arc (start 254 171.45) (end 254 166.37) (angle 90) (layer Edge.Cuts) (width 0.15))
  (gr_line (start 21.59 166.37) (end 254 166.37) (angle 90) (layer Edge.Cuts) (width 0.15))
  (gr_arc (start 21.59 171.45) (end 21.59 176.53) (angle 90) (layer Edge.Cuts) (width 0.15))
  (gr_arc (start 21.59 171.45) (end 16.51 171.45) (angle 90) (layer Edge.Cuts) (width 0.15))
  (gr_arc (start 21.59 171.45) (end 21.59 176.53) (angle 90) (layer Eco1.User) (width 0.2))
  (gr_arc (start 21.59 171.45) (end 16.51 171.45) (angle 90) (layer Eco1.User) (width 0.2))
  (gr_line (start 21.336 171.45) (end 261.112 171.45) (angle 90) (layer Eco1.User) (width 0.2))
  (dimension 3.81 (width 0.3) (layer Eco1.User)
    (gr_text "3,810 mm" (at 15.16 169.545 270) (layer Eco1.User)
      (effects (font (size 1.5 1.5) (thickness 0.3)))
    )
    (feature1 (pts (xy 20.828 171.45) (xy 13.81 171.45)))
    (feature2 (pts (xy 20.828 167.64) (xy 13.81 167.64)))
    (crossbar (pts (xy 16.51 167.64) (xy 16.51 171.45)))
    (arrow1a (pts (xy 16.51 171.45) (xy 15.923579 170.323496)))
    (arrow1b (pts (xy 16.51 171.45) (xy 17.096421 170.323496)))
    (arrow2a (pts (xy 16.51 167.64) (xy 15.923579 168.766504)))
    (arrow2b (pts (xy 16.51 167.64) (xy 17.096421 168.766504)))
  )

  (segment (start 173.29 168.91) (end 173.29 168.0785) (width 0.25) (layer F.Cu) (net 1))
  (segment (start 231.71 171.45) (end 227.1392 171.45) (width 0.25) (layer F.Cu) (net 1))
  (segment (start 227.3105 173.99) (end 231.71 173.99) (width 0.25) (layer F.Cu) (net 1))
  (segment (start 227.0781 173.7576) (end 227.3105 173.99) (width 0.25) (layer F.Cu) (net 1))
  (segment (start 227.0781 171.5111) (end 227.0781 173.7576) (width 0.25) (layer F.Cu) (net 1))
  (segment (start 227.1392 171.45) (end 227.0781 171.5111) (width 0.25) (layer F.Cu) (net 1))
  (segment (start 173.29 173.99) (end 172.3647 173.99) (width 0.25) (layer F.Cu) (net 1))
  (segment (start 173.29 171.45) (end 173.29 172.4253) (width 0.25) (layer F.Cu) (net 1))
  (segment (start 253.8 167.64) (end 255.3953 167.64) (width 0.25) (layer F.Cu) (net 1))
  (segment (start 227.975 169.545) (end 228.8718 169.545) (width 0.25) (layer F.Cu) (net 1))
  (segment (start 255.3953 173.673) (end 255.3953 167.64) (width 0.25) (layer F.Cu) (net 1))
  (segment (start 255.2609 173.8074) (end 255.3953 173.673) (width 0.25) (layer F.Cu) (net 1))
  (segment (start 247.3375 173.8074) (end 255.2609 173.8074) (width 0.25) (layer F.Cu) (net 1))
  (segment (start 241.4648 167.9347) (end 247.3375 173.8074) (width 0.25) (layer F.Cu) (net 1))
  (segment (start 232.2753 167.9347) (end 241.4648 167.9347) (width 0.25) (layer F.Cu) (net 1))
  (segment (start 231.505 168.705) (end 232.2753 167.9347) (width 0.25) (layer F.Cu) (net 1))
  (segment (start 231.71 168.91) (end 231.505 168.705) (width 0.25) (layer F.Cu) (net 1))
  (segment (start 229.7118 168.705) (end 228.8718 169.545) (width 0.25) (layer F.Cu) (net 1))
  (segment (start 231.505 168.705) (end 229.7118 168.705) (width 0.25) (layer F.Cu) (net 1))
  (segment (start 227.975 169.545) (end 227.0782 169.545) (width 0.25) (layer F.Cu) (net 1))
  (segment (start 227.0532 169.57) (end 227.0782 169.545) (width 0.25) (layer F.Cu) (net 1))
  (segment (start 227.0532 171.364) (end 227.0532 169.57) (width 0.25) (layer F.Cu) (net 1))
  (segment (start 227.0226 171.3946) (end 227.0532 171.364) (width 0.25) (layer F.Cu) (net 1))
  (segment (start 187.4966 171.3946) (end 227.0226 171.3946) (width 0.25) (layer F.Cu) (net 1))
  (segment (start 184.0366 167.9346) (end 187.4966 171.3946) (width 0.25) (layer F.Cu) (net 1))
  (segment (start 173.4339 167.9346) (end 184.0366 167.9346) (width 0.25) (layer F.Cu) (net 1))
  (segment (start 173.29 168.0785) (end 173.4339 167.9346) (width 0.25) (layer F.Cu) (net 1))
  (segment (start 227.0532 171.364) (end 227.1392 171.45) (width 0.25) (layer F.Cu) (net 1))
  (segment (start 111.975 169.5) (end 111.0782 169.5) (width 0.25) (layer F.Cu) (net 1))
  (segment (start 111.975 169.5) (end 112.8718 169.5) (width 0.25) (layer F.Cu) (net 1))
  (segment (start 111.0782 169.5) (end 109.5799 170.9983) (width 0.25) (layer F.Cu) (net 1))
  (segment (start 69.1764 167.9347) (end 57.72 167.9347) (width 0.25) (layer F.Cu) (net 1))
  (segment (start 72.5911 171.3494) (end 69.1764 167.9347) (width 0.25) (layer F.Cu) (net 1))
  (segment (start 109.2288 171.3494) (end 72.5911 171.3494) (width 0.25) (layer F.Cu) (net 1))
  (segment (start 109.5799 170.9983) (end 109.2288 171.3494) (width 0.25) (layer F.Cu) (net 1))
  (segment (start 113.9897 169.5) (end 112.8718 169.5) (width 0.25) (layer F.Cu) (net 1))
  (segment (start 114.5797 168.91) (end 113.9897 169.5) (width 0.25) (layer F.Cu) (net 1))
  (segment (start 115.505 168.91) (end 114.5797 168.91) (width 0.25) (layer F.Cu) (net 1))
  (segment (start 173.29 172.4253) (end 172.045 173.6703) (width 0.25) (layer F.Cu) (net 1))
  (segment (start 172.045 173.6703) (end 172.3647 173.99) (width 0.25) (layer F.Cu) (net 1))
  (segment (start 169.975 169.545) (end 169.0782 169.545) (width 0.25) (layer F.Cu) (net 1))
  (segment (start 169.0782 169.545) (end 169.0782 171.45) (width 0.25) (layer F.Cu) (net 1))
  (segment (start 171.0947 172.72) (end 172.045 173.6703) (width 0.25) (layer F.Cu) (net 1))
  (segment (start 169.314 172.72) (end 171.0947 172.72) (width 0.25) (layer F.Cu) (net 1))
  (segment (start 169.0782 172.4842) (end 169.314 172.72) (width 0.25) (layer F.Cu) (net 1))
  (segment (start 169.0782 171.45) (end 169.0782 172.4842) (width 0.25) (layer F.Cu) (net 1))
  (segment (start 126.997 167.9347) (end 115.505 167.9347) (width 0.25) (layer F.Cu) (net 1))
  (segment (start 130.5123 171.45) (end 126.997 167.9347) (width 0.25) (layer F.Cu) (net 1))
  (segment (start 169.0782 171.45) (end 130.5123 171.45) (width 0.25) (layer F.Cu) (net 1))
  (segment (start 115.505 168.91) (end 115.505 167.9347) (width 0.25) (layer F.Cu) (net 1))
  (segment (start 172.3383 168.0785) (end 170.8718 169.545) (width 0.25) (layer F.Cu) (net 1))
  (segment (start 173.29 168.0785) (end 172.3383 168.0785) (width 0.25) (layer F.Cu) (net 1))
  (segment (start 169.975 169.545) (end 170.8718 169.545) (width 0.25) (layer F.Cu) (net 1))
  (segment (start 115.505 171.45) (end 114.5797 171.45) (width 0.25) (layer F.Cu) (net 1))
  (segment (start 114.5797 171.45) (end 113.4103 172.6194) (width 0.25) (layer F.Cu) (net 1))
  (segment (start 111.2009 172.6194) (end 113.4103 172.6194) (width 0.25) (layer F.Cu) (net 1))
  (segment (start 109.5799 170.9983) (end 111.2009 172.6194) (width 0.25) (layer F.Cu) (net 1))
  (segment (start 114.5797 173.7888) (end 114.5797 173.99) (width 0.25) (layer F.Cu) (net 1))
  (segment (start 113.4103 172.6194) (end 114.5797 173.7888) (width 0.25) (layer F.Cu) (net 1))
  (segment (start 115.505 173.99) (end 114.5797 173.99) (width 0.25) (layer F.Cu) (net 1))
  (segment (start 53.975 169.545) (end 53.0782 169.545) (width 0.25) (layer F.Cu) (net 1))
  (segment (start 57.72 173.99) (end 56.7947 173.99) (width 0.25) (layer F.Cu) (net 1))
  (segment (start 53.0782 171.2974) (end 53.2308 171.45) (width 0.25) (layer F.Cu) (net 1))
  (segment (start 53.0782 169.545) (end 53.0782 171.2974) (width 0.25) (layer F.Cu) (net 1))
  (segment (start 53.2308 171.45) (end 57.72 171.45) (width 0.25) (layer F.Cu) (net 1))
  (segment (start 21.8 167.64) (end 20.2047 167.64) (width 0.25) (layer F.Cu) (net 1))
  (segment (start 20.2047 173.6901) (end 20.2047 167.64) (width 0.25) (layer F.Cu) (net 1))
  (segment (start 20.322 173.8074) (end 20.2047 173.6901) (width 0.25) (layer F.Cu) (net 1))
  (segment (start 23.9625 173.8074) (end 20.322 173.8074) (width 0.25) (layer F.Cu) (net 1))
  (segment (start 25.1055 172.6644) (end 23.9625 173.8074) (width 0.25) (layer F.Cu) (net 1))
  (segment (start 52.9263 172.6644) (end 25.1055 172.6644) (width 0.25) (layer F.Cu) (net 1))
  (segment (start 53.0781 172.5126) (end 52.9263 172.6644) (width 0.25) (layer F.Cu) (net 1))
  (segment (start 53.0781 171.6027) (end 53.0781 172.5126) (width 0.25) (layer F.Cu) (net 1))
  (segment (start 53.2308 171.45) (end 53.0781 171.6027) (width 0.25) (layer F.Cu) (net 1))
  (segment (start 55.6805 172.8758) (end 56.7947 173.99) (width 0.25) (layer F.Cu) (net 1))
  (segment (start 54.9077 172.8758) (end 55.6805 172.8758) (width 0.25) (layer F.Cu) (net 1))
  (segment (start 54.6963 172.6644) (end 54.9077 172.8758) (width 0.25) (layer F.Cu) (net 1))
  (segment (start 53.2299 172.6644) (end 54.6963 172.6644) (width 0.25) (layer F.Cu) (net 1))
  (segment (start 53.0781 172.5126) (end 53.2299 172.6644) (width 0.25) (layer F.Cu) (net 1))
  (segment (start 57.72 168.91) (end 57.72 168.4223) (width 0.25) (layer F.Cu) (net 1))
  (segment (start 57.72 168.4223) (end 57.72 167.9347) (width 0.25) (layer F.Cu) (net 1))
  (segment (start 55.9945 168.4223) (end 54.8718 169.545) (width 0.25) (layer F.Cu) (net 1))
  (segment (start 57.72 168.4223) (end 55.9945 168.4223) (width 0.25) (layer F.Cu) (net 1))
  (segment (start 53.975 169.545) (end 54.8718 169.545) (width 0.25) (layer F.Cu) (net 1))
  (segment (start 24.0303 169.545) (end 23.3953 170.18) (width 0.25) (layer F.Cu) (net 2))
  (segment (start 47.625 169.545) (end 24.0303 169.545) (width 0.25) (layer F.Cu) (net 2))
  (segment (start 21.8 170.18) (end 23.3953 170.18) (width 0.25) (layer F.Cu) (net 2))
  (segment (start 221.625 169.545) (end 220.7282 169.545) (width 0.25) (layer F.Cu) (net 2))
  (segment (start 167.0559 167.0109) (end 164.5218 169.545) (width 0.25) (layer F.Cu) (net 2))
  (segment (start 218.1941 167.0109) (end 167.0559 167.0109) (width 0.25) (layer F.Cu) (net 2))
  (segment (start 220.7282 169.545) (end 218.1941 167.0109) (width 0.25) (layer F.Cu) (net 2))
  (segment (start 164.0734 169.545) (end 164.5218 169.545) (width 0.25) (layer F.Cu) (net 2))
  (segment (start 51.064 167.0028) (end 48.5218 169.545) (width 0.25) (layer F.Cu) (net 2))
  (segment (start 102.231 167.0028) (end 51.064 167.0028) (width 0.25) (layer F.Cu) (net 2))
  (segment (start 104.7282 169.5) (end 102.231 167.0028) (width 0.25) (layer F.Cu) (net 2))
  (segment (start 105.625 169.5) (end 104.7282 169.5) (width 0.25) (layer F.Cu) (net 2))
  (segment (start 47.625 169.545) (end 48.5218 169.545) (width 0.25) (layer F.Cu) (net 2))
  (segment (start 164.0734 169.545) (end 163.625 169.545) (width 0.25) (layer F.Cu) (net 2))
  (segment (start 109.0544 166.9674) (end 106.5218 169.5) (width 0.25) (layer F.Cu) (net 2))
  (segment (start 160.1506 166.9674) (end 109.0544 166.9674) (width 0.25) (layer F.Cu) (net 2))
  (segment (start 162.7282 169.545) (end 160.1506 166.9674) (width 0.25) (layer F.Cu) (net 2))
  (segment (start 163.625 169.545) (end 162.7282 169.545) (width 0.25) (layer F.Cu) (net 2))
  (segment (start 105.625 169.5) (end 106.5218 169.5) (width 0.25) (layer F.Cu) (net 2))
  (segment (start 225.0328 167.034) (end 222.5218 169.545) (width 0.25) (layer F.Cu) (net 2))
  (segment (start 249.0587 167.034) (end 225.0328 167.034) (width 0.25) (layer F.Cu) (net 2))
  (segment (start 252.2047 170.18) (end 249.0587 167.034) (width 0.25) (layer F.Cu) (net 2))
  (segment (start 253.8 170.18) (end 252.2047 170.18) (width 0.25) (layer F.Cu) (net 2))
  (segment (start 221.625 169.545) (end 222.5218 169.545) (width 0.25) (layer F.Cu) (net 2))
  (segment (start 253.8 172.72) (end 252.2047 172.72) (width 0.25) (layer F.Cu) (net 3))
  (segment (start 221.625 170.815) (end 220.7282 170.815) (width 0.25) (layer F.Cu) (net 3))
  (segment (start 25.3003 170.815) (end 23.3953 172.72) (width 0.25) (layer F.Cu) (net 3))
  (segment (start 47.625 170.815) (end 25.3003 170.815) (width 0.25) (layer F.Cu) (net 3))
  (segment (start 21.8 172.72) (end 23.3953 172.72) (width 0.25) (layer F.Cu) (net 3))
  (segment (start 217.3745 167.4613) (end 220.7282 170.815) (width 0.25) (layer F.Cu) (net 3))
  (segment (start 167.8755 167.4613) (end 217.3745 167.4613) (width 0.25) (layer F.Cu) (net 3))
  (segment (start 164.5218 170.815) (end 167.8755 167.4613) (width 0.25) (layer F.Cu) (net 3))
  (segment (start 163.6525 170.815) (end 164.5218 170.815) (width 0.25) (layer F.Cu) (net 3))
  (segment (start 163.6525 170.815) (end 163.625 170.815) (width 0.25) (layer F.Cu) (net 3))
  (segment (start 101.4114 167.4532) (end 104.7282 170.77) (width 0.25) (layer F.Cu) (net 3))
  (segment (start 53.0952 167.4532) (end 101.4114 167.4532) (width 0.25) (layer F.Cu) (net 3))
  (segment (start 49.7334 170.815) (end 53.0952 167.4532) (width 0.25) (layer F.Cu) (net 3))
  (segment (start 47.625 170.815) (end 49.7334 170.815) (width 0.25) (layer F.Cu) (net 3))
  (segment (start 105.625 170.77) (end 106.5218 170.77) (width 0.25) (layer F.Cu) (net 3))
  (segment (start 105.625 170.77) (end 104.7282 170.77) (width 0.25) (layer F.Cu) (net 3))
  (segment (start 132.585 170.815) (end 163.625 170.815) (width 0.25) (layer F.Cu) (net 3))
  (segment (start 129.2233 167.4533) (end 132.585 170.815) (width 0.25) (layer F.Cu) (net 3))
  (segment (start 109.8385 167.4533) (end 129.2233 167.4533) (width 0.25) (layer F.Cu) (net 3))
  (segment (start 106.5218 170.77) (end 109.8385 167.4533) (width 0.25) (layer F.Cu) (net 3))
  (segment (start 246.9691 167.4844) (end 252.2047 172.72) (width 0.25) (layer F.Cu) (net 3))
  (segment (start 228.3376 167.4844) (end 246.9691 167.4844) (width 0.25) (layer F.Cu) (net 3))
  (segment (start 225.007 170.815) (end 228.3376 167.4844) (width 0.25) (layer F.Cu) (net 3))
  (segment (start 221.625 170.815) (end 225.007 170.815) (width 0.25) (layer F.Cu) (net 3))
  (segment (start 182.31 168.91) (end 182.31 171.45) (width 0.25) (layer F.Cu) (net 4))
  (segment (start 163.625 173.355) (end 162.7282 173.355) (width 0.25) (layer F.Cu) (net 4))
  (segment (start 66.74 168.91) (end 66.74 171.45) (width 0.25) (layer F.Cu) (net 4))
  (segment (start 66.74 171.45) (end 67.6653 171.45) (width 0.25) (layer F.Cu) (net 4))
  (segment (start 182.31 171.45) (end 183.2353 171.45) (width 0.25) (layer F.Cu) (net 4))
  (segment (start 221.2329 173.355) (end 220.8408 173.355) (width 0.25) (layer F.Cu) (net 4))
  (segment (start 221.2329 173.355) (end 221.625 173.355) (width 0.25) (layer F.Cu) (net 4))
  (segment (start 21.8 175.26) (end 23.3953 175.26) (width 0.25) (layer F.Cu) (net 4))
  (segment (start 224.1321 174.9653) (end 222.5218 173.355) (width 0.25) (layer F.Cu) (net 4))
  (segment (start 240.73 174.9653) (end 224.1321 174.9653) (width 0.25) (layer F.Cu) (net 4))
  (segment (start 221.625 173.355) (end 222.5218 173.355) (width 0.25) (layer F.Cu) (net 4))
  (segment (start 240.73 173.99) (end 240.73 171.45) (width 0.25) (layer F.Cu) (net 4))
  (segment (start 240.73 171.45) (end 240.73 168.91) (width 0.25) (layer F.Cu) (net 4))
  (segment (start 240.73 173.99) (end 240.73 174.4776) (width 0.25) (layer F.Cu) (net 4))
  (segment (start 240.73 174.4776) (end 240.73 174.9653) (width 0.25) (layer F.Cu) (net 4))
  (segment (start 251.4223 174.4776) (end 252.2047 175.26) (width 0.25) (layer F.Cu) (net 4))
  (segment (start 240.73 174.4776) (end 251.4223 174.4776) (width 0.25) (layer F.Cu) (net 4))
  (segment (start 253.8 175.26) (end 252.2047 175.26) (width 0.25) (layer F.Cu) (net 4))
  (segment (start 123.89 168.91) (end 123.89 171.45) (width 0.25) (layer F.Cu) (net 4))
  (segment (start 123.89 171.45) (end 123.89 172.4124) (width 0.25) (layer F.Cu) (net 4))
  (segment (start 183.8703 173.355) (end 183.2353 173.99) (width 0.25) (layer F.Cu) (net 4))
  (segment (start 220.8408 173.355) (end 183.8703 173.355) (width 0.25) (layer F.Cu) (net 4))
  (segment (start 183.2353 172.72) (end 183.2353 171.45) (width 0.25) (layer F.Cu) (net 4))
  (segment (start 183.8703 173.355) (end 183.2353 172.72) (width 0.25) (layer F.Cu) (net 4))
  (segment (start 182.31 173.99) (end 182.7727 173.99) (width 0.25) (layer F.Cu) (net 4))
  (segment (start 182.7727 173.99) (end 183.2353 173.99) (width 0.25) (layer F.Cu) (net 4))
  (segment (start 166.5853 175.4185) (end 164.5218 173.355) (width 0.25) (layer F.Cu) (net 4))
  (segment (start 181.3442 175.4185) (end 166.5853 175.4185) (width 0.25) (layer F.Cu) (net 4))
  (segment (start 182.7727 173.99) (end 181.3442 175.4185) (width 0.25) (layer F.Cu) (net 4))
  (segment (start 163.625 173.355) (end 164.5218 173.355) (width 0.25) (layer F.Cu) (net 4))
  (segment (start 123.89 172.4124) (end 124.6788 173.2012) (width 0.25) (layer F.Cu) (net 4))
  (segment (start 124.8326 173.355) (end 162.7282 173.355) (width 0.25) (layer F.Cu) (net 4))
  (segment (start 124.6788 173.2012) (end 124.8326 173.355) (width 0.25) (layer F.Cu) (net 4))
  (segment (start 25.3003 173.355) (end 47.625 173.355) (width 0.25) (layer F.Cu) (net 4))
  (segment (start 23.3953 175.26) (end 25.3003 173.355) (width 0.25) (layer F.Cu) (net 4))
  (segment (start 67.6653 173.6054) (end 67.6653 173.99) (width 0.25) (layer F.Cu) (net 4))
  (segment (start 67.9607 173.31) (end 67.6653 173.6054) (width 0.25) (layer F.Cu) (net 4))
  (segment (start 105.625 173.31) (end 67.9607 173.31) (width 0.25) (layer F.Cu) (net 4))
  (segment (start 67.6653 173.0146) (end 67.6653 171.45) (width 0.25) (layer F.Cu) (net 4))
  (segment (start 67.9607 173.31) (end 67.6653 173.0146) (width 0.25) (layer F.Cu) (net 4))
  (segment (start 66.74 173.99) (end 67.2027 173.99) (width 0.25) (layer F.Cu) (net 4))
  (segment (start 67.2027 173.99) (end 67.6653 173.99) (width 0.25) (layer F.Cu) (net 4))
  (segment (start 50.625 175.4582) (end 48.5218 173.355) (width 0.25) (layer F.Cu) (net 4))
  (segment (start 65.7345 175.4582) (end 50.625 175.4582) (width 0.25) (layer F.Cu) (net 4))
  (segment (start 67.2027 173.99) (end 65.7345 175.4582) (width 0.25) (layer F.Cu) (net 4))
  (segment (start 47.625 173.355) (end 48.5218 173.355) (width 0.25) (layer F.Cu) (net 4))
  (segment (start 105.625 173.31) (end 106.5218 173.31) (width 0.25) (layer F.Cu) (net 4))
  (segment (start 124.6788 173.2012) (end 123.89 173.99) (width 0.25) (layer F.Cu) (net 4))
  (segment (start 108.6499 175.4381) (end 106.5218 173.31) (width 0.25) (layer F.Cu) (net 4))
  (segment (start 123.4172 175.4381) (end 108.6499 175.4381) (width 0.25) (layer F.Cu) (net 4))
  (segment (start 123.89 174.9653) (end 123.4172 175.4381) (width 0.25) (layer F.Cu) (net 4))
  (segment (start 123.89 173.99) (end 123.89 174.9653) (width 0.25) (layer F.Cu) (net 4))
  (segment (start 65.34 168.91) (end 64.4147 168.91) (width 0.25) (layer F.Cu) (net 5))
  (segment (start 53.975 170.815) (end 54.8718 170.815) (width 0.25) (layer F.Cu) (net 5))
  (segment (start 64.4147 168.91) (end 59.12 168.91) (width 0.25) (layer F.Cu) (net 5))
  (segment (start 55.8015 169.8853) (end 54.8718 170.815) (width 0.25) (layer F.Cu) (net 5))
  (segment (start 59.12 169.8853) (end 55.8015 169.8853) (width 0.25) (layer F.Cu) (net 5))
  (segment (start 59.12 168.91) (end 59.12 169.8853) (width 0.25) (layer F.Cu) (net 5))
  (segment (start 60.0453 171.45) (end 64.4147 171.45) (width 0.25) (layer F.Cu) (net 6))
  (segment (start 65.34 171.45) (end 64.4147 171.45) (width 0.25) (layer F.Cu) (net 6))
  (segment (start 59.12 171.45) (end 59.3514 171.45) (width 0.25) (layer F.Cu) (net 6))
  (segment (start 59.3514 171.45) (end 60.0453 171.45) (width 0.25) (layer F.Cu) (net 6))
  (segment (start 55.2122 172.4254) (end 54.8718 172.085) (width 0.25) (layer F.Cu) (net 6))
  (segment (start 58.498 172.4254) (end 55.2122 172.4254) (width 0.25) (layer F.Cu) (net 6))
  (segment (start 59.3514 171.572) (end 58.498 172.4254) (width 0.25) (layer F.Cu) (net 6))
  (segment (start 59.3514 171.45) (end 59.3514 171.572) (width 0.25) (layer F.Cu) (net 6))
  (segment (start 53.975 172.085) (end 54.8718 172.085) (width 0.25) (layer F.Cu) (net 6))
  (segment (start 53.975 173.355) (end 54.8718 173.355) (width 0.25) (layer F.Cu) (net 7))
  (segment (start 65.34 173.99) (end 59.12 173.99) (width 0.25) (layer F.Cu) (net 7))
  (segment (start 59.12 173.99) (end 59.12 174.9653) (width 0.25) (layer F.Cu) (net 7))
  (segment (start 56.4821 174.9653) (end 54.8718 173.355) (width 0.25) (layer F.Cu) (net 7))
  (segment (start 59.12 174.9653) (end 56.4821 174.9653) (width 0.25) (layer F.Cu) (net 7))
  (segment (start 122.49 168.91) (end 116.905 168.91) (width 0.25) (layer F.Cu) (net 8))
  (segment (start 113.1637 170.77) (end 111.975 170.77) (width 0.25) (layer F.Cu) (net 8))
  (segment (start 113.9808 169.9529) (end 113.1637 170.77) (width 0.25) (layer F.Cu) (net 8))
  (segment (start 116.8374 169.9529) (end 113.9808 169.9529) (width 0.25) (layer F.Cu) (net 8))
  (segment (start 116.905 169.8853) (end 116.8374 169.9529) (width 0.25) (layer F.Cu) (net 8))
  (segment (start 116.905 168.91) (end 116.905 169.8853) (width 0.25) (layer F.Cu) (net 8))
  (segment (start 122.49 171.45) (end 116.905 171.45) (width 0.25) (layer F.Cu) (net 9))
  (segment (start 116.905 171.45) (end 116.905 170.4747) (width 0.25) (layer F.Cu) (net 9))
  (segment (start 113.1944 172.04) (end 111.975 172.04) (width 0.25) (layer F.Cu) (net 9))
  (segment (start 114.7597 170.4747) (end 113.1944 172.04) (width 0.25) (layer F.Cu) (net 9))
  (segment (start 116.905 170.4747) (end 114.7597 170.4747) (width 0.25) (layer F.Cu) (net 9))
  (segment (start 111.975 173.31) (end 112.8718 173.31) (width 0.25) (layer F.Cu) (net 10))
  (segment (start 122.49 173.99) (end 116.905 173.99) (width 0.25) (layer F.Cu) (net 10))
  (segment (start 114.5271 174.9653) (end 112.8718 173.31) (width 0.25) (layer F.Cu) (net 10))
  (segment (start 116.905 174.9653) (end 114.5271 174.9653) (width 0.25) (layer F.Cu) (net 10))
  (segment (start 116.905 173.99) (end 116.905 174.9653) (width 0.25) (layer F.Cu) (net 10))
  (segment (start 180.91 168.91) (end 174.69 168.91) (width 0.25) (layer F.Cu) (net 11))
  (segment (start 171.8015 169.8853) (end 170.8718 170.815) (width 0.25) (layer F.Cu) (net 11))
  (segment (start 174.69 169.8853) (end 171.8015 169.8853) (width 0.25) (layer F.Cu) (net 11))
  (segment (start 174.69 168.91) (end 174.69 169.8853) (width 0.25) (layer F.Cu) (net 11))
  (segment (start 169.975 170.815) (end 170.8718 170.815) (width 0.25) (layer F.Cu) (net 11))
  (segment (start 169.975 172.085) (end 170.8718 172.085) (width 0.25) (layer F.Cu) (net 12))
  (segment (start 180.91 171.45) (end 174.69 171.45) (width 0.25) (layer F.Cu) (net 12))
  (segment (start 172.4821 170.4747) (end 170.8718 172.085) (width 0.25) (layer F.Cu) (net 12))
  (segment (start 174.69 170.4747) (end 172.4821 170.4747) (width 0.25) (layer F.Cu) (net 12))
  (segment (start 174.69 171.45) (end 174.69 170.4747) (width 0.25) (layer F.Cu) (net 12))
  (segment (start 169.975 173.355) (end 170.8718 173.355) (width 0.25) (layer F.Cu) (net 13))
  (segment (start 172.4821 174.9653) (end 170.8718 173.355) (width 0.25) (layer F.Cu) (net 13))
  (segment (start 174.69 174.9653) (end 172.4821 174.9653) (width 0.25) (layer F.Cu) (net 13))
  (segment (start 174.69 173.99) (end 174.69 174.9653) (width 0.25) (layer F.Cu) (net 13))
  (segment (start 180.91 173.99) (end 174.69 173.99) (width 0.25) (layer F.Cu) (net 13))
  (segment (start 227.975 170.815) (end 228.8718 170.815) (width 0.25) (layer F.Cu) (net 14))
  (segment (start 239.33 168.91) (end 233.11 168.91) (width 0.25) (layer F.Cu) (net 14))
  (segment (start 229.8015 169.8853) (end 228.8718 170.815) (width 0.25) (layer F.Cu) (net 14))
  (segment (start 233.11 169.8853) (end 229.8015 169.8853) (width 0.25) (layer F.Cu) (net 14))
  (segment (start 233.11 168.91) (end 233.11 169.8853) (width 0.25) (layer F.Cu) (net 14))
  (segment (start 227.975 172.085) (end 228.8718 172.085) (width 0.25) (layer F.Cu) (net 15))
  (segment (start 239.33 171.45) (end 233.11 171.45) (width 0.25) (layer F.Cu) (net 15))
  (segment (start 233.11 171.45) (end 233.11 172.4253) (width 0.25) (layer F.Cu) (net 15))
  (segment (start 229.2121 172.4253) (end 228.8718 172.085) (width 0.25) (layer F.Cu) (net 15))
  (segment (start 233.11 172.4253) (end 229.2121 172.4253) (width 0.25) (layer F.Cu) (net 15))
  (segment (start 227.975 173.355) (end 228.8718 173.355) (width 0.25) (layer F.Cu) (net 16))
  (segment (start 239.33 173.99) (end 233.11 173.99) (width 0.25) (layer F.Cu) (net 16))
  (segment (start 229.2121 173.0147) (end 228.8718 173.355) (width 0.25) (layer F.Cu) (net 16))
  (segment (start 233.11 173.0147) (end 229.2121 173.0147) (width 0.25) (layer F.Cu) (net 16))
  (segment (start 233.11 173.99) (end 233.11 173.0147) (width 0.25) (layer F.Cu) (net 16))

)
