EESchema Schematic File Version 2
LIBS:power
LIBS:device
LIBS:switches
LIBS:relays
LIBS:motors
LIBS:transistors
LIBS:conn
LIBS:linear
LIBS:regul
LIBS:74xx
LIBS:cmos4000
LIBS:adc-dac
LIBS:memory
LIBS:xilinx
LIBS:microcontrollers
LIBS:dsp
LIBS:microchip
LIBS:analog_switches
LIBS:motorola
LIBS:texas
LIBS:intel
LIBS:audio
LIBS:interface
LIBS:digital-audio
LIBS:philips
LIBS:display
LIBS:cypress
LIBS:siliconi
LIBS:opto
LIBS:atmel
LIBS:contrib
LIBS:valves
LIBS:nxp_pct2075
EELAYER 25 0
EELAYER END
$Descr A2 23386 16535
encoding utf-8
Sheet 1 1
Title ""
Date ""
Rev ""
Comp ""
Comment1 ""
Comment2 ""
Comment3 ""
Comment4 ""
$EndDescr
$Comp
L NXP_PCT2075 U1
U 1 1 5BF7D214
P 5900 9100
F 0 "U1" H 2700 11050 60  0000 C CNN
F 1 "NXP_PCT2075" H 2700 12000 60  0000 C CNN
F 2 "SMD_Packages:SOIC-8-N" H 5900 9100 60  0001 C CNN
F 3 "" H 5900 9100 60  0001 C CNN
	1    5900 9100
	1    0    0    -1  
$EndComp
$Comp
L Conn_01x04 J1
U 1 1 5BF7D215
P 650 6700
F 0 "J1" H 650 6900 50  0000 C CNN
F 1 "conn_left" H 650 6400 50  0000 C CNN
F 2 ".pretty:Connector1x4pin" H 650 6700 50  0001 C CNN
F 3 "" H 650 6700 50  0001 C CNN
	1    650  6700
	-1   0    0    -1  
$EndComp
$Comp
L R R2
U 1 1 5BF7D216
P 3600 6650
F 0 "R2" V 3680 6650 50  0000 C CNN
F 1 "R" V 3600 6650 50  0000 C CNN
F 2 ".pretty:R_0805_circuit_breaker" V 3530 6650 50  0001 C CNN
F 3 "" H 3600 6650 50  0001 C CNN
	1    3600 6650
	0    1    1    0   
$EndComp
$Comp
L R R6
U 1 1 5BF7D217
P 4400 7550
F 0 "R6" V 4480 7550 50  0000 C CNN
F 1 "R" V 4400 7550 50  0000 C CNN
F 2 ".pretty:R_0805_circuit_breaker" V 4330 7550 50  0001 C CNN
F 3 "" H 4400 7550 50  0001 C CNN
	1    4400 7550
	0    1    1    0   
$EndComp
$Comp
L R R4
U 1 1 5BF7D218
P 4000 7100
F 0 "R4" V 4080 7100 50  0000 C CNN
F 1 "R" V 4000 7100 50  0000 C CNN
F 2 ".pretty:R_0805_circuit_breaker" V 3930 7100 50  0001 C CNN
F 3 "" H 4000 7100 50  0001 C CNN
	1    4000 7100
	0    1    1    0   
$EndComp
Wire Wire Line
	3250 6150 3250 6550
Wire Wire Line
	1450 6150 5650 6150
Wire Wire Line
	1450 6150 1450 6600
Wire Wire Line
	1450 6600 850  6600
Wire Wire Line
	1650 6550 2150 6550
Wire Wire Line
	1650 6700 1650 6550
Wire Wire Line
	850  6700 1650 6700
Wire Wire Line
	2150 6700 1800 6700
Wire Wire Line
	1800 6700 1800 6800
Wire Wire Line
	1800 6800 850  6800
Wire Wire Line
	1800 7000 2150 7000
Wire Wire Line
	1800 6900 1800 7000
Wire Wire Line
	850  6900 1800 6900
$Comp
L R R1
U 1 1 5BF7D219
P 3450 6500
F 0 "R1" V 3530 6500 50  0000 C CNN
F 1 "R" V 3450 6500 50  0000 C CNN
F 2 ".pretty:R_0805_circuit_breaker" V 3380 6500 50  0001 C CNN
F 3 "" H 3450 6500 50  0001 C CNN
	1    3450 6500
	-1   0    0    1   
$EndComp
$Comp
L R R5
U 1 1 5BF7D21A
P 4250 7400
F 0 "R5" V 4330 7400 50  0000 C CNN
F 1 "R" V 4250 7400 50  0000 C CNN
F 2 ".pretty:R_0805_circuit_breaker" V 4180 7400 50  0001 C CNN
F 3 "" H 4250 7400 50  0001 C CNN
	1    4250 7400
	-1   0    0    1   
$EndComp
$Comp
L R R3
U 1 1 5BF7D21B
P 3850 6950
F 0 "R3" V 3930 6950 50  0000 C CNN
F 1 "R" V 3850 6950 50  0000 C CNN
F 2 ".pretty:R_0805_circuit_breaker" V 3780 6950 50  0001 C CNN
F 3 "" H 3850 6950 50  0001 C CNN
	1    3850 6950
	-1   0    0    1   
$EndComp
Wire Wire Line
	3450 6150 3450 6350
Connection ~ 3250 6150
Wire Wire Line
	3850 6150 3850 6800
Connection ~ 3450 6150
Wire Wire Line
	4250 6150 4250 7250
Connection ~ 3850 6150
Wire Wire Line
	4550 7800 4550 7550
Wire Wire Line
	2050 7800 4550 7800
Wire Wire Line
	2050 7800 2050 7000
Connection ~ 2050 7000
Wire Wire Line
	4150 7100 4150 7300
Wire Wire Line
	4150 7300 3750 7300
Wire Wire Line
	3750 7300 3750 7800
Connection ~ 3750 7800
Wire Wire Line
	3750 6650 3750 6850
Wire Wire Line
	3750 6850 3600 6850
Wire Wire Line
	3600 6850 3600 7800
Connection ~ 3600 7800
Wire Wire Line
	3250 6700 3450 6700
Wire Wire Line
	3450 6700 3450 6650
Wire Wire Line
	3250 6850 3500 6850
Wire Wire Line
	3500 6850 3500 7100
Wire Wire Line
	3500 7100 3850 7100
Wire Wire Line
	3250 7000 3250 7550
Wire Wire Line
	3250 7550 4250 7550
Wire Wire Line
	1000 6900 1000 8300
Wire Wire Line
	1000 8300 5800 8300
Wire Wire Line
	5800 8300 5800 6900
Wire Wire Line
	5800 6900 7150 6900
Connection ~ 1000 6900
Wire Wire Line
	1550 6700 1550 7850
Wire Wire Line
	1550 7850 5100 7850
Wire Wire Line
	5100 7850 5100 6700
Wire Wire Line
	5100 6700 7000 6700
Connection ~ 1550 6700
Wire Wire Line
	1350 6800 1350 8000
Wire Wire Line
	1350 8000 5400 8000
Wire Wire Line
	5400 8000 5400 6800
Wire Wire Line
	5400 6800 7150 6800
Connection ~ 1350 6800
Wire Wire Line
	5650 6150 5650 6600
Wire Wire Line
	5650 6600 6800 6600
Connection ~ 4250 6150
$Comp
L NXP_PCT2075 U2
U 1 1 5BF7E2B1
P 11250 9100
F 0 "U2" H 8050 11050 60  0000 C CNN
F 1 "NXP_PCT2075" H 8050 12000 60  0000 C CNN
F 2 "SMD_Packages:SOIC-8-N" H 11250 9100 60  0001 C CNN
F 3 "" H 11250 9100 60  0001 C CNN
	1    11250 9100
	1    0    0    -1  
$EndComp
$Comp
L R R8
U 1 1 5BF7E2BD
P 8950 6650
F 0 "R8" V 9030 6650 50  0000 C CNN
F 1 "R" V 8950 6650 50  0000 C CNN
F 2 ".pretty:R_0805_circuit_breaker" V 8880 6650 50  0001 C CNN
F 3 "" H 8950 6650 50  0001 C CNN
	1    8950 6650
	0    1    1    0   
$EndComp
$Comp
L R R12
U 1 1 5BF7E2C3
P 9750 7550
F 0 "R12" V 9830 7550 50  0000 C CNN
F 1 "R" V 9750 7550 50  0000 C CNN
F 2 ".pretty:R_0805_circuit_breaker" V 9680 7550 50  0001 C CNN
F 3 "" H 9750 7550 50  0001 C CNN
	1    9750 7550
	0    1    1    0   
$EndComp
$Comp
L R R10
U 1 1 5BF7E2C9
P 9350 7100
F 0 "R10" V 9430 7100 50  0000 C CNN
F 1 "R" V 9350 7100 50  0000 C CNN
F 2 ".pretty:R_0805_circuit_breaker" V 9280 7100 50  0001 C CNN
F 3 "" H 9350 7100 50  0001 C CNN
	1    9350 7100
	0    1    1    0   
$EndComp
Wire Wire Line
	8600 6150 8600 6550
Wire Wire Line
	6800 6150 11000 6150
Wire Wire Line
	6800 6600 6800 6150
Wire Wire Line
	7000 6550 7500 6550
Wire Wire Line
	7000 6700 7000 6550
Wire Wire Line
	7500 6700 7150 6700
Wire Wire Line
	7150 6700 7150 6800
Wire Wire Line
	7150 7000 7500 7000
Wire Wire Line
	7150 6900 7150 7000
$Comp
L R R7
U 1 1 5BF7E2DC
P 8800 6500
F 0 "R7" V 8880 6500 50  0000 C CNN
F 1 "R" V 8800 6500 50  0000 C CNN
F 2 ".pretty:R_0805_circuit_breaker" V 8730 6500 50  0001 C CNN
F 3 "" H 8800 6500 50  0001 C CNN
	1    8800 6500
	-1   0    0    1   
$EndComp
$Comp
L R R11
U 1 1 5BF7E2E2
P 9600 7400
F 0 "R11" V 9680 7400 50  0000 C CNN
F 1 "R" V 9600 7400 50  0000 C CNN
F 2 ".pretty:R_0805_circuit_breaker" V 9530 7400 50  0001 C CNN
F 3 "" H 9600 7400 50  0001 C CNN
	1    9600 7400
	-1   0    0    1   
$EndComp
$Comp
L R R9
U 1 1 5BF7E2E8
P 9200 6950
F 0 "R9" V 9280 6950 50  0000 C CNN
F 1 "R" V 9200 6950 50  0000 C CNN
F 2 ".pretty:R_0805_circuit_breaker" V 9130 6950 50  0001 C CNN
F 3 "" H 9200 6950 50  0001 C CNN
	1    9200 6950
	-1   0    0    1   
$EndComp
Wire Wire Line
	8800 6150 8800 6350
Connection ~ 8600 6150
Wire Wire Line
	9200 6150 9200 6800
Connection ~ 8800 6150
Wire Wire Line
	9600 6150 9600 7250
Connection ~ 9200 6150
Wire Wire Line
	9900 7800 9900 7550
Wire Wire Line
	7400 7800 9900 7800
Wire Wire Line
	7400 7800 7400 7000
Connection ~ 7400 7000
Wire Wire Line
	9500 7100 9500 7300
Wire Wire Line
	9500 7300 9100 7300
Wire Wire Line
	9100 7300 9100 7800
Connection ~ 9100 7800
Wire Wire Line
	9100 6650 9100 6850
Wire Wire Line
	9100 6850 8950 6850
Wire Wire Line
	8950 6850 8950 7800
Connection ~ 8950 7800
Wire Wire Line
	8600 6700 8800 6700
Wire Wire Line
	8800 6700 8800 6650
Wire Wire Line
	8600 6850 8850 6850
Wire Wire Line
	8850 6850 8850 7100
Wire Wire Line
	8850 7100 9200 7100
Wire Wire Line
	8600 7000 8600 7550
Wire Wire Line
	8600 7550 9600 7550
Wire Wire Line
	6350 6900 6350 8300
Wire Wire Line
	6350 8300 11150 8300
Wire Wire Line
	11150 8300 11150 6900
Wire Wire Line
	11150 6900 12700 6900
Connection ~ 6350 6900
Wire Wire Line
	6900 6700 6900 7850
Wire Wire Line
	6900 7850 10450 7850
Wire Wire Line
	10450 7850 10450 6700
Connection ~ 6900 6700
Wire Wire Line
	11000 6150 11000 6600
Connection ~ 9600 6150
Wire Wire Line
	10450 6700 12550 6700
Wire Wire Line
	10750 6800 12700 6800
$Comp
L NXP_PCT2075 U3
U 1 1 5BF7E996
P 16800 9100
F 0 "U3" H 13600 11050 60  0000 C CNN
F 1 "NXP_PCT2075" H 13600 12000 60  0000 C CNN
F 2 "SMD_Packages:SOIC-8-N" H 16800 9100 60  0001 C CNN
F 3 "" H 16800 9100 60  0001 C CNN
	1    16800 9100
	1    0    0    -1  
$EndComp
$Comp
L R R14
U 1 1 5BF7E99C
P 14500 6650
F 0 "R14" V 14580 6650 50  0000 C CNN
F 1 "R" V 14500 6650 50  0000 C CNN
F 2 ".pretty:R_0805_circuit_breaker" V 14430 6650 50  0001 C CNN
F 3 "" H 14500 6650 50  0001 C CNN
	1    14500 6650
	0    1    1    0   
$EndComp
$Comp
L R R18
U 1 1 5BF7E9A2
P 15300 7550
F 0 "R18" V 15380 7550 50  0000 C CNN
F 1 "R" V 15300 7550 50  0000 C CNN
F 2 ".pretty:R_0805_circuit_breaker" V 15230 7550 50  0001 C CNN
F 3 "" H 15300 7550 50  0001 C CNN
	1    15300 7550
	0    1    1    0   
$EndComp
$Comp
L R R16
U 1 1 5BF7E9A8
P 14900 7100
F 0 "R16" V 14980 7100 50  0000 C CNN
F 1 "R" V 14900 7100 50  0000 C CNN
F 2 ".pretty:R_0805_circuit_breaker" V 14830 7100 50  0001 C CNN
F 3 "" H 14900 7100 50  0001 C CNN
	1    14900 7100
	0    1    1    0   
$EndComp
Wire Wire Line
	14150 6150 14150 6550
Wire Wire Line
	12350 6150 16550 6150
Wire Wire Line
	12350 6600 12350 6150
Wire Wire Line
	12550 6550 13050 6550
Wire Wire Line
	12550 6700 12550 6550
Wire Wire Line
	13050 6700 12700 6700
Wire Wire Line
	12700 6700 12700 6800
Wire Wire Line
	12700 7000 13050 7000
Wire Wire Line
	12700 6900 12700 7000
$Comp
L R R13
U 1 1 5BF7E9B7
P 14350 6500
F 0 "R13" V 14430 6500 50  0000 C CNN
F 1 "R" V 14350 6500 50  0000 C CNN
F 2 ".pretty:R_0805_circuit_breaker" V 14280 6500 50  0001 C CNN
F 3 "" H 14350 6500 50  0001 C CNN
	1    14350 6500
	-1   0    0    1   
$EndComp
$Comp
L R R17
U 1 1 5BF7E9BD
P 15150 7400
F 0 "R17" V 15230 7400 50  0000 C CNN
F 1 "R" V 15150 7400 50  0000 C CNN
F 2 ".pretty:R_0805_circuit_breaker" V 15080 7400 50  0001 C CNN
F 3 "" H 15150 7400 50  0001 C CNN
	1    15150 7400
	-1   0    0    1   
$EndComp
$Comp
L R R15
U 1 1 5BF7E9C3
P 14750 6950
F 0 "R15" V 14830 6950 50  0000 C CNN
F 1 "R" V 14750 6950 50  0000 C CNN
F 2 ".pretty:R_0805_circuit_breaker" V 14680 6950 50  0001 C CNN
F 3 "" H 14750 6950 50  0001 C CNN
	1    14750 6950
	-1   0    0    1   
$EndComp
Wire Wire Line
	14350 6150 14350 6350
Connection ~ 14150 6150
Wire Wire Line
	14750 6150 14750 6800
Connection ~ 14350 6150
Wire Wire Line
	15150 6150 15150 7250
Connection ~ 14750 6150
Wire Wire Line
	15450 7800 15450 7550
Wire Wire Line
	12950 7800 15450 7800
Wire Wire Line
	12950 7800 12950 7000
Connection ~ 12950 7000
Wire Wire Line
	15050 7100 15050 7300
Wire Wire Line
	15050 7300 14650 7300
Wire Wire Line
	14650 7300 14650 7800
Connection ~ 14650 7800
Wire Wire Line
	14650 6650 14650 6850
Wire Wire Line
	14650 6850 14500 6850
Wire Wire Line
	14500 6850 14500 7800
Connection ~ 14500 7800
Wire Wire Line
	14150 6700 14350 6700
Wire Wire Line
	14350 6700 14350 6650
Wire Wire Line
	14150 6850 14400 6850
Wire Wire Line
	14400 6850 14400 7100
Wire Wire Line
	14400 7100 14750 7100
Wire Wire Line
	14150 7000 14150 7550
Wire Wire Line
	14150 7550 15150 7550
Wire Wire Line
	11900 6900 11900 8300
Wire Wire Line
	11900 8300 16700 8300
Wire Wire Line
	16700 8300 16700 6900
Wire Wire Line
	16700 6900 18250 6900
Connection ~ 11900 6900
Wire Wire Line
	12450 6700 12450 7850
Wire Wire Line
	12450 7850 16000 7850
Wire Wire Line
	16000 7850 16000 6700
Wire Wire Line
	16000 6700 18100 6700
Connection ~ 12450 6700
Wire Wire Line
	12250 6800 12250 8000
Wire Wire Line
	12250 8000 16300 8000
Wire Wire Line
	16300 8000 16300 6800
Wire Wire Line
	16300 6800 18250 6800
Wire Wire Line
	16550 6150 16550 6600
Connection ~ 15150 6150
Wire Wire Line
	6600 6800 6600 8050
Wire Wire Line
	6600 8050 10750 8050
Wire Wire Line
	10750 8050 10750 6800
Connection ~ 12250 6800
Connection ~ 6600 6800
Wire Wire Line
	11000 6600 12350 6600
$Comp
L NXP_PCT2075 U4
U 1 1 5BF80E7C
P 22350 9100
F 0 "U4" H 19150 11050 60  0000 C CNN
F 1 "NXP_PCT2075" H 19150 12000 60  0000 C CNN
F 2 "SMD_Packages:SOIC-8-N" H 22350 9100 60  0001 C CNN
F 3 "" H 22350 9100 60  0001 C CNN
	1    22350 9100
	1    0    0    -1  
$EndComp
$Comp
L R R20
U 1 1 5BF80E82
P 20050 6650
F 0 "R20" V 20130 6650 50  0000 C CNN
F 1 "R" V 20050 6650 50  0000 C CNN
F 2 ".pretty:R_0805_circuit_breaker" V 19980 6650 50  0001 C CNN
F 3 "" H 20050 6650 50  0001 C CNN
	1    20050 6650
	0    1    1    0   
$EndComp
$Comp
L R R24
U 1 1 5BF80E88
P 20850 7550
F 0 "R24" V 20930 7550 50  0000 C CNN
F 1 "R" V 20850 7550 50  0000 C CNN
F 2 ".pretty:R_0805_circuit_breaker" V 20780 7550 50  0001 C CNN
F 3 "" H 20850 7550 50  0001 C CNN
	1    20850 7550
	0    1    1    0   
$EndComp
$Comp
L R R22
U 1 1 5BF80E8E
P 20450 7100
F 0 "R22" V 20530 7100 50  0000 C CNN
F 1 "R" V 20450 7100 50  0000 C CNN
F 2 ".pretty:R_0805_circuit_breaker" V 20380 7100 50  0001 C CNN
F 3 "" H 20450 7100 50  0001 C CNN
	1    20450 7100
	0    1    1    0   
$EndComp
Wire Wire Line
	19700 6150 19700 6550
Wire Wire Line
	17900 6150 22100 6150
Wire Wire Line
	17900 6600 17900 6150
Wire Wire Line
	18100 6550 18600 6550
Wire Wire Line
	18100 6700 18100 6550
Wire Wire Line
	18600 6700 18250 6700
Wire Wire Line
	18250 6700 18250 6800
Wire Wire Line
	18250 7000 18600 7000
Wire Wire Line
	18250 6900 18250 7000
$Comp
L R R19
U 1 1 5BF80E9D
P 19900 6500
F 0 "R19" V 19980 6500 50  0000 C CNN
F 1 "R" V 19900 6500 50  0000 C CNN
F 2 ".pretty:R_0805_circuit_breaker" V 19830 6500 50  0001 C CNN
F 3 "" H 19900 6500 50  0001 C CNN
	1    19900 6500
	-1   0    0    1   
$EndComp
$Comp
L R R23
U 1 1 5BF80EA3
P 20700 7400
F 0 "R23" V 20780 7400 50  0000 C CNN
F 1 "R" V 20700 7400 50  0000 C CNN
F 2 ".pretty:R_0805_circuit_breaker" V 20630 7400 50  0001 C CNN
F 3 "" H 20700 7400 50  0001 C CNN
	1    20700 7400
	-1   0    0    1   
$EndComp
$Comp
L R R21
U 1 1 5BF80EA9
P 20300 6950
F 0 "R21" V 20380 6950 50  0000 C CNN
F 1 "R" V 20300 6950 50  0000 C CNN
F 2 ".pretty:R_0805_circuit_breaker" V 20230 6950 50  0001 C CNN
F 3 "" H 20300 6950 50  0001 C CNN
	1    20300 6950
	-1   0    0    1   
$EndComp
Wire Wire Line
	19900 6150 19900 6350
Connection ~ 19700 6150
Wire Wire Line
	20300 6150 20300 6800
Connection ~ 19900 6150
Wire Wire Line
	20700 6150 20700 7250
Connection ~ 20300 6150
Wire Wire Line
	21000 7800 21000 7550
Wire Wire Line
	18500 7800 21000 7800
Wire Wire Line
	18500 7800 18500 7000
Connection ~ 18500 7000
Wire Wire Line
	20600 7100 20600 7300
Wire Wire Line
	20600 7300 20200 7300
Wire Wire Line
	20200 7300 20200 7800
Connection ~ 20200 7800
Wire Wire Line
	20200 6650 20200 6850
Wire Wire Line
	20200 6850 20050 6850
Wire Wire Line
	20050 6850 20050 7800
Connection ~ 20050 7800
Wire Wire Line
	19700 6700 19900 6700
Wire Wire Line
	19900 6700 19900 6650
Wire Wire Line
	19700 6850 19950 6850
Wire Wire Line
	19950 6850 19950 7100
Wire Wire Line
	19950 7100 20300 7100
Wire Wire Line
	19700 7000 19700 7550
Wire Wire Line
	19700 7550 20700 7550
$Comp
L Conn_01x04 J2
U 1 1 5BF80EC8
P 22650 6700
F 0 "J2" H 22650 6900 50  0000 C CNN
F 1 "conn_right" H 22650 6400 50  0000 C CNN
F 2 ".pretty:Connector1x4pin" H 22650 6700 50  0001 C CNN
F 3 "" H 22650 6700 50  0001 C CNN
	1    22650 6700
	1    0    0    -1  
$EndComp
Wire Wire Line
	17450 6900 17450 8300
Wire Wire Line
	17450 8300 22250 8300
Wire Wire Line
	22250 8300 22250 6900
Wire Wire Line
	22250 6900 22450 6900
Connection ~ 17450 6900
Wire Wire Line
	18000 6700 18000 7850
Wire Wire Line
	18000 7850 21550 7850
Wire Wire Line
	21550 7850 21550 6700
Wire Wire Line
	21550 6700 22450 6700
Connection ~ 18000 6700
Wire Wire Line
	17800 6800 17800 8000
Wire Wire Line
	17800 8000 21850 8000
Wire Wire Line
	21850 8000 21850 6800
Wire Wire Line
	21850 6800 22450 6800
Wire Wire Line
	22100 6150 22100 6600
Wire Wire Line
	22100 6600 22450 6600
Connection ~ 20700 6150
Connection ~ 17800 6800
Wire Wire Line
	16550 6600 17900 6600
$EndSCHEMATC
