G04 Layer_Physical_Order=2*
G04 Layer_Color=36540*
%FSLAX23Y23*%
%MOIN*%
G70*
G01*
G75*
%ADD10C,0.016*%
%ADD15C,0.010*%
%ADD16C,0.054*%
G36*
X3936Y4242D02*
X3935Y4223D01*
X3928Y4227D01*
X3922Y4230D01*
X3916Y4233D01*
X3910Y4234D01*
X3904Y4235D01*
X3897Y4234D01*
X3891Y4233D01*
X3885Y4232D01*
X3879Y4229D01*
X3873Y4225D01*
X3881Y4263D01*
X3936Y4242D01*
D02*
G37*
D10*
X4099Y4073D02*
G03*
X4169Y4043I71J71D01*
G01*
X3952Y4219D02*
G03*
X3882Y4248I-71J-71D01*
G01*
X4169Y4043D02*
X4201D01*
X3952Y4219D02*
X4099Y4073D01*
X3858Y4248D02*
X3882D01*
D15*
X36709Y4313D02*
G03*
X36819Y4313I55J17D01*
G01*
X36798Y4181D02*
G03*
X36798Y4181I-35J0D01*
G01*
Y4079D02*
G03*
X36798Y4079I-35J0D01*
G01*
X25922Y4313D02*
G03*
X26031Y4313I55J18D01*
G01*
X26011Y4185D02*
G03*
X26011Y4185I-35J0D01*
G01*
X26011Y4083D02*
G03*
X26011Y4083I-35J0D01*
G01*
X26031Y3955D02*
G03*
X25922Y3955I-54J-18D01*
G01*
X36818Y3955D02*
G03*
X36709Y3955I-54J-18D01*
G01*
X15134Y4313D02*
G03*
X15244Y4313I55J18D01*
G01*
X15224Y4185D02*
G03*
X15224Y4185I-35J0D01*
G01*
Y4083D02*
G03*
X15224Y4083I-35J0D01*
G01*
X3944Y4254D02*
G03*
X3940Y4256I-62J-106D01*
G01*
X3969Y4235D02*
G03*
X3944Y4254I-87J-87D01*
G01*
X3940Y4256D02*
G03*
X3912Y4267I-58J-108D01*
G01*
X3936Y4202D02*
G03*
X3928Y4209I-54J-54D01*
G01*
X3890Y4276D02*
G03*
X3879Y4212I-31J-28D01*
G01*
X4115Y4089D02*
G03*
X4166Y4066I54J54D01*
G01*
X4243Y4043D02*
G03*
X4166Y4066I-42J0D01*
G01*
X4166Y4020D02*
G03*
X4243Y4043I35J23D01*
G01*
X4082Y4056D02*
G03*
X4166Y4020I87J87D01*
G01*
X3707Y3967D02*
G03*
X3705Y3970I-15J-10D01*
G01*
X3707Y3967D02*
G03*
X3705Y3970I-15J-10D01*
G01*
X3714Y3957D02*
G03*
X3712Y3960I-17J-7D01*
G01*
X3714Y3957D02*
G03*
X3712Y3960I-17J-7D01*
G01*
X3697Y3978D02*
G03*
X3694Y3980I-13J-13D01*
G01*
X3697Y3978D02*
G03*
X3694Y3980I-13J-13D01*
G01*
X15243Y3955D02*
G03*
X15135Y3955I-54J-18D01*
G01*
X36793Y4096D02*
X37009Y4313D01*
X47334D02*
X47423Y4224D01*
X36788Y4205D02*
X36896Y4313D01*
X36797Y4186D02*
X36925Y4313D01*
X36795Y3985D02*
X37122Y4313D01*
X36810Y3972D02*
X37151Y4313D01*
X36797Y4072D02*
X37038Y4313D01*
X36752Y4112D02*
X36953Y4313D01*
X36778Y4110D02*
X36981Y4313D01*
X36770Y4215D02*
X36868Y4313D01*
X36744Y3991D02*
X37066Y4313D01*
X36775Y3993D02*
X37094Y4313D01*
X36482Y3955D02*
X36840Y4313D01*
X47363D02*
X47423Y4252D01*
X47306Y4313D02*
X47423Y4196D01*
X47419Y4313D02*
X47423Y4309D01*
X47391Y4313D02*
X47423Y4281D01*
X47250Y4313D02*
X47423Y4139D01*
X47221Y4313D02*
X47423Y4111D01*
X47278Y4313D02*
X47423Y4168D01*
X47193Y4313D02*
X47423Y4083D01*
X47165Y4313D02*
X47423Y4054D01*
X36819Y4313D02*
X47423D01*
X47108D02*
X47423Y3998D01*
X47080Y4313D02*
X47423Y3970D01*
X47136Y4313D02*
X47423Y4026D01*
X36275Y4313D02*
X36633Y3955D01*
X36284D02*
X36642Y4313D01*
X36247D02*
X36605Y3955D01*
X36256D02*
X36613Y4313D01*
X36312Y3955D02*
X36670Y4313D01*
X36332D02*
X36690Y3955D01*
X36304Y4313D02*
X36661Y3955D01*
X36171D02*
X36529Y4313D01*
X36190D02*
X36548Y3955D01*
X36162Y4313D02*
X36520Y3955D01*
X36219Y4313D02*
X36576Y3955D01*
X36227D02*
X36585Y4313D01*
X36199Y3955D02*
X36557Y4313D01*
X36671D02*
X36769Y4215D01*
X36615Y4313D02*
X36732Y4196D01*
X36643Y4313D02*
X36745Y4211D01*
X36530Y4313D02*
X36739Y4104D01*
X36558Y4313D02*
X36758Y4113D01*
X36586Y4313D02*
X36731Y4168D01*
X36417Y4313D02*
X36740Y3989D01*
X36445Y4313D02*
X36763Y3994D01*
X36502Y4313D02*
X36729Y4085D01*
X36360Y4313D02*
X36712Y3961D01*
X36388Y4313D02*
X36723Y3978D01*
X36341Y3955D02*
X36698Y4313D01*
X35908D02*
X36265Y3955D01*
X35916D02*
X36274Y4313D01*
X35879D02*
X36237Y3955D01*
X35888D02*
X36246Y4313D01*
X35945Y3955D02*
X36302Y4313D01*
X35964D02*
X36322Y3955D01*
X35936Y4313D02*
X36294Y3955D01*
X35803D02*
X36161Y4313D01*
X35823D02*
X36180Y3955D01*
X35794Y4313D02*
X36152Y3955D01*
X35851Y4313D02*
X36209Y3955D01*
X35860D02*
X36217Y4313D01*
X35831Y3955D02*
X36189Y4313D01*
X36086Y3955D02*
X36444Y4313D01*
X36106D02*
X36463Y3955D01*
X36058D02*
X36415Y4313D01*
X36077D02*
X36435Y3955D01*
X36134Y4313D02*
X36492Y3955D01*
X36143D02*
X36500Y4313D01*
X36114Y3955D02*
X36472Y4313D01*
X35992D02*
X36350Y3955D01*
X36001D02*
X36359Y4313D01*
X35973Y3955D02*
X36331Y4313D01*
X36029Y3955D02*
X36387Y4313D01*
X36049D02*
X36407Y3955D01*
X36021Y4313D02*
X36378Y3955D01*
X35549D02*
X35906Y4313D01*
X35568D02*
X35926Y3955D01*
X35520D02*
X35878Y4313D01*
X35540D02*
X35898Y3955D01*
X35596Y4313D02*
X35954Y3955D01*
X35605D02*
X35963Y4313D01*
X35577Y3955D02*
X35935Y4313D01*
X35455D02*
X35813Y3955D01*
X35464D02*
X35821Y4313D01*
X35435Y3955D02*
X35793Y4313D01*
X35492Y3955D02*
X35850Y4313D01*
X35512D02*
X35869Y3955D01*
X35483Y4313D02*
X35841Y3955D01*
X35718D02*
X36076Y4313D01*
X35738D02*
X36096Y3955D01*
X35710Y4313D02*
X36067Y3955D01*
X35766Y4313D02*
X36124Y3955D01*
X35775D02*
X36133Y4313D01*
X35747Y3955D02*
X36104Y4313D01*
X35633Y3955D02*
X35991Y4313D01*
X35653D02*
X36011Y3955D01*
X35625Y4313D02*
X35982Y3955D01*
X35681Y4313D02*
X36039Y3955D01*
X35690D02*
X36048Y4313D01*
X35662Y3955D02*
X36019Y4313D01*
X34474Y3955D02*
X34831Y4313D01*
X34493D02*
X34851Y3955D01*
X34445D02*
X34803Y4313D01*
X34465D02*
X34823Y3955D01*
X34522Y4313D02*
X34879Y3955D01*
X34530D02*
X34888Y4313D01*
X34502Y3955D02*
X34860Y4313D01*
X34380D02*
X34738Y3955D01*
X34389D02*
X34747Y4313D01*
X34361Y3955D02*
X34718Y4313D01*
X34417Y3955D02*
X34775Y4313D01*
X34437D02*
X34794Y3955D01*
X34408Y4313D02*
X34766Y3955D01*
X34643D02*
X35001Y4313D01*
X34663D02*
X35021Y3955D01*
X34615D02*
X34973Y4313D01*
X34635D02*
X34992Y3955D01*
X34691Y4313D02*
X35049Y3955D01*
X34700D02*
X35058Y4313D01*
X34672Y3955D02*
X35029Y4313D01*
X34559Y3955D02*
X34916Y4313D01*
X26031D02*
X36709D01*
X34550D02*
X34908Y3955D01*
X34587D02*
X34945Y4313D01*
X34606D02*
X34964Y3955D01*
X34578Y4313D02*
X34936Y3955D01*
X34126Y4313D02*
X34483Y3955D01*
X34134D02*
X34492Y4313D01*
X32315D02*
X32673Y3955D01*
X34106D02*
X34464Y4313D01*
X34163Y3955D02*
X34520Y4313D01*
X34182D02*
X34540Y3955D01*
X34154Y4313D02*
X34512Y3955D01*
X32202Y4313D02*
X32560Y3955D01*
X32211D02*
X32569Y4313D01*
X32183Y3955D02*
X32540Y4313D01*
X32239Y3955D02*
X32597Y4313D01*
X32259D02*
X32617Y3955D01*
X32231Y4313D02*
X32588Y3955D01*
X34295Y4313D02*
X34653Y3955D01*
X34304D02*
X34662Y4313D01*
X34276Y3955D02*
X34633Y4313D01*
X34332Y3955D02*
X34690Y4313D01*
X34352D02*
X34710Y3955D01*
X34324Y4313D02*
X34681Y3955D01*
X34211Y4313D02*
X34568Y3955D01*
X34219D02*
X34577Y4313D01*
X34191Y3955D02*
X34549Y4313D01*
X34247Y3955D02*
X34605Y4313D01*
X34267D02*
X34625Y3955D01*
X34239Y4313D02*
X34596Y3955D01*
X35181D02*
X35539Y4313D01*
X35200D02*
X35558Y3955D01*
X35153D02*
X35510Y4313D01*
X35172D02*
X35530Y3955D01*
X35229Y4313D02*
X35586Y3955D01*
X35237D02*
X35595Y4313D01*
X35209Y3955D02*
X35567Y4313D01*
X35087D02*
X35445Y3955D01*
X35096D02*
X35454Y4313D01*
X35068Y3955D02*
X35425Y4313D01*
X35124Y3955D02*
X35482Y4313D01*
X35144D02*
X35502Y3955D01*
X35116Y4313D02*
X35473Y3955D01*
X35370Y4313D02*
X35728Y3955D01*
X35379D02*
X35737Y4313D01*
X35342D02*
X35700Y3955D01*
X35351D02*
X35708Y4313D01*
X35407Y3955D02*
X35765Y4313D01*
X35427D02*
X35784Y3955D01*
X35398Y4313D02*
X35756Y3955D01*
X35266D02*
X35623Y4313D01*
X35285D02*
X35643Y3955D01*
X35257Y4313D02*
X35615Y3955D01*
X35314Y4313D02*
X35671Y3955D01*
X35322D02*
X35680Y4313D01*
X35294Y3955D02*
X35652Y4313D01*
X34833D02*
X35190Y3955D01*
X34841D02*
X35199Y4313D01*
X34804D02*
X35162Y3955D01*
X34813D02*
X35171Y4313D01*
X34870Y3955D02*
X35227Y4313D01*
X34889D02*
X35247Y3955D01*
X34861Y4313D02*
X35219Y3955D01*
X34728D02*
X35086Y4313D01*
X34748D02*
X35106Y3955D01*
X34720Y4313D02*
X35077Y3955D01*
X34776Y4313D02*
X35134Y3955D01*
X34785D02*
X35143Y4313D01*
X34757Y3955D02*
X35114Y4313D01*
X35002D02*
X35360Y3955D01*
X35011D02*
X35369Y4313D01*
X34983Y3955D02*
X35341Y4313D01*
X35039Y3955D02*
X35397Y4313D01*
X35059D02*
X35417Y3955D01*
X35031Y4313D02*
X35388Y3955D01*
X34918Y4313D02*
X35275Y3955D01*
X34926D02*
X35284Y4313D01*
X34898Y3955D02*
X35256Y4313D01*
X34955Y3955D02*
X35312Y4313D01*
X34974D02*
X35332Y3955D01*
X34946Y4313D02*
X35304Y3955D01*
X34041Y4313D02*
X34398Y3955D01*
X34050D02*
X34407Y4313D01*
X34013D02*
X34370Y3955D01*
X34021D02*
X34379Y4313D01*
X34078Y3955D02*
X34435Y4313D01*
X34097D02*
X34455Y3955D01*
X34069Y4313D02*
X34427Y3955D01*
X33936D02*
X34294Y4313D01*
X33956D02*
X34314Y3955D01*
X33928Y4313D02*
X34285Y3955D01*
X33984Y4313D02*
X34342Y3955D01*
X33993D02*
X34351Y4313D01*
X33965Y3955D02*
X34322Y4313D01*
X36652Y3955D02*
X36746Y4049D01*
X36680Y3955D02*
X36770Y4045D01*
X36567Y3955D02*
X36758Y4147D01*
X36623Y3955D02*
X36732Y4064D01*
X36595Y3955D02*
X36730Y4090D01*
X36397Y3955D02*
X36728Y4286D01*
X36425Y3955D02*
X36746Y4276D01*
X36369Y3955D02*
X36715Y4301D01*
X36454Y3955D02*
X36772Y4273D01*
X36539Y3955D02*
X36739Y4156D01*
X36510Y3955D02*
X36729Y4174D01*
X33682Y3955D02*
X34040Y4313D01*
X33701D02*
X34059Y3955D01*
X33654D02*
X34011Y4313D01*
X33673D02*
X34031Y3955D01*
X33730Y4313D02*
X34087Y3955D01*
X33738D02*
X34096Y4313D01*
X33710Y3955D02*
X34068Y4313D01*
X33588D02*
X33946Y3955D01*
X33597D02*
X33955Y4313D01*
X33569Y3955D02*
X33926Y4313D01*
X33625Y3955D02*
X33983Y4313D01*
X33645D02*
X34003Y3955D01*
X33617Y4313D02*
X33974Y3955D01*
X33852D02*
X34209Y4313D01*
X33871D02*
X34229Y3955D01*
X33843Y4313D02*
X34201Y3955D01*
X33899Y4313D02*
X34257Y3955D01*
X33908D02*
X34266Y4313D01*
X33880Y3955D02*
X34237Y4313D01*
X33767Y3955D02*
X34124Y4313D01*
X33786D02*
X34144Y3955D01*
X33758Y4313D02*
X34116Y3955D01*
X33815Y4313D02*
X34172Y3955D01*
X33823D02*
X34181Y4313D01*
X33795Y3955D02*
X34153Y4313D01*
X33314Y3955D02*
X33672Y4313D01*
X33334D02*
X33691Y3955D01*
X33286D02*
X33644Y4313D01*
X33305D02*
X33663Y3955D01*
X33362Y4313D02*
X33720Y3955D01*
X33371D02*
X33728Y4313D01*
X33342Y3955D02*
X33700Y4313D01*
X33221D02*
X33578Y3955D01*
X33229D02*
X33587Y4313D01*
X33201Y3955D02*
X33559Y4313D01*
X33258Y3955D02*
X33615Y4313D01*
X33277D02*
X33635Y3955D01*
X33249Y4313D02*
X33607Y3955D01*
X33503Y4313D02*
X33861Y3955D01*
X33512D02*
X33870Y4313D01*
X33475D02*
X33833Y3955D01*
X33484D02*
X33842Y4313D01*
X33540Y3955D02*
X33898Y4313D01*
X33560D02*
X33918Y3955D01*
X33532Y4313D02*
X33889Y3955D01*
X33399D02*
X33757Y4313D01*
X33419D02*
X33776Y3955D01*
X33390Y4313D02*
X33748Y3955D01*
X33447Y4313D02*
X33805Y3955D01*
X33456D02*
X33813Y4313D01*
X33427Y3955D02*
X33785Y4313D01*
X32966D02*
X33324Y3955D01*
X32975D02*
X33332Y4313D01*
X32938D02*
X33295Y3955D01*
X32946D02*
X33304Y4313D01*
X33003Y3955D02*
X33361Y4313D01*
X33023D02*
X33380Y3955D01*
X32994Y4313D02*
X33352Y3955D01*
X32862D02*
X33219Y4313D01*
X32881D02*
X33239Y3955D01*
X32853Y4313D02*
X33211Y3955D01*
X32909Y4313D02*
X33267Y3955D01*
X32918D02*
X33276Y4313D01*
X32890Y3955D02*
X33248Y4313D01*
X33136D02*
X33493Y3955D01*
X33144D02*
X33502Y4313D01*
X33116Y3955D02*
X33474Y4313D01*
X33173Y3955D02*
X33530Y4313D01*
X33192D02*
X33550Y3955D01*
X33164Y4313D02*
X33522Y3955D01*
X33051Y4313D02*
X33409Y3955D01*
X33060D02*
X33417Y4313D01*
X33031Y3955D02*
X33389Y4313D01*
X33088Y3955D02*
X33446Y4313D01*
X33107D02*
X33465Y3955D01*
X33079Y4313D02*
X33437Y3955D01*
X31787D02*
X32144Y4313D01*
X31806D02*
X32164Y3955D01*
X31758D02*
X32116Y4313D01*
X31778D02*
X32136Y3955D01*
X31835Y4313D02*
X32192Y3955D01*
X31843D02*
X32201Y4313D01*
X31815Y3955D02*
X32173Y4313D01*
X31693D02*
X32051Y3955D01*
X31702D02*
X32060Y4313D01*
X31674Y3955D02*
X32031Y4313D01*
X31730Y3955D02*
X32088Y4313D01*
X31750D02*
X32107Y3955D01*
X31721Y4313D02*
X32079Y3955D01*
X31956D02*
X32314Y4313D01*
X31976D02*
X32334Y3955D01*
X31928D02*
X32286Y4313D01*
X31948D02*
X32305Y3955D01*
X32004Y4313D02*
X32362Y3955D01*
X32013D02*
X32371Y4313D01*
X31985Y3955D02*
X32342Y4313D01*
X31872Y3955D02*
X32229Y4313D01*
X26031Y3955D02*
X36709D01*
X31863Y4313D02*
X32221Y3955D01*
X31900D02*
X32258Y4313D01*
X31919D02*
X32277Y3955D01*
X31891Y4313D02*
X32249Y3955D01*
X31439Y4313D02*
X31796Y3955D01*
X31447D02*
X31805Y4313D01*
X31410D02*
X31768Y3955D01*
X31419D02*
X31777Y4313D01*
X31476Y3955D02*
X31833Y4313D01*
X31495D02*
X31853Y3955D01*
X31467Y4313D02*
X31825Y3955D01*
X31334D02*
X31692Y4313D01*
X31354D02*
X31711Y3955D01*
X31326Y4313D02*
X31683Y3955D01*
X31382Y4313D02*
X31740Y3955D01*
X31391D02*
X31748Y4313D01*
X31362Y3955D02*
X31720Y4313D01*
X31608D02*
X31966Y3955D01*
X31617D02*
X31975Y4313D01*
X31589Y3955D02*
X31946Y4313D01*
X31645Y3955D02*
X32003Y4313D01*
X31665D02*
X32023Y3955D01*
X31637Y4313D02*
X31994Y3955D01*
X31523Y4313D02*
X31881Y3955D01*
X31532D02*
X31890Y4313D01*
X31504Y3955D02*
X31862Y4313D01*
X31560Y3955D02*
X31918Y4313D01*
X31580D02*
X31938Y3955D01*
X31552Y4313D02*
X31909Y3955D01*
X32598Y4313D02*
X32956Y3955D01*
X32607D02*
X32965Y4313D01*
X32570D02*
X32928Y3955D01*
X32579D02*
X32936Y4313D01*
X32635Y3955D02*
X32993Y4313D01*
X32655D02*
X33013Y3955D01*
X32627Y4313D02*
X32984Y3955D01*
X32494D02*
X32852Y4313D01*
X32513D02*
X32871Y3955D01*
X32485Y4313D02*
X32843Y3955D01*
X32542Y4313D02*
X32899Y3955D01*
X32550D02*
X32908Y4313D01*
X32522Y3955D02*
X32880Y4313D01*
X32777Y3955D02*
X33134Y4313D01*
X32796D02*
X33154Y3955D01*
X32748D02*
X33106Y4313D01*
X32768D02*
X33126Y3955D01*
X32825Y4313D02*
X33182Y3955D01*
X32833D02*
X33191Y4313D01*
X32805Y3955D02*
X33163Y4313D01*
X32683D02*
X33041Y3955D01*
X32692D02*
X33050Y4313D01*
X32664Y3955D02*
X33021Y4313D01*
X32720Y3955D02*
X33078Y4313D01*
X32740D02*
X33097Y3955D01*
X32711Y4313D02*
X33069Y3955D01*
X32146Y4313D02*
X32503Y3955D01*
X32154D02*
X32512Y4313D01*
X32117D02*
X32475Y3955D01*
X32126D02*
X32484Y4313D01*
X32268Y3955D02*
X32625Y4313D01*
X32287D02*
X32645Y3955D01*
X32174Y4313D02*
X32532Y3955D01*
X32041D02*
X32399Y4313D01*
X32061D02*
X32419Y3955D01*
X32033Y4313D02*
X32390Y3955D01*
X32089Y4313D02*
X32447Y3955D01*
X32098D02*
X32456Y4313D01*
X32070Y3955D02*
X32427Y4313D01*
X32409Y3955D02*
X32767Y4313D01*
X32429D02*
X32786Y3955D01*
X32400Y4313D02*
X32758Y3955D01*
X32457Y4313D02*
X32815Y3955D01*
X32466D02*
X32823Y4313D01*
X32437Y3955D02*
X32795Y4313D01*
X32324Y3955D02*
X32682Y4313D01*
X32344D02*
X32701Y3955D01*
X32296D02*
X32654Y4313D01*
X32372D02*
X32730Y3955D01*
X32381D02*
X32738Y4313D01*
X32352Y3955D02*
X32710Y4313D01*
X30344Y3955D02*
X30702Y4313D01*
X30364D02*
X30722Y3955D01*
X30316D02*
X30674Y4313D01*
X30336D02*
X30693Y3955D01*
X30392Y4313D02*
X30750Y3955D01*
X30401D02*
X30759Y4313D01*
X30373Y3955D02*
X30730Y4313D01*
X30251D02*
X30608Y3955D01*
X30259D02*
X30617Y4313D01*
X30231Y3955D02*
X30589Y4313D01*
X30288Y3955D02*
X30645Y4313D01*
X30307D02*
X30665Y3955D01*
X30279Y4313D02*
X30637Y3955D01*
X30534Y4313D02*
X30891Y3955D01*
X30542D02*
X30900Y4313D01*
X30505D02*
X30863Y3955D01*
X30514D02*
X30872Y4313D01*
X30571Y3955D02*
X30928Y4313D01*
X30590D02*
X30948Y3955D01*
X30562Y4313D02*
X30920Y3955D01*
X30429D02*
X30787Y4313D01*
X30449D02*
X30806Y3955D01*
X30420Y4313D02*
X30778Y3955D01*
X30477Y4313D02*
X30835Y3955D01*
X30486D02*
X30843Y4313D01*
X30457Y3955D02*
X30815Y4313D01*
X29996D02*
X30354Y3955D01*
X30005D02*
X30363Y4313D01*
X29968D02*
X30326Y3955D01*
X29977D02*
X30334Y4313D01*
X30033Y3955D02*
X30391Y4313D01*
X30053D02*
X30410Y3955D01*
X30024Y4313D02*
X30382Y3955D01*
X29892D02*
X30249Y4313D01*
X29911D02*
X30269Y3955D01*
X29883Y4313D02*
X30241Y3955D01*
X29940Y4313D02*
X30297Y3955D01*
X29948D02*
X30306Y4313D01*
X29920Y3955D02*
X30278Y4313D01*
X30166D02*
X30524Y3955D01*
X30175D02*
X30532Y4313D01*
X30146Y3955D02*
X30504Y4313D01*
X30203Y3955D02*
X30561Y4313D01*
X30222D02*
X30580Y3955D01*
X30194Y4313D02*
X30552Y3955D01*
X30081Y4313D02*
X30439Y3955D01*
X30090D02*
X30447Y4313D01*
X30061Y3955D02*
X30419Y4313D01*
X30118Y3955D02*
X30476Y4313D01*
X30138D02*
X30495Y3955D01*
X30109Y4313D02*
X30467Y3955D01*
X31071Y4313D02*
X31429Y3955D01*
X31080D02*
X31437Y4313D01*
X31043D02*
X31400Y3955D01*
X31051D02*
X31409Y4313D01*
X31108Y3955D02*
X31466Y4313D01*
X31128D02*
X31485Y3955D01*
X31099Y4313D02*
X31457Y3955D01*
X30967D02*
X31324Y4313D01*
X30986D02*
X31344Y3955D01*
X30958Y4313D02*
X31316Y3955D01*
X31014Y4313D02*
X31372Y3955D01*
X31023D02*
X31381Y4313D01*
X30995Y3955D02*
X31353Y4313D01*
X31249Y3955D02*
X31607Y4313D01*
X31269D02*
X31627Y3955D01*
X31221D02*
X31579Y4313D01*
X31241D02*
X31598Y3955D01*
X31297Y4313D02*
X31655Y3955D01*
X31306D02*
X31664Y4313D01*
X31278Y3955D02*
X31635Y4313D01*
X31156D02*
X31513Y3955D01*
X31165D02*
X31522Y4313D01*
X31136Y3955D02*
X31494Y4313D01*
X31193Y3955D02*
X31550Y4313D01*
X31212D02*
X31570Y3955D01*
X31184Y4313D02*
X31542Y3955D01*
X30712D02*
X31070Y4313D01*
X30732D02*
X31089Y3955D01*
X30684D02*
X31041Y4313D01*
X30703D02*
X31061Y3955D01*
X30760Y4313D02*
X31118Y3955D01*
X30769D02*
X31126Y4313D01*
X30740Y3955D02*
X31098Y4313D01*
X30618D02*
X30976Y3955D01*
X30627D02*
X30985Y4313D01*
X30599Y3955D02*
X30957Y4313D01*
X30655Y3955D02*
X31013Y4313D01*
X30675D02*
X31033Y3955D01*
X30647Y4313D02*
X31004Y3955D01*
X30882D02*
X31239Y4313D01*
X30901D02*
X31259Y3955D01*
X30873Y4313D02*
X31231Y3955D01*
X30930Y4313D02*
X31287Y3955D01*
X30938D02*
X31296Y4313D01*
X30910Y3955D02*
X31268Y4313D01*
X30797Y3955D02*
X31155Y4313D01*
X30816D02*
X31174Y3955D01*
X30788Y4313D02*
X31146Y3955D01*
X30845Y4313D02*
X31202Y3955D01*
X30853D02*
X31211Y4313D01*
X30825Y3955D02*
X31183Y4313D01*
X28016D02*
X28374Y3955D01*
X28025D02*
X28383Y4313D01*
X27988D02*
X28346Y3955D01*
X27997D02*
X28354Y4313D01*
X28053Y3955D02*
X28411Y4313D01*
X28073D02*
X28431Y3955D01*
X28045Y4313D02*
X28402Y3955D01*
X27912D02*
X28270Y4313D01*
X27931D02*
X28289Y3955D01*
X27903Y4313D02*
X28261Y3955D01*
X27960Y4313D02*
X28317Y3955D01*
X27968D02*
X28326Y4313D01*
X27940Y3955D02*
X28298Y4313D01*
X28195Y3955D02*
X28552Y4313D01*
X28308Y3955D02*
X28665Y4313D01*
X28166Y3955D02*
X28524Y4313D01*
X28186D02*
X28544Y3955D01*
X28336D02*
X28694Y4313D01*
X28393Y3955D02*
X28750Y4313D01*
X28327D02*
X28685Y3955D01*
X28101Y4313D02*
X28459Y3955D01*
X28110D02*
X28468Y4313D01*
X28082Y3955D02*
X28439Y4313D01*
X28138Y3955D02*
X28496Y4313D01*
X28158D02*
X28515Y3955D01*
X28129Y4313D02*
X28487Y3955D01*
X27657D02*
X28015Y4313D01*
X27677D02*
X28035Y3955D01*
X27629D02*
X27987Y4313D01*
X27649D02*
X28006Y3955D01*
X27705Y4313D02*
X28063Y3955D01*
X27714D02*
X28072Y4313D01*
X27686Y3955D02*
X28043Y4313D01*
X27564D02*
X27921Y3955D01*
X27572D02*
X27930Y4313D01*
X27544Y3955D02*
X27902Y4313D01*
X27601Y3955D02*
X27958Y4313D01*
X27620D02*
X27978Y3955D01*
X27592Y4313D02*
X27950Y3955D01*
X27827D02*
X28185Y4313D01*
X27847D02*
X28204Y3955D01*
X27818Y4313D02*
X28176Y3955D01*
X27875Y4313D02*
X28233Y3955D01*
X27884D02*
X28241Y4313D01*
X27855Y3955D02*
X28213Y4313D01*
X27742Y3955D02*
X28100Y4313D01*
X27762D02*
X28119Y3955D01*
X27733Y4313D02*
X28091Y3955D01*
X27790Y4313D02*
X28148Y3955D01*
X27799D02*
X28156Y4313D01*
X27770Y3955D02*
X28128Y4313D01*
X29628D02*
X29986Y3955D01*
X29637D02*
X29995Y4313D01*
X29600D02*
X29958Y3955D01*
X29609D02*
X29967Y4313D01*
X29665Y3955D02*
X30023Y4313D01*
X29685D02*
X30043Y3955D01*
X29657Y4313D02*
X30014Y3955D01*
X29524D02*
X29882Y4313D01*
X29544D02*
X29901Y3955D01*
X28760D02*
X29118Y4313D01*
X29572D02*
X29930Y3955D01*
X29581D02*
X29938Y4313D01*
X29552Y3955D02*
X29910Y4313D01*
X29807Y3955D02*
X30165Y4313D01*
X29826D02*
X30184Y3955D01*
X29779D02*
X30136Y4313D01*
X29798D02*
X30156Y3955D01*
X29855Y4313D02*
X30212Y3955D01*
X29863D02*
X30221Y4313D01*
X29835Y3955D02*
X30193Y4313D01*
X29713D02*
X30071Y3955D01*
X29722D02*
X30080Y4313D01*
X29694Y3955D02*
X30051Y4313D01*
X29750Y3955D02*
X30108Y4313D01*
X29770D02*
X30128Y3955D01*
X29742Y4313D02*
X30099Y3955D01*
X28525Y4313D02*
X28883Y3955D01*
X28534D02*
X28892Y4313D01*
X28497D02*
X28855Y3955D01*
X28506D02*
X28863Y4313D01*
X28562Y3955D02*
X28920Y4313D01*
X28582D02*
X28940Y3955D01*
X28554Y4313D02*
X28911Y3955D01*
X28421D02*
X28779Y4313D01*
X28441D02*
X28798Y3955D01*
X28412Y4313D02*
X28770Y3955D01*
X28469Y4313D02*
X28826Y3955D01*
X28477D02*
X28835Y4313D01*
X28449Y3955D02*
X28807Y4313D01*
X28695D02*
X29053Y3955D01*
X28704D02*
X29061Y4313D01*
X28675Y3955D02*
X29033Y4313D01*
X28732Y3955D02*
X29090Y4313D01*
X28752D02*
X29109Y3955D01*
X28723Y4313D02*
X29081Y3955D01*
X28610Y4313D02*
X28968Y3955D01*
X28619D02*
X28977Y4313D01*
X28591Y3955D02*
X28948Y4313D01*
X28647Y3955D02*
X29005Y4313D01*
X28667D02*
X29024Y3955D01*
X28638Y4313D02*
X28996Y3955D01*
X26574Y4313D02*
X26931Y3955D01*
X26582D02*
X26940Y4313D01*
X26545D02*
X26903Y3955D01*
X26554D02*
X26912Y4313D01*
X26611Y3955D02*
X26968Y4313D01*
X26630D02*
X26988Y3955D01*
X26602Y4313D02*
X26960Y3955D01*
X26469D02*
X26827Y4313D01*
X26489D02*
X26847Y3955D01*
X26461Y4313D02*
X26818Y3955D01*
X26517Y4313D02*
X26875Y3955D01*
X26526D02*
X26884Y4313D01*
X26498Y3955D02*
X26855Y4313D01*
X26752Y3955D02*
X27110Y4313D01*
X26772D02*
X27129Y3955D01*
X26724D02*
X27082Y4313D01*
X26743D02*
X27101Y3955D01*
X26800Y4313D02*
X27158Y3955D01*
X26809D02*
X27166Y4313D01*
X26780Y3955D02*
X27138Y4313D01*
X26659D02*
X27016Y3955D01*
X26667D02*
X27025Y4313D01*
X26639Y3955D02*
X26997Y4313D01*
X26696Y3955D02*
X27053Y4313D01*
X26715D02*
X27073Y3955D01*
X26687Y4313D02*
X27045Y3955D01*
X26215D02*
X26572Y4313D01*
X26234D02*
X26592Y3955D01*
X26186D02*
X26544Y4313D01*
X26206D02*
X26564Y3955D01*
X26263Y4313D02*
X26620Y3955D01*
X26271D02*
X26629Y4313D01*
X26243Y3955D02*
X26601Y4313D01*
X26121D02*
X26479Y3955D01*
X26130D02*
X26488Y4313D01*
X26102Y3955D02*
X26459Y4313D01*
X26158Y3955D02*
X26516Y4313D01*
X26178D02*
X26535Y3955D01*
X26149Y4313D02*
X26507Y3955D01*
X26384D02*
X26742Y4313D01*
X26404D02*
X26762Y3955D01*
X26376Y4313D02*
X26733Y3955D01*
X26432Y4313D02*
X26790Y3955D01*
X26441D02*
X26799Y4313D01*
X26413Y3955D02*
X26770Y4313D01*
X26300Y3955D02*
X26657Y4313D01*
X26319D02*
X26677Y3955D01*
X26291Y4313D02*
X26649Y3955D01*
X26347Y4313D02*
X26705Y3955D01*
X26356D02*
X26714Y4313D01*
X26328Y3955D02*
X26686Y4313D01*
X27290Y3955D02*
X27647Y4313D01*
X27309D02*
X27667Y3955D01*
X27261D02*
X27619Y4313D01*
X27281D02*
X27639Y3955D01*
X27337Y4313D02*
X27695Y3955D01*
X27346D02*
X27704Y4313D01*
X27318Y3955D02*
X27676Y4313D01*
X27196D02*
X27554Y3955D01*
X27205D02*
X27562Y4313D01*
X27176Y3955D02*
X27534Y4313D01*
X27233Y3955D02*
X27591Y4313D01*
X27253D02*
X27610Y3955D01*
X27224Y4313D02*
X27582Y3955D01*
X27479Y4313D02*
X27837Y3955D01*
X27488D02*
X27845Y4313D01*
X27451D02*
X27808Y3955D01*
X27459D02*
X27817Y4313D01*
X27516Y3955D02*
X27874Y4313D01*
X27535D02*
X27893Y3955D01*
X27507Y4313D02*
X27865Y3955D01*
X27374D02*
X27732Y4313D01*
X27394D02*
X27752Y3955D01*
X27366Y4313D02*
X27723Y3955D01*
X27422Y4313D02*
X27780Y3955D01*
X27431D02*
X27789Y4313D01*
X27403Y3955D02*
X27760Y4313D01*
X26941D02*
X27299Y3955D01*
X26950D02*
X27308Y4313D01*
X26913D02*
X27271Y3955D01*
X26922D02*
X27280Y4313D01*
X26978Y3955D02*
X27336Y4313D01*
X26998D02*
X27356Y3955D01*
X26970Y4313D02*
X27327Y3955D01*
X26837D02*
X27195Y4313D01*
X26857D02*
X27214Y3955D01*
X26828Y4313D02*
X27186Y3955D01*
X26885Y4313D02*
X27243Y3955D01*
X26894D02*
X27251Y4313D01*
X26865Y3955D02*
X27223Y4313D01*
X27111D02*
X27469Y3955D01*
X27120D02*
X27478Y4313D01*
X27092Y3955D02*
X27449Y4313D01*
X27148Y3955D02*
X27506Y4313D01*
X27168D02*
X27525Y3955D01*
X27139Y4313D02*
X27497Y3955D01*
X27026Y4313D02*
X27384Y3955D01*
X27035D02*
X27393Y4313D01*
X27007Y3955D02*
X27364Y4313D01*
X27063Y3955D02*
X27421Y4313D01*
X27083D02*
X27441Y3955D01*
X27055Y4313D02*
X27412Y3955D01*
X26036Y4313D02*
X26394Y3955D01*
X26045D02*
X26403Y4313D01*
X26014Y3980D02*
X26346Y4313D01*
X26027Y3965D02*
X26374Y4313D01*
X26073Y3955D02*
X26431Y4313D01*
X26093D02*
X26451Y3955D01*
X26065Y4313D02*
X26422Y3955D01*
X25994Y4215D02*
X26092Y4313D01*
X26000Y4108D02*
X26205Y4313D01*
X25970Y4219D02*
X26063Y4313D01*
X25971Y3994D02*
X26290Y4313D01*
X25996Y3991D02*
X26318Y4313D01*
X26010Y4090D02*
X26233Y4313D01*
X26023Y4297D02*
X26366Y3955D01*
X26009Y4283D02*
X26337Y3955D01*
X26007Y4200D02*
X26120Y4313D01*
X26009Y4173D02*
X26148Y4313D01*
X26007Y4201D02*
X26253Y3955D01*
X26008Y4171D02*
X26224Y3955D01*
X26004Y4062D02*
X26111Y3955D01*
X25990Y4275D02*
X26309Y3955D01*
X25995Y4156D02*
X26196Y3955D01*
X25981Y4117D02*
X26176Y4313D01*
X25961Y4275D02*
X26281Y3955D01*
X25972Y4151D02*
X26168Y3955D01*
X25988Y4050D02*
X26083Y3955D01*
X26028Y4306D02*
X26035Y4313D01*
X25867D02*
X25962Y4217D01*
X25895Y4313D02*
X25992Y4216D01*
X25753Y4313D02*
X25956Y4111D01*
X25782Y4313D02*
X25977Y4117D01*
X25810Y4313D02*
X25942Y4181D01*
X25640Y4313D02*
X25961Y3992D01*
X25669Y4313D02*
X25988Y3993D01*
X25725Y4313D02*
X25944Y4094D01*
X25612Y4313D02*
X25942Y3983D01*
X25697Y4313D02*
X26055Y3955D01*
X25584Y4313D02*
X25928Y3968D01*
X25838Y4313D02*
X25947Y4204D01*
X25875Y3955D02*
X25969Y4049D01*
X25847Y3955D02*
X25951Y4059D01*
X25677Y3955D02*
X26001Y4278D01*
X25734Y3955D02*
X25946Y4167D01*
X25706Y3955D02*
X25942Y4191D01*
X25762Y3955D02*
X25961Y4154D01*
X25790Y3955D02*
X25988Y4152D01*
X25819Y3955D02*
X25942Y4078D01*
X25508Y3955D02*
X25865Y4313D01*
X25527D02*
X25885Y3955D01*
X25479D02*
X25837Y4313D01*
X25499D02*
X25857Y3955D01*
X25556Y4313D02*
X25913Y3955D01*
X25904D02*
X26261Y4313D01*
X25536Y3955D02*
X25894Y4313D01*
X25338Y3955D02*
X25696Y4313D01*
X25423Y3955D02*
X25780Y4313D01*
X25329D02*
X25687Y3955D01*
X25451D02*
X25809Y4313D01*
X25471D02*
X25828Y3955D01*
X25442Y4313D02*
X25800Y3955D01*
X25564D02*
X25922Y4313D01*
X25592Y3955D02*
X25932Y4294D01*
X25395Y3955D02*
X25752Y4313D01*
X25414D02*
X25772Y3955D01*
X25649D02*
X25968Y4274D01*
X26011Y4083D02*
X26139Y3955D01*
X25621D02*
X25947Y4281D01*
X25301Y4313D02*
X25659Y3955D01*
X25310D02*
X25667Y4313D01*
X25281Y3955D02*
X25639Y4313D01*
X25366Y3955D02*
X25724Y4313D01*
X25386D02*
X25743Y3955D01*
X25358Y4313D02*
X25715Y3955D01*
X25046Y4313D02*
X25404Y3955D01*
X25055D02*
X25413Y4313D01*
X25018D02*
X25376Y3955D01*
X25027D02*
X25385Y4313D01*
X25083Y3955D02*
X25441Y4313D01*
X25103D02*
X25461Y3955D01*
X25075Y4313D02*
X25432Y3955D01*
X24942D02*
X25300Y4313D01*
X24962D02*
X25319Y3955D01*
X24933Y4313D02*
X25291Y3955D01*
X24990Y4313D02*
X25348Y3955D01*
X24999D02*
X25356Y4313D01*
X24970Y3955D02*
X25328Y4313D01*
X25216D02*
X25574Y3955D01*
X25225D02*
X25583Y4313D01*
X25197Y3955D02*
X25554Y4313D01*
X25253Y3955D02*
X25611Y4313D01*
X25273D02*
X25630Y3955D01*
X25244Y4313D02*
X25602Y3955D01*
X25131Y4313D02*
X25489Y3955D01*
X25140D02*
X25498Y4313D01*
X25112Y3955D02*
X25469Y4313D01*
X25168Y3955D02*
X25526Y4313D01*
X25188D02*
X25546Y3955D01*
X25160Y4313D02*
X25517Y3955D01*
X46118Y4313D02*
X46476Y3955D01*
X46127D02*
X46485Y4313D01*
X46090D02*
X46448Y3955D01*
X46099D02*
X46456Y4313D01*
X46155Y3955D02*
X46513Y4313D01*
X46175D02*
X46532Y3955D01*
X46146Y4313D02*
X46504Y3955D01*
X46014D02*
X46371Y4313D01*
X46033D02*
X46391Y3955D01*
X46005Y4313D02*
X46363Y3955D01*
X46062Y4313D02*
X46419Y3955D01*
X46070D02*
X46428Y4313D01*
X46042Y3955D02*
X46400Y4313D01*
X46297Y3955D02*
X46654Y4313D01*
X46316D02*
X46674Y3955D01*
X46268D02*
X46626Y4313D01*
X46288D02*
X46646Y3955D01*
X46344Y4313D02*
X46702Y3955D01*
X46353D02*
X46711Y4313D01*
X46325Y3955D02*
X46683Y4313D01*
X46203D02*
X46561Y3955D01*
X46212D02*
X46569Y4313D01*
X46183Y3955D02*
X46541Y4313D01*
X46240Y3955D02*
X46598Y4313D01*
X46260D02*
X46617Y3955D01*
X46231Y4313D02*
X46589Y3955D01*
X45759D02*
X46117Y4313D01*
X45779D02*
X46136Y3955D01*
X45731D02*
X46089Y4313D01*
X45750D02*
X46108Y3955D01*
X45807Y4313D02*
X46165Y3955D01*
X45816D02*
X46173Y4313D01*
X45787Y3955D02*
X46145Y4313D01*
X45666D02*
X46023Y3955D01*
X45674D02*
X46032Y4313D01*
X45646Y3955D02*
X46004Y4313D01*
X45703Y3955D02*
X46060Y4313D01*
X45722D02*
X46080Y3955D01*
X45694Y4313D02*
X46052Y3955D01*
X45929D02*
X46287Y4313D01*
X45948D02*
X46306Y3955D01*
X45920Y4313D02*
X46278Y3955D01*
X45977Y4313D02*
X46334Y3955D01*
X45985D02*
X46343Y4313D01*
X45957Y3955D02*
X46315Y4313D01*
X45844Y3955D02*
X46202Y4313D01*
X45864D02*
X46221Y3955D01*
X45835Y4313D02*
X46193Y3955D01*
X45892Y4313D02*
X46250Y3955D01*
X45901D02*
X46258Y4313D01*
X45872Y3955D02*
X46230Y4313D01*
X46834Y3955D02*
X47192Y4313D01*
X46854D02*
X47211Y3955D01*
X46806D02*
X47163Y4313D01*
X46825D02*
X47183Y3955D01*
X46882Y4313D02*
X47240Y3955D01*
X46891D02*
X47248Y4313D01*
X46862Y3955D02*
X47220Y4313D01*
X46740D02*
X47098Y3955D01*
X46749D02*
X47107Y4313D01*
X46721Y3955D02*
X47079Y4313D01*
X46777Y3955D02*
X47135Y4313D01*
X46797D02*
X47155Y3955D01*
X46769Y4313D02*
X47126Y3955D01*
X47023Y4313D02*
X47381Y3955D01*
X47032D02*
X47390Y4313D01*
X46995D02*
X47353Y3955D01*
X47004D02*
X47361Y4313D01*
X47060Y3955D02*
X47418Y4313D01*
X47423Y3955D02*
Y4313D01*
X47052D02*
X47409Y3955D01*
X46919D02*
X47277Y4313D01*
X46938D02*
X47296Y3955D01*
X46910Y4313D02*
X47268Y3955D01*
X46967Y4313D02*
X47324Y3955D01*
X46975D02*
X47333Y4313D01*
X46947Y3955D02*
X47305Y4313D01*
X46486D02*
X46844Y3955D01*
X46495D02*
X46852Y4313D01*
X46458D02*
X46815Y3955D01*
X46466D02*
X46824Y4313D01*
X46523Y3955D02*
X46881Y4313D01*
X46542D02*
X46900Y3955D01*
X46514Y4313D02*
X46872Y3955D01*
X46381D02*
X46739Y4313D01*
X46401D02*
X46759Y3955D01*
X46373Y4313D02*
X46730Y3955D01*
X46429Y4313D02*
X46787Y3955D01*
X46438D02*
X46796Y4313D01*
X46410Y3955D02*
X46767Y4313D01*
X46656D02*
X47013Y3955D01*
X46664D02*
X47022Y4313D01*
X46636Y3955D02*
X46994Y4313D01*
X46693Y3955D02*
X47050Y4313D01*
X46712D02*
X47070Y3955D01*
X46684Y4313D02*
X47042Y3955D01*
X46571Y4313D02*
X46928Y3955D01*
X46579D02*
X46937Y4313D01*
X46551Y3955D02*
X46909Y4313D01*
X46608Y3955D02*
X46965Y4313D01*
X46627D02*
X46985Y3955D01*
X46599Y4313D02*
X46957Y3955D01*
X44676Y4313D02*
X45033Y3955D01*
X44684D02*
X45042Y4313D01*
X44647D02*
X45005Y3955D01*
X44656D02*
X45014Y4313D01*
X44713Y3955D02*
X45070Y4313D01*
X44732D02*
X45090Y3955D01*
X44704Y4313D02*
X45062Y3955D01*
X44571D02*
X44929Y4313D01*
X44591D02*
X44949Y3955D01*
X44563Y4313D02*
X44920Y3955D01*
X44619Y4313D02*
X44977Y3955D01*
X44628D02*
X44986Y4313D01*
X44600Y3955D02*
X44957Y4313D01*
X44854Y3955D02*
X45212Y4313D01*
X44874D02*
X45231Y3955D01*
X44826D02*
X45184Y4313D01*
X44845D02*
X45203Y3955D01*
X44902Y4313D02*
X45260Y3955D01*
X44911D02*
X45268Y4313D01*
X44882Y3955D02*
X45240Y4313D01*
X44761D02*
X45118Y3955D01*
X44769D02*
X45127Y4313D01*
X44741Y3955D02*
X45099Y4313D01*
X44798Y3955D02*
X45155Y4313D01*
X44817D02*
X45175Y3955D01*
X44789Y4313D02*
X45147Y3955D01*
X44317D02*
X44674Y4313D01*
X44336D02*
X44694Y3955D01*
X44288D02*
X44646Y4313D01*
X44308D02*
X44666Y3955D01*
X44365Y4313D02*
X44722Y3955D01*
X44373D02*
X44731Y4313D01*
X44345Y3955D02*
X44703Y4313D01*
X42385D02*
X42742Y3955D01*
X42393D02*
X42751Y4313D01*
X42365Y3955D02*
X42723Y4313D01*
X42422Y3955D02*
X42779Y4313D01*
X42441D02*
X42799Y3955D01*
X42413Y4313D02*
X42771Y3955D01*
X44486D02*
X44844Y4313D01*
X44506D02*
X44864Y3955D01*
X44478Y4313D02*
X44835Y3955D01*
X44534Y4313D02*
X44892Y3955D01*
X44543D02*
X44901Y4313D01*
X44515Y3955D02*
X44872Y4313D01*
X44402Y3955D02*
X44759Y4313D01*
X44421D02*
X44779Y3955D01*
X44393Y4313D02*
X44751Y3955D01*
X44449Y4313D02*
X44807Y3955D01*
X44458D02*
X44816Y4313D01*
X44430Y3955D02*
X44788Y4313D01*
X45392Y3955D02*
X45749Y4313D01*
X45411D02*
X45769Y3955D01*
X45363D02*
X45721Y4313D01*
X45383D02*
X45741Y3955D01*
X45439Y4313D02*
X45797Y3955D01*
X45448D02*
X45806Y4313D01*
X45420Y3955D02*
X45777Y4313D01*
X45298D02*
X45656Y3955D01*
X45307D02*
X45664Y4313D01*
X45278Y3955D02*
X45636Y4313D01*
X45335Y3955D02*
X45693Y4313D01*
X45355D02*
X45712Y3955D01*
X45326Y4313D02*
X45684Y3955D01*
X45581Y4313D02*
X45938Y3955D01*
X45589D02*
X45947Y4313D01*
X45553D02*
X45910Y3955D01*
X45561D02*
X45919Y4313D01*
X45618Y3955D02*
X45975Y4313D01*
X45637D02*
X45995Y3955D01*
X45609Y4313D02*
X45967Y3955D01*
X45476D02*
X45834Y4313D01*
X45496D02*
X45854Y3955D01*
X45468Y4313D02*
X45825Y3955D01*
X45524Y4313D02*
X45882Y3955D01*
X45533D02*
X45891Y4313D01*
X45505Y3955D02*
X45862Y4313D01*
X45043D02*
X45401Y3955D01*
X45052D02*
X45410Y4313D01*
X45015D02*
X45373Y3955D01*
X45024D02*
X45382Y4313D01*
X45080Y3955D02*
X45438Y4313D01*
X45100D02*
X45458Y3955D01*
X45072Y4313D02*
X45429Y3955D01*
X44939D02*
X45297Y4313D01*
X44959D02*
X45316Y3955D01*
X44930Y4313D02*
X45288Y3955D01*
X44987Y4313D02*
X45345Y3955D01*
X44996D02*
X45353Y4313D01*
X44967Y3955D02*
X45325Y4313D01*
X45213D02*
X45571Y3955D01*
X45222D02*
X45580Y4313D01*
X45194Y3955D02*
X45551Y4313D01*
X45250Y3955D02*
X45608Y4313D01*
X45270D02*
X45627Y3955D01*
X45241Y4313D02*
X45599Y3955D01*
X45128Y4313D02*
X45486Y3955D01*
X45137D02*
X45495Y4313D01*
X45109Y3955D02*
X45466Y4313D01*
X45165Y3955D02*
X45523Y4313D01*
X45185D02*
X45543Y3955D01*
X45157Y4313D02*
X45514Y3955D01*
X43488Y4313D02*
X43845Y3955D01*
X43496D02*
X43854Y4313D01*
X43459D02*
X43817Y3955D01*
X43468D02*
X43826Y4313D01*
X43525Y3955D02*
X43882Y4313D01*
X43544D02*
X43902Y3955D01*
X43516Y4313D02*
X43874Y3955D01*
X43383D02*
X43741Y4313D01*
X43403D02*
X43761Y3955D01*
X43375Y4313D02*
X43732Y3955D01*
X43431Y4313D02*
X43789Y3955D01*
X43440D02*
X43798Y4313D01*
X43412Y3955D02*
X43769Y4313D01*
X43666Y3955D02*
X44024Y4313D01*
X43686D02*
X44043Y3955D01*
X43638D02*
X43996Y4313D01*
X43657D02*
X44015Y3955D01*
X43714Y4313D02*
X44072Y3955D01*
X43723D02*
X44080Y4313D01*
X43694Y3955D02*
X44052Y4313D01*
X43573D02*
X43930Y3955D01*
X43581D02*
X43939Y4313D01*
X43553Y3955D02*
X43911Y4313D01*
X43610Y3955D02*
X43967Y4313D01*
X43629D02*
X43987Y3955D01*
X43601Y4313D02*
X43959Y3955D01*
X43129D02*
X43486Y4313D01*
X43148D02*
X43506Y3955D01*
X43100D02*
X43458Y4313D01*
X43120D02*
X43478Y3955D01*
X43177Y4313D02*
X43534Y3955D01*
X43185D02*
X43543Y4313D01*
X43157Y3955D02*
X43515Y4313D01*
X43035D02*
X43393Y3955D01*
X43044D02*
X43402Y4313D01*
X43016Y3955D02*
X43373Y4313D01*
X43072Y3955D02*
X43430Y4313D01*
X43092D02*
X43449Y3955D01*
X43063Y4313D02*
X43421Y3955D01*
X43298D02*
X43656Y4313D01*
X43318D02*
X43676Y3955D01*
X43290Y4313D02*
X43647Y3955D01*
X43346Y4313D02*
X43704Y3955D01*
X43355D02*
X43713Y4313D01*
X43327Y3955D02*
X43684Y4313D01*
X43214Y3955D02*
X43571Y4313D01*
X43233D02*
X43591Y3955D01*
X43205Y4313D02*
X43563Y3955D01*
X43261Y4313D02*
X43619Y3955D01*
X43270D02*
X43628Y4313D01*
X43242Y3955D02*
X43600Y4313D01*
X44204Y3955D02*
X44561Y4313D01*
X44223D02*
X44581Y3955D01*
X44175D02*
X44533Y4313D01*
X44195D02*
X44553Y3955D01*
X44251Y4313D02*
X44609Y3955D01*
X44260D02*
X44618Y4313D01*
X44232Y3955D02*
X44590Y4313D01*
X44110D02*
X44468Y3955D01*
X44119D02*
X44476Y4313D01*
X44090Y3955D02*
X44448Y4313D01*
X44147Y3955D02*
X44505Y4313D01*
X44167D02*
X44524Y3955D01*
X44138Y4313D02*
X44496Y3955D01*
X47287D02*
X47423Y4091D01*
X47315Y3955D02*
X47423Y4063D01*
X47230Y3955D02*
X47423Y4148D01*
X47258Y3955D02*
X47423Y4120D01*
X47371Y3955D02*
X47423Y4007D01*
X47400Y3955D02*
X47423Y3978D01*
X47343Y3955D02*
X47423Y4035D01*
X47089Y3955D02*
X47423Y4289D01*
X47117Y3955D02*
X47423Y4261D01*
X44280Y4313D02*
X44637Y3955D01*
X47173D02*
X47423Y4205D01*
X47202Y3955D02*
X47423Y4176D01*
X47145Y3955D02*
X47423Y4233D01*
X43855Y4313D02*
X44213Y3955D01*
X43864D02*
X44222Y4313D01*
X43827D02*
X44185Y3955D01*
X43836D02*
X44194Y4313D01*
X43892Y3955D02*
X44250Y4313D01*
X43912D02*
X44270Y3955D01*
X43884Y4313D02*
X44241Y3955D01*
X43751D02*
X44109Y4313D01*
X43771D02*
X44128Y3955D01*
X43742Y4313D02*
X44100Y3955D01*
X43799Y4313D02*
X44157Y3955D01*
X43808D02*
X44165Y4313D01*
X43779Y3955D02*
X44137Y4313D01*
X44025D02*
X44383Y3955D01*
X44034D02*
X44392Y4313D01*
X44006Y3955D02*
X44363Y4313D01*
X44062Y3955D02*
X44420Y4313D01*
X44082D02*
X44439Y3955D01*
X44053Y4313D02*
X44411Y3955D01*
X43940Y4313D02*
X44298Y3955D01*
X43949D02*
X44307Y4313D01*
X43921Y3955D02*
X44278Y4313D01*
X43977Y3955D02*
X44335Y4313D01*
X43997D02*
X44355Y3955D01*
X43969Y4313D02*
X44326Y3955D01*
X41969D02*
X42327Y4313D01*
X41989D02*
X42346Y3955D01*
X41941D02*
X42299Y4313D01*
X41960D02*
X42318Y3955D01*
X42017Y4313D02*
X42375Y3955D01*
X42026D02*
X42383Y4313D01*
X41997Y3955D02*
X42355Y4313D01*
X41876D02*
X42233Y3955D01*
X41884D02*
X42242Y4313D01*
X41856Y3955D02*
X42214Y4313D01*
X41913Y3955D02*
X42270Y4313D01*
X41932D02*
X42290Y3955D01*
X41904Y4313D02*
X42262Y3955D01*
X42139D02*
X42497Y4313D01*
X42158D02*
X42516Y3955D01*
X42111D02*
X42468Y4313D01*
X42130D02*
X42488Y3955D01*
X42187Y4313D02*
X42544Y3955D01*
X42195D02*
X42553Y4313D01*
X42167Y3955D02*
X42525Y4313D01*
X42054Y3955D02*
X42412Y4313D01*
X36818Y3955D02*
X47423D01*
X42045Y4313D02*
X42403Y3955D01*
X42082D02*
X42440Y4313D01*
X42102D02*
X42460Y3955D01*
X42074Y4313D02*
X42431Y3955D01*
X41621Y4313D02*
X41979Y3955D01*
X41630D02*
X41987Y4313D01*
X41593D02*
X41950Y3955D01*
X41601D02*
X41959Y4313D01*
X41658Y3955D02*
X42016Y4313D01*
X41678D02*
X42035Y3955D01*
X41649Y4313D02*
X42007Y3955D01*
X41517D02*
X41874Y4313D01*
X41536D02*
X41894Y3955D01*
X41508Y4313D02*
X41866Y3955D01*
X41564Y4313D02*
X41922Y3955D01*
X41573D02*
X41931Y4313D01*
X41545Y3955D02*
X41903Y4313D01*
X41791D02*
X42148Y3955D01*
X41799D02*
X42157Y4313D01*
X41771Y3955D02*
X42129Y4313D01*
X41828Y3955D02*
X42185Y4313D01*
X41847D02*
X42205Y3955D01*
X41819Y4313D02*
X42177Y3955D01*
X41706Y4313D02*
X42064Y3955D01*
X41715D02*
X42072Y4313D01*
X41686Y3955D02*
X42044Y4313D01*
X41743Y3955D02*
X42101Y4313D01*
X41762D02*
X42120Y3955D01*
X41734Y4313D02*
X42092Y3955D01*
X42761D02*
X43119Y4313D01*
X42781D02*
X43138Y3955D01*
X42733D02*
X43090Y4313D01*
X42752D02*
X43110Y3955D01*
X42809Y4313D02*
X43167Y3955D01*
X42818D02*
X43175Y4313D01*
X42789Y3955D02*
X43147Y4313D01*
X42668D02*
X43025Y3955D01*
X42676D02*
X43034Y4313D01*
X42648Y3955D02*
X43006Y4313D01*
X42704Y3955D02*
X43062Y4313D01*
X42724D02*
X43082Y3955D01*
X42696Y4313D02*
X43053Y3955D01*
X42950Y4313D02*
X43308Y3955D01*
X42959D02*
X43317Y4313D01*
X42922D02*
X43280Y3955D01*
X42931D02*
X43288Y4313D01*
X42987Y3955D02*
X43345Y4313D01*
X43007D02*
X43365Y3955D01*
X42979Y4313D02*
X43336Y3955D01*
X42846D02*
X43204Y4313D01*
X42865D02*
X43223Y3955D01*
X42837Y4313D02*
X43195Y3955D01*
X42894Y4313D02*
X43251Y3955D01*
X42902D02*
X43260Y4313D01*
X42874Y3955D02*
X43232Y4313D01*
X42328D02*
X42686Y3955D01*
X42337D02*
X42695Y4313D01*
X42300D02*
X42658Y3955D01*
X42309D02*
X42666Y4313D01*
X42450Y3955D02*
X42808Y4313D01*
X42470D02*
X42827Y3955D01*
X42356Y4313D02*
X42714Y3955D01*
X42224D02*
X42581Y4313D01*
X42243D02*
X42601Y3955D01*
X42215Y4313D02*
X42573Y3955D01*
X42272Y4313D02*
X42629Y3955D01*
X42280D02*
X42638Y4313D01*
X42252Y3955D02*
X42610Y4313D01*
X42583D02*
X42940Y3955D01*
X42591D02*
X42949Y4313D01*
X42563Y3955D02*
X42921Y4313D01*
X42620Y3955D02*
X42977Y4313D01*
X42639D02*
X42997Y3955D01*
X42611Y4313D02*
X42969Y3955D01*
X42498Y4313D02*
X42855Y3955D01*
X42507D02*
X42864Y4313D01*
X42478Y3955D02*
X42836Y4313D01*
X42535Y3955D02*
X42892Y4313D01*
X42554D02*
X42912Y3955D01*
X42526Y4313D02*
X42884Y3955D01*
X40527D02*
X40884Y4313D01*
X40546D02*
X40904Y3955D01*
X40498D02*
X40856Y4313D01*
X40518D02*
X40876Y3955D01*
X40574Y4313D02*
X40932Y3955D01*
X40583D02*
X40941Y4313D01*
X40555Y3955D02*
X40913Y4313D01*
X40433D02*
X40791Y3955D01*
X40442D02*
X40799Y4313D01*
X40413Y3955D02*
X40771Y4313D01*
X40470Y3955D02*
X40828Y4313D01*
X40490D02*
X40847Y3955D01*
X40461Y4313D02*
X40819Y3955D01*
X40716Y4313D02*
X41074Y3955D01*
X40725D02*
X41082Y4313D01*
X40688D02*
X41045Y3955D01*
X40696D02*
X41054Y4313D01*
X40753Y3955D02*
X41111Y4313D01*
X40772D02*
X41130Y3955D01*
X40744Y4313D02*
X41102Y3955D01*
X40611D02*
X40969Y4313D01*
X40631D02*
X40989Y3955D01*
X40603Y4313D02*
X40960Y3955D01*
X40659Y4313D02*
X41017Y3955D01*
X40668D02*
X41026Y4313D01*
X40640Y3955D02*
X40997Y4313D01*
X40178D02*
X40536Y3955D01*
X40187D02*
X40545Y4313D01*
X40150D02*
X40508Y3955D01*
X40159D02*
X40517Y4313D01*
X40215Y3955D02*
X40573Y4313D01*
X40235D02*
X40593Y3955D01*
X40207Y4313D02*
X40564Y3955D01*
X40074D02*
X40432Y4313D01*
X40094D02*
X40451Y3955D01*
X40065Y4313D02*
X40423Y3955D01*
X40122Y4313D02*
X40480Y3955D01*
X40131D02*
X40488Y4313D01*
X40102Y3955D02*
X40460Y4313D01*
X40348D02*
X40706Y3955D01*
X40357D02*
X40715Y4313D01*
X40329Y3955D02*
X40686Y4313D01*
X40385Y3955D02*
X40743Y4313D01*
X40405D02*
X40762Y3955D01*
X40376Y4313D02*
X40734Y3955D01*
X40263Y4313D02*
X40621Y3955D01*
X40272D02*
X40630Y4313D01*
X40244Y3955D02*
X40601Y4313D01*
X40300Y3955D02*
X40658Y4313D01*
X40320D02*
X40678Y3955D01*
X40292Y4313D02*
X40649Y3955D01*
X41253Y4313D02*
X41611Y3955D01*
X41262D02*
X41620Y4313D01*
X41225D02*
X41583Y3955D01*
X41234D02*
X41591Y4313D01*
X41290Y3955D02*
X41648Y4313D01*
X41310D02*
X41668Y3955D01*
X41282Y4313D02*
X41639Y3955D01*
X41149D02*
X41507Y4313D01*
X41168D02*
X41526Y3955D01*
X41140Y4313D02*
X41498Y3955D01*
X41197Y4313D02*
X41554Y3955D01*
X41205D02*
X41563Y4313D01*
X41177Y3955D02*
X41535Y4313D01*
X41432Y3955D02*
X41789Y4313D01*
X41451D02*
X41809Y3955D01*
X41403D02*
X41761Y4313D01*
X41423D02*
X41781Y3955D01*
X41480Y4313D02*
X41837Y3955D01*
X41488D02*
X41846Y4313D01*
X41460Y3955D02*
X41818Y4313D01*
X41338D02*
X41696Y3955D01*
X41347D02*
X41705Y4313D01*
X41319Y3955D02*
X41676Y4313D01*
X41375Y3955D02*
X41733Y4313D01*
X41395D02*
X41752Y3955D01*
X41366Y4313D02*
X41724Y3955D01*
X40894D02*
X41252Y4313D01*
X40914D02*
X41272Y3955D01*
X40866D02*
X41224Y4313D01*
X40886D02*
X41243Y3955D01*
X40942Y4313D02*
X41300Y3955D01*
X40951D02*
X41309Y4313D01*
X40923Y3955D02*
X41280Y4313D01*
X40801D02*
X41158Y3955D01*
X40809D02*
X41167Y4313D01*
X40781Y3955D02*
X41139Y4313D01*
X40838Y3955D02*
X41195Y4313D01*
X40857D02*
X41215Y3955D01*
X40829Y4313D02*
X41187Y3955D01*
X41064D02*
X41422Y4313D01*
X41084D02*
X41441Y3955D01*
X41055Y4313D02*
X41413Y3955D01*
X41112Y4313D02*
X41470Y3955D01*
X41121D02*
X41478Y4313D01*
X41092Y3955D02*
X41450Y4313D01*
X40979Y3955D02*
X41337Y4313D01*
X40999D02*
X41356Y3955D01*
X40970Y4313D02*
X41328Y3955D01*
X41027Y4313D02*
X41385Y3955D01*
X41036D02*
X41393Y4313D01*
X41007Y3955D02*
X41365Y4313D01*
X39084Y3955D02*
X39442Y4313D01*
X39104D02*
X39461Y3955D01*
X39056D02*
X39414Y4313D01*
X39075D02*
X39433Y3955D01*
X39132Y4313D02*
X39490Y3955D01*
X39141D02*
X39498Y4313D01*
X39112Y3955D02*
X39470Y4313D01*
X38991D02*
X39348Y3955D01*
X38999D02*
X39357Y4313D01*
X38971Y3955D02*
X39329Y4313D01*
X39028Y3955D02*
X39385Y4313D01*
X39047D02*
X39405Y3955D01*
X39019Y4313D02*
X39377Y3955D01*
X39273Y4313D02*
X39631Y3955D01*
X39282D02*
X39640Y4313D01*
X39245D02*
X39603Y3955D01*
X39254D02*
X39612Y4313D01*
X39310Y3955D02*
X39668Y4313D01*
X39330D02*
X39688Y3955D01*
X39302Y4313D02*
X39659Y3955D01*
X39169D02*
X39527Y4313D01*
X39189D02*
X39546Y3955D01*
X39160Y4313D02*
X39518Y3955D01*
X39217Y4313D02*
X39575Y3955D01*
X39226D02*
X39583Y4313D01*
X39197Y3955D02*
X39555Y4313D01*
X38736D02*
X39094Y3955D01*
X38745D02*
X39102Y4313D01*
X38708D02*
X39065Y3955D01*
X38716D02*
X39074Y4313D01*
X38773Y3955D02*
X39131Y4313D01*
X38793D02*
X39150Y3955D01*
X38764Y4313D02*
X39122Y3955D01*
X38632D02*
X38989Y4313D01*
X38651D02*
X39009Y3955D01*
X38623Y4313D02*
X38981Y3955D01*
X38679Y4313D02*
X39037Y3955D01*
X38688D02*
X39046Y4313D01*
X38660Y3955D02*
X39018Y4313D01*
X38906D02*
X39263Y3955D01*
X38914D02*
X39272Y4313D01*
X38886Y3955D02*
X39244Y4313D01*
X38943Y3955D02*
X39300Y4313D01*
X38962D02*
X39320Y3955D01*
X38934Y4313D02*
X39292Y3955D01*
X38821Y4313D02*
X39179Y3955D01*
X38830D02*
X39187Y4313D01*
X38801Y3955D02*
X39159Y4313D01*
X38858Y3955D02*
X39216Y4313D01*
X38877D02*
X39235Y3955D01*
X38849Y4313D02*
X39207Y3955D01*
X39811Y4313D02*
X40168Y3955D01*
X39819D02*
X40177Y4313D01*
X39783D02*
X40140Y3955D01*
X39791D02*
X40149Y4313D01*
X39848Y3955D02*
X40205Y4313D01*
X39867D02*
X40225Y3955D01*
X39839Y4313D02*
X40197Y3955D01*
X39706D02*
X40064Y4313D01*
X39726D02*
X40084Y3955D01*
X39698Y4313D02*
X40055Y3955D01*
X39754Y4313D02*
X40112Y3955D01*
X39763D02*
X40121Y4313D01*
X39735Y3955D02*
X40092Y4313D01*
X39989Y3955D02*
X40347Y4313D01*
X40009D02*
X40366Y3955D01*
X39961D02*
X40319Y4313D01*
X39980D02*
X40338Y3955D01*
X40037Y4313D02*
X40395Y3955D01*
X40046D02*
X40403Y4313D01*
X40017Y3955D02*
X40375Y4313D01*
X39896D02*
X40253Y3955D01*
X39904D02*
X40262Y4313D01*
X39876Y3955D02*
X40234Y4313D01*
X39933Y3955D02*
X40290Y4313D01*
X39952D02*
X40310Y3955D01*
X39924Y4313D02*
X40282Y3955D01*
X39452D02*
X39810Y4313D01*
X39471D02*
X39829Y3955D01*
X39424D02*
X39781Y4313D01*
X39443D02*
X39801Y3955D01*
X39500Y4313D02*
X39857Y3955D01*
X39508D02*
X39866Y4313D01*
X39480Y3955D02*
X39838Y4313D01*
X39358D02*
X39716Y3955D01*
X39367D02*
X39725Y4313D01*
X39339Y3955D02*
X39696Y4313D01*
X39395Y3955D02*
X39753Y4313D01*
X39415D02*
X39773Y3955D01*
X39387Y4313D02*
X39744Y3955D01*
X39622D02*
X39979Y4313D01*
X39641D02*
X39999Y3955D01*
X39613Y4313D02*
X39971Y3955D01*
X39669Y4313D02*
X40027Y3955D01*
X39678D02*
X40036Y4313D01*
X39650Y3955D02*
X40007Y4313D01*
X39537Y3955D02*
X39894Y4313D01*
X39556D02*
X39914Y3955D01*
X39528Y4313D02*
X39886Y3955D01*
X39585Y4313D02*
X39942Y3955D01*
X39593D02*
X39951Y4313D01*
X39565Y3955D02*
X39923Y4313D01*
X37642Y3955D02*
X37999Y4313D01*
X37661D02*
X38019Y3955D01*
X37613D02*
X37971Y4313D01*
X37633D02*
X37991Y3955D01*
X37689Y4313D02*
X38047Y3955D01*
X37698D02*
X38056Y4313D01*
X37670Y3955D02*
X38028Y4313D01*
X37548D02*
X37906Y3955D01*
X37557D02*
X37914Y4313D01*
X37528Y3955D02*
X37886Y4313D01*
X37585Y3955D02*
X37943Y4313D01*
X37605D02*
X37962Y3955D01*
X37576Y4313D02*
X37934Y3955D01*
X37831Y4313D02*
X38189Y3955D01*
X37840D02*
X38197Y4313D01*
X37803D02*
X38160Y3955D01*
X37811D02*
X38169Y4313D01*
X37868Y3955D02*
X38226Y4313D01*
X37887D02*
X38245Y3955D01*
X37859Y4313D02*
X38217Y3955D01*
X37726D02*
X38084Y4313D01*
X37746D02*
X38104Y3955D01*
X37718Y4313D02*
X38075Y3955D01*
X37774Y4313D02*
X38132Y3955D01*
X37783D02*
X38141Y4313D01*
X37755Y3955D02*
X38112Y4313D01*
X37293D02*
X37651Y3955D01*
X37302D02*
X37660Y4313D01*
X37265D02*
X37623Y3955D01*
X37274D02*
X37632Y4313D01*
X37330Y3955D02*
X37688Y4313D01*
X37350D02*
X37708Y3955D01*
X37322Y4313D02*
X37679Y3955D01*
X37189D02*
X37547Y4313D01*
X37209D02*
X37566Y3955D01*
X37180Y4313D02*
X37538Y3955D01*
X37237Y4313D02*
X37595Y3955D01*
X37246D02*
X37603Y4313D01*
X37217Y3955D02*
X37575Y4313D01*
X37463D02*
X37821Y3955D01*
X37472D02*
X37830Y4313D01*
X37444Y3955D02*
X37801Y4313D01*
X37500Y3955D02*
X37858Y4313D01*
X37520D02*
X37877Y3955D01*
X37491Y4313D02*
X37849Y3955D01*
X37378Y4313D02*
X37736Y3955D01*
X37387D02*
X37745Y4313D01*
X37359Y3955D02*
X37716Y4313D01*
X37415Y3955D02*
X37773Y4313D01*
X37435D02*
X37793Y3955D01*
X37407Y4313D02*
X37764Y3955D01*
X38368Y4313D02*
X38726Y3955D01*
X38377D02*
X38735Y4313D01*
X38340D02*
X38698Y3955D01*
X38349D02*
X38706Y4313D01*
X38405Y3955D02*
X38763Y4313D01*
X38425D02*
X38783Y3955D01*
X38397Y4313D02*
X38754Y3955D01*
X38264D02*
X38622Y4313D01*
X38283D02*
X38641Y3955D01*
X38255Y4313D02*
X38613Y3955D01*
X38312Y4313D02*
X38669Y3955D01*
X38320D02*
X38678Y4313D01*
X38292Y3955D02*
X38650Y4313D01*
X38547Y3955D02*
X38904Y4313D01*
X38566D02*
X38924Y3955D01*
X38518D02*
X38876Y4313D01*
X38538D02*
X38896Y3955D01*
X38595Y4313D02*
X38952Y3955D01*
X38603D02*
X38961Y4313D01*
X38575Y3955D02*
X38933Y4313D01*
X38453D02*
X38811Y3955D01*
X38462D02*
X38820Y4313D01*
X38434Y3955D02*
X38791Y4313D01*
X38490Y3955D02*
X38848Y4313D01*
X38510D02*
X38867Y3955D01*
X38481Y4313D02*
X38839Y3955D01*
X38009D02*
X38367Y4313D01*
X38029D02*
X38387Y3955D01*
X37981D02*
X38339Y4313D01*
X38001D02*
X38358Y3955D01*
X38057Y4313D02*
X38415Y3955D01*
X38066D02*
X38424Y4313D01*
X38038Y3955D02*
X38395Y4313D01*
X37916D02*
X38273Y3955D01*
X37924D02*
X38282Y4313D01*
X37896Y3955D02*
X38254Y4313D01*
X37953Y3955D02*
X38310Y4313D01*
X37972D02*
X38330Y3955D01*
X37944Y4313D02*
X38302Y3955D01*
X38179D02*
X38537Y4313D01*
X38199D02*
X38556Y3955D01*
X38170Y4313D02*
X38528Y3955D01*
X38227Y4313D02*
X38585Y3955D01*
X38236D02*
X38593Y4313D01*
X38207Y3955D02*
X38565Y4313D01*
X38094Y3955D02*
X38452Y4313D01*
X38114D02*
X38471Y3955D01*
X38085Y4313D02*
X38443Y3955D01*
X38142Y4313D02*
X38500Y3955D01*
X38151D02*
X38508Y4313D01*
X38122Y3955D02*
X38480Y4313D01*
X29100Y3955D02*
X29457Y4313D01*
X29119D02*
X29477Y3955D01*
X29071D02*
X29429Y4313D01*
X29091D02*
X29449Y3955D01*
X29148Y4313D02*
X29505Y3955D01*
X29156D02*
X29514Y4313D01*
X29128Y3955D02*
X29486Y4313D01*
X29006D02*
X29364Y3955D01*
X29015D02*
X29373Y4313D01*
X28987Y3955D02*
X29344Y4313D01*
X29043Y3955D02*
X29401Y4313D01*
X29063D02*
X29420Y3955D01*
X29034Y4313D02*
X29392Y3955D01*
X29289Y4313D02*
X29647Y3955D01*
X29298D02*
X29655Y4313D01*
X29261D02*
X29618Y3955D01*
X29269D02*
X29627Y4313D01*
X29326Y3955D02*
X29684Y4313D01*
X29346D02*
X29703Y3955D01*
X29317Y4313D02*
X29675Y3955D01*
X29185D02*
X29542Y4313D01*
X29204D02*
X29562Y3955D01*
X29176Y4313D02*
X29534Y3955D01*
X29232Y4313D02*
X29590Y3955D01*
X29241D02*
X29599Y4313D01*
X29213Y3955D02*
X29571Y4313D01*
X28364Y3955D02*
X28722Y4313D01*
X28384D02*
X28742Y3955D01*
X28299Y4313D02*
X28657Y3955D01*
X28356Y4313D02*
X28713Y3955D01*
X28789D02*
X29146Y4313D01*
X28808D02*
X29166Y3955D01*
X28780Y4313D02*
X29138Y3955D01*
X28223D02*
X28581Y4313D01*
X28243D02*
X28600Y3955D01*
X28214Y4313D02*
X28572Y3955D01*
X28271Y4313D02*
X28628Y3955D01*
X28280D02*
X28637Y4313D01*
X28251Y3955D02*
X28609Y4313D01*
X28921D02*
X29279Y3955D01*
X28930D02*
X29288Y4313D01*
X28902Y3955D02*
X29259Y4313D01*
X28958Y3955D02*
X29316Y4313D01*
X28978D02*
X29336Y3955D01*
X28950Y4313D02*
X29307Y3955D01*
X28836Y4313D02*
X29194Y3955D01*
X28845D02*
X29203Y4313D01*
X28817Y3955D02*
X29175Y4313D01*
X28873Y3955D02*
X29231Y4313D01*
X28893D02*
X29251Y3955D01*
X28865Y4313D02*
X29222Y3955D01*
X37104Y3955D02*
X37462Y4313D01*
X37124D02*
X37481Y3955D01*
X37076D02*
X37434Y4313D01*
X37095D02*
X37453Y3955D01*
X37152Y4313D02*
X37510Y3955D01*
X37161D02*
X37518Y4313D01*
X37132Y3955D02*
X37490Y4313D01*
X37011D02*
X37368Y3955D01*
X37019D02*
X37377Y4313D01*
X36991Y3955D02*
X37349Y4313D01*
X37048Y3955D02*
X37405Y4313D01*
X37067D02*
X37425Y3955D01*
X37039Y4313D02*
X37397Y3955D01*
X36926Y4313D02*
X37283Y3955D01*
X36935D02*
X37292Y4313D01*
X36898D02*
X37255Y3955D01*
X36906D02*
X37264Y4313D01*
X36963Y3955D02*
X37320Y4313D01*
X36982D02*
X37340Y3955D01*
X36954Y4313D02*
X37312Y3955D01*
X36821D02*
X37179Y4313D01*
X36841D02*
X37199Y3955D01*
X36817Y4308D02*
X37170Y3955D01*
X36869Y4313D02*
X37227Y3955D01*
X36878D02*
X37236Y4313D01*
X36850Y3955D02*
X37207Y4313D01*
X29487D02*
X29845Y3955D01*
X29496D02*
X29853Y4313D01*
X29459D02*
X29816Y3955D01*
X29467D02*
X29825Y4313D01*
X36473D02*
X36831Y3955D01*
X36700Y4313D02*
X37057Y3955D01*
X29515Y4313D02*
X29873Y3955D01*
X29374Y4313D02*
X29732Y3955D01*
X29383D02*
X29740Y4313D01*
X29354Y3955D02*
X29712Y4313D01*
X29430D02*
X29788Y3955D01*
X29439D02*
X29797Y4313D01*
X29402D02*
X29760Y3955D01*
X36790Y4279D02*
X37114Y3955D01*
X36793Y4163D02*
X37001Y3955D01*
X36788Y4055D02*
X36888Y3955D01*
X36806Y4291D02*
X37142Y3955D01*
X36797Y4187D02*
X37029Y3955D01*
X36797Y4074D02*
X36916Y3955D01*
X36750Y4149D02*
X36944Y3955D01*
X29411Y3955D02*
X29769Y4313D01*
X36768Y4273D02*
X37086Y3955D01*
X36778Y4150D02*
X36972Y3955D01*
X36769Y4045D02*
X36859Y3955D01*
X21002Y4313D02*
X21359Y3955D01*
X21010D02*
X21368Y4313D01*
X20973D02*
X21331Y3955D01*
X20982D02*
X21340Y4313D01*
X21039Y3955D02*
X21396Y4313D01*
X21058D02*
X21416Y3955D01*
X21030Y4313D02*
X21388Y3955D01*
X20897D02*
X21255Y4313D01*
X20917D02*
X21275Y3955D01*
X20889Y4313D02*
X21246Y3955D01*
X20945Y4313D02*
X21303Y3955D01*
X20954D02*
X21312Y4313D01*
X20926Y3955D02*
X21283Y4313D01*
X21180Y3955D02*
X21538Y4313D01*
X21200D02*
X21557Y3955D01*
X21152D02*
X21510Y4313D01*
X21171D02*
X21529Y3955D01*
X21228Y4313D02*
X21586Y3955D01*
X21237D02*
X21594Y4313D01*
X21208Y3955D02*
X21566Y4313D01*
X21087D02*
X21444Y3955D01*
X21095D02*
X21453Y4313D01*
X21067Y3955D02*
X21425Y4313D01*
X21124Y3955D02*
X21481Y4313D01*
X21143D02*
X21501Y3955D01*
X21115Y4313D02*
X21473Y3955D01*
X20634Y4313D02*
X20992Y3955D01*
X20643D02*
X21000Y4313D01*
X20606D02*
X20963Y3955D01*
X20614D02*
X20972Y4313D01*
X20671Y3955D02*
X21029Y4313D01*
X20691D02*
X21048Y3955D01*
X20662Y4313D02*
X21020Y3955D01*
X20530D02*
X20887Y4313D01*
X20549D02*
X20907Y3955D01*
X20521Y4313D02*
X20879Y3955D01*
X20577Y4313D02*
X20935Y3955D01*
X20586D02*
X20944Y4313D01*
X20558Y3955D02*
X20916Y4313D01*
X20812Y3955D02*
X21170Y4313D01*
X20832D02*
X21190Y3955D01*
X20784D02*
X21142Y4313D01*
X20804D02*
X21161Y3955D01*
X20860Y4313D02*
X21218Y3955D01*
X20869D02*
X21227Y4313D01*
X20841Y3955D02*
X21198Y4313D01*
X20719D02*
X21077Y3955D01*
X20728D02*
X21085Y4313D01*
X20699Y3955D02*
X21057Y4313D01*
X20756Y3955D02*
X21114Y4313D01*
X20775D02*
X21133Y3955D01*
X20747Y4313D02*
X21105Y3955D01*
X21822Y4313D02*
X22180Y3955D01*
X21831D02*
X22188Y4313D01*
X21794D02*
X22151Y3955D01*
X21802D02*
X22160Y4313D01*
X21859Y3955D02*
X22217Y4313D01*
X21879D02*
X22236Y3955D01*
X21850Y4313D02*
X22208Y3955D01*
X21718D02*
X22075Y4313D01*
X21737D02*
X22095Y3955D01*
X21709Y4313D02*
X22067Y3955D01*
X21765Y4313D02*
X22123Y3955D01*
X21774D02*
X22132Y4313D01*
X21746Y3955D02*
X22104Y4313D01*
X22000Y3955D02*
X22358Y4313D01*
X22020D02*
X22378Y3955D01*
X21972D02*
X22330Y4313D01*
X21992D02*
X22349Y3955D01*
X22048Y4313D02*
X22406Y3955D01*
X22057D02*
X22415Y4313D01*
X22029Y3955D02*
X22386Y4313D01*
X21907D02*
X22265Y3955D01*
X21916D02*
X22273Y4313D01*
X21887Y3955D02*
X22245Y4313D01*
X21944Y3955D02*
X22302Y4313D01*
X21963D02*
X22321Y3955D01*
X21935Y4313D02*
X22293Y3955D01*
X21369Y4313D02*
X21727Y3955D01*
X21378D02*
X21736Y4313D01*
X21341D02*
X21699Y3955D01*
X21350D02*
X21708Y4313D01*
X21463Y3955D02*
X21821Y4313D01*
X21483D02*
X21840Y3955D01*
X21398Y4313D02*
X21755Y3955D01*
X21265D02*
X21623Y4313D01*
X21285D02*
X21642Y3955D01*
X21256Y4313D02*
X21614Y3955D01*
X21313Y4313D02*
X21671Y3955D01*
X21322D02*
X21679Y4313D01*
X21293Y3955D02*
X21651Y4313D01*
X21633Y3955D02*
X21990Y4313D01*
X21652D02*
X22010Y3955D01*
X21624Y4313D02*
X21982Y3955D01*
X21681Y4313D02*
X22038Y3955D01*
X21689D02*
X22047Y4313D01*
X21661Y3955D02*
X22019Y4313D01*
X21548Y3955D02*
X21906Y4313D01*
X21567D02*
X21925Y3955D01*
X21511Y4313D02*
X21869Y3955D01*
X21596Y4313D02*
X21953Y3955D01*
X21604D02*
X21962Y4313D01*
X21576Y3955D02*
X21934Y4313D01*
X19540Y3955D02*
X19897Y4313D01*
X19559D02*
X19917Y3955D01*
X19511D02*
X19869Y4313D01*
X19531D02*
X19889Y3955D01*
X19588Y4313D02*
X19945Y3955D01*
X19596D02*
X19954Y4313D01*
X19568Y3955D02*
X19926Y4313D01*
X19446D02*
X19804Y3955D01*
X19455D02*
X19813Y4313D01*
X19427Y3955D02*
X19784Y4313D01*
X19483Y3955D02*
X19841Y4313D01*
X19503D02*
X19860Y3955D01*
X19474Y4313D02*
X19832Y3955D01*
X19729Y4313D02*
X20087Y3955D01*
X19738D02*
X20095Y4313D01*
X19701D02*
X20058Y3955D01*
X19709D02*
X20067Y4313D01*
X19766Y3955D02*
X20124Y4313D01*
X19786D02*
X20143Y3955D01*
X19757Y4313D02*
X20115Y3955D01*
X19625D02*
X19982Y4313D01*
X19644D02*
X20002Y3955D01*
X19616Y4313D02*
X19974Y3955D01*
X19672Y4313D02*
X20030Y3955D01*
X19681D02*
X20039Y4313D01*
X19653Y3955D02*
X20010Y4313D01*
X19192D02*
X19549Y3955D01*
X19200D02*
X19558Y4313D01*
X19163D02*
X19521Y3955D01*
X19172D02*
X19530Y4313D01*
X19229Y3955D02*
X19586Y4313D01*
X19248D02*
X19606Y3955D01*
X19220Y4313D02*
X19578Y3955D01*
X19087D02*
X19445Y4313D01*
X19107D02*
X19464Y3955D01*
X19078Y4313D02*
X19436Y3955D01*
X19135Y4313D02*
X19493Y3955D01*
X19144D02*
X19501Y4313D01*
X19115Y3955D02*
X19473Y4313D01*
X19361D02*
X19719Y3955D01*
X19370D02*
X19728Y4313D01*
X19342Y3955D02*
X19699Y4313D01*
X19398Y3955D02*
X19756Y4313D01*
X19418D02*
X19776Y3955D01*
X19390Y4313D02*
X19747Y3955D01*
X19276Y4313D02*
X19634Y3955D01*
X19285D02*
X19643Y4313D01*
X19257Y3955D02*
X19615Y4313D01*
X19313Y3955D02*
X19671Y4313D01*
X19333D02*
X19691Y3955D01*
X19305Y4313D02*
X19662Y3955D01*
X20266Y4313D02*
X20624Y3955D01*
X20275D02*
X20633Y4313D01*
X20238D02*
X20596Y3955D01*
X20247D02*
X20604Y4313D01*
X20303Y3955D02*
X20661Y4313D01*
X20323D02*
X20681Y3955D01*
X20295Y4313D02*
X20652Y3955D01*
X20162D02*
X20520Y4313D01*
X20181D02*
X20539Y3955D01*
X20153Y4313D02*
X20511Y3955D01*
X20210Y4313D02*
X20567Y3955D01*
X20218D02*
X20576Y4313D01*
X20190Y3955D02*
X20548Y4313D01*
X20445Y3955D02*
X20802Y4313D01*
X20464D02*
X20822Y3955D01*
X20416D02*
X20774Y4313D01*
X20436D02*
X20794Y3955D01*
X20493Y4313D02*
X20850Y3955D01*
X20501D02*
X20859Y4313D01*
X20473Y3955D02*
X20831Y4313D01*
X20351D02*
X20709Y3955D01*
X20360D02*
X20718Y4313D01*
X20332Y3955D02*
X20689Y4313D01*
X20388Y3955D02*
X20746Y4313D01*
X20408D02*
X20765Y3955D01*
X20379Y4313D02*
X20737Y3955D01*
X19907D02*
X20265Y4313D01*
X19927D02*
X20285Y3955D01*
X19879D02*
X20237Y4313D01*
X19899D02*
X20256Y3955D01*
X19955Y4313D02*
X20313Y3955D01*
X19964D02*
X20322Y4313D01*
X19936Y3955D02*
X20293Y4313D01*
X19814D02*
X20171Y3955D01*
X19823D02*
X20180Y4313D01*
X19794Y3955D02*
X20152Y4313D01*
X19851Y3955D02*
X20208Y4313D01*
X19870D02*
X20228Y3955D01*
X19842Y4313D02*
X20200Y3955D01*
X20077D02*
X20435Y4313D01*
X20097D02*
X20454Y3955D01*
X20068Y4313D02*
X20426Y3955D01*
X20125Y4313D02*
X20483Y3955D01*
X20134D02*
X20491Y4313D01*
X20105Y3955D02*
X20463Y4313D01*
X19992Y3955D02*
X20350Y4313D01*
X20012D02*
X20369Y3955D01*
X19983Y4313D02*
X20341Y3955D01*
X20040Y4313D02*
X20398Y3955D01*
X20049D02*
X20406Y4313D01*
X20020Y3955D02*
X20378Y4313D01*
X23952Y3955D02*
X24310Y4313D01*
X23972D02*
X24329Y3955D01*
X23924D02*
X24281Y4313D01*
X23943D02*
X24301Y3955D01*
X24000Y4313D02*
X24358Y3955D01*
X24009D02*
X24366Y4313D01*
X23980Y3955D02*
X24338Y4313D01*
X23858D02*
X24216Y3955D01*
X23867D02*
X24225Y4313D01*
X23839Y3955D02*
X24197Y4313D01*
X23895Y3955D02*
X24253Y4313D01*
X23915D02*
X24273Y3955D01*
X23887Y4313D02*
X24244Y3955D01*
X24141Y4313D02*
X24499Y3955D01*
X24150D02*
X24508Y4313D01*
X24113D02*
X24471Y3955D01*
X24122D02*
X24479Y4313D01*
X24178Y3955D02*
X24536Y4313D01*
X24198D02*
X24556Y3955D01*
X24170Y4313D02*
X24527Y3955D01*
X24037D02*
X24395Y4313D01*
X24056D02*
X24414Y3955D01*
X24028Y4313D02*
X24386Y3955D01*
X24085Y4313D02*
X24442Y3955D01*
X24093D02*
X24451Y4313D01*
X24065Y3955D02*
X24423Y4313D01*
X23604D02*
X23962Y3955D01*
X23613D02*
X23970Y4313D01*
X23576D02*
X23933Y3955D01*
X23584D02*
X23942Y4313D01*
X23641Y3955D02*
X23999Y4313D01*
X23660D02*
X24018Y3955D01*
X23632Y4313D02*
X23990Y3955D01*
X23499D02*
X23857Y4313D01*
X23519D02*
X23877Y3955D01*
X23491Y4313D02*
X23848Y3955D01*
X23547Y4313D02*
X23905Y3955D01*
X23556D02*
X23914Y4313D01*
X23528Y3955D02*
X23885Y4313D01*
X23774D02*
X24131Y3955D01*
X23782D02*
X24140Y4313D01*
X23754Y3955D02*
X24112Y4313D01*
X23811Y3955D02*
X24168Y4313D01*
X23830D02*
X24188Y3955D01*
X23802Y4313D02*
X24160Y3955D01*
X23689Y4313D02*
X24046Y3955D01*
X23697D02*
X24055Y4313D01*
X23669Y3955D02*
X24027Y4313D01*
X23726Y3955D02*
X24083Y4313D01*
X23745D02*
X24103Y3955D01*
X23717Y4313D02*
X24075Y3955D01*
X24679Y4313D02*
X25036Y3955D01*
X24687D02*
X25045Y4313D01*
X24650D02*
X25008Y3955D01*
X24659D02*
X25017Y4313D01*
X24716Y3955D02*
X25073Y4313D01*
X24735D02*
X25093Y3955D01*
X24707Y4313D02*
X25065Y3955D01*
X24574D02*
X24932Y4313D01*
X24594D02*
X24952Y3955D01*
X24566Y4313D02*
X24923Y3955D01*
X24622Y4313D02*
X24980Y3955D01*
X24631D02*
X24989Y4313D01*
X24603Y3955D02*
X24960Y4313D01*
X24857Y3955D02*
X25215Y4313D01*
X24877D02*
X25234Y3955D01*
X24829D02*
X25187Y4313D01*
X24848D02*
X25206Y3955D01*
X24905Y4313D02*
X25263Y3955D01*
X24914D02*
X25271Y4313D01*
X24885Y3955D02*
X25243Y4313D01*
X24764D02*
X25121Y3955D01*
X24772D02*
X25130Y4313D01*
X24744Y3955D02*
X25102Y4313D01*
X24801Y3955D02*
X25158Y4313D01*
X24820D02*
X25178Y3955D01*
X24792Y4313D02*
X25150Y3955D01*
X24320D02*
X24677Y4313D01*
X24339D02*
X24697Y3955D01*
X24291D02*
X24649Y4313D01*
X24311D02*
X24669Y3955D01*
X24368Y4313D02*
X24725Y3955D01*
X24376D02*
X24734Y4313D01*
X24348Y3955D02*
X24706Y4313D01*
X24226D02*
X24584Y3955D01*
X24235D02*
X24593Y4313D01*
X24207Y3955D02*
X24564Y4313D01*
X24263Y3955D02*
X24621Y4313D01*
X24283D02*
X24640Y3955D01*
X24254Y4313D02*
X24612Y3955D01*
X24489D02*
X24847Y4313D01*
X24509D02*
X24867Y3955D01*
X24481Y4313D02*
X24838Y3955D01*
X24537Y4313D02*
X24895Y3955D01*
X24546D02*
X24904Y4313D01*
X24518Y3955D02*
X24875Y4313D01*
X24405Y3955D02*
X24762Y4313D01*
X24424D02*
X24782Y3955D01*
X24396Y4313D02*
X24754Y3955D01*
X24452Y4313D02*
X24810Y3955D01*
X24461D02*
X24819Y4313D01*
X24433Y3955D02*
X24791Y4313D01*
X23245Y3955D02*
X23603Y4313D01*
X23264D02*
X23622Y3955D01*
X23217D02*
X23574Y4313D01*
X23236D02*
X23594Y3955D01*
X23293Y4313D02*
X23650Y3955D01*
X23301D02*
X23659Y4313D01*
X23273Y3955D02*
X23631Y4313D01*
X23151D02*
X23509Y3955D01*
X23160D02*
X23518Y4313D01*
X23132Y3955D02*
X23489Y4313D01*
X23188Y3955D02*
X23546Y4313D01*
X23208D02*
X23566Y3955D01*
X23180Y4313D02*
X23537Y3955D01*
X23415D02*
X23772Y4313D01*
X23434D02*
X23792Y3955D01*
X23386D02*
X23744Y4313D01*
X23406D02*
X23764Y3955D01*
X23462Y4313D02*
X23820Y3955D01*
X23471D02*
X23829Y4313D01*
X23443Y3955D02*
X23801Y4313D01*
X23330Y3955D02*
X23687Y4313D01*
X15244D02*
X25922D01*
X23321D02*
X23679Y3955D01*
X23358D02*
X23716Y4313D01*
X23378D02*
X23735Y3955D01*
X23349Y4313D02*
X23707Y3955D01*
X22897Y4313D02*
X23254Y3955D01*
X22905D02*
X23263Y4313D01*
X22868D02*
X23226Y3955D01*
X22877D02*
X23235Y4313D01*
X22934Y3955D02*
X23291Y4313D01*
X22953D02*
X23311Y3955D01*
X22925Y4313D02*
X23283Y3955D01*
X22792D02*
X23150Y4313D01*
X22812D02*
X23170Y3955D01*
X22784Y4313D02*
X23141Y3955D01*
X22840Y4313D02*
X23198Y3955D01*
X22849D02*
X23207Y4313D01*
X22821Y3955D02*
X23178Y4313D01*
X23066D02*
X23424Y3955D01*
X23075D02*
X23433Y4313D01*
X23047Y3955D02*
X23405Y4313D01*
X23103Y3955D02*
X23461Y4313D01*
X23123D02*
X23481Y3955D01*
X23095Y4313D02*
X23452Y3955D01*
X22982Y4313D02*
X23339Y3955D01*
X22990D02*
X23348Y4313D01*
X22962Y3955D02*
X23320Y4313D01*
X23019Y3955D02*
X23376Y4313D01*
X23038D02*
X23396Y3955D01*
X23010Y4313D02*
X23368Y3955D01*
X22538D02*
X22895Y4313D01*
X22557D02*
X22915Y3955D01*
X22510D02*
X22867Y4313D01*
X22529D02*
X22887Y3955D01*
X22586Y4313D02*
X22943Y3955D01*
X22594D02*
X22952Y4313D01*
X22566Y3955D02*
X22924Y4313D01*
X22444D02*
X22802Y3955D01*
X22453D02*
X22811Y4313D01*
X22425Y3955D02*
X22782Y4313D01*
X22481Y3955D02*
X22839Y4313D01*
X22501D02*
X22859Y3955D01*
X22473Y4313D02*
X22830Y3955D01*
X22707D02*
X23065Y4313D01*
X22727D02*
X23085Y3955D01*
X22679D02*
X23037Y4313D01*
X22699D02*
X23056Y3955D01*
X22755Y4313D02*
X23113Y3955D01*
X22764D02*
X23122Y4313D01*
X22736Y3955D02*
X23093Y4313D01*
X22623Y3955D02*
X22980Y4313D01*
X15243Y3955D02*
X25922D01*
X22614Y4313D02*
X22972Y3955D01*
X22651D02*
X23009Y4313D01*
X22671D02*
X23028Y3955D01*
X22642Y4313D02*
X23000Y3955D01*
X22190Y4313D02*
X22547Y3955D01*
X22198D02*
X22556Y4313D01*
X22161D02*
X22519Y3955D01*
X22170D02*
X22528Y4313D01*
X22227Y3955D02*
X22584Y4313D01*
X22246D02*
X22604Y3955D01*
X22218Y4313D02*
X22576Y3955D01*
X22085D02*
X22443Y4313D01*
X22105D02*
X22463Y3955D01*
X22077Y4313D02*
X22434Y3955D01*
X22133Y4313D02*
X22491Y3955D01*
X22142D02*
X22500Y4313D01*
X22114Y3955D02*
X22471Y4313D01*
X22359D02*
X22717Y3955D01*
X22368D02*
X22726Y4313D01*
X22340Y3955D02*
X22698Y4313D01*
X22396Y3955D02*
X22754Y4313D01*
X22416D02*
X22774Y3955D01*
X22388Y4313D02*
X22745Y3955D01*
X22275Y4313D02*
X22632Y3955D01*
X22283D02*
X22641Y4313D01*
X22255Y3955D02*
X22613Y4313D01*
X22312Y3955D02*
X22669Y4313D01*
X22331D02*
X22689Y3955D01*
X22303Y4313D02*
X22661Y3955D01*
X18097D02*
X18455Y4313D01*
X18117D02*
X18474Y3955D01*
X18069D02*
X18427Y4313D01*
X18088D02*
X18446Y3955D01*
X18145Y4313D02*
X18503Y3955D01*
X18154D02*
X18511Y4313D01*
X18125Y3955D02*
X18483Y4313D01*
X18004D02*
X18361Y3955D01*
X18012D02*
X18370Y4313D01*
X17984Y3955D02*
X18342Y4313D01*
X18041Y3955D02*
X18398Y4313D01*
X18060D02*
X18418Y3955D01*
X18032Y4313D02*
X18390Y3955D01*
X18286Y4313D02*
X18644Y3955D01*
X18295D02*
X18653Y4313D01*
X18258D02*
X18616Y3955D01*
X18267D02*
X18625Y4313D01*
X18323Y3955D02*
X18681Y4313D01*
X18343D02*
X18701Y3955D01*
X18315Y4313D02*
X18672Y3955D01*
X18182D02*
X18540Y4313D01*
X18202D02*
X18559Y3955D01*
X18173Y4313D02*
X18531Y3955D01*
X18230Y4313D02*
X18588Y3955D01*
X18239D02*
X18596Y4313D01*
X18210Y3955D02*
X18568Y4313D01*
X17749D02*
X18107Y3955D01*
X17758D02*
X18115Y4313D01*
X17721D02*
X18078Y3955D01*
X17729D02*
X18087Y4313D01*
X17786Y3955D02*
X18144Y4313D01*
X17806D02*
X18163Y3955D01*
X17777Y4313D02*
X18135Y3955D01*
X17645D02*
X18002Y4313D01*
X17664D02*
X18022Y3955D01*
X17636Y4313D02*
X17994Y3955D01*
X17692Y4313D02*
X18050Y3955D01*
X17701D02*
X18059Y4313D01*
X17673Y3955D02*
X18031Y4313D01*
X17919D02*
X18276Y3955D01*
X17927D02*
X18285Y4313D01*
X17899Y3955D02*
X18257Y4313D01*
X17956Y3955D02*
X18313Y4313D01*
X17975D02*
X18333Y3955D01*
X17947Y4313D02*
X18305Y3955D01*
X17834Y4313D02*
X18192Y3955D01*
X17843D02*
X18200Y4313D01*
X17814Y3955D02*
X18172Y4313D01*
X17871Y3955D02*
X18229Y4313D01*
X17890D02*
X18248Y3955D01*
X17862Y4313D02*
X18220Y3955D01*
X18824Y4313D02*
X19182Y3955D01*
X18833D02*
X19190Y4313D01*
X18796D02*
X19153Y3955D01*
X18804D02*
X19162Y4313D01*
X18861Y3955D02*
X19219Y4313D01*
X18880D02*
X19238Y3955D01*
X18852Y4313D02*
X19210Y3955D01*
X18719D02*
X19077Y4313D01*
X18739D02*
X19097Y3955D01*
X18711Y4313D02*
X19068Y3955D01*
X18767Y4313D02*
X19125Y3955D01*
X18776D02*
X19134Y4313D01*
X18748Y3955D02*
X19105Y4313D01*
X19002Y3955D02*
X19360Y4313D01*
X19022D02*
X19380Y3955D01*
X18974D02*
X19332Y4313D01*
X18994D02*
X19351Y3955D01*
X19050Y4313D02*
X19408Y3955D01*
X19059D02*
X19417Y4313D01*
X19031Y3955D02*
X19388Y4313D01*
X18909D02*
X19266Y3955D01*
X18917D02*
X19275Y4313D01*
X18889Y3955D02*
X19247Y4313D01*
X18946Y3955D02*
X19303Y4313D01*
X18965D02*
X19323Y3955D01*
X18937Y4313D02*
X19295Y3955D01*
X18465D02*
X18823Y4313D01*
X18484D02*
X18842Y3955D01*
X18437D02*
X18794Y4313D01*
X18456D02*
X18814Y3955D01*
X18513Y4313D02*
X18870Y3955D01*
X18521D02*
X18879Y4313D01*
X18493Y3955D02*
X18851Y4313D01*
X18371D02*
X18729Y3955D01*
X18380D02*
X18738Y4313D01*
X18352Y3955D02*
X18709Y4313D01*
X18408Y3955D02*
X18766Y4313D01*
X18428D02*
X18786Y3955D01*
X18400Y4313D02*
X18757Y3955D01*
X18635D02*
X18992Y4313D01*
X18654D02*
X19012Y3955D01*
X18626Y4313D02*
X18984Y3955D01*
X18682Y4313D02*
X19040Y3955D01*
X18691D02*
X19049Y4313D01*
X18663Y3955D02*
X19021Y4313D01*
X18550Y3955D02*
X18907Y4313D01*
X18569D02*
X18927Y3955D01*
X18541Y4313D02*
X18899Y3955D01*
X18598Y4313D02*
X18955Y3955D01*
X18606D02*
X18964Y4313D01*
X18578Y3955D02*
X18936Y4313D01*
X16655Y3955D02*
X17012Y4313D01*
X16674D02*
X17032Y3955D01*
X16626D02*
X16984Y4313D01*
X16646D02*
X17004Y3955D01*
X16703Y4313D02*
X17060Y3955D01*
X16711D02*
X17069Y4313D01*
X16683Y3955D02*
X17041Y4313D01*
X16561D02*
X16919Y3955D01*
X16570D02*
X16928Y4313D01*
X16542Y3955D02*
X16899Y4313D01*
X16598Y3955D02*
X16956Y4313D01*
X16618D02*
X16975Y3955D01*
X16589Y4313D02*
X16947Y3955D01*
X16844Y4313D02*
X17202Y3955D01*
X16853D02*
X17210Y4313D01*
X16816D02*
X17173Y3955D01*
X16824D02*
X17182Y4313D01*
X16881Y3955D02*
X17239Y4313D01*
X16901D02*
X17258Y3955D01*
X16872Y4313D02*
X17230Y3955D01*
X16740D02*
X17097Y4313D01*
X16759D02*
X17117Y3955D01*
X16731Y4313D02*
X17089Y3955D01*
X16787Y4313D02*
X17145Y3955D01*
X16796D02*
X17154Y4313D01*
X16768Y3955D02*
X17125Y4313D01*
X16307D02*
X16664Y3955D01*
X16315D02*
X16673Y4313D01*
X16278D02*
X16636Y3955D01*
X16287D02*
X16645Y4313D01*
X16344Y3955D02*
X16701Y4313D01*
X16363D02*
X16721Y3955D01*
X16335Y4313D02*
X16693Y3955D01*
X16202D02*
X16560Y4313D01*
X16222D02*
X16579Y3955D01*
X16193Y4313D02*
X16551Y3955D01*
X16250Y4313D02*
X16608Y3955D01*
X16259D02*
X16616Y4313D01*
X16230Y3955D02*
X16588Y4313D01*
X16476D02*
X16834Y3955D01*
X16485D02*
X16843Y4313D01*
X16457Y3955D02*
X16814Y4313D01*
X16513Y3955D02*
X16871Y4313D01*
X16533D02*
X16891Y3955D01*
X16505Y4313D02*
X16862Y3955D01*
X16391Y4313D02*
X16749Y3955D01*
X16400D02*
X16758Y4313D01*
X16372Y3955D02*
X16730Y4313D01*
X16428Y3955D02*
X16786Y4313D01*
X16448D02*
X16806Y3955D01*
X16420Y4313D02*
X16777Y3955D01*
X17381Y4313D02*
X17739Y3955D01*
X17390D02*
X17748Y4313D01*
X17353D02*
X17711Y3955D01*
X17362D02*
X17719Y4313D01*
X17418Y3955D02*
X17776Y4313D01*
X17438D02*
X17796Y3955D01*
X17410Y4313D02*
X17767Y3955D01*
X17277D02*
X17635Y4313D01*
X17296D02*
X17654Y3955D01*
X17268Y4313D02*
X17626Y3955D01*
X17325Y4313D02*
X17682Y3955D01*
X17333D02*
X17691Y4313D01*
X17305Y3955D02*
X17663Y4313D01*
X17560Y3955D02*
X17917Y4313D01*
X17579D02*
X17937Y3955D01*
X17531D02*
X17889Y4313D01*
X17551D02*
X17909Y3955D01*
X17608Y4313D02*
X17965Y3955D01*
X17616D02*
X17974Y4313D01*
X17588Y3955D02*
X17946Y4313D01*
X17466D02*
X17824Y3955D01*
X17475D02*
X17833Y4313D01*
X17447Y3955D02*
X17804Y4313D01*
X17503Y3955D02*
X17861Y4313D01*
X17523D02*
X17880Y3955D01*
X17494Y4313D02*
X17852Y3955D01*
X17022D02*
X17380Y4313D01*
X17042D02*
X17400Y3955D01*
X16994D02*
X17352Y4313D01*
X17014D02*
X17371Y3955D01*
X17070Y4313D02*
X17428Y3955D01*
X17079D02*
X17437Y4313D01*
X17051Y3955D02*
X17408Y4313D01*
X16929D02*
X17286Y3955D01*
X16938D02*
X17295Y4313D01*
X16909Y3955D02*
X17267Y4313D01*
X16966Y3955D02*
X17323Y4313D01*
X16985D02*
X17343Y3955D01*
X16957Y4313D02*
X17315Y3955D01*
X17192D02*
X17550Y4313D01*
X17212D02*
X17569Y3955D01*
X17183Y4313D02*
X17541Y3955D01*
X17240Y4313D02*
X17598Y3955D01*
X17249D02*
X17606Y4313D01*
X17220Y3955D02*
X17578Y4313D01*
X17107Y3955D02*
X17465Y4313D01*
X17127D02*
X17484Y3955D01*
X17098Y4313D02*
X17456Y3955D01*
X17155Y4313D02*
X17513Y3955D01*
X17164D02*
X17521Y4313D01*
X17135Y3955D02*
X17493Y4313D01*
X15778Y3955D02*
X16136Y4313D01*
X15797D02*
X16155Y3955D01*
X15750D02*
X16107Y4313D01*
X15769D02*
X16127Y3955D01*
X15826Y4313D02*
X16183Y3955D01*
X15834D02*
X16192Y4313D01*
X15806Y3955D02*
X16164Y4313D01*
X15684D02*
X16042Y3955D01*
X15693D02*
X16051Y4313D01*
X15665Y3955D02*
X16022Y4313D01*
X15721Y3955D02*
X16079Y4313D01*
X15741D02*
X16099Y3955D01*
X15713Y4313D02*
X16070Y3955D01*
X16109Y4313D02*
X16466Y3955D01*
X16117D02*
X16475Y4313D01*
X16080D02*
X16438Y3955D01*
X16089D02*
X16447Y4313D01*
X16165D02*
X16523Y3955D01*
X16174D02*
X16532Y4313D01*
X16137D02*
X16495Y3955D01*
X15863D02*
X16220Y4313D01*
X15882D02*
X16240Y3955D01*
X15854Y4313D02*
X16212Y3955D01*
X15911Y4313D02*
X16268Y3955D01*
X16061D02*
X16418Y4313D01*
X15891Y3955D02*
X16249Y4313D01*
X15224Y4080D02*
X15457Y4313D01*
X15232Y3975D02*
X15570Y4313D01*
X15223Y4192D02*
X15344Y4313D01*
X15218Y4102D02*
X15428Y4313D01*
X15636Y3955D02*
X15994Y4313D01*
X15656D02*
X16014Y3955D01*
X15243Y3957D02*
X15598Y4313D01*
X15172Y4113D02*
X15372Y4313D01*
X15202Y4115D02*
X15400Y4313D01*
X15213Y4210D02*
X15315Y4313D01*
X15195Y3994D02*
X15513Y4313D01*
X15216Y3987D02*
X15542Y4313D01*
X15157Y3985D02*
X15485Y4313D01*
X15194Y4219D02*
X15287Y4313D01*
X15090D02*
X15184Y4219D01*
X15062Y4313D02*
X15165Y4210D01*
X14977Y4313D02*
X15175Y4115D01*
X15005Y4313D02*
X15204Y4114D01*
X15034Y4313D02*
X15155Y4192D01*
X14949Y4313D02*
X15160Y4102D01*
X14892Y4313D02*
X15219Y3986D01*
X14921Y4313D02*
X15155Y4079D01*
X15543Y4313D02*
X15901Y3955D01*
X15552D02*
X15909Y4313D01*
X15515D02*
X15872Y3955D01*
X15523D02*
X15881Y4313D01*
X15580Y3955D02*
X15938Y4313D01*
X15599D02*
X15957Y3955D01*
X15571Y4313D02*
X15929Y3955D01*
X15438D02*
X15796Y4313D01*
X15458D02*
X15816Y3955D01*
X15430Y4313D02*
X15787Y3955D01*
X15486Y4313D02*
X15844Y3955D01*
X15495D02*
X15853Y4313D01*
X15467Y3955D02*
X15824Y4313D01*
X16004Y3955D02*
X16362Y4313D01*
X16024D02*
X16381Y3955D01*
X15976D02*
X16334Y4313D01*
X15995D02*
X16353Y3955D01*
X16052Y4313D02*
X16410Y3955D01*
X16146D02*
X16503Y4313D01*
X16032Y3955D02*
X16390Y4313D01*
X15628D02*
X15985Y3955D01*
X15919D02*
X16277Y4313D01*
X15608Y3955D02*
X15966Y4313D01*
X15948Y3955D02*
X16305Y4313D01*
X15967D02*
X16325Y3955D01*
X15939Y4313D02*
X16297Y3955D01*
X15354D02*
X15711Y4313D01*
X15373D02*
X15731Y3955D01*
X15325D02*
X15683Y4313D01*
X15345D02*
X15703Y3955D01*
X15401Y4313D02*
X15759Y3955D01*
X15410D02*
X15768Y4313D01*
X15382Y3955D02*
X15740Y4313D01*
X15260D02*
X15618Y3955D01*
X15269D02*
X15626Y4313D01*
X15119D02*
X15476Y3955D01*
X15297D02*
X15655Y4313D01*
X15317D02*
X15674Y3955D01*
X15288Y4313D02*
X15646Y3955D01*
X15223Y4180D02*
X15448Y3955D01*
X15220Y4098D02*
X15363Y3955D01*
X15221Y4069D02*
X15335Y3955D01*
X15240Y4304D02*
X15589Y3955D01*
X15228Y4288D02*
X15561Y3955D01*
X15238Y3967D02*
X15250Y3955D01*
X15187Y4273D02*
X15505Y3955D01*
X15195Y4151D02*
X15391Y3955D01*
X15185Y4048D02*
X15278Y3955D01*
X15211Y4277D02*
X15533Y3955D01*
X15214Y4161D02*
X15420Y3955D01*
X15208Y4054D02*
X15307Y3955D01*
X4003Y4201D02*
X4115Y4313D01*
X4017Y4187D02*
X4143Y4313D01*
X3975Y4229D02*
X4058Y4313D01*
X3989Y4215D02*
X4086Y4313D01*
X4045Y4158D02*
X4200Y4313D01*
X4059Y4144D02*
X4228Y4313D01*
X4031Y4173D02*
X4171Y4313D01*
X3924Y4263D02*
X3973Y4313D01*
X3715D02*
X15134D01*
X3903Y4271D02*
X3945Y4313D01*
X3943Y4255D02*
X4002Y4313D01*
X3960Y4243D02*
X4030Y4313D01*
X3890D02*
X3958Y4245D01*
X3912Y4218D02*
X3916Y4216D01*
X3921Y4214D02*
X3926Y4210D01*
X3916Y4216D02*
X3921Y4214D01*
X3885Y4281D02*
X3917Y4313D01*
X3903Y4271D02*
X3945Y4313D01*
X3861D02*
X3904Y4271D01*
X3890Y4276D02*
X3912Y4267D01*
X3907Y4219D02*
X3912Y4218D01*
X3903Y4219D02*
X3907Y4219D01*
X3833Y4313D02*
X3856Y4290D01*
X3865Y4289D02*
X3888Y4313D01*
X3713Y4309D02*
X3715Y4313D01*
X3805D02*
X3835Y4283D01*
X3777Y4313D02*
X3821Y4268D01*
X3748Y4313D02*
X3816Y4245D01*
X3710Y4304D02*
X3719Y4313D01*
X3709Y4302D02*
X3712Y4307D01*
X3703Y4296D02*
X3707Y4301D01*
X3579Y4144D02*
X3747Y4313D01*
X3695Y4288D02*
X3702Y4294D01*
X3683Y4280D02*
X3693Y4287D01*
X3899Y4219D02*
X3903Y4219D01*
X3895Y4219D02*
X3899Y4219D01*
X3665Y4269D02*
X3681Y4278D01*
X3890Y4217D02*
X3895Y4219D01*
X3886Y4215D02*
X3890Y4217D01*
X3880Y4212D02*
X3886Y4215D01*
X3639Y4259D02*
X3663Y4268D01*
X3599Y4246D02*
X3637Y4258D01*
X3579Y4241D02*
X3597Y4246D01*
X3579Y4173D02*
X3691Y4285D01*
X3579Y4201D02*
X3635Y4257D01*
X3579Y4229D02*
X3594Y4245D01*
X4243Y4045D02*
X4511Y4313D01*
X14864D02*
X15183Y3994D01*
X4221Y4080D02*
X4454Y4313D01*
X4236Y4066D02*
X4482Y4313D01*
X14807D02*
X15146Y3975D01*
X14836Y4313D02*
X15161Y3987D01*
X14779Y4313D02*
X15135Y3957D01*
X4102Y4102D02*
X4313Y4313D01*
X4116Y4088D02*
X4341Y4313D01*
X4088Y4116D02*
X4284Y4313D01*
X4153Y4068D02*
X4398Y4313D01*
X4198Y4085D02*
X4426Y4313D01*
X4132Y4076D02*
X4369Y4313D01*
X3975D02*
X4202Y4085D01*
X4074Y4130D02*
X4256Y4313D01*
X3969Y4235D02*
X4115Y4089D01*
X3918Y4313D02*
X4164Y4066D01*
X3946Y4313D02*
X4179Y4080D01*
X3936Y4202D02*
X4082Y4056D01*
X3696Y3979D02*
X3927Y4210D01*
X3710Y3964D02*
X3942Y4197D01*
X3679Y3990D02*
X3908Y4219D01*
X3579Y4060D02*
X3832Y4313D01*
X3620Y4016D02*
X3826Y4222D01*
X3579Y4116D02*
X3775Y4313D01*
X3597Y4022D02*
X3817Y4241D01*
X3641Y4008D02*
X3842Y4209D01*
X3661Y4000D02*
X3868Y4207D01*
X3641Y4008D02*
X3842Y4209D01*
X3579Y4088D02*
X3804Y4313D01*
X3579Y4031D02*
X3860Y4313D01*
X3579Y4026D02*
Y4241D01*
Y4086D02*
X3669Y3996D01*
X3579Y4058D02*
X3622Y4015D01*
X3579Y4030D02*
X3583Y4025D01*
X3697Y3978D02*
X3705Y3970D01*
X3707Y3967D02*
X3712Y3960D01*
X3615Y4017D02*
X3649Y4005D01*
X3651Y4005D02*
X3675Y3993D01*
X3579Y4026D02*
X3614Y4018D01*
X3678Y3991D02*
X3694Y3980D01*
X14638Y4313D02*
X14995Y3955D01*
X14646D02*
X15004Y4313D01*
X14609D02*
X14967Y3955D01*
X14618D02*
X14976Y4313D01*
X14675Y3955D02*
X15032Y4313D01*
X14694D02*
X15052Y3955D01*
X14666Y4313D02*
X15024Y3955D01*
X14533D02*
X14891Y4313D01*
X14553D02*
X14911Y3955D01*
X14525Y4313D02*
X14882Y3955D01*
X14581Y4313D02*
X14939Y3955D01*
X14590D02*
X14948Y4313D01*
X14562Y3955D02*
X14919Y4313D01*
X21435Y3955D02*
X21792Y4313D01*
X21454D02*
X21812Y3955D01*
X21406D02*
X21764Y4313D01*
X21426D02*
X21784Y3955D01*
X21520D02*
X21877Y4313D01*
X21539D02*
X21897Y3955D01*
X21491D02*
X21849Y4313D01*
X14723D02*
X15080Y3955D01*
X14731D02*
X15089Y4313D01*
X14703Y3955D02*
X15061Y4313D01*
X14760Y3955D02*
X15117Y4313D01*
X14901Y3955D02*
X15259Y4313D01*
X14751D02*
X15109Y3955D01*
X14279D02*
X14636Y4313D01*
X14298D02*
X14656Y3955D01*
X14250D02*
X14608Y4313D01*
X14270D02*
X14628Y3955D01*
X14327Y4313D02*
X14684Y3955D01*
X14335D02*
X14693Y4313D01*
X14307Y3955D02*
X14665Y4313D01*
X14185D02*
X14543Y3955D01*
X14194D02*
X14552Y4313D01*
X14166Y3955D02*
X14523Y4313D01*
X14222Y3955D02*
X14580Y4313D01*
X14242D02*
X14599Y3955D01*
X14214Y4313D02*
X14571Y3955D01*
X14448D02*
X14806Y4313D01*
X14468D02*
X14826Y3955D01*
X14440Y4313D02*
X14797Y3955D01*
X14496Y4313D02*
X14854Y3955D01*
X14505D02*
X14863Y4313D01*
X14477Y3955D02*
X14834Y4313D01*
X14364Y3955D02*
X14721Y4313D01*
X14383D02*
X14741Y3955D01*
X14355Y4313D02*
X14713Y3955D01*
X14411Y4313D02*
X14769Y3955D01*
X14420D02*
X14778Y4313D01*
X14392Y3955D02*
X14750Y4313D01*
X13911Y3955D02*
X14269Y4313D01*
X13931D02*
X14288Y3955D01*
X13883D02*
X14240Y4313D01*
X13902D02*
X14260Y3955D01*
X13959Y4313D02*
X14317Y3955D01*
X13968D02*
X14325Y4313D01*
X13939Y3955D02*
X14297Y4313D01*
X13818D02*
X14175Y3955D01*
X13826D02*
X14184Y4313D01*
X13798Y3955D02*
X14156Y4313D01*
X13855Y3955D02*
X14212Y4313D01*
X13874D02*
X14232Y3955D01*
X13846Y4313D02*
X14204Y3955D01*
X14100Y4313D02*
X14458Y3955D01*
X14109D02*
X14467Y4313D01*
X14072D02*
X14430Y3955D01*
X14081D02*
X14438Y4313D01*
X14137Y3955D02*
X14495Y4313D01*
X14157D02*
X14515Y3955D01*
X14129Y4313D02*
X14486Y3955D01*
X13996D02*
X14354Y4313D01*
X14016D02*
X14373Y3955D01*
X13987Y4313D02*
X14345Y3955D01*
X14044Y4313D02*
X14401Y3955D01*
X14053D02*
X14410Y4313D01*
X14024Y3955D02*
X14382Y4313D01*
X13563D02*
X13921Y3955D01*
X13572D02*
X13929Y4313D01*
X13535D02*
X13892Y3955D01*
X13543D02*
X13901Y4313D01*
X13600Y3955D02*
X13958Y4313D01*
X13620D02*
X13977Y3955D01*
X13591Y4313D02*
X13949Y3955D01*
X13459D02*
X13816Y4313D01*
X13478D02*
X13836Y3955D01*
X13450Y4313D02*
X13808Y3955D01*
X13506Y4313D02*
X13864Y3955D01*
X13515D02*
X13873Y4313D01*
X13487Y3955D02*
X13845Y4313D01*
X13733D02*
X14090Y3955D01*
X13741D02*
X14099Y4313D01*
X13713Y3955D02*
X14071Y4313D01*
X13770Y3955D02*
X14127Y4313D01*
X13789D02*
X14147Y3955D01*
X13761Y4313D02*
X14119Y3955D01*
X13648Y4313D02*
X14006Y3955D01*
X13657D02*
X14014Y4313D01*
X13628Y3955D02*
X13986Y4313D01*
X13685Y3955D02*
X14043Y4313D01*
X13704D02*
X14062Y3955D01*
X13676Y4313D02*
X14034Y3955D01*
X12469D02*
X12826Y4313D01*
X12488D02*
X12846Y3955D01*
X12440D02*
X12798Y4313D01*
X12460D02*
X12818Y3955D01*
X12516Y4313D02*
X12874Y3955D01*
X12525D02*
X12883Y4313D01*
X12497Y3955D02*
X12855Y4313D01*
X12375D02*
X12733Y3955D01*
X12384D02*
X12741Y4313D01*
X12355Y3955D02*
X12713Y4313D01*
X12412Y3955D02*
X12770Y4313D01*
X12432D02*
X12789Y3955D01*
X12403Y4313D02*
X12761Y3955D01*
X12658Y4313D02*
X13016Y3955D01*
X12667D02*
X13024Y4313D01*
X12630D02*
X12987Y3955D01*
X12638D02*
X12996Y4313D01*
X12695Y3955D02*
X13053Y4313D01*
X12714D02*
X13072Y3955D01*
X12686Y4313D02*
X13044Y3955D01*
X12553D02*
X12911Y4313D01*
X12573D02*
X12931Y3955D01*
X12545Y4313D02*
X12902Y3955D01*
X12601Y4313D02*
X12959Y3955D01*
X12610D02*
X12968Y4313D01*
X12582Y3955D02*
X12939Y4313D01*
X12120D02*
X12478Y3955D01*
X12129D02*
X12487Y4313D01*
X10310D02*
X10668Y3955D01*
X12101D02*
X12459Y4313D01*
X12157Y3955D02*
X12515Y4313D01*
X12177D02*
X12535Y3955D01*
X12149Y4313D02*
X12506Y3955D01*
X10197Y4313D02*
X10555Y3955D01*
X10206D02*
X10564Y4313D01*
X10178Y3955D02*
X10535Y4313D01*
X10234Y3955D02*
X10592Y4313D01*
X10254D02*
X10611Y3955D01*
X10225Y4313D02*
X10583Y3955D01*
X12290Y4313D02*
X12648Y3955D01*
X12299D02*
X12657Y4313D01*
X12271Y3955D02*
X12628Y4313D01*
X12327Y3955D02*
X12685Y4313D01*
X12347D02*
X12704Y3955D01*
X12318Y4313D02*
X12676Y3955D01*
X12205Y4313D02*
X12563Y3955D01*
X12214D02*
X12572Y4313D01*
X12186Y3955D02*
X12543Y4313D01*
X12242Y3955D02*
X12600Y4313D01*
X12262D02*
X12620Y3955D01*
X12234Y4313D02*
X12591Y3955D01*
X13195Y4313D02*
X13553Y3955D01*
X13204D02*
X13562Y4313D01*
X13167D02*
X13525Y3955D01*
X13176D02*
X13533Y4313D01*
X13232Y3955D02*
X13590Y4313D01*
X13252D02*
X13610Y3955D01*
X13224Y4313D02*
X13581Y3955D01*
X13091D02*
X13449Y4313D01*
X13110D02*
X13468Y3955D01*
X13082Y4313D02*
X13440Y3955D01*
X13139Y4313D02*
X13496Y3955D01*
X13147D02*
X13505Y4313D01*
X13119Y3955D02*
X13477Y4313D01*
X13374Y3955D02*
X13731Y4313D01*
X13393D02*
X13751Y3955D01*
X13345D02*
X13703Y4313D01*
X13365D02*
X13723Y3955D01*
X13422Y4313D02*
X13779Y3955D01*
X13430D02*
X13788Y4313D01*
X13402Y3955D02*
X13760Y4313D01*
X13280D02*
X13638Y3955D01*
X13289D02*
X13647Y4313D01*
X13261Y3955D02*
X13618Y4313D01*
X13317Y3955D02*
X13675Y4313D01*
X13337D02*
X13694Y3955D01*
X13308Y4313D02*
X13666Y3955D01*
X12836D02*
X13194Y4313D01*
X12856D02*
X13214Y3955D01*
X12808D02*
X13166Y4313D01*
X12828D02*
X13185Y3955D01*
X12884Y4313D02*
X13242Y3955D01*
X12893D02*
X13251Y4313D01*
X12865Y3955D02*
X13222Y4313D01*
X12743D02*
X13100Y3955D01*
X12751D02*
X13109Y4313D01*
X12723Y3955D02*
X13081Y4313D01*
X12780Y3955D02*
X13137Y4313D01*
X12799D02*
X13157Y3955D01*
X12771Y4313D02*
X13129Y3955D01*
X13006D02*
X13364Y4313D01*
X13026D02*
X13383Y3955D01*
X12997Y4313D02*
X13355Y3955D01*
X13054Y4313D02*
X13412Y3955D01*
X13063D02*
X13420Y4313D01*
X13034Y3955D02*
X13392Y4313D01*
X12921Y3955D02*
X13279Y4313D01*
X12941D02*
X13298Y3955D01*
X12912Y4313D02*
X13270Y3955D01*
X12969Y4313D02*
X13327Y3955D01*
X12978D02*
X13335Y4313D01*
X12949Y3955D02*
X13307Y4313D01*
X11309Y3955D02*
X11667Y4313D01*
X11329D02*
X11686Y3955D01*
X11281D02*
X11638Y4313D01*
X11300D02*
X11658Y3955D01*
X11357Y4313D02*
X11714Y3955D01*
X11365D02*
X11723Y4313D01*
X11337Y3955D02*
X11695Y4313D01*
X11215D02*
X11573Y3955D01*
X11224D02*
X11582Y4313D01*
X11196Y3955D02*
X11553Y4313D01*
X11252Y3955D02*
X11610Y4313D01*
X11272D02*
X11630Y3955D01*
X11244Y4313D02*
X11601Y3955D01*
X11498Y4313D02*
X11856Y3955D01*
X11507D02*
X11865Y4313D01*
X11470D02*
X11828Y3955D01*
X11479D02*
X11836Y4313D01*
X11535Y3955D02*
X11893Y4313D01*
X11555D02*
X11912Y3955D01*
X11526Y4313D02*
X11884Y3955D01*
X11394D02*
X11751Y4313D01*
X11413D02*
X11771Y3955D01*
X11385Y4313D02*
X11743Y3955D01*
X11442Y4313D02*
X11799Y3955D01*
X11450D02*
X11808Y4313D01*
X11422Y3955D02*
X11780Y4313D01*
X10961D02*
X11319Y3955D01*
X10970D02*
X11327Y4313D01*
X10933D02*
X11290Y3955D01*
X10941D02*
X11299Y4313D01*
X10998Y3955D02*
X11355Y4313D01*
X11017D02*
X11375Y3955D01*
X10989Y4313D02*
X11347Y3955D01*
X10856D02*
X11214Y4313D01*
X10876D02*
X11234Y3955D01*
X10848Y4313D02*
X11205Y3955D01*
X10904Y4313D02*
X11262Y3955D01*
X10913D02*
X11271Y4313D01*
X10885Y3955D02*
X11242Y4313D01*
X11131D02*
X11488Y3955D01*
X11139D02*
X11497Y4313D01*
X11111Y3955D02*
X11469Y4313D01*
X11168Y3955D02*
X11525Y4313D01*
X11187D02*
X11545Y3955D01*
X11159Y4313D02*
X11516Y3955D01*
X11046Y4313D02*
X11403Y3955D01*
X11054D02*
X11412Y4313D01*
X11026Y3955D02*
X11384Y4313D01*
X11083Y3955D02*
X11440Y4313D01*
X11102D02*
X11460Y3955D01*
X11074Y4313D02*
X11432Y3955D01*
X12036Y4313D02*
X12393Y3955D01*
X12044D02*
X12402Y4313D01*
X12007D02*
X12365Y3955D01*
X12016D02*
X12374Y4313D01*
X12073Y3955D02*
X12430Y4313D01*
X12092D02*
X12450Y3955D01*
X12064Y4313D02*
X12422Y3955D01*
X11931D02*
X12289Y4313D01*
X11951D02*
X12308Y3955D01*
X11922Y4313D02*
X12280Y3955D01*
X11979Y4313D02*
X12337Y3955D01*
X11988D02*
X12345Y4313D01*
X11959Y3955D02*
X12317Y4313D01*
X14986Y3955D02*
X15182Y4151D01*
X15071Y3955D02*
X15170Y4054D01*
X15014Y3955D02*
X15159Y4099D01*
X15042Y3955D02*
X15157Y4069D01*
X15099Y3955D02*
X15192Y4048D01*
X15127Y3955D02*
X15141Y3969D01*
X14816Y3955D02*
X15150Y4289D01*
X14844Y3955D02*
X15167Y4277D01*
X14788Y3955D02*
X15138Y4305D01*
X14873Y3955D02*
X15191Y4273D01*
X14958Y3955D02*
X15164Y4161D01*
X14929Y3955D02*
X15155Y4180D01*
X11677Y3955D02*
X12034Y4313D01*
X11696D02*
X12054Y3955D01*
X11648D02*
X12006Y4313D01*
X11668D02*
X12026Y3955D01*
X11724Y4313D02*
X12082Y3955D01*
X11733D02*
X12091Y4313D01*
X11705Y3955D02*
X12063Y4313D01*
X11583D02*
X11941Y3955D01*
X11592D02*
X11949Y4313D01*
X11563Y3955D02*
X11921Y4313D01*
X11620Y3955D02*
X11978Y4313D01*
X11640D02*
X11997Y3955D01*
X11611Y4313D02*
X11969Y3955D01*
X11846D02*
X12204Y4313D01*
X11866D02*
X12224Y3955D01*
X11838Y4313D02*
X12195Y3955D01*
X11894Y4313D02*
X12252Y3955D01*
X11903D02*
X12261Y4313D01*
X11875Y3955D02*
X12232Y4313D01*
X11761Y3955D02*
X12119Y4313D01*
X11781D02*
X12139Y3955D01*
X11753Y4313D02*
X12110Y3955D01*
X11809Y4313D02*
X12167Y3955D01*
X11818D02*
X12176Y4313D01*
X11790Y3955D02*
X12147Y4313D01*
X9782Y3955D02*
X10139Y4313D01*
X9801D02*
X10159Y3955D01*
X9753D02*
X10111Y4313D01*
X9773D02*
X10131Y3955D01*
X9829Y4313D02*
X10187Y3955D01*
X9838D02*
X10196Y4313D01*
X9810Y3955D02*
X10168Y4313D01*
X9688D02*
X10046Y3955D01*
X9697D02*
X10054Y4313D01*
X9668Y3955D02*
X10026Y4313D01*
X9725Y3955D02*
X10083Y4313D01*
X9745D02*
X10102Y3955D01*
X9716Y4313D02*
X10074Y3955D01*
X9951D02*
X10309Y4313D01*
X9971D02*
X10329Y3955D01*
X9923D02*
X10281Y4313D01*
X9943D02*
X10300Y3955D01*
X9999Y4313D02*
X10357Y3955D01*
X10008D02*
X10366Y4313D01*
X9980Y3955D02*
X10337Y4313D01*
X9866Y3955D02*
X10224Y4313D01*
X3715Y3955D02*
X15135D01*
X9858Y4313D02*
X10215Y3955D01*
X9895D02*
X10252Y4313D01*
X9914D02*
X10272Y3955D01*
X9886Y4313D02*
X10244Y3955D01*
X9433Y4313D02*
X9791Y3955D01*
X9442D02*
X9800Y4313D01*
X9405D02*
X9763Y3955D01*
X9414D02*
X9772Y4313D01*
X9470Y3955D02*
X9828Y4313D01*
X9490D02*
X9848Y3955D01*
X9462Y4313D02*
X9819Y3955D01*
X9329D02*
X9687Y4313D01*
X9349D02*
X9706Y3955D01*
X9320Y4313D02*
X9678Y3955D01*
X9377Y4313D02*
X9735Y3955D01*
X9386D02*
X9743Y4313D01*
X9357Y3955D02*
X9715Y4313D01*
X9603D02*
X9961Y3955D01*
X9612D02*
X9970Y4313D01*
X9584Y3955D02*
X9941Y4313D01*
X9640Y3955D02*
X9998Y4313D01*
X9660D02*
X10017Y3955D01*
X9631Y4313D02*
X9989Y3955D01*
X9518Y4313D02*
X9876Y3955D01*
X9527D02*
X9885Y4313D01*
X9499Y3955D02*
X9856Y4313D01*
X9555Y3955D02*
X9913Y4313D01*
X9575D02*
X9933Y3955D01*
X9547Y4313D02*
X9904Y3955D01*
X10593Y4313D02*
X10951Y3955D01*
X10602D02*
X10960Y4313D01*
X10565D02*
X10923Y3955D01*
X10574D02*
X10931Y4313D01*
X10630Y3955D02*
X10988Y4313D01*
X10650D02*
X11007Y3955D01*
X10621Y4313D02*
X10979Y3955D01*
X10489D02*
X10846Y4313D01*
X10508D02*
X10866Y3955D01*
X10480Y4313D02*
X10838Y3955D01*
X10537Y4313D02*
X10894Y3955D01*
X10545D02*
X10903Y4313D01*
X10517Y3955D02*
X10875Y4313D01*
X10772Y3955D02*
X11129Y4313D01*
X10791D02*
X11149Y3955D01*
X10743D02*
X11101Y4313D01*
X10763D02*
X11121Y3955D01*
X10819Y4313D02*
X11177Y3955D01*
X10828D02*
X11186Y4313D01*
X10800Y3955D02*
X11158Y4313D01*
X10678D02*
X11036Y3955D01*
X10687D02*
X11044Y4313D01*
X10658Y3955D02*
X11016Y4313D01*
X10715Y3955D02*
X11073Y4313D01*
X10735D02*
X11092Y3955D01*
X10706Y4313D02*
X11064Y3955D01*
X10141Y4313D02*
X10498Y3955D01*
X10149D02*
X10507Y4313D01*
X10112D02*
X10470Y3955D01*
X10121D02*
X10479Y4313D01*
X10262Y3955D02*
X10620Y4313D01*
X10282D02*
X10640Y3955D01*
X10169Y4313D02*
X10527Y3955D01*
X10036D02*
X10394Y4313D01*
X10056D02*
X10413Y3955D01*
X10027Y4313D02*
X10385Y3955D01*
X10084Y4313D02*
X10442Y3955D01*
X10093D02*
X10450Y4313D01*
X10064Y3955D02*
X10422Y4313D01*
X10404Y3955D02*
X10762Y4313D01*
X10423D02*
X10781Y3955D01*
X10395Y4313D02*
X10753Y3955D01*
X10452Y4313D02*
X10809Y3955D01*
X10460D02*
X10818Y4313D01*
X10432Y3955D02*
X10790Y4313D01*
X10319Y3955D02*
X10677Y4313D01*
X10339D02*
X10696Y3955D01*
X10291D02*
X10648Y4313D01*
X10367D02*
X10725Y3955D01*
X10376D02*
X10733Y4313D01*
X10347Y3955D02*
X10705Y4313D01*
X8339Y3955D02*
X8697Y4313D01*
X8359D02*
X8716Y3955D01*
X8311D02*
X8668Y4313D01*
X8330D02*
X8688Y3955D01*
X8387Y4313D02*
X8745Y3955D01*
X8396D02*
X8753Y4313D01*
X8367Y3955D02*
X8725Y4313D01*
X8246D02*
X8603Y3955D01*
X8254D02*
X8612Y4313D01*
X8226Y3955D02*
X8584Y4313D01*
X8283Y3955D02*
X8640Y4313D01*
X8302D02*
X8660Y3955D01*
X8274Y4313D02*
X8631Y3955D01*
X8528Y4313D02*
X8886Y3955D01*
X8537D02*
X8895Y4313D01*
X8500D02*
X8858Y3955D01*
X8509D02*
X8866Y4313D01*
X8565Y3955D02*
X8923Y4313D01*
X8585D02*
X8943Y3955D01*
X8557Y4313D02*
X8914Y3955D01*
X8424D02*
X8782Y4313D01*
X8444D02*
X8801Y3955D01*
X8415Y4313D02*
X8773Y3955D01*
X8472Y4313D02*
X8829Y3955D01*
X8480D02*
X8838Y4313D01*
X8452Y3955D02*
X8810Y4313D01*
X7991D02*
X8349Y3955D01*
X8000D02*
X8357Y4313D01*
X7963D02*
X8320Y3955D01*
X7971D02*
X8329Y4313D01*
X8028Y3955D02*
X8386Y4313D01*
X8048D02*
X8405Y3955D01*
X8019Y4313D02*
X8377Y3955D01*
X7887D02*
X8244Y4313D01*
X7906D02*
X8264Y3955D01*
X7878Y4313D02*
X8236Y3955D01*
X7934Y4313D02*
X8292Y3955D01*
X7943D02*
X8301Y4313D01*
X7915Y3955D02*
X8273Y4313D01*
X8161D02*
X8518Y3955D01*
X8169D02*
X8527Y4313D01*
X8141Y3955D02*
X8499Y4313D01*
X8198Y3955D02*
X8555Y4313D01*
X8217D02*
X8575Y3955D01*
X8189Y4313D02*
X8547Y3955D01*
X8076Y4313D02*
X8434Y3955D01*
X8085D02*
X8442Y4313D01*
X8056Y3955D02*
X8414Y4313D01*
X8113Y3955D02*
X8471Y4313D01*
X8132D02*
X8490Y3955D01*
X8104Y4313D02*
X8462Y3955D01*
X9066Y4313D02*
X9423Y3955D01*
X9074D02*
X9432Y4313D01*
X9037D02*
X9395Y3955D01*
X9046D02*
X9404Y4313D01*
X9103Y3955D02*
X9460Y4313D01*
X9122D02*
X9480Y3955D01*
X9094Y4313D02*
X9452Y3955D01*
X8961D02*
X9319Y4313D01*
X8981D02*
X9339Y3955D01*
X8953Y4313D02*
X9310Y3955D01*
X9009Y4313D02*
X9367Y3955D01*
X9018D02*
X9376Y4313D01*
X8990Y3955D02*
X9347Y4313D01*
X9244Y3955D02*
X9602Y4313D01*
X9264D02*
X9621Y3955D01*
X9216D02*
X9574Y4313D01*
X9235D02*
X9593Y3955D01*
X9292Y4313D02*
X9650Y3955D01*
X9301D02*
X9658Y4313D01*
X9272Y3955D02*
X9630Y4313D01*
X9151D02*
X9508Y3955D01*
X9159D02*
X9517Y4313D01*
X9131Y3955D02*
X9489Y4313D01*
X9188Y3955D02*
X9545Y4313D01*
X9207D02*
X9565Y3955D01*
X9179Y4313D02*
X9537Y3955D01*
X8707D02*
X9064Y4313D01*
X8726D02*
X9084Y3955D01*
X8678D02*
X9036Y4313D01*
X8698D02*
X9056Y3955D01*
X8755Y4313D02*
X9112Y3955D01*
X8763D02*
X9121Y4313D01*
X8735Y3955D02*
X9093Y4313D01*
X8613D02*
X8971Y3955D01*
X8622D02*
X8980Y4313D01*
X8594Y3955D02*
X8951Y4313D01*
X8650Y3955D02*
X9008Y4313D01*
X8670D02*
X9027Y3955D01*
X8641Y4313D02*
X8999Y3955D01*
X8876D02*
X9234Y4313D01*
X8896D02*
X9254Y3955D01*
X8868Y4313D02*
X9225Y3955D01*
X8924Y4313D02*
X9282Y3955D01*
X8933D02*
X9291Y4313D01*
X8905Y3955D02*
X9262Y4313D01*
X8792Y3955D02*
X9149Y4313D01*
X8811D02*
X9169Y3955D01*
X8783Y4313D02*
X9141Y3955D01*
X8839Y4313D02*
X9197Y3955D01*
X8848D02*
X9206Y4313D01*
X8820Y3955D02*
X9178Y4313D01*
X6897Y3955D02*
X7254Y4313D01*
X6916D02*
X7274Y3955D01*
X6868D02*
X7226Y4313D01*
X6888D02*
X7246Y3955D01*
X6944Y4313D02*
X7302Y3955D01*
X6953D02*
X7311Y4313D01*
X6925Y3955D02*
X7283Y4313D01*
X6803D02*
X7161Y3955D01*
X6812D02*
X7169Y4313D01*
X6783Y3955D02*
X7141Y4313D01*
X6840Y3955D02*
X7198Y4313D01*
X6860D02*
X7217Y3955D01*
X6831Y4313D02*
X7189Y3955D01*
X7086Y4313D02*
X7444Y3955D01*
X7095D02*
X7452Y4313D01*
X7058D02*
X7415Y3955D01*
X7066D02*
X7424Y4313D01*
X7123Y3955D02*
X7481Y4313D01*
X7142D02*
X7500Y3955D01*
X7114Y4313D02*
X7472Y3955D01*
X6981D02*
X7339Y4313D01*
X7001D02*
X7359Y3955D01*
X6973Y4313D02*
X7330Y3955D01*
X7029Y4313D02*
X7387Y3955D01*
X7038D02*
X7396Y4313D01*
X7010Y3955D02*
X7367Y4313D01*
X6548D02*
X6906Y3955D01*
X6557D02*
X6915Y4313D01*
X6520D02*
X6878Y3955D01*
X6529D02*
X6887Y4313D01*
X6585Y3955D02*
X6943Y4313D01*
X6605D02*
X6963Y3955D01*
X6577Y4313D02*
X6934Y3955D01*
X6444D02*
X6802Y4313D01*
X6464D02*
X6821Y3955D01*
X6435Y4313D02*
X6793Y3955D01*
X6492Y4313D02*
X6850Y3955D01*
X6501D02*
X6858Y4313D01*
X6472Y3955D02*
X6830Y4313D01*
X6718D02*
X7076Y3955D01*
X6727D02*
X7085Y4313D01*
X6699Y3955D02*
X7056Y4313D01*
X6755Y3955D02*
X7113Y4313D01*
X6775D02*
X7132Y3955D01*
X6746Y4313D02*
X7104Y3955D01*
X6633Y4313D02*
X6991Y3955D01*
X6642D02*
X7000Y4313D01*
X6614Y3955D02*
X6971Y4313D01*
X6670Y3955D02*
X7028Y4313D01*
X6690D02*
X7048Y3955D01*
X6662Y4313D02*
X7019Y3955D01*
X7623Y4313D02*
X7981Y3955D01*
X7632D02*
X7990Y4313D01*
X7595D02*
X7953Y3955D01*
X7604D02*
X7961Y4313D01*
X7660Y3955D02*
X8018Y4313D01*
X7680D02*
X8038Y3955D01*
X7652Y4313D02*
X8009Y3955D01*
X7519D02*
X7877Y4313D01*
X7538D02*
X7896Y3955D01*
X7510Y4313D02*
X7868Y3955D01*
X7567Y4313D02*
X7924Y3955D01*
X7575D02*
X7933Y4313D01*
X7547Y3955D02*
X7905Y4313D01*
X7802Y3955D02*
X8159Y4313D01*
X7821D02*
X8179Y3955D01*
X7773D02*
X8131Y4313D01*
X7793D02*
X8151Y3955D01*
X7850Y4313D02*
X8207Y3955D01*
X7858D02*
X8216Y4313D01*
X7830Y3955D02*
X8188Y4313D01*
X7708D02*
X8066Y3955D01*
X7717D02*
X8075Y4313D01*
X7689Y3955D02*
X8046Y4313D01*
X7745Y3955D02*
X8103Y4313D01*
X7765D02*
X8122Y3955D01*
X7736Y4313D02*
X8094Y3955D01*
X7264D02*
X7622Y4313D01*
X7284D02*
X7642Y3955D01*
X7236D02*
X7594Y4313D01*
X7256D02*
X7613Y3955D01*
X7312Y4313D02*
X7670Y3955D01*
X7321D02*
X7679Y4313D01*
X7293Y3955D02*
X7650Y4313D01*
X7171D02*
X7528Y3955D01*
X7179D02*
X7537Y4313D01*
X7151Y3955D02*
X7509Y4313D01*
X7208Y3955D02*
X7565Y4313D01*
X7227D02*
X7585Y3955D01*
X7199Y4313D02*
X7557Y3955D01*
X7434D02*
X7792Y4313D01*
X7454D02*
X7811Y3955D01*
X7425Y4313D02*
X7783Y3955D01*
X7482Y4313D02*
X7840Y3955D01*
X7491D02*
X7848Y4313D01*
X7462Y3955D02*
X7820Y4313D01*
X7349Y3955D02*
X7707Y4313D01*
X7369D02*
X7726Y3955D01*
X7340Y4313D02*
X7698Y3955D01*
X7397Y4313D02*
X7755Y3955D01*
X7406D02*
X7763Y4313D01*
X7377Y3955D02*
X7735Y4313D01*
X5454Y3955D02*
X5812Y4313D01*
X5474D02*
X5831Y3955D01*
X5426D02*
X5783Y4313D01*
X5445D02*
X5803Y3955D01*
X5502Y4313D02*
X5860Y3955D01*
X5511D02*
X5868Y4313D01*
X5482Y3955D02*
X5840Y4313D01*
X5361D02*
X5718Y3955D01*
X5369D02*
X5727Y4313D01*
X5341Y3955D02*
X5699Y4313D01*
X5398Y3955D02*
X5755Y4313D01*
X5417D02*
X5775Y3955D01*
X5389Y4313D02*
X5747Y3955D01*
X5643Y4313D02*
X6001Y3955D01*
X5652D02*
X6010Y4313D01*
X5615D02*
X5973Y3955D01*
X5624D02*
X5981Y4313D01*
X5680Y3955D02*
X6038Y4313D01*
X5700D02*
X6058Y3955D01*
X5672Y4313D02*
X6029Y3955D01*
X5539D02*
X5897Y4313D01*
X5559D02*
X5916Y3955D01*
X5530Y4313D02*
X5888Y3955D01*
X5587Y4313D02*
X5944Y3955D01*
X5595D02*
X5953Y4313D01*
X5567Y3955D02*
X5925Y4313D01*
X5106D02*
X5464Y3955D01*
X5115D02*
X5472Y4313D01*
X5078D02*
X5435Y3955D01*
X5086D02*
X5444Y4313D01*
X5143Y3955D02*
X5501Y4313D01*
X5163D02*
X5520Y3955D01*
X5134Y4313D02*
X5492Y3955D01*
X5002D02*
X5359Y4313D01*
X5021D02*
X5379Y3955D01*
X4993Y4313D02*
X5351Y3955D01*
X5049Y4313D02*
X5407Y3955D01*
X5058D02*
X5416Y4313D01*
X5030Y3955D02*
X5388Y4313D01*
X5276D02*
X5633Y3955D01*
X5284D02*
X5642Y4313D01*
X5256Y3955D02*
X5614Y4313D01*
X5313Y3955D02*
X5670Y4313D01*
X5332D02*
X5690Y3955D01*
X5304Y4313D02*
X5662Y3955D01*
X5191Y4313D02*
X5549Y3955D01*
X5200D02*
X5557Y4313D01*
X5171Y3955D02*
X5529Y4313D01*
X5228Y3955D02*
X5586Y4313D01*
X5247D02*
X5605Y3955D01*
X5219Y4313D02*
X5577Y3955D01*
X6181Y4313D02*
X6538Y3955D01*
X6189D02*
X6547Y4313D01*
X6152D02*
X6510Y3955D01*
X6161D02*
X6519Y4313D01*
X6218Y3955D02*
X6575Y4313D01*
X6237D02*
X6595Y3955D01*
X6209Y4313D02*
X6567Y3955D01*
X6076D02*
X6434Y4313D01*
X6096D02*
X6454Y3955D01*
X6068Y4313D02*
X6425Y3955D01*
X6124Y4313D02*
X6482Y3955D01*
X6133D02*
X6491Y4313D01*
X6105Y3955D02*
X6462Y4313D01*
X6359Y3955D02*
X6717Y4313D01*
X6379D02*
X6736Y3955D01*
X6331D02*
X6689Y4313D01*
X6350D02*
X6708Y3955D01*
X6407Y4313D02*
X6765Y3955D01*
X6416D02*
X6773Y4313D01*
X6387Y3955D02*
X6745Y4313D01*
X6266D02*
X6623Y3955D01*
X6274D02*
X6632Y4313D01*
X6246Y3955D02*
X6604Y4313D01*
X6303Y3955D02*
X6660Y4313D01*
X6322D02*
X6680Y3955D01*
X6294Y4313D02*
X6652Y3955D01*
X5822D02*
X6179Y4313D01*
X5841D02*
X6199Y3955D01*
X5793D02*
X6151Y4313D01*
X5813D02*
X6171Y3955D01*
X5870Y4313D02*
X6227Y3955D01*
X5878D02*
X6236Y4313D01*
X5850Y3955D02*
X6208Y4313D01*
X5728D02*
X6086Y3955D01*
X5737D02*
X6095Y4313D01*
X5709Y3955D02*
X6066Y4313D01*
X5765Y3955D02*
X6123Y4313D01*
X5785D02*
X6142Y3955D01*
X5756Y4313D02*
X6114Y3955D01*
X5991D02*
X6349Y4313D01*
X6011D02*
X6369Y3955D01*
X5983Y4313D02*
X6340Y3955D01*
X6039Y4313D02*
X6397Y3955D01*
X6048D02*
X6406Y4313D01*
X6020Y3955D02*
X6377Y4313D01*
X5907Y3955D02*
X6264Y4313D01*
X5926D02*
X6284Y3955D01*
X5898Y4313D02*
X6256Y3955D01*
X5954Y4313D02*
X6312Y3955D01*
X5963D02*
X6321Y4313D01*
X5935Y3955D02*
X6293Y4313D01*
X4201D02*
X4559Y3955D01*
X4210D02*
X4567Y4313D01*
X4173D02*
X4530Y3955D01*
X4181D02*
X4539Y4313D01*
X4238Y3955D02*
X4596Y4313D01*
X4257D02*
X4615Y3955D01*
X4229Y4313D02*
X4587Y3955D01*
X4031Y4313D02*
X4389Y3955D01*
X4059Y4313D02*
X4417Y3955D01*
X4003Y4313D02*
X4361Y3955D01*
X4116Y4313D02*
X4474Y3955D01*
X4144Y4313D02*
X4502Y3955D01*
X4088Y4313D02*
X4445Y3955D01*
X4153Y4021D02*
X4219Y3955D01*
X4201Y4001D02*
X4247Y3955D01*
X4125D02*
X4178Y4008D01*
X4153Y3955D02*
X4199Y4001D01*
X4243Y4045D02*
X4332Y3955D01*
X4237Y4022D02*
X4304Y3955D01*
X4223Y4008D02*
X4276Y3955D01*
X3898Y4219D02*
X4163Y3955D01*
X3878Y4211D02*
X4134Y3955D01*
X4040D02*
X4117Y4032D01*
X4111Y4035D02*
X4191Y3955D01*
X4096D02*
X4162Y4021D01*
X4068Y3955D02*
X4138Y4024D01*
X3706Y4299D02*
X4049Y3955D01*
X3691Y4285D02*
X4021Y3955D01*
X3674Y4274D02*
X3993Y3955D01*
X3655Y4265D02*
X3965Y3955D01*
X3720Y4313D02*
X4078Y3955D01*
X3855Y4206D02*
X4106Y3955D01*
X3729D02*
X3956Y4182D01*
X3579Y4228D02*
X3851Y3955D01*
X3579Y4199D02*
X3823Y3955D01*
X3579Y4171D02*
X3795Y3955D01*
X3634Y4257D02*
X3936Y3955D01*
X3613Y4250D02*
X3908Y3955D01*
X3591Y4244D02*
X3880Y3955D01*
X3898D02*
X4041Y4098D01*
X3927Y3955D02*
X4055Y4083D01*
X3870Y3955D02*
X4027Y4112D01*
X3983Y3955D02*
X4083Y4055D01*
X4012Y3955D02*
X4099Y4042D01*
X3955Y3955D02*
X4069Y4069D01*
X3757Y3955D02*
X3970Y4168D01*
X3579Y4143D02*
X3767Y3955D01*
X3579Y4115D02*
X3738Y3955D01*
X3814D02*
X3999Y4140D01*
X3842Y3955D02*
X4013Y4126D01*
X3785Y3955D02*
X3984Y4154D01*
X4738Y4313D02*
X5096Y3955D01*
X4747D02*
X5105Y4313D01*
X4710D02*
X5068Y3955D01*
X4719D02*
X5076Y4313D01*
X4775Y3955D02*
X5133Y4313D01*
X4795D02*
X5153Y3955D01*
X4767Y4313D02*
X5124Y3955D01*
X4634D02*
X4992Y4313D01*
X4653D02*
X5011Y3955D01*
X4625Y4313D02*
X4983Y3955D01*
X4682Y4313D02*
X5039Y3955D01*
X4690D02*
X5048Y4313D01*
X4662Y3955D02*
X5020Y4313D01*
X4917Y3955D02*
X5274Y4313D01*
X4936D02*
X5294Y3955D01*
X4888D02*
X5246Y4313D01*
X4908D02*
X5266Y3955D01*
X4965Y4313D02*
X5322Y3955D01*
X4973D02*
X5331Y4313D01*
X4945Y3955D02*
X5303Y4313D01*
X4823D02*
X5181Y3955D01*
X4832D02*
X5190Y4313D01*
X4804Y3955D02*
X5161Y4313D01*
X4860Y3955D02*
X5218Y4313D01*
X4880D02*
X5237Y3955D01*
X4851Y4313D02*
X5209Y3955D01*
X4379D02*
X4737Y4313D01*
X4399D02*
X4757Y3955D01*
X4351D02*
X4709Y4313D01*
X4371D02*
X4728Y3955D01*
X4427Y4313D02*
X4785Y3955D01*
X4436D02*
X4794Y4313D01*
X4408Y3955D02*
X4765Y4313D01*
X4286D02*
X4643Y3955D01*
X4294D02*
X4652Y4313D01*
X4266Y3955D02*
X4624Y4313D01*
X4323Y3955D02*
X4680Y4313D01*
X4342D02*
X4700Y3955D01*
X4314Y4313D02*
X4672Y3955D01*
X4549D02*
X4907Y4313D01*
X4569D02*
X4926Y3955D01*
X4540Y4313D02*
X4898Y3955D01*
X4597Y4313D02*
X4955Y3955D01*
X4606D02*
X4963Y4313D01*
X4577Y3955D02*
X4935Y4313D01*
X4464Y3955D02*
X4822Y4313D01*
X4484D02*
X4841Y3955D01*
X4455Y4313D02*
X4813Y3955D01*
X4512Y4313D02*
X4870Y3955D01*
X4521D02*
X4878Y4313D01*
X4492Y3955D02*
X4850Y4313D01*
D16*
X4201Y4043D02*
D03*
X45201Y4083D02*
D03*
X42921Y4063D02*
D03*
X40622D02*
D03*
X38343D02*
D03*
X34413D02*
D03*
X32134D02*
D03*
X29827D02*
D03*
X27543D02*
D03*
X28106Y4110D02*
D03*
X23618Y4063D02*
D03*
X21898Y4161D02*
D03*
X21331Y4063D02*
D03*
X19039D02*
D03*
X19614Y4114D02*
D03*
X16760Y4063D02*
D03*
X17331Y4114D02*
D03*
X12854Y4063D02*
D03*
X13374D02*
D03*
X11091Y4110D02*
D03*
X10547Y4083D02*
D03*
X8819Y4114D02*
D03*
X8264Y4094D02*
D03*
X5995Y4106D02*
D03*
X6547Y4110D02*
D03*
X3858Y4248D02*
D03*
X3661Y4051D02*
D03*
M02*
