Drill report for C:\Users\galia\Documents\PEUS\Projekte\Hardware\ESS_BMS\ess_bms_hardware\Adapter_Boart_RPI_Security_Board\Adapter_Boart_RPI_Security_Board.kicad_pcb
Created on 23.04.2019 17:25:38

Copper Layer Stackup:
    =============================================================
    L1 :  F.Cu                      front
    L2 :  B.Cu                      back


Drill file 'Adapter_Boart_RPI_Security_Board-PTH.drl' contains
    plated through holes:
    =============================================================
    T1  0,40mm  0,016"  (23 holes)
    T2  1,00mm  0,039"  (25 holes)
    T3  1,20mm  0,047"  (1 hole)
    T4  3,30mm  0,130"  (4 holes)

    Total plated holes count 53


Drill file 'Adapter_Boart_RPI_Security_Board-NPTH.drl' contains
    unplated through holes:
    =============================================================

    Total unplated holes count 0
