%!PS-Adobe-3.0
%%Creator: PCBNEW
%%CreationDate: Tue Apr 23 17:25:35 2019
%%Title: C:\Users\galia\Documents\PEUS\Projekte\Hardware\ESS_BMS\ess_bms_hardware\Adapter_Boart_RPI_Security_Board\Gerber\Adapter_Boart_RPI_Security_Board-PTH-drl_map.ps
%%Pages: 1
%%PageOrder: Ascend
%%BoundingBox: 0 0 596 842
%%DocumentMedia: A4 595 842 0 () ()
%%Orientation: Landscape
%%EndComments
%%BeginProlog
/line { newpath moveto lineto stroke } bind def
/cir0 { newpath 0 360 arc stroke } bind def
/cir1 { newpath 0 360 arc gsave fill grestore stroke } bind def
/cir2 { newpath 0 360 arc gsave fill grestore stroke } bind def
/arc0 { newpath arc stroke } bind def
/arc1 { newpath 4 index 4 index moveto arc closepath gsave fill
    grestore stroke } bind def
/arc2 { newpath 4 index 4 index moveto arc closepath gsave fill
    grestore stroke } bind def
/poly0 { stroke } bind def
/poly1 { closepath gsave fill grestore stroke } bind def
/poly2 { closepath gsave fill grestore stroke } bind def
/rect0 { rectstroke } bind def
/rect1 { rectfill } bind def
/rect2 { rectfill } bind def
/linemode0 { 0 setlinecap 0 setlinejoin 0 setlinewidth } bind def
/linemode1 { 1 setlinecap 1 setlinejoin } bind def
/dashedline { [200] 100 setdash } bind def
/solidline { [] 0 setdash } bind def
/phantomshow { moveto
    /KicadFont findfont 0.000001 scalefont setfont
    show } bind def
/textshow { gsave
    findfont exch scalefont setfont concat 1 scale 0 0 moveto show
    } bind def
/reencodefont {
  findfont dup length dict begin
  { 1 index /FID ne
    { def }
    { pop pop } ifelse
  } forall
  /Encoding ISOLatin1Encoding def
  currentdict
  end } bind def
/KicadFont /Helvetica reencodefont definefont pop
/KicadFont-Bold /Helvetica-Bold reencodefont definefont pop
/KicadFont-Oblique /Helvetica-Oblique reencodefont definefont pop
/KicadFont-BoldOblique /Helvetica-BoldOblique reencodefont definefont pop
%%EndProlog
%%Page: 1 1
%%BeginPageSetup
gsave
0.0072 0.0072 scale
linemode1
82680 0 translate 90 rotate
58.8586 setlinewidth
%%EndPageSetup
0 0 0 setrgbcolor
23.1727 setlinewidth
newpath
37609.6 37020.6 moveto
37609.6 78731.4 lineto
stroke
0 0 0 setrgbcolor
newpath
79320.4 37020.6 moveto
37609.6 37020.6 lineto
stroke
0 0 0 setrgbcolor
newpath
79320.4 78731.4 moveto
79320.4 37020.6 lineto
stroke
0 0 0 setrgbcolor
newpath
37609.6 78731.4 moveto
79320.4 78731.4 lineto
stroke
78.7398 setlinewidth
newpath
39863 65930.8 moveto
40048.4 65745.4 lineto
stroke
newpath
40048.4 65930.8 moveto
39863 65745.4 lineto
stroke
newpath
39879.7 67854.3 moveto
40065.1 67668.9 lineto
stroke
newpath
40065.1 67854.3 moveto
39879.7 67668.9 lineto
stroke
newpath
40140.1 50616 moveto
40325.5 50430.6 lineto
stroke
newpath
40325.5 50616 moveto
40140.1 50430.6 lineto
stroke
newpath
41593.6 48598.4 moveto
41779 48413.1 lineto
stroke
newpath
41779 48598.4 moveto
41593.6 48413.1 lineto
stroke
newpath
42544.5 47526 moveto
42729.9 47340.6 lineto
stroke
newpath
42729.9 47526 moveto
42544.5 47340.6 lineto
stroke
newpath
42590.1 62807.5 moveto
42775.4 62622.1 lineto
stroke
newpath
42775.4 62807.5 moveto
42590.1 62622.1 lineto
stroke
newpath
42590.1 61604.2 moveto
42775.4 61418.8 lineto
stroke
newpath
42775.4 61604.2 moveto
42590.1 61418.8 lineto
stroke
newpath
43881.8 62588.2 moveto
44067.2 62402.8 lineto
stroke
newpath
44067.2 62588.2 moveto
43881.8 62402.8 lineto
stroke
newpath
46748.9 61037.1 moveto
46934.3 60851.7 lineto
stroke
newpath
46934.3 61037.1 moveto
46748.9 60851.7 lineto
stroke
newpath
47452.2 54342.4 moveto
47637.6 54157 lineto
stroke
newpath
47637.6 54342.4 moveto
47452.2 54157 lineto
stroke
newpath
49418.2 53635.6 moveto
49603.6 53450.2 lineto
stroke
newpath
49603.6 53635.6 moveto
49418.2 53450.2 lineto
stroke
newpath
49557.1 55023.4 moveto
49742.5 54838.1 lineto
stroke
newpath
49742.5 55023.4 moveto
49557.1 54838.1 lineto
stroke
newpath
49812.3 52894.3 moveto
49997.7 52709 lineto
stroke
newpath
49997.7 52894.3 moveto
49812.3 52709 lineto
stroke
newpath
49812.3 48699.6 moveto
49997.7 48514.2 lineto
stroke
newpath
49997.7 48699.6 moveto
49812.3 48514.2 lineto
stroke
newpath
50438.7 53122.2 moveto
50624.1 52936.8 lineto
stroke
newpath
50624.1 53122.2 moveto
50438.7 52936.8 lineto
stroke
newpath
50438.7 49125.7 moveto
50624.1 48940.3 lineto
stroke
newpath
50624.1 49125.7 moveto
50438.7 48940.3 lineto
stroke
newpath
52084.6 52177.3 moveto
52270 51991.9 lineto
stroke
newpath
52270 52177.3 moveto
52084.6 51991.9 lineto
stroke
newpath
52434.4 53273.9 moveto
52619.7 53088.5 lineto
stroke
newpath
52619.7 53273.9 moveto
52434.4 53088.5 lineto
stroke
newpath
53335.8 52458 moveto
53521.2 52272.6 lineto
stroke
newpath
53521.2 52458 moveto
53335.8 52272.6 lineto
stroke
newpath
53753.8 52203.4 moveto
53939.2 52018 lineto
stroke
newpath
53939.2 52203.4 moveto
53753.8 52018 lineto
stroke
newpath
54314.8 48797.4 moveto
54500.2 48612 lineto
stroke
newpath
54500.2 48797.4 moveto
54314.8 48612 lineto
stroke
newpath
67650.6 56564.4 moveto
67836 56379 lineto
stroke
newpath
67836 56564.4 moveto
67650.6 56379 lineto
stroke
newpath
76479.4 45969.9 moveto
76664.8 45784.5 lineto
stroke
newpath
76664.8 45969.9 moveto
76479.4 45784.5 lineto
stroke
47613.7 43228.6 231.727 cir0
47613.7 42051.4 231.727 cir0
47613.7 40874.2 231.727 cir0
47613.7 39697 231.727 cir0
55677.3 54411.7 231.727 cir0
44793.1 67949.2 231.727 cir0
44793.1 66772 231.727 cir0
44793.1 65594.8 231.727 cir0
44793.1 64417.6 231.727 cir0
44793.1 63240.5 231.727 cir0
71441.7 53241.5 231.727 cir0
71441.7 52064.3 231.727 cir0
62636.1 58589.7 231.727 cir0
62636.1 57412.5 231.727 cir0
71441.7 64417.6 231.727 cir0
71441.7 63240.5 231.727 cir0
71441.7 62063.3 231.727 cir0
55677.3 52351.6 231.727 cir0
44793.1 50729.5 231.727 cir0
44793.1 49552.4 231.727 cir0
44793.1 48375.2 231.727 cir0
44793.1 47198 231.727 cir0
46841.6 57876 231.727 cir0
48018.8 57876 231.727 cir0
49195.9 57876 231.727 cir0
newpath
53323 61458.5 moveto
53323 60902.4 lineto
stroke
newpath
53044.9 61180.4 moveto
53601.1 61180.4 lineto
stroke
newpath
40467.6 75873.4 moveto
40467.6 76954.9 lineto
39386.1 76954.9 lineto
39386.1 75873.4 lineto
40467.6 75873.4 lineto
poly0
newpath
40467.6 38797.1 moveto
40467.6 39878.6 lineto
39386.1 39878.6 lineto
39386.1 38797.1 lineto
40467.6 38797.1 lineto
poly0
newpath
77543.9 75873.4 moveto
77543.9 76954.9 lineto
76462.4 76954.9 lineto
76462.4 75873.4 lineto
77543.9 75873.4 lineto
poly0
newpath
77543.9 38797.1 moveto
77543.9 39878.6 lineto
76462.4 39878.6 lineto
76462.4 38797.1 lineto
77543.9 38797.1 lineto
poly0
118.11 setlinewidth
0 0 0 setrgbcolor
0 0 0 setrgbcolor
newpath
38725.7 35175.5 moveto
38725.7 36356.6 lineto
39006.9 36356.6 lineto
39175.6 36300.3 lineto
39288.1 36187.9 lineto
39344.4 36075.4 lineto
39400.6 35850.4 lineto
39400.6 35681.7 lineto
39344.4 35456.7 lineto
39288.1 35344.2 lineto
39175.6 35231.7 lineto
39006.9 35175.5 lineto
38725.7 35175.5 lineto
stroke
newpath
39906.8 35175.5 moveto
39906.8 35962.9 lineto
stroke
newpath
39906.8 35737.9 moveto
39963 35850.4 lineto
40019.3 35906.6 lineto
40131.8 35962.9 lineto
40244.2 35962.9 lineto
stroke
newpath
40637.9 35175.5 moveto
40637.9 35962.9 lineto
stroke
newpath
40637.9 36356.6 moveto
40581.7 36300.3 lineto
40637.9 36244.1 lineto
40694.2 36300.3 lineto
40637.9 36356.6 lineto
40637.9 36244.1 lineto
stroke
newpath
41369.1 35175.5 moveto
41256.6 35231.7 lineto
41200.4 35344.2 lineto
41200.4 36356.6 lineto
stroke
newpath
41987.8 35175.5 moveto
41875.3 35231.7 lineto
41819 35344.2 lineto
41819 36356.6 lineto
stroke
newpath
43337.6 35175.5 moveto
43337.6 36356.6 lineto
43731.3 35512.9 lineto
44125 36356.6 lineto
44125 35175.5 lineto
stroke
newpath
45193.6 35175.5 moveto
45193.6 35794.2 lineto
45137.4 35906.6 lineto
45024.9 35962.9 lineto
44799.9 35962.9 lineto
44687.4 35906.6 lineto
stroke
newpath
45193.6 35231.7 moveto
45081.1 35175.5 lineto
44799.9 35175.5 lineto
44687.4 35231.7 lineto
44631.2 35344.2 lineto
44631.2 35456.7 lineto
44687.4 35569.2 lineto
44799.9 35625.4 lineto
45081.1 35625.4 lineto
45193.6 35681.7 lineto
stroke
newpath
45756 35962.9 moveto
45756 34781.8 lineto
stroke
newpath
45756 35906.6 moveto
45868.5 35962.9 lineto
46093.5 35962.9 lineto
46206 35906.6 lineto
46262.2 35850.4 lineto
46318.5 35737.9 lineto
46318.5 35400.5 lineto
46262.2 35288 lineto
46206 35231.7 lineto
46093.5 35175.5 lineto
45868.5 35175.5 lineto
45756 35231.7 lineto
stroke
newpath
46824.7 35288 moveto
46880.9 35231.7 lineto
46824.7 35175.5 lineto
46768.4 35231.7 lineto
46824.7 35288 lineto
46824.7 35175.5 lineto
stroke
newpath
46824.7 35906.6 moveto
46880.9 35850.4 lineto
46824.7 35794.2 lineto
46768.4 35850.4 lineto
46824.7 35906.6 lineto
46824.7 35794.2 lineto
stroke
newpath
37412.6 33322.2 moveto
37598 33136.8 lineto
stroke
newpath
37598 33322.2 moveto
37412.6 33136.8 lineto
stroke
0 0 0 setrgbcolor
0 0 0 setrgbcolor
newpath
38950.7 33876.3 moveto
39063.1 33876.3 lineto
39175.6 33820 lineto
39231.9 33763.8 lineto
39288.1 33651.3 lineto
39344.4 33426.3 lineto
39344.4 33145.1 lineto
39288.1 32920.1 lineto
39231.9 32807.7 lineto
39175.6 32751.4 lineto
39063.1 32695.2 lineto
38950.7 32695.2 lineto
38838.2 32751.4 lineto
38781.9 32807.7 lineto
38725.7 32920.1 lineto
38669.4 33145.1 lineto
38669.4 33426.3 lineto
38725.7 33651.3 lineto
38781.9 33763.8 lineto
38838.2 33820 lineto
38950.7 33876.3 lineto
stroke
newpath
39850.5 32807.7 moveto
39906.8 32751.4 lineto
39850.5 32695.2 lineto
39794.3 32751.4 lineto
39850.5 32807.7 lineto
39850.5 32695.2 lineto
stroke
newpath
40919.2 33482.6 moveto
40919.2 32695.2 lineto
stroke
newpath
40637.9 33932.5 moveto
40356.7 33088.9 lineto
41087.9 33088.9 lineto
stroke
newpath
41762.8 33876.3 moveto
41875.3 33876.3 lineto
41987.8 33820 lineto
42044 33763.8 lineto
42100.3 33651.3 lineto
42156.5 33426.3 lineto
42156.5 33145.1 lineto
42100.3 32920.1 lineto
42044 32807.7 lineto
41987.8 32751.4 lineto
41875.3 32695.2 lineto
41762.8 32695.2 lineto
41650.3 32751.4 lineto
41594.1 32807.7 lineto
41537.8 32920.1 lineto
41481.6 33145.1 lineto
41481.6 33426.3 lineto
41537.8 33651.3 lineto
41594.1 33763.8 lineto
41650.3 33820 lineto
41762.8 33876.3 lineto
stroke
newpath
42662.7 32695.2 moveto
42662.7 33482.6 lineto
stroke
newpath
42662.7 33370.1 moveto
42718.9 33426.3 lineto
42831.4 33482.6 lineto
43000.1 33482.6 lineto
43112.6 33426.3 lineto
43168.9 33313.8 lineto
43168.9 32695.2 lineto
stroke
newpath
43168.9 33313.8 moveto
43225.1 33426.3 lineto
43337.6 33482.6 lineto
43506.3 33482.6 lineto
43618.8 33426.3 lineto
43675.1 33313.8 lineto
43675.1 32695.2 lineto
stroke
newpath
44237.5 32695.2 moveto
44237.5 33482.6 lineto
stroke
newpath
44237.5 33370.1 moveto
44293.7 33426.3 lineto
44406.2 33482.6 lineto
44574.9 33482.6 lineto
44687.4 33426.3 lineto
44743.7 33313.8 lineto
44743.7 32695.2 lineto
stroke
newpath
44743.7 33313.8 moveto
44799.9 33426.3 lineto
44912.4 33482.6 lineto
45081.1 33482.6 lineto
45193.6 33426.3 lineto
45249.9 33313.8 lineto
45249.9 32695.2 lineto
stroke
newpath
47555.8 33932.5 moveto
46543.5 32414 lineto
stroke
newpath
49074.4 33876.3 moveto
49186.9 33876.3 lineto
49299.4 33820 lineto
49355.6 33763.8 lineto
49411.8 33651.3 lineto
49468.1 33426.3 lineto
49468.1 33145.1 lineto
49411.8 32920.1 lineto
49355.6 32807.7 lineto
49299.4 32751.4 lineto
49186.9 32695.2 lineto
49074.4 32695.2 lineto
48961.9 32751.4 lineto
48905.7 32807.7 lineto
48849.4 32920.1 lineto
48793.2 33145.1 lineto
48793.2 33426.3 lineto
48849.4 33651.3 lineto
48905.7 33763.8 lineto
48961.9 33820 lineto
49074.4 33876.3 lineto
stroke
newpath
49974.3 32807.7 moveto
50030.5 32751.4 lineto
49974.3 32695.2 lineto
49918 32751.4 lineto
49974.3 32807.7 lineto
49974.3 32695.2 lineto
stroke
newpath
50761.7 33876.3 moveto
50874.2 33876.3 lineto
50986.6 33820 lineto
51042.9 33763.8 lineto
51099.1 33651.3 lineto
51155.4 33426.3 lineto
51155.4 33145.1 lineto
51099.1 32920.1 lineto
51042.9 32807.7 lineto
50986.6 32751.4 lineto
50874.2 32695.2 lineto
50761.7 32695.2 lineto
50649.2 32751.4 lineto
50592.9 32807.7 lineto
50536.7 32920.1 lineto
50480.5 33145.1 lineto
50480.5 33426.3 lineto
50536.7 33651.3 lineto
50592.9 33763.8 lineto
50649.2 33820 lineto
50761.7 33876.3 lineto
stroke
newpath
52280.2 32695.2 moveto
51605.3 32695.2 lineto
stroke
newpath
51942.8 32695.2 moveto
51942.8 33876.3 lineto
51830.3 33707.5 lineto
51717.8 33595.1 lineto
51605.3 33538.8 lineto
stroke
newpath
53292.6 33876.3 moveto
53067.6 33876.3 lineto
52955.1 33820 lineto
52898.9 33763.8 lineto
52786.4 33595.1 lineto
52730.2 33370.1 lineto
52730.2 32920.1 lineto
52786.4 32807.7 lineto
52842.7 32751.4 lineto
52955.1 32695.2 lineto
53180.1 32695.2 lineto
53292.6 32751.4 lineto
53348.9 32807.7 lineto
53405.1 32920.1 lineto
53405.1 33201.4 lineto
53348.9 33313.8 lineto
53292.6 33370.1 lineto
53180.1 33426.3 lineto
52955.1 33426.3 lineto
52842.7 33370.1 lineto
52786.4 33313.8 lineto
52730.2 33201.4 lineto
stroke
newpath
53855 33876.3 moveto
53855 33651.3 lineto
stroke
newpath
54305 33876.3 moveto
54305 33651.3 lineto
stroke
newpath
56048.5 32245.2 moveto
55992.3 32301.5 lineto
55879.8 32470.2 lineto
55823.5 32582.7 lineto
55767.3 32751.4 lineto
55711.1 33032.6 lineto
55711.1 33257.6 lineto
55767.3 33538.8 lineto
55823.5 33707.5 lineto
55879.8 33820 lineto
55992.3 33988.8 lineto
56048.5 34045 lineto
stroke
newpath
56442.2 33763.8 moveto
56498.5 33820 lineto
56610.9 33876.3 lineto
56892.2 33876.3 lineto
57004.6 33820 lineto
57060.9 33763.8 lineto
57117.1 33651.3 lineto
57117.1 33538.8 lineto
57060.9 33370.1 lineto
56386 32695.2 lineto
57117.1 32695.2 lineto
stroke
newpath
57510.8 33876.3 moveto
58242 33876.3 lineto
57848.3 33426.3 lineto
58017 33426.3 lineto
58129.5 33370.1 lineto
58185.7 33313.8 lineto
58242 33201.4 lineto
58242 32920.1 lineto
58185.7 32807.7 lineto
58129.5 32751.4 lineto
58017 32695.2 lineto
57679.6 32695.2 lineto
57567.1 32751.4 lineto
57510.8 32807.7 lineto
stroke
newpath
59648.1 32695.2 moveto
59648.1 33876.3 lineto
stroke
newpath
60154.2 32695.2 moveto
60154.2 33313.8 lineto
60098 33426.3 lineto
59985.5 33482.6 lineto
59816.8 33482.6 lineto
59704.3 33426.3 lineto
59648.1 33370.1 lineto
stroke
newpath
60885.4 32695.2 moveto
60772.9 32751.4 lineto
60716.7 32807.7 lineto
60660.4 32920.1 lineto
60660.4 33257.6 lineto
60716.7 33370.1 lineto
60772.9 33426.3 lineto
60885.4 33482.6 lineto
61054.1 33482.6 lineto
61166.6 33426.3 lineto
61222.9 33370.1 lineto
61279.1 33257.6 lineto
61279.1 32920.1 lineto
61222.9 32807.7 lineto
61166.6 32751.4 lineto
61054.1 32695.2 lineto
60885.4 32695.2 lineto
stroke
newpath
61954 32695.2 moveto
61841.5 32751.4 lineto
61785.3 32863.9 lineto
61785.3 33876.3 lineto
stroke
newpath
62853.9 32751.4 moveto
62741.4 32695.2 lineto
62516.5 32695.2 lineto
62404 32751.4 lineto
62347.7 32863.9 lineto
62347.7 33313.8 lineto
62404 33426.3 lineto
62516.5 33482.6 lineto
62741.4 33482.6 lineto
62853.9 33426.3 lineto
62910.2 33313.8 lineto
62910.2 33201.4 lineto
62347.7 33088.9 lineto
stroke
newpath
63360.1 32751.4 moveto
63472.6 32695.2 lineto
63697.6 32695.2 lineto
63810 32751.4 lineto
63866.3 32863.9 lineto
63866.3 32920.1 lineto
63810 33032.6 lineto
63697.6 33088.9 lineto
63528.8 33088.9 lineto
63416.3 33145.1 lineto
63360.1 33257.6 lineto
63360.1 33313.8 lineto
63416.3 33426.3 lineto
63528.8 33482.6 lineto
63697.6 33482.6 lineto
63810 33426.3 lineto
stroke
newpath
64260 32245.2 moveto
64316.2 32301.5 lineto
64428.7 32470.2 lineto
64485 32582.7 lineto
64541.2 32751.4 lineto
64597.4 33032.6 lineto
64597.4 33257.6 lineto
64541.2 33538.8 lineto
64485 33707.5 lineto
64428.7 33820 lineto
64316.2 33988.8 lineto
64260 34045 lineto
stroke
37366.3 31670.4 231.727 cir0
0 0 0 setrgbcolor
0 0 0 setrgbcolor
newpath
39344.4 31136.1 moveto
38669.4 31136.1 lineto
stroke
newpath
39006.9 31136.1 moveto
39006.9 32317.2 lineto
38894.4 32148.5 lineto
38781.9 32036 lineto
38669.4 31979.8 lineto
stroke
newpath
39850.5 31248.6 moveto
39906.8 31192.4 lineto
39850.5 31136.1 lineto
39794.3 31192.4 lineto
39850.5 31248.6 lineto
39850.5 31136.1 lineto
stroke
newpath
40637.9 32317.2 moveto
40750.4 32317.2 lineto
40862.9 32261 lineto
40919.2 32204.7 lineto
40975.4 32092.2 lineto
41031.6 31867.3 lineto
41031.6 31586.1 lineto
40975.4 31361.1 lineto
40919.2 31248.6 lineto
40862.9 31192.4 lineto
40750.4 31136.1 lineto
40637.9 31136.1 lineto
40525.5 31192.4 lineto
40469.2 31248.6 lineto
40413 31361.1 lineto
40356.7 31586.1 lineto
40356.7 31867.3 lineto
40413 32092.2 lineto
40469.2 32204.7 lineto
40525.5 32261 lineto
40637.9 32317.2 lineto
stroke
newpath
41762.8 32317.2 moveto
41875.3 32317.2 lineto
41987.8 32261 lineto
42044 32204.7 lineto
42100.3 32092.2 lineto
42156.5 31867.3 lineto
42156.5 31586.1 lineto
42100.3 31361.1 lineto
42044 31248.6 lineto
41987.8 31192.4 lineto
41875.3 31136.1 lineto
41762.8 31136.1 lineto
41650.3 31192.4 lineto
41594.1 31248.6 lineto
41537.8 31361.1 lineto
41481.6 31586.1 lineto
41481.6 31867.3 lineto
41537.8 32092.2 lineto
41594.1 32204.7 lineto
41650.3 32261 lineto
41762.8 32317.2 lineto
stroke
newpath
42662.7 31136.1 moveto
42662.7 31923.5 lineto
stroke
newpath
42662.7 31811 moveto
42718.9 31867.3 lineto
42831.4 31923.5 lineto
43000.1 31923.5 lineto
43112.6 31867.3 lineto
43168.9 31754.8 lineto
43168.9 31136.1 lineto
stroke
newpath
43168.9 31754.8 moveto
43225.1 31867.3 lineto
43337.6 31923.5 lineto
43506.3 31923.5 lineto
43618.8 31867.3 lineto
43675.1 31754.8 lineto
43675.1 31136.1 lineto
stroke
newpath
44237.5 31136.1 moveto
44237.5 31923.5 lineto
stroke
newpath
44237.5 31811 moveto
44293.7 31867.3 lineto
44406.2 31923.5 lineto
44574.9 31923.5 lineto
44687.4 31867.3 lineto
44743.7 31754.8 lineto
44743.7 31136.1 lineto
stroke
newpath
44743.7 31754.8 moveto
44799.9 31867.3 lineto
44912.4 31923.5 lineto
45081.1 31923.5 lineto
45193.6 31867.3 lineto
45249.9 31754.8 lineto
45249.9 31136.1 lineto
stroke
newpath
47555.8 32373.5 moveto
46543.5 30854.9 lineto
stroke
newpath
49074.4 32317.2 moveto
49186.9 32317.2 lineto
49299.4 32261 lineto
49355.6 32204.7 lineto
49411.8 32092.2 lineto
49468.1 31867.3 lineto
49468.1 31586.1 lineto
49411.8 31361.1 lineto
49355.6 31248.6 lineto
49299.4 31192.4 lineto
49186.9 31136.1 lineto
49074.4 31136.1 lineto
48961.9 31192.4 lineto
48905.7 31248.6 lineto
48849.4 31361.1 lineto
48793.2 31586.1 lineto
48793.2 31867.3 lineto
48849.4 32092.2 lineto
48905.7 32204.7 lineto
48961.9 32261 lineto
49074.4 32317.2 lineto
stroke
newpath
49974.3 31248.6 moveto
50030.5 31192.4 lineto
49974.3 31136.1 lineto
49918 31192.4 lineto
49974.3 31248.6 lineto
49974.3 31136.1 lineto
stroke
newpath
50761.7 32317.2 moveto
50874.2 32317.2 lineto
50986.6 32261 lineto
51042.9 32204.7 lineto
51099.1 32092.2 lineto
51155.4 31867.3 lineto
51155.4 31586.1 lineto
51099.1 31361.1 lineto
51042.9 31248.6 lineto
50986.6 31192.4 lineto
50874.2 31136.1 lineto
50761.7 31136.1 lineto
50649.2 31192.4 lineto
50592.9 31248.6 lineto
50536.7 31361.1 lineto
50480.5 31586.1 lineto
50480.5 31867.3 lineto
50536.7 32092.2 lineto
50592.9 32204.7 lineto
50649.2 32261 lineto
50761.7 32317.2 lineto
stroke
newpath
51549.1 32317.2 moveto
52280.2 32317.2 lineto
51886.5 31867.3 lineto
52055.3 31867.3 lineto
52167.7 31811 lineto
52224 31754.8 lineto
52280.2 31642.3 lineto
52280.2 31361.1 lineto
52224 31248.6 lineto
52167.7 31192.4 lineto
52055.3 31136.1 lineto
51717.8 31136.1 lineto
51605.3 31192.4 lineto
51549.1 31248.6 lineto
stroke
newpath
52842.7 31136.1 moveto
53067.6 31136.1 lineto
53180.1 31192.4 lineto
53236.4 31248.6 lineto
53348.9 31417.3 lineto
53405.1 31642.3 lineto
53405.1 32092.2 lineto
53348.9 32204.7 lineto
53292.6 32261 lineto
53180.1 32317.2 lineto
52955.1 32317.2 lineto
52842.7 32261 lineto
52786.4 32204.7 lineto
52730.2 32092.2 lineto
52730.2 31811 lineto
52786.4 31698.5 lineto
52842.7 31642.3 lineto
52955.1 31586.1 lineto
53180.1 31586.1 lineto
53292.6 31642.3 lineto
53348.9 31698.5 lineto
53405.1 31811 lineto
stroke
newpath
53855 32317.2 moveto
53855 32092.2 lineto
stroke
newpath
54305 32317.2 moveto
54305 32092.2 lineto
stroke
newpath
56048.5 30686.2 moveto
55992.3 30742.4 lineto
55879.8 30911.1 lineto
55823.5 31023.6 lineto
55767.3 31192.4 lineto
55711.1 31473.6 lineto
55711.1 31698.5 lineto
55767.3 31979.8 lineto
55823.5 32148.5 lineto
55879.8 32261 lineto
55992.3 32429.7 lineto
56048.5 32485.9 lineto
stroke
newpath
56442.2 32204.7 moveto
56498.5 32261 lineto
56610.9 32317.2 lineto
56892.2 32317.2 lineto
57004.6 32261 lineto
57060.9 32204.7 lineto
57117.1 32092.2 lineto
57117.1 31979.8 lineto
57060.9 31811 lineto
56386 31136.1 lineto
57117.1 31136.1 lineto
stroke
newpath
58185.7 32317.2 moveto
57623.3 32317.2 lineto
57567.1 31754.8 lineto
57623.3 31811 lineto
57735.8 31867.3 lineto
58017 31867.3 lineto
58129.5 31811 lineto
58185.7 31754.8 lineto
58242 31642.3 lineto
58242 31361.1 lineto
58185.7 31248.6 lineto
58129.5 31192.4 lineto
58017 31136.1 lineto
57735.8 31136.1 lineto
57623.3 31192.4 lineto
57567.1 31248.6 lineto
stroke
newpath
59648.1 31136.1 moveto
59648.1 32317.2 lineto
stroke
newpath
60154.2 31136.1 moveto
60154.2 31754.8 lineto
60098 31867.3 lineto
59985.5 31923.5 lineto
59816.8 31923.5 lineto
59704.3 31867.3 lineto
59648.1 31811 lineto
stroke
newpath
60885.4 31136.1 moveto
60772.9 31192.4 lineto
60716.7 31248.6 lineto
60660.4 31361.1 lineto
60660.4 31698.5 lineto
60716.7 31811 lineto
60772.9 31867.3 lineto
60885.4 31923.5 lineto
61054.1 31923.5 lineto
61166.6 31867.3 lineto
61222.9 31811 lineto
61279.1 31698.5 lineto
61279.1 31361.1 lineto
61222.9 31248.6 lineto
61166.6 31192.4 lineto
61054.1 31136.1 lineto
60885.4 31136.1 lineto
stroke
newpath
61954 31136.1 moveto
61841.5 31192.4 lineto
61785.3 31304.8 lineto
61785.3 32317.2 lineto
stroke
newpath
62853.9 31192.4 moveto
62741.4 31136.1 lineto
62516.5 31136.1 lineto
62404 31192.4 lineto
62347.7 31304.8 lineto
62347.7 31754.8 lineto
62404 31867.3 lineto
62516.5 31923.5 lineto
62741.4 31923.5 lineto
62853.9 31867.3 lineto
62910.2 31754.8 lineto
62910.2 31642.3 lineto
62347.7 31529.8 lineto
stroke
newpath
63360.1 31192.4 moveto
63472.6 31136.1 lineto
63697.6 31136.1 lineto
63810 31192.4 lineto
63866.3 31304.8 lineto
63866.3 31361.1 lineto
63810 31473.6 lineto
63697.6 31529.8 lineto
63528.8 31529.8 lineto
63416.3 31586.1 lineto
63360.1 31698.5 lineto
63360.1 31754.8 lineto
63416.3 31867.3 lineto
63528.8 31923.5 lineto
63697.6 31923.5 lineto
63810 31867.3 lineto
stroke
newpath
64260 30686.2 moveto
64316.2 30742.4 lineto
64428.7 30911.1 lineto
64485 31023.6 lineto
64541.2 31192.4 lineto
64597.4 31473.6 lineto
64597.4 31698.5 lineto
64541.2 31979.8 lineto
64485 32148.5 lineto
64428.7 32261 lineto
64316.2 32429.7 lineto
64260 32485.9 lineto
stroke
newpath
37319.9 30389.4 moveto
37319.9 29833.3 lineto
stroke
newpath
37041.9 30111.4 moveto
37598 30111.4 lineto
stroke
0 0 0 setrgbcolor
0 0 0 setrgbcolor
newpath
39344.4 29577.1 moveto
38669.4 29577.1 lineto
stroke
newpath
39006.9 29577.1 moveto
39006.9 30758.2 lineto
38894.4 30589.4 lineto
38781.9 30476.9 lineto
38669.4 30420.7 lineto
stroke
newpath
39850.5 29689.5 moveto
39906.8 29633.3 lineto
39850.5 29577.1 lineto
39794.3 29633.3 lineto
39850.5 29689.5 lineto
39850.5 29577.1 lineto
stroke
newpath
40356.7 30645.7 moveto
40413 30701.9 lineto
40525.5 30758.2 lineto
40806.7 30758.2 lineto
40919.2 30701.9 lineto
40975.4 30645.7 lineto
41031.6 30533.2 lineto
41031.6 30420.7 lineto
40975.4 30252 lineto
40300.5 29577.1 lineto
41031.6 29577.1 lineto
stroke
newpath
41762.8 30758.2 moveto
41875.3 30758.2 lineto
41987.8 30701.9 lineto
42044 30645.7 lineto
42100.3 30533.2 lineto
42156.5 30308.2 lineto
42156.5 30027 lineto
42100.3 29802 lineto
42044 29689.5 lineto
41987.8 29633.3 lineto
41875.3 29577.1 lineto
41762.8 29577.1 lineto
41650.3 29633.3 lineto
41594.1 29689.5 lineto
41537.8 29802 lineto
41481.6 30027 lineto
41481.6 30308.2 lineto
41537.8 30533.2 lineto
41594.1 30645.7 lineto
41650.3 30701.9 lineto
41762.8 30758.2 lineto
stroke
newpath
42662.7 29577.1 moveto
42662.7 30364.5 lineto
stroke
newpath
42662.7 30252 moveto
42718.9 30308.2 lineto
42831.4 30364.5 lineto
43000.1 30364.5 lineto
43112.6 30308.2 lineto
43168.9 30195.7 lineto
43168.9 29577.1 lineto
stroke
newpath
43168.9 30195.7 moveto
43225.1 30308.2 lineto
43337.6 30364.5 lineto
43506.3 30364.5 lineto
43618.8 30308.2 lineto
43675.1 30195.7 lineto
43675.1 29577.1 lineto
stroke
newpath
44237.5 29577.1 moveto
44237.5 30364.5 lineto
stroke
newpath
44237.5 30252 moveto
44293.7 30308.2 lineto
44406.2 30364.5 lineto
44574.9 30364.5 lineto
44687.4 30308.2 lineto
44743.7 30195.7 lineto
44743.7 29577.1 lineto
stroke
newpath
44743.7 30195.7 moveto
44799.9 30308.2 lineto
44912.4 30364.5 lineto
45081.1 30364.5 lineto
45193.6 30308.2 lineto
45249.9 30195.7 lineto
45249.9 29577.1 lineto
stroke
newpath
47555.8 30814.4 moveto
46543.5 29295.8 lineto
stroke
newpath
49074.4 30758.2 moveto
49186.9 30758.2 lineto
49299.4 30701.9 lineto
49355.6 30645.7 lineto
49411.8 30533.2 lineto
49468.1 30308.2 lineto
49468.1 30027 lineto
49411.8 29802 lineto
49355.6 29689.5 lineto
49299.4 29633.3 lineto
49186.9 29577.1 lineto
49074.4 29577.1 lineto
48961.9 29633.3 lineto
48905.7 29689.5 lineto
48849.4 29802 lineto
48793.2 30027 lineto
48793.2 30308.2 lineto
48849.4 30533.2 lineto
48905.7 30645.7 lineto
48961.9 30701.9 lineto
49074.4 30758.2 lineto
stroke
newpath
49974.3 29689.5 moveto
50030.5 29633.3 lineto
49974.3 29577.1 lineto
49918 29633.3 lineto
49974.3 29689.5 lineto
49974.3 29577.1 lineto
stroke
newpath
50761.7 30758.2 moveto
50874.2 30758.2 lineto
50986.6 30701.9 lineto
51042.9 30645.7 lineto
51099.1 30533.2 lineto
51155.4 30308.2 lineto
51155.4 30027 lineto
51099.1 29802 lineto
51042.9 29689.5 lineto
50986.6 29633.3 lineto
50874.2 29577.1 lineto
50761.7 29577.1 lineto
50649.2 29633.3 lineto
50592.9 29689.5 lineto
50536.7 29802 lineto
50480.5 30027 lineto
50480.5 30308.2 lineto
50536.7 30533.2 lineto
50592.9 30645.7 lineto
50649.2 30701.9 lineto
50761.7 30758.2 lineto
stroke
newpath
52167.7 30364.5 moveto
52167.7 29577.1 lineto
stroke
newpath
51886.5 30814.4 moveto
51605.3 29970.8 lineto
52336.5 29970.8 lineto
stroke
newpath
52673.9 30758.2 moveto
53461.3 30758.2 lineto
52955.1 29577.1 lineto
stroke
newpath
53855 30758.2 moveto
53855 30533.2 lineto
stroke
newpath
54305 30758.2 moveto
54305 30533.2 lineto
stroke
newpath
56048.5 29127.1 moveto
55992.3 29183.4 lineto
55879.8 29352.1 lineto
55823.5 29464.6 lineto
55767.3 29633.3 lineto
55711.1 29914.5 lineto
55711.1 30139.5 lineto
55767.3 30420.7 lineto
55823.5 30589.4 lineto
55879.8 30701.9 lineto
55992.3 30870.7 lineto
56048.5 30926.9 lineto
stroke
newpath
57117.1 29577.1 moveto
56442.2 29577.1 lineto
stroke
newpath
56779.7 29577.1 moveto
56779.7 30758.2 lineto
56667.2 30589.4 lineto
56554.7 30476.9 lineto
56442.2 30420.7 lineto
stroke
newpath
58523.2 29577.1 moveto
58523.2 30758.2 lineto
stroke
newpath
59029.4 29577.1 moveto
59029.4 30195.7 lineto
58973.1 30308.2 lineto
58860.7 30364.5 lineto
58691.9 30364.5 lineto
58579.4 30308.2 lineto
58523.2 30252 lineto
stroke
newpath
59760.5 29577.1 moveto
59648.1 29633.3 lineto
59591.8 29689.5 lineto
59535.6 29802 lineto
59535.6 30139.5 lineto
59591.8 30252 lineto
59648.1 30308.2 lineto
59760.5 30364.5 lineto
59929.3 30364.5 lineto
60041.8 30308.2 lineto
60098 30252 lineto
60154.2 30139.5 lineto
60154.2 29802 lineto
60098 29689.5 lineto
60041.8 29633.3 lineto
59929.3 29577.1 lineto
59760.5 29577.1 lineto
stroke
newpath
60829.2 29577.1 moveto
60716.7 29633.3 lineto
60660.4 29745.8 lineto
60660.4 30758.2 lineto
stroke
newpath
61729.1 29633.3 moveto
61616.6 29577.1 lineto
61391.6 29577.1 lineto
61279.1 29633.3 lineto
61222.9 29745.8 lineto
61222.9 30195.7 lineto
61279.1 30308.2 lineto
61391.6 30364.5 lineto
61616.6 30364.5 lineto
61729.1 30308.2 lineto
61785.3 30195.7 lineto
61785.3 30083.2 lineto
61222.9 29970.8 lineto
stroke
newpath
62179 29127.1 moveto
62235.2 29183.4 lineto
62347.7 29352.1 lineto
62404 29464.6 lineto
62460.2 29633.3 lineto
62516.5 29914.5 lineto
62516.5 30139.5 lineto
62460.2 30420.7 lineto
62404 30589.4 lineto
62347.7 30701.9 lineto
62235.2 30870.7 lineto
62179 30926.9 lineto
stroke
newpath
37374 28011.6 moveto
37374 29093 lineto
36292.6 29093 lineto
36292.6 28011.6 lineto
37374 28011.6 lineto
poly0
0 0 0 setrgbcolor
0 0 0 setrgbcolor
newpath
38613.2 29199.1 moveto
39344.4 29199.1 lineto
38950.7 28749.2 lineto
39119.4 28749.2 lineto
39231.9 28692.9 lineto
39288.1 28636.7 lineto
39344.4 28524.2 lineto
39344.4 28243 lineto
39288.1 28130.5 lineto
39231.9 28074.3 lineto
39119.4 28018 lineto
38781.9 28018 lineto
38669.4 28074.3 lineto
38613.2 28130.5 lineto
stroke
newpath
39850.5 28130.5 moveto
39906.8 28074.3 lineto
39850.5 28018 lineto
39794.3 28074.3 lineto
39850.5 28130.5 lineto
39850.5 28018 lineto
stroke
newpath
40300.5 29199.1 moveto
41031.6 29199.1 lineto
40637.9 28749.2 lineto
40806.7 28749.2 lineto
40919.2 28692.9 lineto
40975.4 28636.7 lineto
41031.6 28524.2 lineto
41031.6 28243 lineto
40975.4 28130.5 lineto
40919.2 28074.3 lineto
40806.7 28018 lineto
40469.2 28018 lineto
40356.7 28074.3 lineto
40300.5 28130.5 lineto
stroke
newpath
41762.8 29199.1 moveto
41875.3 29199.1 lineto
41987.8 29142.9 lineto
42044 29086.6 lineto
42100.3 28974.1 lineto
42156.5 28749.2 lineto
42156.5 28468 lineto
42100.3 28243 lineto
42044 28130.5 lineto
41987.8 28074.3 lineto
41875.3 28018 lineto
41762.8 28018 lineto
41650.3 28074.3 lineto
41594.1 28130.5 lineto
41537.8 28243 lineto
41481.6 28468 lineto
41481.6 28749.2 lineto
41537.8 28974.1 lineto
41594.1 29086.6 lineto
41650.3 29142.9 lineto
41762.8 29199.1 lineto
stroke
newpath
42662.7 28018 moveto
42662.7 28805.4 lineto
stroke
newpath
42662.7 28692.9 moveto
42718.9 28749.2 lineto
42831.4 28805.4 lineto
43000.1 28805.4 lineto
43112.6 28749.2 lineto
43168.9 28636.7 lineto
43168.9 28018 lineto
stroke
newpath
43168.9 28636.7 moveto
43225.1 28749.2 lineto
43337.6 28805.4 lineto
43506.3 28805.4 lineto
43618.8 28749.2 lineto
43675.1 28636.7 lineto
43675.1 28018 lineto
stroke
newpath
44237.5 28018 moveto
44237.5 28805.4 lineto
stroke
newpath
44237.5 28692.9 moveto
44293.7 28749.2 lineto
44406.2 28805.4 lineto
44574.9 28805.4 lineto
44687.4 28749.2 lineto
44743.7 28636.7 lineto
44743.7 28018 lineto
stroke
newpath
44743.7 28636.7 moveto
44799.9 28749.2 lineto
44912.4 28805.4 lineto
45081.1 28805.4 lineto
45193.6 28749.2 lineto
45249.9 28636.7 lineto
45249.9 28018 lineto
stroke
newpath
47555.8 29255.4 moveto
46543.5 27736.8 lineto
stroke
newpath
49074.4 29199.1 moveto
49186.9 29199.1 lineto
49299.4 29142.9 lineto
49355.6 29086.6 lineto
49411.8 28974.1 lineto
49468.1 28749.2 lineto
49468.1 28468 lineto
49411.8 28243 lineto
49355.6 28130.5 lineto
49299.4 28074.3 lineto
49186.9 28018 lineto
49074.4 28018 lineto
48961.9 28074.3 lineto
48905.7 28130.5 lineto
48849.4 28243 lineto
48793.2 28468 lineto
48793.2 28749.2 lineto
48849.4 28974.1 lineto
48905.7 29086.6 lineto
48961.9 29142.9 lineto
49074.4 29199.1 lineto
stroke
newpath
49974.3 28130.5 moveto
50030.5 28074.3 lineto
49974.3 28018 lineto
49918 28074.3 lineto
49974.3 28130.5 lineto
49974.3 28018 lineto
stroke
newpath
51155.4 28018 moveto
50480.5 28018 lineto
stroke
newpath
50817.9 28018 moveto
50817.9 29199.1 lineto
50705.4 29030.4 lineto
50592.9 28917.9 lineto
50480.5 28861.7 lineto
stroke
newpath
51549.1 29199.1 moveto
52280.2 29199.1 lineto
51886.5 28749.2 lineto
52055.3 28749.2 lineto
52167.7 28692.9 lineto
52224 28636.7 lineto
52280.2 28524.2 lineto
52280.2 28243 lineto
52224 28130.5 lineto
52167.7 28074.3 lineto
52055.3 28018 lineto
51717.8 28018 lineto
51605.3 28074.3 lineto
51549.1 28130.5 lineto
stroke
newpath
53011.4 29199.1 moveto
53123.9 29199.1 lineto
53236.4 29142.9 lineto
53292.6 29086.6 lineto
53348.9 28974.1 lineto
53405.1 28749.2 lineto
53405.1 28468 lineto
53348.9 28243 lineto
53292.6 28130.5 lineto
53236.4 28074.3 lineto
53123.9 28018 lineto
53011.4 28018 lineto
52898.9 28074.3 lineto
52842.7 28130.5 lineto
52786.4 28243 lineto
52730.2 28468 lineto
52730.2 28749.2 lineto
52786.4 28974.1 lineto
52842.7 29086.6 lineto
52898.9 29142.9 lineto
53011.4 29199.1 lineto
stroke
newpath
53855 29199.1 moveto
53855 28974.1 lineto
stroke
newpath
54305 29199.1 moveto
54305 28974.1 lineto
stroke
newpath
56048.5 27568.1 moveto
55992.3 27624.3 lineto
55879.8 27793 lineto
55823.5 27905.5 lineto
55767.3 28074.3 lineto
55711.1 28355.5 lineto
55711.1 28580.4 lineto
55767.3 28861.7 lineto
55823.5 29030.4 lineto
55879.8 29142.9 lineto
55992.3 29311.6 lineto
56048.5 29367.8 lineto
stroke
newpath
57004.6 28805.4 moveto
57004.6 28018 lineto
stroke
newpath
56723.4 29255.4 moveto
56442.2 28411.7 lineto
57173.4 28411.7 lineto
stroke
newpath
58523.2 28018 moveto
58523.2 29199.1 lineto
stroke
newpath
59029.4 28018 moveto
59029.4 28636.7 lineto
58973.1 28749.2 lineto
58860.7 28805.4 lineto
58691.9 28805.4 lineto
58579.4 28749.2 lineto
58523.2 28692.9 lineto
stroke
newpath
59760.5 28018 moveto
59648.1 28074.3 lineto
59591.8 28130.5 lineto
59535.6 28243 lineto
59535.6 28580.4 lineto
59591.8 28692.9 lineto
59648.1 28749.2 lineto
59760.5 28805.4 lineto
59929.3 28805.4 lineto
60041.8 28749.2 lineto
60098 28692.9 lineto
60154.2 28580.4 lineto
60154.2 28243 lineto
60098 28130.5 lineto
60041.8 28074.3 lineto
59929.3 28018 lineto
59760.5 28018 lineto
stroke
newpath
60829.2 28018 moveto
60716.7 28074.3 lineto
60660.4 28186.7 lineto
60660.4 29199.1 lineto
stroke
newpath
61729.1 28074.3 moveto
61616.6 28018 lineto
61391.6 28018 lineto
61279.1 28074.3 lineto
61222.9 28186.7 lineto
61222.9 28636.7 lineto
61279.1 28749.2 lineto
61391.6 28805.4 lineto
61616.6 28805.4 lineto
61729.1 28749.2 lineto
61785.3 28636.7 lineto
61785.3 28524.2 lineto
61222.9 28411.7 lineto
stroke
newpath
62235.2 28074.3 moveto
62347.7 28018 lineto
62572.7 28018 lineto
62685.2 28074.3 lineto
62741.4 28186.7 lineto
62741.4 28243 lineto
62685.2 28355.5 lineto
62572.7 28411.7 lineto
62404 28411.7 lineto
62291.5 28468 lineto
62235.2 28580.4 lineto
62235.2 28636.7 lineto
62291.5 28749.2 lineto
62404 28805.4 lineto
62572.7 28805.4 lineto
62685.2 28749.2 lineto
stroke
newpath
63135.1 27568.1 moveto
63191.4 27624.3 lineto
63303.9 27793 lineto
63360.1 27905.5 lineto
63416.3 28074.3 lineto
63472.6 28355.5 lineto
63472.6 28580.4 lineto
63416.3 28861.7 lineto
63360.1 29030.4 lineto
63303.9 29142.9 lineto
63191.4 29311.6 lineto
63135.1 29367.8 lineto
stroke
showpage
grestore
%%EOF
