G04 #@! TF.FileFunction,Legend,Bot*
%FSLAX46Y46*%
G04 Gerber Fmt 4.6, Leading zero omitted, Abs format (unit mm)*
G04 Created by KiCad (PCBNEW 4.0.7) date 04/05/19 17:56:44*
%MOMM*%
%LPD*%
G01*
G04 APERTURE LIST*
%ADD10C,0.100000*%
%ADD11C,0.150000*%
G04 APERTURE END LIST*
D10*
D11*
X175000000Y-92500000D02*
G75*
G03X175000000Y-92500000I-7500000J0D01*
G01*
X161836748Y-98634656D02*
X161331672Y-99139732D01*
X161264329Y-99274420D01*
X161264329Y-99409107D01*
X161331672Y-99543794D01*
X161399016Y-99611137D01*
X161466359Y-98398954D02*
X161466359Y-98331610D01*
X161432688Y-98230595D01*
X161264328Y-98062236D01*
X161163313Y-98028564D01*
X161095970Y-98028564D01*
X160994954Y-98062236D01*
X160927611Y-98129579D01*
X160860268Y-98264266D01*
X160860268Y-99072389D01*
X160422535Y-98634656D01*
M02*
