G04 #@! TF.FileFunction,Legend,Top*
%FSLAX46Y46*%
G04 Gerber Fmt 4.6, Leading zero omitted, Abs format (unit mm)*
G04 Created by KiCad (PCBNEW 4.0.7) date 04/05/19 17:56:44*
%MOMM*%
%LPD*%
G01*
G04 APERTURE LIST*
%ADD10C,0.100000*%
%ADD11C,0.125000*%
%ADD12C,0.200000*%
%ADD13C,0.150000*%
%ADD14C,0.300000*%
%ADD15C,0.120000*%
G04 APERTURE END LIST*
D10*
D11*
X201019047Y-95350000D02*
X200971428Y-95326190D01*
X200900000Y-95326190D01*
X200828571Y-95350000D01*
X200780952Y-95397619D01*
X200757143Y-95445238D01*
X200733333Y-95540476D01*
X200733333Y-95611905D01*
X200757143Y-95707143D01*
X200780952Y-95754762D01*
X200828571Y-95802381D01*
X200900000Y-95826190D01*
X200947619Y-95826190D01*
X201019047Y-95802381D01*
X201042857Y-95778571D01*
X201042857Y-95611905D01*
X200947619Y-95611905D01*
X201257143Y-95826190D02*
X201257143Y-95326190D01*
X201542857Y-95826190D01*
X201542857Y-95326190D01*
X201780953Y-95826190D02*
X201780953Y-95326190D01*
X201900000Y-95326190D01*
X201971429Y-95350000D01*
X202019048Y-95397619D01*
X202042857Y-95445238D01*
X202066667Y-95540476D01*
X202066667Y-95611905D01*
X202042857Y-95707143D01*
X202019048Y-95754762D01*
X201971429Y-95802381D01*
X201900000Y-95826190D01*
X201780953Y-95826190D01*
X200792858Y-93102381D02*
X200864287Y-93126190D01*
X200983334Y-93126190D01*
X201030953Y-93102381D01*
X201054763Y-93078571D01*
X201078572Y-93030952D01*
X201078572Y-92983333D01*
X201054763Y-92935714D01*
X201030953Y-92911905D01*
X200983334Y-92888095D01*
X200888096Y-92864286D01*
X200840477Y-92840476D01*
X200816668Y-92816667D01*
X200792858Y-92769048D01*
X200792858Y-92721429D01*
X200816668Y-92673810D01*
X200840477Y-92650000D01*
X200888096Y-92626190D01*
X201007144Y-92626190D01*
X201078572Y-92650000D01*
X201292858Y-93126190D02*
X201292858Y-92626190D01*
X201411905Y-92626190D01*
X201483334Y-92650000D01*
X201530953Y-92697619D01*
X201554762Y-92745238D01*
X201578572Y-92840476D01*
X201578572Y-92911905D01*
X201554762Y-93007143D01*
X201530953Y-93054762D01*
X201483334Y-93102381D01*
X201411905Y-93126190D01*
X201292858Y-93126190D01*
X201769048Y-92983333D02*
X202007143Y-92983333D01*
X201721429Y-93126190D02*
X201888096Y-92626190D01*
X202054762Y-93126190D01*
X200733334Y-87426190D02*
X200900001Y-87926190D01*
X201066667Y-87426190D01*
X201519048Y-87878571D02*
X201495238Y-87902381D01*
X201423810Y-87926190D01*
X201376191Y-87926190D01*
X201304762Y-87902381D01*
X201257143Y-87854762D01*
X201233334Y-87807143D01*
X201209524Y-87711905D01*
X201209524Y-87640476D01*
X201233334Y-87545238D01*
X201257143Y-87497619D01*
X201304762Y-87450000D01*
X201376191Y-87426190D01*
X201423810Y-87426190D01*
X201495238Y-87450000D01*
X201519048Y-87473810D01*
X202019048Y-87878571D02*
X201995238Y-87902381D01*
X201923810Y-87926190D01*
X201876191Y-87926190D01*
X201804762Y-87902381D01*
X201757143Y-87854762D01*
X201733334Y-87807143D01*
X201709524Y-87711905D01*
X201709524Y-87640476D01*
X201733334Y-87545238D01*
X201757143Y-87497619D01*
X201804762Y-87450000D01*
X201876191Y-87426190D01*
X201923810Y-87426190D01*
X201995238Y-87450000D01*
X202019048Y-87473810D01*
X200804762Y-90302381D02*
X200876191Y-90326190D01*
X200995238Y-90326190D01*
X201042857Y-90302381D01*
X201066667Y-90278571D01*
X201090476Y-90230952D01*
X201090476Y-90183333D01*
X201066667Y-90135714D01*
X201042857Y-90111905D01*
X200995238Y-90088095D01*
X200900000Y-90064286D01*
X200852381Y-90040476D01*
X200828572Y-90016667D01*
X200804762Y-89969048D01*
X200804762Y-89921429D01*
X200828572Y-89873810D01*
X200852381Y-89850000D01*
X200900000Y-89826190D01*
X201019048Y-89826190D01*
X201090476Y-89850000D01*
X201590476Y-90278571D02*
X201566666Y-90302381D01*
X201495238Y-90326190D01*
X201447619Y-90326190D01*
X201376190Y-90302381D01*
X201328571Y-90254762D01*
X201304762Y-90207143D01*
X201280952Y-90111905D01*
X201280952Y-90040476D01*
X201304762Y-89945238D01*
X201328571Y-89897619D01*
X201376190Y-89850000D01*
X201447619Y-89826190D01*
X201495238Y-89826190D01*
X201566666Y-89850000D01*
X201590476Y-89873810D01*
X202042857Y-90326190D02*
X201804762Y-90326190D01*
X201804762Y-89826190D01*
X185792858Y-97802381D02*
X185864287Y-97826190D01*
X185983334Y-97826190D01*
X186030953Y-97802381D01*
X186054763Y-97778571D01*
X186078572Y-97730952D01*
X186078572Y-97683333D01*
X186054763Y-97635714D01*
X186030953Y-97611905D01*
X185983334Y-97588095D01*
X185888096Y-97564286D01*
X185840477Y-97540476D01*
X185816668Y-97516667D01*
X185792858Y-97469048D01*
X185792858Y-97421429D01*
X185816668Y-97373810D01*
X185840477Y-97350000D01*
X185888096Y-97326190D01*
X186007144Y-97326190D01*
X186078572Y-97350000D01*
X186292858Y-97826190D02*
X186292858Y-97326190D01*
X186411905Y-97326190D01*
X186483334Y-97350000D01*
X186530953Y-97397619D01*
X186554762Y-97445238D01*
X186578572Y-97540476D01*
X186578572Y-97611905D01*
X186554762Y-97707143D01*
X186530953Y-97754762D01*
X186483334Y-97802381D01*
X186411905Y-97826190D01*
X186292858Y-97826190D01*
X186769048Y-97683333D02*
X187007143Y-97683333D01*
X186721429Y-97826190D02*
X186888096Y-97326190D01*
X187054762Y-97826190D01*
X183104762Y-97802381D02*
X183176191Y-97826190D01*
X183295238Y-97826190D01*
X183342857Y-97802381D01*
X183366667Y-97778571D01*
X183390476Y-97730952D01*
X183390476Y-97683333D01*
X183366667Y-97635714D01*
X183342857Y-97611905D01*
X183295238Y-97588095D01*
X183200000Y-97564286D01*
X183152381Y-97540476D01*
X183128572Y-97516667D01*
X183104762Y-97469048D01*
X183104762Y-97421429D01*
X183128572Y-97373810D01*
X183152381Y-97350000D01*
X183200000Y-97326190D01*
X183319048Y-97326190D01*
X183390476Y-97350000D01*
X183890476Y-97778571D02*
X183866666Y-97802381D01*
X183795238Y-97826190D01*
X183747619Y-97826190D01*
X183676190Y-97802381D01*
X183628571Y-97754762D01*
X183604762Y-97707143D01*
X183580952Y-97611905D01*
X183580952Y-97540476D01*
X183604762Y-97445238D01*
X183628571Y-97397619D01*
X183676190Y-97350000D01*
X183747619Y-97326190D01*
X183795238Y-97326190D01*
X183866666Y-97350000D01*
X183890476Y-97373810D01*
X184342857Y-97826190D02*
X184104762Y-97826190D01*
X184104762Y-97326190D01*
X150692858Y-97802381D02*
X150764287Y-97826190D01*
X150883334Y-97826190D01*
X150930953Y-97802381D01*
X150954763Y-97778571D01*
X150978572Y-97730952D01*
X150978572Y-97683333D01*
X150954763Y-97635714D01*
X150930953Y-97611905D01*
X150883334Y-97588095D01*
X150788096Y-97564286D01*
X150740477Y-97540476D01*
X150716668Y-97516667D01*
X150692858Y-97469048D01*
X150692858Y-97421429D01*
X150716668Y-97373810D01*
X150740477Y-97350000D01*
X150788096Y-97326190D01*
X150907144Y-97326190D01*
X150978572Y-97350000D01*
X151192858Y-97826190D02*
X151192858Y-97326190D01*
X151311905Y-97326190D01*
X151383334Y-97350000D01*
X151430953Y-97397619D01*
X151454762Y-97445238D01*
X151478572Y-97540476D01*
X151478572Y-97611905D01*
X151454762Y-97707143D01*
X151430953Y-97754762D01*
X151383334Y-97802381D01*
X151311905Y-97826190D01*
X151192858Y-97826190D01*
X151669048Y-97683333D02*
X151907143Y-97683333D01*
X151621429Y-97826190D02*
X151788096Y-97326190D01*
X151954762Y-97826190D01*
X148104762Y-97802381D02*
X148176191Y-97826190D01*
X148295238Y-97826190D01*
X148342857Y-97802381D01*
X148366667Y-97778571D01*
X148390476Y-97730952D01*
X148390476Y-97683333D01*
X148366667Y-97635714D01*
X148342857Y-97611905D01*
X148295238Y-97588095D01*
X148200000Y-97564286D01*
X148152381Y-97540476D01*
X148128572Y-97516667D01*
X148104762Y-97469048D01*
X148104762Y-97421429D01*
X148128572Y-97373810D01*
X148152381Y-97350000D01*
X148200000Y-97326190D01*
X148319048Y-97326190D01*
X148390476Y-97350000D01*
X148890476Y-97778571D02*
X148866666Y-97802381D01*
X148795238Y-97826190D01*
X148747619Y-97826190D01*
X148676190Y-97802381D01*
X148628571Y-97754762D01*
X148604762Y-97707143D01*
X148580952Y-97611905D01*
X148580952Y-97540476D01*
X148604762Y-97445238D01*
X148628571Y-97397619D01*
X148676190Y-97350000D01*
X148747619Y-97326190D01*
X148795238Y-97326190D01*
X148866666Y-97350000D01*
X148890476Y-97373810D01*
X149342857Y-97826190D02*
X149104762Y-97826190D01*
X149104762Y-97326190D01*
D12*
X190200000Y-80300000D02*
X193100000Y-83200000D01*
X187200000Y-83300000D02*
X190200000Y-80300000D01*
X188200000Y-83300000D02*
X187200000Y-83300000D01*
X188200000Y-88400000D02*
X188200000Y-83300000D01*
X192100000Y-83200000D02*
X193100000Y-83200000D01*
X192100000Y-88400000D02*
X192100000Y-83200000D01*
X188200000Y-88400000D02*
X192100000Y-88400000D01*
X194300000Y-81857143D02*
X194252381Y-81904762D01*
X194109524Y-81952381D01*
X194014286Y-81952381D01*
X193871428Y-81904762D01*
X193776190Y-81809524D01*
X193728571Y-81714286D01*
X193680952Y-81523810D01*
X193680952Y-81380952D01*
X193728571Y-81190476D01*
X193776190Y-81095238D01*
X193871428Y-81000000D01*
X194014286Y-80952381D01*
X194109524Y-80952381D01*
X194252381Y-81000000D01*
X194300000Y-81047619D01*
X194728571Y-81428571D02*
X195061905Y-81428571D01*
X195204762Y-81952381D02*
X194728571Y-81952381D01*
X194728571Y-80952381D01*
X195204762Y-80952381D01*
X195633333Y-81952381D02*
X195633333Y-80952381D01*
X196204762Y-81952381D01*
X196204762Y-80952381D01*
X196538095Y-80952381D02*
X197109524Y-80952381D01*
X196823809Y-81952381D02*
X196823809Y-80952381D01*
X197442857Y-81428571D02*
X197776191Y-81428571D01*
X197919048Y-81952381D02*
X197442857Y-81952381D01*
X197442857Y-80952381D01*
X197919048Y-80952381D01*
X198919048Y-81952381D02*
X198585714Y-81476190D01*
X198347619Y-81952381D02*
X198347619Y-80952381D01*
X198728572Y-80952381D01*
X198823810Y-81000000D01*
X198871429Y-81047619D01*
X198919048Y-81142857D01*
X198919048Y-81285714D01*
X198871429Y-81380952D01*
X198823810Y-81428571D01*
X198728572Y-81476190D01*
X198347619Y-81476190D01*
D13*
X163252381Y-92833333D02*
X163966667Y-92833333D01*
X164109524Y-92880953D01*
X164204762Y-92976191D01*
X164252381Y-93119048D01*
X164252381Y-93214286D01*
X163347619Y-92404762D02*
X163300000Y-92357143D01*
X163252381Y-92261905D01*
X163252381Y-92023809D01*
X163300000Y-91928571D01*
X163347619Y-91880952D01*
X163442857Y-91833333D01*
X163538095Y-91833333D01*
X163680952Y-91880952D01*
X164252381Y-92452381D01*
X164252381Y-91833333D01*
D12*
X156823809Y-104233333D02*
X156776189Y-104185714D01*
X156680951Y-104042857D01*
X156633332Y-103947619D01*
X156585713Y-103804762D01*
X156538094Y-103566667D01*
X156538094Y-103376190D01*
X156585713Y-103138095D01*
X156633332Y-102995238D01*
X156680951Y-102900000D01*
X156776189Y-102757143D01*
X156823809Y-102709524D01*
X157633333Y-103804762D02*
X157538095Y-103852381D01*
X157347618Y-103852381D01*
X157252380Y-103804762D01*
X157204761Y-103757143D01*
X157157142Y-103661905D01*
X157157142Y-103376190D01*
X157204761Y-103280952D01*
X157252380Y-103233333D01*
X157347618Y-103185714D01*
X157538095Y-103185714D01*
X157633333Y-103233333D01*
X157966666Y-104233333D02*
X158014285Y-104185714D01*
X158109523Y-104042857D01*
X158157142Y-103947619D01*
X158204761Y-103804762D01*
X158252380Y-103566667D01*
X158252380Y-103376190D01*
X158204761Y-103138095D01*
X158157142Y-102995238D01*
X158109523Y-102900000D01*
X158014285Y-102757143D01*
X157966666Y-102709524D01*
X159442857Y-102947619D02*
X159490476Y-102900000D01*
X159585714Y-102852381D01*
X159823810Y-102852381D01*
X159919048Y-102900000D01*
X159966667Y-102947619D01*
X160014286Y-103042857D01*
X160014286Y-103138095D01*
X159966667Y-103280952D01*
X159395238Y-103852381D01*
X160014286Y-103852381D01*
X160633333Y-102852381D02*
X160728572Y-102852381D01*
X160823810Y-102900000D01*
X160871429Y-102947619D01*
X160919048Y-103042857D01*
X160966667Y-103233333D01*
X160966667Y-103471429D01*
X160919048Y-103661905D01*
X160871429Y-103757143D01*
X160823810Y-103804762D01*
X160728572Y-103852381D01*
X160633333Y-103852381D01*
X160538095Y-103804762D01*
X160490476Y-103757143D01*
X160442857Y-103661905D01*
X160395238Y-103471429D01*
X160395238Y-103233333D01*
X160442857Y-103042857D01*
X160490476Y-102947619D01*
X160538095Y-102900000D01*
X160633333Y-102852381D01*
X161919048Y-103852381D02*
X161347619Y-103852381D01*
X161633333Y-103852381D02*
X161633333Y-102852381D01*
X161538095Y-102995238D01*
X161442857Y-103090476D01*
X161347619Y-103138095D01*
X162395238Y-103852381D02*
X162585714Y-103852381D01*
X162680953Y-103804762D01*
X162728572Y-103757143D01*
X162823810Y-103614286D01*
X162871429Y-103423810D01*
X162871429Y-103042857D01*
X162823810Y-102947619D01*
X162776191Y-102900000D01*
X162680953Y-102852381D01*
X162490476Y-102852381D01*
X162395238Y-102900000D01*
X162347619Y-102947619D01*
X162300000Y-103042857D01*
X162300000Y-103280952D01*
X162347619Y-103376190D01*
X162395238Y-103423810D01*
X162490476Y-103471429D01*
X162680953Y-103471429D01*
X162776191Y-103423810D01*
X162823810Y-103376190D01*
X162871429Y-103280952D01*
X164061905Y-103852381D02*
X164061905Y-102852381D01*
X164442858Y-102852381D01*
X164538096Y-102900000D01*
X164585715Y-102947619D01*
X164633334Y-103042857D01*
X164633334Y-103185714D01*
X164585715Y-103280952D01*
X164538096Y-103328571D01*
X164442858Y-103376190D01*
X164061905Y-103376190D01*
X165061905Y-103328571D02*
X165395239Y-103328571D01*
X165538096Y-103852381D02*
X165061905Y-103852381D01*
X165061905Y-102852381D01*
X165538096Y-102852381D01*
X165966667Y-102852381D02*
X165966667Y-103661905D01*
X166014286Y-103757143D01*
X166061905Y-103804762D01*
X166157143Y-103852381D01*
X166347620Y-103852381D01*
X166442858Y-103804762D01*
X166490477Y-103757143D01*
X166538096Y-103661905D01*
X166538096Y-102852381D01*
X166966667Y-103804762D02*
X167109524Y-103852381D01*
X167347620Y-103852381D01*
X167442858Y-103804762D01*
X167490477Y-103757143D01*
X167538096Y-103661905D01*
X167538096Y-103566667D01*
X167490477Y-103471429D01*
X167442858Y-103423810D01*
X167347620Y-103376190D01*
X167157143Y-103328571D01*
X167061905Y-103280952D01*
X167014286Y-103233333D01*
X166966667Y-103138095D01*
X166966667Y-103042857D01*
X167014286Y-102947619D01*
X167061905Y-102900000D01*
X167157143Y-102852381D01*
X167395239Y-102852381D01*
X167538096Y-102900000D01*
X167966667Y-103471429D02*
X168728572Y-103471429D01*
X169061905Y-102852381D02*
X169633334Y-102852381D01*
X169347619Y-103852381D02*
X169347619Y-102852381D01*
X170347620Y-103804762D02*
X170252382Y-103852381D01*
X170061905Y-103852381D01*
X169966667Y-103804762D01*
X169919048Y-103709524D01*
X169919048Y-103328571D01*
X169966667Y-103233333D01*
X170061905Y-103185714D01*
X170252382Y-103185714D01*
X170347620Y-103233333D01*
X170395239Y-103328571D01*
X170395239Y-103423810D01*
X169919048Y-103519048D01*
X170776191Y-103804762D02*
X170871429Y-103852381D01*
X171061905Y-103852381D01*
X171157144Y-103804762D01*
X171204763Y-103709524D01*
X171204763Y-103661905D01*
X171157144Y-103566667D01*
X171061905Y-103519048D01*
X170919048Y-103519048D01*
X170823810Y-103471429D01*
X170776191Y-103376190D01*
X170776191Y-103328571D01*
X170823810Y-103233333D01*
X170919048Y-103185714D01*
X171061905Y-103185714D01*
X171157144Y-103233333D01*
X171490477Y-103185714D02*
X171871429Y-103185714D01*
X171633334Y-102852381D02*
X171633334Y-103709524D01*
X171680953Y-103804762D01*
X171776191Y-103852381D01*
X171871429Y-103852381D01*
X172204763Y-103852381D02*
X172204763Y-103185714D01*
X172204763Y-102852381D02*
X172157144Y-102900000D01*
X172204763Y-102947619D01*
X172252382Y-102900000D01*
X172204763Y-102852381D01*
X172204763Y-102947619D01*
X172680953Y-103185714D02*
X172680953Y-103852381D01*
X172680953Y-103280952D02*
X172728572Y-103233333D01*
X172823810Y-103185714D01*
X172966668Y-103185714D01*
X173061906Y-103233333D01*
X173109525Y-103328571D01*
X173109525Y-103852381D01*
X174014287Y-103185714D02*
X174014287Y-103995238D01*
X173966668Y-104090476D01*
X173919049Y-104138095D01*
X173823810Y-104185714D01*
X173680953Y-104185714D01*
X173585715Y-104138095D01*
X174014287Y-103804762D02*
X173919049Y-103852381D01*
X173728572Y-103852381D01*
X173633334Y-103804762D01*
X173585715Y-103757143D01*
X173538096Y-103661905D01*
X173538096Y-103376190D01*
X173585715Y-103280952D01*
X173633334Y-103233333D01*
X173728572Y-103185714D01*
X173919049Y-103185714D01*
X174014287Y-103233333D01*
X175776192Y-102900000D02*
X175680954Y-102852381D01*
X175538097Y-102852381D01*
X175395239Y-102900000D01*
X175300001Y-102995238D01*
X175252382Y-103090476D01*
X175204763Y-103280952D01*
X175204763Y-103423810D01*
X175252382Y-103614286D01*
X175300001Y-103709524D01*
X175395239Y-103804762D01*
X175538097Y-103852381D01*
X175633335Y-103852381D01*
X175776192Y-103804762D01*
X175823811Y-103757143D01*
X175823811Y-103423810D01*
X175633335Y-103423810D01*
X176252382Y-103852381D02*
X176252382Y-103185714D01*
X176252382Y-103280952D02*
X176300001Y-103233333D01*
X176395239Y-103185714D01*
X176538097Y-103185714D01*
X176633335Y-103233333D01*
X176680954Y-103328571D01*
X176680954Y-103852381D01*
X176680954Y-103328571D02*
X176728573Y-103233333D01*
X176823811Y-103185714D01*
X176966668Y-103185714D01*
X177061906Y-103233333D01*
X177109525Y-103328571D01*
X177109525Y-103852381D01*
X177585715Y-103852381D02*
X177585715Y-102852381D01*
X177585715Y-103233333D02*
X177680953Y-103185714D01*
X177871430Y-103185714D01*
X177966668Y-103233333D01*
X178014287Y-103280952D01*
X178061906Y-103376190D01*
X178061906Y-103661905D01*
X178014287Y-103757143D01*
X177966668Y-103804762D01*
X177871430Y-103852381D01*
X177680953Y-103852381D01*
X177585715Y-103804762D01*
X178490477Y-103852381D02*
X178490477Y-102852381D01*
X178490477Y-103328571D02*
X179061906Y-103328571D01*
X179061906Y-103852381D02*
X179061906Y-102852381D01*
X141123809Y-81752381D02*
X141123809Y-80752381D01*
X141504762Y-80752381D01*
X141600000Y-80800000D01*
X141647619Y-80847619D01*
X141695238Y-80942857D01*
X141695238Y-81085714D01*
X141647619Y-81180952D01*
X141600000Y-81228571D01*
X141504762Y-81276190D01*
X141123809Y-81276190D01*
X142076190Y-81466667D02*
X142552381Y-81466667D01*
X141980952Y-81752381D02*
X142314285Y-80752381D01*
X142647619Y-81752381D01*
X143552381Y-81657143D02*
X143504762Y-81704762D01*
X143361905Y-81752381D01*
X143266667Y-81752381D01*
X143123809Y-81704762D01*
X143028571Y-81609524D01*
X142980952Y-81514286D01*
X142933333Y-81323810D01*
X142933333Y-81180952D01*
X142980952Y-80990476D01*
X143028571Y-80895238D01*
X143123809Y-80800000D01*
X143266667Y-80752381D01*
X143361905Y-80752381D01*
X143504762Y-80800000D01*
X143552381Y-80847619D01*
X143980952Y-81752381D02*
X143980952Y-80752381D01*
X144552381Y-81752381D02*
X144123809Y-81180952D01*
X144552381Y-80752381D02*
X143980952Y-81323810D01*
X145742857Y-81371429D02*
X146504762Y-81371429D01*
X147600000Y-80752381D02*
X148171429Y-80752381D01*
X147885714Y-81752381D02*
X147885714Y-80752381D01*
X148695238Y-80752381D02*
X148885715Y-80752381D01*
X148980953Y-80800000D01*
X149076191Y-80895238D01*
X149123810Y-81085714D01*
X149123810Y-81419048D01*
X149076191Y-81609524D01*
X148980953Y-81704762D01*
X148885715Y-81752381D01*
X148695238Y-81752381D01*
X148600000Y-81704762D01*
X148504762Y-81609524D01*
X148457143Y-81419048D01*
X148457143Y-81085714D01*
X148504762Y-80895238D01*
X148600000Y-80800000D01*
X148695238Y-80752381D01*
X150314286Y-81371429D02*
X151076191Y-81371429D01*
X152314286Y-81752381D02*
X152314286Y-80752381D01*
X152695239Y-80752381D01*
X152790477Y-80800000D01*
X152838096Y-80847619D01*
X152885715Y-80942857D01*
X152885715Y-81085714D01*
X152838096Y-81180952D01*
X152790477Y-81228571D01*
X152695239Y-81276190D01*
X152314286Y-81276190D01*
X153266667Y-81466667D02*
X153742858Y-81466667D01*
X153171429Y-81752381D02*
X153504762Y-80752381D01*
X153838096Y-81752381D01*
X154742858Y-81657143D02*
X154695239Y-81704762D01*
X154552382Y-81752381D01*
X154457144Y-81752381D01*
X154314286Y-81704762D01*
X154219048Y-81609524D01*
X154171429Y-81514286D01*
X154123810Y-81323810D01*
X154123810Y-81180952D01*
X154171429Y-80990476D01*
X154219048Y-80895238D01*
X154314286Y-80800000D01*
X154457144Y-80752381D01*
X154552382Y-80752381D01*
X154695239Y-80800000D01*
X154742858Y-80847619D01*
X155171429Y-81752381D02*
X155171429Y-80752381D01*
X155742858Y-81752381D02*
X155314286Y-81180952D01*
X155742858Y-80752381D02*
X155171429Y-81323810D01*
X157504763Y-81657143D02*
X157457144Y-81704762D01*
X157314287Y-81752381D01*
X157219049Y-81752381D01*
X157076191Y-81704762D01*
X156980953Y-81609524D01*
X156933334Y-81514286D01*
X156885715Y-81323810D01*
X156885715Y-81180952D01*
X156933334Y-80990476D01*
X156980953Y-80895238D01*
X157076191Y-80800000D01*
X157219049Y-80752381D01*
X157314287Y-80752381D01*
X157457144Y-80800000D01*
X157504763Y-80847619D01*
X158123810Y-80752381D02*
X158314287Y-80752381D01*
X158409525Y-80800000D01*
X158504763Y-80895238D01*
X158552382Y-81085714D01*
X158552382Y-81419048D01*
X158504763Y-81609524D01*
X158409525Y-81704762D01*
X158314287Y-81752381D01*
X158123810Y-81752381D01*
X158028572Y-81704762D01*
X157933334Y-81609524D01*
X157885715Y-81419048D01*
X157885715Y-81085714D01*
X157933334Y-80895238D01*
X158028572Y-80800000D01*
X158123810Y-80752381D01*
X158980953Y-81752381D02*
X158980953Y-80752381D01*
X159552382Y-81752381D01*
X159552382Y-80752381D01*
X160028572Y-81752381D02*
X160028572Y-80752381D01*
X160600001Y-81752381D01*
X160600001Y-80752381D01*
X161076191Y-81228571D02*
X161409525Y-81228571D01*
X161552382Y-81752381D02*
X161076191Y-81752381D01*
X161076191Y-80752381D01*
X161552382Y-80752381D01*
X162552382Y-81657143D02*
X162504763Y-81704762D01*
X162361906Y-81752381D01*
X162266668Y-81752381D01*
X162123810Y-81704762D01*
X162028572Y-81609524D01*
X161980953Y-81514286D01*
X161933334Y-81323810D01*
X161933334Y-81180952D01*
X161980953Y-80990476D01*
X162028572Y-80895238D01*
X162123810Y-80800000D01*
X162266668Y-80752381D01*
X162361906Y-80752381D01*
X162504763Y-80800000D01*
X162552382Y-80847619D01*
X162838096Y-80752381D02*
X163409525Y-80752381D01*
X163123810Y-81752381D02*
X163123810Y-80752381D01*
X163933334Y-80752381D02*
X164123811Y-80752381D01*
X164219049Y-80800000D01*
X164314287Y-80895238D01*
X164361906Y-81085714D01*
X164361906Y-81419048D01*
X164314287Y-81609524D01*
X164219049Y-81704762D01*
X164123811Y-81752381D01*
X163933334Y-81752381D01*
X163838096Y-81704762D01*
X163742858Y-81609524D01*
X163695239Y-81419048D01*
X163695239Y-81085714D01*
X163742858Y-80895238D01*
X163838096Y-80800000D01*
X163933334Y-80752381D01*
X165361906Y-81752381D02*
X165028572Y-81276190D01*
X164790477Y-81752381D02*
X164790477Y-80752381D01*
X165171430Y-80752381D01*
X165266668Y-80800000D01*
X165314287Y-80847619D01*
X165361906Y-80942857D01*
X165361906Y-81085714D01*
X165314287Y-81180952D01*
X165266668Y-81228571D01*
X165171430Y-81276190D01*
X164790477Y-81276190D01*
X167123811Y-81752381D02*
X166790477Y-81276190D01*
X166552382Y-81752381D02*
X166552382Y-80752381D01*
X166933335Y-80752381D01*
X167028573Y-80800000D01*
X167076192Y-80847619D01*
X167123811Y-80942857D01*
X167123811Y-81085714D01*
X167076192Y-81180952D01*
X167028573Y-81228571D01*
X166933335Y-81276190D01*
X166552382Y-81276190D01*
X167552382Y-81228571D02*
X167885716Y-81228571D01*
X168028573Y-81752381D02*
X167552382Y-81752381D01*
X167552382Y-80752381D01*
X168028573Y-80752381D01*
X168314287Y-80752381D02*
X168647620Y-81752381D01*
X168980954Y-80752381D01*
X169314287Y-81657143D02*
X169361906Y-81704762D01*
X169314287Y-81752381D01*
X169266668Y-81704762D01*
X169314287Y-81657143D01*
X169314287Y-81752381D01*
X170885716Y-81228571D02*
X171028573Y-81276190D01*
X171076192Y-81323810D01*
X171123811Y-81419048D01*
X171123811Y-81561905D01*
X171076192Y-81657143D01*
X171028573Y-81704762D01*
X170933335Y-81752381D01*
X170552382Y-81752381D01*
X170552382Y-80752381D01*
X170885716Y-80752381D01*
X170980954Y-80800000D01*
X171028573Y-80847619D01*
X171076192Y-80942857D01*
X171076192Y-81038095D01*
X171028573Y-81133333D01*
X170980954Y-81180952D01*
X170885716Y-81228571D01*
X170552382Y-81228571D01*
D14*
X160178571Y-96699999D02*
X160178571Y-95771428D01*
X160750000Y-96271428D01*
X160750000Y-96057142D01*
X160821429Y-95914285D01*
X160892857Y-95842856D01*
X161035714Y-95771428D01*
X161392857Y-95771428D01*
X161535714Y-95842856D01*
X161607143Y-95914285D01*
X161678571Y-96057142D01*
X161678571Y-96485714D01*
X161607143Y-96628571D01*
X161535714Y-96699999D01*
X160321429Y-89328571D02*
X160250000Y-89257142D01*
X160178571Y-89114285D01*
X160178571Y-88757142D01*
X160250000Y-88614285D01*
X160321429Y-88542856D01*
X160464286Y-88471428D01*
X160607143Y-88471428D01*
X160821429Y-88542856D01*
X161678571Y-89399999D01*
X161678571Y-88471428D01*
X173878571Y-95814285D02*
X174878571Y-95814285D01*
X173307143Y-96171428D02*
X174378571Y-96528571D01*
X174378571Y-95599999D01*
X174578571Y-88471428D02*
X174578571Y-89328571D01*
X174578571Y-88899999D02*
X173078571Y-88899999D01*
X173292857Y-89042856D01*
X173435714Y-89185714D01*
X173507143Y-89328571D01*
D13*
X213250000Y-100120000D02*
X223650000Y-100120000D01*
X202850000Y-100120000D02*
X213250000Y-100120000D01*
X202750000Y-92500000D02*
X202750000Y-100120000D01*
X223650000Y-100120000D02*
X223650000Y-92500000D01*
X223650000Y-84880000D02*
X223650000Y-92500000D01*
X202750000Y-92500000D02*
X202750000Y-84880000D01*
X202850000Y-84880000D02*
X213250000Y-84880000D01*
X213250000Y-84880000D02*
X223650000Y-84880000D01*
X191464000Y-104040000D02*
X191464000Y-98960000D01*
X191464000Y-98960000D02*
X196036000Y-98960000D01*
X196036000Y-98960000D02*
X196036000Y-104040000D01*
X196036000Y-104040000D02*
X191464000Y-104040000D01*
X192988000Y-104040000D02*
X192988000Y-103532000D01*
X192988000Y-103532000D02*
X194258000Y-103532000D01*
X194258000Y-103532000D02*
X194258000Y-104040000D01*
X152000000Y-90500000D02*
X155700000Y-90500000D01*
X155700000Y-90500000D02*
X155700000Y-94300000D01*
X155700000Y-94300000D02*
X152000000Y-94300000D01*
X152000000Y-94300000D02*
X152000000Y-95500000D01*
X148000000Y-90500000D02*
X144300000Y-90500000D01*
X144300000Y-90500000D02*
X144300000Y-94300000D01*
X144300000Y-94300000D02*
X148000000Y-94300000D01*
X148000000Y-94300000D02*
X148000000Y-95500000D01*
X148000000Y-95500000D02*
G75*
G03X152000000Y-95500000I2000000J2000000D01*
G01*
X187000000Y-90500000D02*
X190700000Y-90500000D01*
X190700000Y-90500000D02*
X190700000Y-94300000D01*
X190700000Y-94300000D02*
X187000000Y-94300000D01*
X187000000Y-94300000D02*
X187000000Y-95500000D01*
X183000000Y-90500000D02*
X179300000Y-90500000D01*
X179300000Y-90500000D02*
X179300000Y-94300000D01*
X179300000Y-94300000D02*
X183000000Y-94300000D01*
X183000000Y-94300000D02*
X183000000Y-95500000D01*
X183000000Y-95500000D02*
G75*
G03X187000000Y-95500000I2000000J2000000D01*
G01*
D15*
X195470000Y-86460000D02*
X198130000Y-86460000D01*
X195470000Y-96740000D02*
X198130000Y-96740000D01*
X198130000Y-88550000D02*
X198130000Y-92110000D01*
X198130000Y-93630000D02*
X198130000Y-96740000D01*
X195470000Y-86460000D02*
X195470000Y-89570000D01*
X198130000Y-87030000D02*
X199650000Y-87030000D01*
X198130000Y-86460000D02*
X198130000Y-87030000D01*
X195470000Y-96170000D02*
X195470000Y-96740000D01*
X195470000Y-91090000D02*
X195470000Y-94650000D01*
X147400000Y-102730000D02*
X147400000Y-100070000D01*
X152600000Y-102730000D02*
X152600000Y-100070000D01*
X149490000Y-100070000D02*
X152600000Y-100070000D01*
X147400000Y-102730000D02*
X150510000Y-102730000D01*
X147970000Y-100070000D02*
X147970000Y-98550000D01*
X147400000Y-100070000D02*
X147970000Y-100070000D01*
X152030000Y-102730000D02*
X152600000Y-102730000D01*
X182400000Y-102730000D02*
X182400000Y-100070000D01*
X187600000Y-102730000D02*
X187600000Y-100070000D01*
X184490000Y-100070000D02*
X187600000Y-100070000D01*
X182400000Y-102730000D02*
X185510000Y-102730000D01*
X182970000Y-100070000D02*
X182970000Y-98550000D01*
X182400000Y-100070000D02*
X182970000Y-100070000D01*
X187030000Y-102730000D02*
X187600000Y-102730000D01*
X181720000Y-86500000D02*
X181720000Y-85500000D01*
X183080000Y-85500000D02*
X183080000Y-86500000D01*
X183080000Y-81500000D02*
X183080000Y-82500000D01*
X181720000Y-82500000D02*
X181720000Y-81500000D01*
X175180000Y-81500000D02*
X175180000Y-82500000D01*
X173820000Y-82500000D02*
X173820000Y-81500000D01*
X179080000Y-81500000D02*
X179080000Y-82500000D01*
X177720000Y-82500000D02*
X177720000Y-81500000D01*
X173820000Y-86500000D02*
X173820000Y-85500000D01*
X175180000Y-85500000D02*
X175180000Y-86500000D01*
X177720000Y-86500000D02*
X177720000Y-85500000D01*
X179080000Y-85500000D02*
X179080000Y-86500000D01*
D13*
X213718381Y-92833333D02*
X214432667Y-92833333D01*
X214575524Y-92880953D01*
X214670762Y-92976191D01*
X214718381Y-93119048D01*
X214718381Y-93214286D01*
X214718381Y-91833333D02*
X214718381Y-92404762D01*
X214718381Y-92119048D02*
X213718381Y-92119048D01*
X213861238Y-92214286D01*
X213956476Y-92309524D01*
X214004095Y-92404762D01*
X191932381Y-102261905D02*
X192741905Y-102261905D01*
X192837143Y-102214286D01*
X192884762Y-102166667D01*
X192932381Y-102071429D01*
X192932381Y-101880952D01*
X192884762Y-101785714D01*
X192837143Y-101738095D01*
X192741905Y-101690476D01*
X191932381Y-101690476D01*
X192932381Y-100690476D02*
X192932381Y-101261905D01*
X192932381Y-100976191D02*
X191932381Y-100976191D01*
X192075238Y-101071429D01*
X192170476Y-101166667D01*
X192218095Y-101261905D01*
X145452381Y-92833333D02*
X146166667Y-92833333D01*
X146309524Y-92880953D01*
X146404762Y-92976191D01*
X146452381Y-93119048D01*
X146452381Y-93214286D01*
X145452381Y-92452381D02*
X145452381Y-91833333D01*
X145833333Y-92166667D01*
X145833333Y-92023809D01*
X145880952Y-91928571D01*
X145928571Y-91880952D01*
X146023810Y-91833333D01*
X146261905Y-91833333D01*
X146357143Y-91880952D01*
X146404762Y-91928571D01*
X146452381Y-92023809D01*
X146452381Y-92309524D01*
X146404762Y-92404762D01*
X146357143Y-92452381D01*
D11*
X151226190Y-89266666D02*
X151726190Y-89099999D01*
X151226190Y-88933333D01*
X151678571Y-88480952D02*
X151702381Y-88504762D01*
X151726190Y-88576190D01*
X151726190Y-88623809D01*
X151702381Y-88695238D01*
X151654762Y-88742857D01*
X151607143Y-88766666D01*
X151511905Y-88790476D01*
X151440476Y-88790476D01*
X151345238Y-88766666D01*
X151297619Y-88742857D01*
X151250000Y-88695238D01*
X151226190Y-88623809D01*
X151226190Y-88576190D01*
X151250000Y-88504762D01*
X151273810Y-88480952D01*
X151678571Y-87980952D02*
X151702381Y-88004762D01*
X151726190Y-88076190D01*
X151726190Y-88123809D01*
X151702381Y-88195238D01*
X151654762Y-88242857D01*
X151607143Y-88266666D01*
X151511905Y-88290476D01*
X151440476Y-88290476D01*
X151345238Y-88266666D01*
X151297619Y-88242857D01*
X151250000Y-88195238D01*
X151226190Y-88123809D01*
X151226190Y-88076190D01*
X151250000Y-88004762D01*
X151273810Y-87980952D01*
X150702381Y-89207142D02*
X150726190Y-89135713D01*
X150726190Y-89016666D01*
X150702381Y-88969047D01*
X150678571Y-88945237D01*
X150630952Y-88921428D01*
X150583333Y-88921428D01*
X150535714Y-88945237D01*
X150511905Y-88969047D01*
X150488095Y-89016666D01*
X150464286Y-89111904D01*
X150440476Y-89159523D01*
X150416667Y-89183332D01*
X150369048Y-89207142D01*
X150321429Y-89207142D01*
X150273810Y-89183332D01*
X150250000Y-89159523D01*
X150226190Y-89111904D01*
X150226190Y-88992856D01*
X150250000Y-88921428D01*
X150726190Y-88707142D02*
X150226190Y-88707142D01*
X150226190Y-88588095D01*
X150250000Y-88516666D01*
X150297619Y-88469047D01*
X150345238Y-88445238D01*
X150440476Y-88421428D01*
X150511905Y-88421428D01*
X150607143Y-88445238D01*
X150654762Y-88469047D01*
X150702381Y-88516666D01*
X150726190Y-88588095D01*
X150726190Y-88707142D01*
X150583333Y-88230952D02*
X150583333Y-87992857D01*
X150726190Y-88278571D02*
X150226190Y-88111904D01*
X150726190Y-87945238D01*
X149702381Y-89195238D02*
X149726190Y-89123809D01*
X149726190Y-89004762D01*
X149702381Y-88957143D01*
X149678571Y-88933333D01*
X149630952Y-88909524D01*
X149583333Y-88909524D01*
X149535714Y-88933333D01*
X149511905Y-88957143D01*
X149488095Y-89004762D01*
X149464286Y-89100000D01*
X149440476Y-89147619D01*
X149416667Y-89171428D01*
X149369048Y-89195238D01*
X149321429Y-89195238D01*
X149273810Y-89171428D01*
X149250000Y-89147619D01*
X149226190Y-89100000D01*
X149226190Y-88980952D01*
X149250000Y-88909524D01*
X149678571Y-88409524D02*
X149702381Y-88433334D01*
X149726190Y-88504762D01*
X149726190Y-88552381D01*
X149702381Y-88623810D01*
X149654762Y-88671429D01*
X149607143Y-88695238D01*
X149511905Y-88719048D01*
X149440476Y-88719048D01*
X149345238Y-88695238D01*
X149297619Y-88671429D01*
X149250000Y-88623810D01*
X149226190Y-88552381D01*
X149226190Y-88504762D01*
X149250000Y-88433334D01*
X149273810Y-88409524D01*
X149726190Y-87957143D02*
X149726190Y-88195238D01*
X149226190Y-88195238D01*
X148250000Y-88980953D02*
X148226190Y-89028572D01*
X148226190Y-89100000D01*
X148250000Y-89171429D01*
X148297619Y-89219048D01*
X148345238Y-89242857D01*
X148440476Y-89266667D01*
X148511905Y-89266667D01*
X148607143Y-89242857D01*
X148654762Y-89219048D01*
X148702381Y-89171429D01*
X148726190Y-89100000D01*
X148726190Y-89052381D01*
X148702381Y-88980953D01*
X148678571Y-88957143D01*
X148511905Y-88957143D01*
X148511905Y-89052381D01*
X148726190Y-88742857D02*
X148226190Y-88742857D01*
X148726190Y-88457143D01*
X148226190Y-88457143D01*
X148726190Y-88219047D02*
X148226190Y-88219047D01*
X148226190Y-88100000D01*
X148250000Y-88028571D01*
X148297619Y-87980952D01*
X148345238Y-87957143D01*
X148440476Y-87933333D01*
X148511905Y-87933333D01*
X148607143Y-87957143D01*
X148654762Y-87980952D01*
X148702381Y-88028571D01*
X148726190Y-88100000D01*
X148726190Y-88219047D01*
D13*
X180252381Y-92833333D02*
X180966667Y-92833333D01*
X181109524Y-92880953D01*
X181204762Y-92976191D01*
X181252381Y-93119048D01*
X181252381Y-93214286D01*
X180585714Y-91928571D02*
X181252381Y-91928571D01*
X180204762Y-92166667D02*
X180919048Y-92404762D01*
X180919048Y-91785714D01*
D11*
X186226190Y-89266666D02*
X186726190Y-89099999D01*
X186226190Y-88933333D01*
X186678571Y-88480952D02*
X186702381Y-88504762D01*
X186726190Y-88576190D01*
X186726190Y-88623809D01*
X186702381Y-88695238D01*
X186654762Y-88742857D01*
X186607143Y-88766666D01*
X186511905Y-88790476D01*
X186440476Y-88790476D01*
X186345238Y-88766666D01*
X186297619Y-88742857D01*
X186250000Y-88695238D01*
X186226190Y-88623809D01*
X186226190Y-88576190D01*
X186250000Y-88504762D01*
X186273810Y-88480952D01*
X186678571Y-87980952D02*
X186702381Y-88004762D01*
X186726190Y-88076190D01*
X186726190Y-88123809D01*
X186702381Y-88195238D01*
X186654762Y-88242857D01*
X186607143Y-88266666D01*
X186511905Y-88290476D01*
X186440476Y-88290476D01*
X186345238Y-88266666D01*
X186297619Y-88242857D01*
X186250000Y-88195238D01*
X186226190Y-88123809D01*
X186226190Y-88076190D01*
X186250000Y-88004762D01*
X186273810Y-87980952D01*
X185702381Y-89207142D02*
X185726190Y-89135713D01*
X185726190Y-89016666D01*
X185702381Y-88969047D01*
X185678571Y-88945237D01*
X185630952Y-88921428D01*
X185583333Y-88921428D01*
X185535714Y-88945237D01*
X185511905Y-88969047D01*
X185488095Y-89016666D01*
X185464286Y-89111904D01*
X185440476Y-89159523D01*
X185416667Y-89183332D01*
X185369048Y-89207142D01*
X185321429Y-89207142D01*
X185273810Y-89183332D01*
X185250000Y-89159523D01*
X185226190Y-89111904D01*
X185226190Y-88992856D01*
X185250000Y-88921428D01*
X185726190Y-88707142D02*
X185226190Y-88707142D01*
X185226190Y-88588095D01*
X185250000Y-88516666D01*
X185297619Y-88469047D01*
X185345238Y-88445238D01*
X185440476Y-88421428D01*
X185511905Y-88421428D01*
X185607143Y-88445238D01*
X185654762Y-88469047D01*
X185702381Y-88516666D01*
X185726190Y-88588095D01*
X185726190Y-88707142D01*
X185583333Y-88230952D02*
X185583333Y-87992857D01*
X185726190Y-88278571D02*
X185226190Y-88111904D01*
X185726190Y-87945238D01*
X184702381Y-89195238D02*
X184726190Y-89123809D01*
X184726190Y-89004762D01*
X184702381Y-88957143D01*
X184678571Y-88933333D01*
X184630952Y-88909524D01*
X184583333Y-88909524D01*
X184535714Y-88933333D01*
X184511905Y-88957143D01*
X184488095Y-89004762D01*
X184464286Y-89100000D01*
X184440476Y-89147619D01*
X184416667Y-89171428D01*
X184369048Y-89195238D01*
X184321429Y-89195238D01*
X184273810Y-89171428D01*
X184250000Y-89147619D01*
X184226190Y-89100000D01*
X184226190Y-88980952D01*
X184250000Y-88909524D01*
X184678571Y-88409524D02*
X184702381Y-88433334D01*
X184726190Y-88504762D01*
X184726190Y-88552381D01*
X184702381Y-88623810D01*
X184654762Y-88671429D01*
X184607143Y-88695238D01*
X184511905Y-88719048D01*
X184440476Y-88719048D01*
X184345238Y-88695238D01*
X184297619Y-88671429D01*
X184250000Y-88623810D01*
X184226190Y-88552381D01*
X184226190Y-88504762D01*
X184250000Y-88433334D01*
X184273810Y-88409524D01*
X184726190Y-87957143D02*
X184726190Y-88195238D01*
X184226190Y-88195238D01*
X183250000Y-88980953D02*
X183226190Y-89028572D01*
X183226190Y-89100000D01*
X183250000Y-89171429D01*
X183297619Y-89219048D01*
X183345238Y-89242857D01*
X183440476Y-89266667D01*
X183511905Y-89266667D01*
X183607143Y-89242857D01*
X183654762Y-89219048D01*
X183702381Y-89171429D01*
X183726190Y-89100000D01*
X183726190Y-89052381D01*
X183702381Y-88980953D01*
X183678571Y-88957143D01*
X183511905Y-88957143D01*
X183511905Y-89052381D01*
X183726190Y-88742857D02*
X183226190Y-88742857D01*
X183726190Y-88457143D01*
X183226190Y-88457143D01*
X183726190Y-88219047D02*
X183226190Y-88219047D01*
X183226190Y-88100000D01*
X183250000Y-88028571D01*
X183297619Y-87980952D01*
X183345238Y-87957143D01*
X183440476Y-87933333D01*
X183511905Y-87933333D01*
X183607143Y-87957143D01*
X183654762Y-87980952D01*
X183702381Y-88028571D01*
X183726190Y-88100000D01*
X183726190Y-88219047D01*
D13*
X196466667Y-84912381D02*
X196466667Y-85626667D01*
X196419047Y-85769524D01*
X196323809Y-85864762D01*
X196180952Y-85912381D01*
X196085714Y-85912381D01*
X197419048Y-84912381D02*
X196942857Y-84912381D01*
X196895238Y-85388571D01*
X196942857Y-85340952D01*
X197038095Y-85293333D01*
X197276191Y-85293333D01*
X197371429Y-85340952D01*
X197419048Y-85388571D01*
X197466667Y-85483810D01*
X197466667Y-85721905D01*
X197419048Y-85817143D01*
X197371429Y-85864762D01*
X197276191Y-85912381D01*
X197038095Y-85912381D01*
X196942857Y-85864762D01*
X196895238Y-85817143D01*
X145852381Y-101733333D02*
X146566667Y-101733333D01*
X146709524Y-101780953D01*
X146804762Y-101876191D01*
X146852381Y-102019048D01*
X146852381Y-102114286D01*
X145852381Y-100828571D02*
X145852381Y-101019048D01*
X145900000Y-101114286D01*
X145947619Y-101161905D01*
X146090476Y-101257143D01*
X146280952Y-101304762D01*
X146661905Y-101304762D01*
X146757143Y-101257143D01*
X146804762Y-101209524D01*
X146852381Y-101114286D01*
X146852381Y-100923809D01*
X146804762Y-100828571D01*
X146757143Y-100780952D01*
X146661905Y-100733333D01*
X146423810Y-100733333D01*
X146328571Y-100780952D01*
X146280952Y-100828571D01*
X146233333Y-100923809D01*
X146233333Y-101114286D01*
X146280952Y-101209524D01*
X146328571Y-101257143D01*
X146423810Y-101304762D01*
X180852381Y-101733333D02*
X181566667Y-101733333D01*
X181709524Y-101780953D01*
X181804762Y-101876191D01*
X181852381Y-102019048D01*
X181852381Y-102114286D01*
X180852381Y-101352381D02*
X180852381Y-100685714D01*
X181852381Y-101114286D01*
X184302381Y-86166666D02*
X183826190Y-86500000D01*
X184302381Y-86738095D02*
X183302381Y-86738095D01*
X183302381Y-86357142D01*
X183350000Y-86261904D01*
X183397619Y-86214285D01*
X183492857Y-86166666D01*
X183635714Y-86166666D01*
X183730952Y-86214285D01*
X183778571Y-86261904D01*
X183826190Y-86357142D01*
X183826190Y-86738095D01*
X184302381Y-85214285D02*
X184302381Y-85785714D01*
X184302381Y-85500000D02*
X183302381Y-85500000D01*
X183445238Y-85595238D01*
X183540476Y-85690476D01*
X183588095Y-85785714D01*
X181402381Y-82166666D02*
X180926190Y-82500000D01*
X181402381Y-82738095D02*
X180402381Y-82738095D01*
X180402381Y-82357142D01*
X180450000Y-82261904D01*
X180497619Y-82214285D01*
X180592857Y-82166666D01*
X180735714Y-82166666D01*
X180830952Y-82214285D01*
X180878571Y-82261904D01*
X180926190Y-82357142D01*
X180926190Y-82738095D01*
X180497619Y-81785714D02*
X180450000Y-81738095D01*
X180402381Y-81642857D01*
X180402381Y-81404761D01*
X180450000Y-81309523D01*
X180497619Y-81261904D01*
X180592857Y-81214285D01*
X180688095Y-81214285D01*
X180830952Y-81261904D01*
X181402381Y-81833333D01*
X181402381Y-81214285D01*
X173502381Y-82166666D02*
X173026190Y-82500000D01*
X173502381Y-82738095D02*
X172502381Y-82738095D01*
X172502381Y-82357142D01*
X172550000Y-82261904D01*
X172597619Y-82214285D01*
X172692857Y-82166666D01*
X172835714Y-82166666D01*
X172930952Y-82214285D01*
X172978571Y-82261904D01*
X173026190Y-82357142D01*
X173026190Y-82738095D01*
X172502381Y-81833333D02*
X172502381Y-81214285D01*
X172883333Y-81547619D01*
X172883333Y-81404761D01*
X172930952Y-81309523D01*
X172978571Y-81261904D01*
X173073810Y-81214285D01*
X173311905Y-81214285D01*
X173407143Y-81261904D01*
X173454762Y-81309523D01*
X173502381Y-81404761D01*
X173502381Y-81690476D01*
X173454762Y-81785714D01*
X173407143Y-81833333D01*
X177402381Y-82166666D02*
X176926190Y-82500000D01*
X177402381Y-82738095D02*
X176402381Y-82738095D01*
X176402381Y-82357142D01*
X176450000Y-82261904D01*
X176497619Y-82214285D01*
X176592857Y-82166666D01*
X176735714Y-82166666D01*
X176830952Y-82214285D01*
X176878571Y-82261904D01*
X176926190Y-82357142D01*
X176926190Y-82738095D01*
X176735714Y-81309523D02*
X177402381Y-81309523D01*
X176354762Y-81547619D02*
X177069048Y-81785714D01*
X177069048Y-81166666D01*
X176402381Y-86166666D02*
X175926190Y-86500000D01*
X176402381Y-86738095D02*
X175402381Y-86738095D01*
X175402381Y-86357142D01*
X175450000Y-86261904D01*
X175497619Y-86214285D01*
X175592857Y-86166666D01*
X175735714Y-86166666D01*
X175830952Y-86214285D01*
X175878571Y-86261904D01*
X175926190Y-86357142D01*
X175926190Y-86738095D01*
X175402381Y-85261904D02*
X175402381Y-85738095D01*
X175878571Y-85785714D01*
X175830952Y-85738095D01*
X175783333Y-85642857D01*
X175783333Y-85404761D01*
X175830952Y-85309523D01*
X175878571Y-85261904D01*
X175973810Y-85214285D01*
X176211905Y-85214285D01*
X176307143Y-85261904D01*
X176354762Y-85309523D01*
X176402381Y-85404761D01*
X176402381Y-85642857D01*
X176354762Y-85738095D01*
X176307143Y-85785714D01*
X180302381Y-86166666D02*
X179826190Y-86500000D01*
X180302381Y-86738095D02*
X179302381Y-86738095D01*
X179302381Y-86357142D01*
X179350000Y-86261904D01*
X179397619Y-86214285D01*
X179492857Y-86166666D01*
X179635714Y-86166666D01*
X179730952Y-86214285D01*
X179778571Y-86261904D01*
X179826190Y-86357142D01*
X179826190Y-86738095D01*
X179302381Y-85309523D02*
X179302381Y-85500000D01*
X179350000Y-85595238D01*
X179397619Y-85642857D01*
X179540476Y-85738095D01*
X179730952Y-85785714D01*
X180111905Y-85785714D01*
X180207143Y-85738095D01*
X180254762Y-85690476D01*
X180302381Y-85595238D01*
X180302381Y-85404761D01*
X180254762Y-85309523D01*
X180207143Y-85261904D01*
X180111905Y-85214285D01*
X179873810Y-85214285D01*
X179778571Y-85261904D01*
X179730952Y-85309523D01*
X179683333Y-85404761D01*
X179683333Y-85595238D01*
X179730952Y-85690476D01*
X179778571Y-85738095D01*
X179873810Y-85785714D01*
M02*
