G04 #@! TF.FileFunction,Profile,NP*
%FSLAX46Y46*%
G04 Gerber Fmt 4.6, Leading zero omitted, Abs format (unit mm)*
G04 Created by KiCad (PCBNEW 4.0.7) date 04/05/19 17:56:44*
%MOMM*%
%LPD*%
G01*
G04 APERTURE LIST*
%ADD10C,0.100000*%
%ADD11C,0.150000*%
G04 APERTURE END LIST*
D10*
D11*
X140000000Y-105000000D02*
X140000000Y-80000000D01*
X225500000Y-105000000D02*
X140000000Y-105000000D01*
X225500000Y-80000000D02*
X225500000Y-105000000D01*
X140000000Y-80000000D02*
X225500000Y-80000000D01*
M02*
