M48
;DRILL file {KiCad 4.0.7} date 04/05/19 17:56:42
;FORMAT={-:-/ absolute / inch / decimal}
FMAT,2
INCH,TZ
T1C0.016
T2C0.067
%
G90
G05
M72
T1
X7.0515Y-3.4823
X7.1701Y-3.4937
X7.234Y-3.8158
X7.3426Y-3.5088
X7.3747Y-3.7148
X7.6107Y-3.4984
X7.6583Y-3.8622
X8.2547Y-3.4548
X8.4724Y-3.556
X8.5776Y-3.5114
X8.5776Y-3.6218
X8.6022Y-3.8167
T2
X6.4553Y-3.5025
X6.4553Y-3.7809
X6.7337Y-3.5025
X6.7337Y-3.7809
T0
M30
