Drill report for D:\PEUS_Testing_GmbH\Connectors\connectors\Connector 4Pin\Male\Schematik\RJ45_4Pin\RJ45_to_4pin.kicad_pcb
Created on 01.10.2018 16:47:46

Copper Layer Stackup:
    =============================================================
    L1 :  F.Cu                      front
    L2 :  B.Cu                      back


Drill file 'RJ45_to_4pin.drl' contains
    plated through holes:
    =============================================================
    T1  1,70mm  0,067"  (4 holes)

    Total plated holes count 4


Drill file 'RJ45_to_4pin-NPTH.drl' contains
    unplated through holes:
    =============================================================
    T1  3,20mm  0,126"  (1 hole)

    Total unplated holes count 1
