EESchema Schematic File Version 2
LIBS:power
LIBS:device
LIBS:switches
LIBS:relays
LIBS:motors
LIBS:transistors
LIBS:conn
LIBS:linear
LIBS:regul
LIBS:74xx
LIBS:cmos4000
LIBS:adc-dac
LIBS:memory
LIBS:xilinx
LIBS:microcontrollers
LIBS:dsp
LIBS:microchip
LIBS:analog_switches
LIBS:motorola
LIBS:texas
LIBS:intel
LIBS:audio
LIBS:interface
LIBS:digital-audio
LIBS:philips
LIBS:display
LIBS:cypress
LIBS:siliconi
LIBS:opto
LIBS:atmel
LIBS:contrib
LIBS:valves
LIBS:RJ45_to_4pin-cache
EELAYER 25 0
EELAYER END
$Descr A4 11693 8268
encoding utf-8
Sheet 1 1
Title ""
Date ""
Rev ""
Comp ""
Comment1 ""
Comment2 ""
Comment3 ""
Comment4 ""
$EndDescr
$Comp
L Conn_01x04 J2
U 1 1 5B802011
P 5200 2100
F 0 "J2" H 5200 2300 50  0000 C CNN
F 1 "Conn_01x04" H 5200 1800 50  0000 C CNN
F 2 "Connectors:RoundConnector_4pin" H 5200 2100 50  0001 C CNN
F 3 "" H 5200 2100 50  0001 C CNN
	1    5200 2100
	1    0    0    -1  
$EndComp
$Comp
L RJ45 J1
U 1 1 5B84FEDA
P 3750 1450
F 0 "J1" H 3950 1950 50  0000 C CNN
F 1 "RJ45" H 3600 1950 50  0000 C CNN
F 2 "Connectors:RJ45_SMT" H 3750 1450 50  0001 C CNN
F 3 "" H 3750 1450 50  0001 C CNN
	1    3750 1450
	1    0    0    -1  
$EndComp
NoConn ~ 4300 1100
$Comp
L MUX U1
U 1 1 5C7D2A17
P 4700 3200
F 0 "U1" H 4700 3500 60  0000 C CNN
F 1 "MUX" H 4700 2750 60  0000 C CNN
F 2 "SMD_Packages:SOIC-8-N" H 4700 3200 60  0001 C CNN
F 3 "" H 4700 3200 60  0001 C CNN
	1    4700 3200
	1    0    0    -1  
$EndComp
$Comp
L R R1
U 1 1 5C7D2B08
P 3700 2800
F 0 "R1" V 3780 2800 50  0000 C CNN
F 1 "R" V 3700 2800 50  0000 C CNN
F 2 "Resistors_SMD:R_0603_HandSoldering" V 3630 2800 50  0001 C CNN
F 3 "" H 3700 2800 50  0001 C CNN
	1    3700 2800
	1    0    0    -1  
$EndComp
$Comp
L R R2
U 1 1 5C7D2B85
P 4050 2800
F 0 "R2" V 4130 2800 50  0000 C CNN
F 1 "R" V 4050 2800 50  0000 C CNN
F 2 "Resistors_SMD:R_0603_HandSoldering" V 3980 2800 50  0001 C CNN
F 3 "" H 4050 2800 50  0001 C CNN
	1    4050 2800
	1    0    0    -1  
$EndComp
$Comp
L R R4
U 1 1 5C7D2C12
P 6100 5100
F 0 "R4" V 6180 5100 50  0000 C CNN
F 1 "R" V 6100 5100 50  0000 C CNN
F 2 "Resistors_SMD:R_0603_HandSoldering" V 6030 5100 50  0001 C CNN
F 3 "" H 6100 5100 50  0001 C CNN
	1    6100 5100
	1    0    0    -1  
$EndComp
$Comp
L R R6
U 1 1 5C7D2CC9
P 6600 5100
F 0 "R6" V 6680 5100 50  0000 C CNN
F 1 "R" V 6600 5100 50  0000 C CNN
F 2 "Resistors_SMD:R_0603_HandSoldering" V 6530 5100 50  0001 C CNN
F 3 "" H 6600 5100 50  0001 C CNN
	1    6600 5100
	1    0    0    -1  
$EndComp
$Comp
L R R3
U 1 1 5C7D2D4B
P 6100 4050
F 0 "R3" V 6180 4050 50  0000 C CNN
F 1 "R" V 6100 4050 50  0000 C CNN
F 2 "Resistors_SMD:R_0603_HandSoldering" V 6030 4050 50  0001 C CNN
F 3 "" H 6100 4050 50  0001 C CNN
	1    6100 4050
	1    0    0    -1  
$EndComp
$Comp
L R R5
U 1 1 5C7D2DBC
P 6600 4050
F 0 "R5" V 6680 4050 50  0000 C CNN
F 1 "R" V 6600 4050 50  0000 C CNN
F 2 "Resistors_SMD:R_0603_HandSoldering" V 6530 4050 50  0001 C CNN
F 3 "" H 6600 4050 50  0001 C CNN
	1    6600 4050
	1    0    0    -1  
$EndComp
$Comp
L Conn_01x08 J3
U 1 1 5C7E3EF8
P 8000 3850
F 0 "J3" H 8000 4250 50  0000 C CNN
F 1 "FPC1_Channel1" H 8000 3350 50  0000 C CNN
F 2 ".pretty:FPC_4Pin_Connector" H 8000 3850 50  0001 C CNN
F 3 "" H 8000 3850 50  0001 C CNN
	1    8000 3850
	1    0    0    -1  
$EndComp
$Comp
L Conn_01x08 J4
U 1 1 5C7E3FD5
P 8000 5000
F 0 "J4" H 8000 5400 50  0000 C CNN
F 1 "FPC2_Channel2" H 8000 4500 50  0000 C CNN
F 2 ".pretty:FPC_4Pin_Connector" H 8000 5000 50  0001 C CNN
F 3 "" H 8000 5000 50  0001 C CNN
	1    8000 5000
	1    0    0    -1  
$EndComp
Wire Wire Line
	3400 2000 5000 2000
Wire Wire Line
	3500 2100 5000 2100
Wire Wire Line
	3600 2200 5000 2200
Wire Wire Line
	3700 2300 5000 2300
Wire Wire Line
	3400 2000 3400 1900
Wire Wire Line
	3500 1900 3500 2100
Wire Wire Line
	3600 2200 3600 1900
Wire Wire Line
	3700 2300 3700 1900
Wire Wire Line
	3700 2950 3700 3200
Wire Wire Line
	3700 3200 4300 3200
Wire Wire Line
	4050 2950 4050 3100
Wire Wire Line
	4050 3100 4300 3100
Wire Wire Line
	4000 1900 4000 2400
Wire Wire Line
	4000 2400 3400 2400
Wire Wire Line
	3400 2400 3400 3900
Wire Wire Line
	3400 3300 4300 3300
Wire Wire Line
	4100 1900 4100 2400
Wire Wire Line
	4100 2400 4750 2400
Wire Wire Line
	4750 2400 4750 2750
Wire Wire Line
	4750 2750 5750 2750
Wire Wire Line
	5350 2750 5350 5650
Wire Wire Line
	5350 3300 5100 3300
Connection ~ 3400 3300
Connection ~ 6100 3900
Connection ~ 6600 3900
Wire Wire Line
	4300 3400 3750 3400
Wire Wire Line
	3750 3400 3750 4200
Wire Wire Line
	3750 4200 6100 4200
Wire Wire Line
	7200 4350 6100 4350
Wire Wire Line
	7200 3750 7200 4350
Wire Wire Line
	6100 4350 6100 4200
Wire Wire Line
	5100 3400 5100 4300
Wire Wire Line
	5100 4300 6600 4300
Wire Wire Line
	6600 4300 6600 4200
Wire Wire Line
	7400 3950 7400 4200
Wire Wire Line
	7400 4200 6600 4200
Wire Wire Line
	5100 3200 5650 3200
Wire Wire Line
	5650 3200 5650 5250
Wire Wire Line
	5650 5250 6100 5250
Wire Wire Line
	6100 5250 6100 5500
Wire Wire Line
	6100 5500 7200 5500
Wire Wire Line
	7200 5500 7200 4900
Wire Wire Line
	5100 3100 5500 3100
Wire Wire Line
	5500 3100 5500 5450
Wire Wire Line
	5500 5450 6600 5450
Wire Wire Line
	6600 5450 6600 5250
Wire Wire Line
	6600 5250 7400 5250
Wire Wire Line
	7400 5100 7400 6000
Wire Wire Line
	5900 3900 5900 4950
Connection ~ 5900 3900
Connection ~ 6100 4950
Connection ~ 6600 4950
Wire Wire Line
	5350 5650 7600 5650
Connection ~ 5350 3300
Wire Wire Line
	5350 4500 7600 4500
Connection ~ 5350 4500
Wire Wire Line
	3400 2650 4050 2650
Connection ~ 3400 2650
Connection ~ 3700 2650
Wire Wire Line
	3800 1900 3800 2500
Wire Wire Line
	3800 2500 3150 2500
Wire Wire Line
	3150 2500 3150 3100
Wire Wire Line
	3150 3100 3700 3100
Connection ~ 3700 3100
Wire Wire Line
	3900 1900 3900 2550
Wire Wire Line
	3900 2550 4250 2550
Wire Wire Line
	4250 2550 4250 3100
Connection ~ 4250 3100
Wire Wire Line
	3400 3900 6850 3900
Wire Wire Line
	6850 3900 6850 3550
Wire Wire Line
	6850 3550 7800 3550
Wire Wire Line
	7550 3550 7550 3650
Wire Wire Line
	7550 3650 7800 3650
Connection ~ 7550 3550
Wire Wire Line
	7200 3750 7800 3750
Wire Wire Line
	7650 3750 7650 3850
Wire Wire Line
	7650 3850 7800 3850
Connection ~ 7650 3750
Wire Wire Line
	7400 3950 7800 3950
Wire Wire Line
	7650 3950 7650 4050
Wire Wire Line
	7650 4050 7800 4050
Connection ~ 7650 3950
Wire Wire Line
	7600 4500 7600 4150
Wire Wire Line
	7600 4150 7800 4150
Wire Wire Line
	7800 4250 7600 4250
Connection ~ 7600 4250
Wire Wire Line
	5900 4950 6600 4950
Wire Wire Line
	6600 4950 6600 4700
Wire Wire Line
	6600 4700 7800 4700
Wire Wire Line
	7650 4700 7650 4800
Wire Wire Line
	7650 4800 7800 4800
Connection ~ 7650 4700
Wire Wire Line
	7200 4900 7800 4900
Wire Wire Line
	7650 4900 7650 5000
Wire Wire Line
	7650 5000 7800 5000
Connection ~ 7650 4900
Wire Wire Line
	7400 5100 7800 5100
Wire Wire Line
	7700 5100 7700 5200
Wire Wire Line
	7700 5200 7800 5200
Connection ~ 7700 5100
Wire Wire Line
	7600 5650 7600 5300
Wire Wire Line
	7600 5300 7800 5300
Wire Wire Line
	7800 5400 7600 5400
Connection ~ 7600 5400
$Comp
L Conn_01x02 J6
U 1 1 5CA72D8E
P 7150 2900
F 0 "J6" H 7150 3000 50  0000 C CNN
F 1 "Channel1" H 7150 2700 50  0000 C CNN
F 2 "Pin_Headers:Pin_Header_Straight_1x02_Pitch2.54mm_SMD_Pin1Right" H 7150 2900 50  0001 C CNN
F 3 "" H 7150 2900 50  0001 C CNN
	1    7150 2900
	0    -1   -1   0   
$EndComp
$Comp
L Conn_01x02 J7
U 1 1 5CA72E6F
P 7400 6200
F 0 "J7" H 7400 6300 50  0000 C CNN
F 1 "Channel2" H 7400 6000 50  0000 C CNN
F 2 "Pin_Headers:Pin_Header_Straight_1x02_Pitch2.54mm_SMD_Pin1Right" H 7400 6200 50  0001 C CNN
F 3 "" H 7400 6200 50  0001 C CNN
	1    7400 6200
	0    1    1    0   
$EndComp
$Comp
L Conn_01x04 J5
U 1 1 5CA73152
P 6150 1300
F 0 "J5" H 6150 1500 50  0000 C CNN
F 1 "Testpin" H 6150 1000 50  0000 C CNN
F 2 "Pin_Headers:Pin_Header_Straight_1x04_Pitch2.54mm_SMD_Pin1Right" H 6150 1300 50  0001 C CNN
F 3 "" H 6150 1300 50  0001 C CNN
	1    6150 1300
	1    0    0    -1  
$EndComp
Wire Wire Line
	7150 3100 7150 4100
Wire Wire Line
	7150 4100 7400 4100
Connection ~ 7400 4100
Wire Wire Line
	7250 3100 7250 3750
Connection ~ 7250 3750
Connection ~ 7400 5250
Wire Wire Line
	7300 6000 7300 4900
Connection ~ 7300 4900
Wire Wire Line
	4000 1950 4800 1950
Wire Wire Line
	4800 1950 4800 1200
Wire Wire Line
	4800 1200 5950 1200
Connection ~ 4000 1950
Wire Wire Line
	5750 2750 5750 1500
Wire Wire Line
	5750 1500 5950 1500
Connection ~ 5350 2750
Wire Wire Line
	3900 2050 4900 2050
Wire Wire Line
	4900 2050 4900 1300
Wire Wire Line
	4900 1300 5950 1300
Connection ~ 3900 2050
Wire Wire Line
	3800 2150 5000 2150
Wire Wire Line
	5000 2150 5000 1400
Wire Wire Line
	5000 1400 5950 1400
Connection ~ 3800 2150
$EndSCHEMATC
