M48
;DRILL file {KiCad 4.0.7} date 10/01/18 16:47:44
;FORMAT={-:-/ absolute / inch / decimal}
FMAT,2
INCH,TZ
T1C0.067
%
G90
G05
M72
T1
X3.7978Y-3.8372
X3.7978Y-4.1156
X4.0762Y-3.8372
X4.0762Y-4.1156
T0
M30
