\relax 
\providecommand*\new@tpo@label[2]{}
\catcode `"\active 
\babel@aux{ngerman}{}
\@writefile{toc}{\contentsline {section}{\numberline {1}Motivation}{3}}
\@writefile{toc}{\contentsline {section}{\numberline {2}Anforderungen}{3}}
\@writefile{lof}{\contentsline {figure}{\numberline {1}{\ignorespaces Batteriepack mit 26650 - Zellen}}{4}}
\newlabel{fig:feder04}{{1}{4}}
\global\@namedef{scr@dte@section@lastmaxnumwidth}{12.14694pt}
