\babel@toc {ngerman}{}
\contentsline {section}{\numberline {1}Vorbereitung}{3}
\contentsline {subsection}{\numberline {1.1}Neuer Text}{3}
\contentsline {section}{\numberline {2}Messung der thermischen Verteilung in LiFePO- Zelle}{3}
\contentsline {section}{\numberline {3}Tabellenverzeichnis}{3}
\contentsline {section}{\numberline {4}Mathematischer Formelsatz}{3}
\contentsline {section}{\numberline {5}Text von Mathe}{4}
