\relax 
\providecommand*\new@tpo@label[2]{}
\catcode `"\active 
\babel@aux{ngerman}{}
\@writefile{toc}{\contentsline {section}{\numberline {1}Vorbereitung}{3}}
\@writefile{toc}{\contentsline {subsection}{\numberline {1.1}Neuer Text}{3}}
\@writefile{toc}{\contentsline {section}{\numberline {2}Messung der thermischen Verteilung in LiFePO- Zelle}{3}}
\@writefile{toc}{\contentsline {section}{\numberline {3}Tabellenverzeichnis}{3}}
\newlabel{tab:table1}{{3}{3}}
\@writefile{toc}{\contentsline {section}{\numberline {4}Mathematischer Formelsatz}{3}}
\newlabel{sec:mathe}{{4}{3}}
\newlabel{eq:newton}{{1}{3}}
\@writefile{lof}{\contentsline {figure}{\numberline {1}{\ignorespaces }}{4}}
\newlabel{fig:colored2}{{1}{4}}
\@writefile{toc}{\contentsline {section}{\numberline {5}Text von Mathe}{4}}
\@writefile{lof}{\contentsline {figure}{\numberline {2}{\ignorespaces }}{5}}
\newlabel{fig:xlslade458c}{{2}{5}}
\global\@namedef{scr@dte@section@lastmaxnumwidth}{12.14694pt}
\global\@namedef{scr@dte@subsection@lastmaxnumwidth}{19.70898pt}
