EESchema Schematic File Version 2
LIBS:power
LIBS:device
LIBS:switches
LIBS:relays
LIBS:motors
LIBS:transistors
LIBS:conn
LIBS:linear
LIBS:regul
LIBS:74xx
LIBS:cmos4000
LIBS:adc-dac
LIBS:memory
LIBS:xilinx
LIBS:microcontrollers
LIBS:dsp
LIBS:microchip
LIBS:analog_switches
LIBS:motorola
LIBS:texas
LIBS:intel
LIBS:audio
LIBS:interface
LIBS:digital-audio
LIBS:philips
LIBS:display
LIBS:cypress
LIBS:siliconi
LIBS:opto
LIBS:atmel
LIBS:contrib
LIBS:valves
LIBS:nxp_pct2075
LIBS:flex_i2c-cache
EELAYER 25 0
EELAYER END
$Descr A4 11693 8268
encoding utf-8
Sheet 1 1
Title ""
Date ""
Rev ""
Comp ""
Comment1 ""
Comment2 ""
Comment3 ""
Comment4 ""
$EndDescr
$Comp
L NXP_PCT2075 U1
U 1 1 5BF5BC56
P 8300 5100
F 0 "U1" H 5100 7050 60  0000 C CNN
F 1 "NXP_PCT2075" H 5100 8000 60  0000 C CNN
F 2 "SMD_Packages:SOIC-8-N" H 8300 5100 60  0001 C CNN
F 3 "" H 8300 5100 60  0001 C CNN
	1    8300 5100
	1    0    0    -1  
$EndComp
$Comp
L Conn_01x04 J1
U 1 1 5BF5BCC2
P 3050 2700
F 0 "J1" H 3050 2900 50  0000 C CNN
F 1 "conn_left" H 3050 2400 50  0000 C CNN
F 2 ".pretty:Connector1x4pin" H 3050 2700 50  0001 C CNN
F 3 "" H 3050 2700 50  0001 C CNN
	1    3050 2700
	-1   0    0    -1  
$EndComp
$Comp
L R R2
U 1 1 5BF5BDE4
P 6000 2650
F 0 "R2" V 6080 2650 50  0000 C CNN
F 1 "R" V 6000 2650 50  0000 C CNN
F 2 "Resistors_SMD:R_0805" V 5930 2650 50  0001 C CNN
F 3 "" H 6000 2650 50  0001 C CNN
	1    6000 2650
	0    1    1    0   
$EndComp
$Comp
L R R6
U 1 1 5BF5BE71
P 6800 3550
F 0 "R6" V 6880 3550 50  0000 C CNN
F 1 "R" V 6800 3550 50  0000 C CNN
F 2 "Resistors_SMD:R_0805" V 6730 3550 50  0001 C CNN
F 3 "" H 6800 3550 50  0001 C CNN
	1    6800 3550
	0    1    1    0   
$EndComp
$Comp
L R R4
U 1 1 5BF5BEA9
P 6400 3100
F 0 "R4" V 6480 3100 50  0000 C CNN
F 1 "R" V 6400 3100 50  0000 C CNN
F 2 "Resistors_SMD:R_0805" V 6330 3100 50  0001 C CNN
F 3 "" H 6400 3100 50  0001 C CNN
	1    6400 3100
	0    1    1    0   
$EndComp
Wire Wire Line
	5650 2150 5650 2550
Wire Wire Line
	3850 2150 8050 2150
Wire Wire Line
	3850 2150 3850 2600
Wire Wire Line
	3850 2600 3250 2600
Wire Wire Line
	4050 2550 4550 2550
Wire Wire Line
	4050 2550 4050 2700
Wire Wire Line
	4050 2700 3250 2700
Wire Wire Line
	4550 2700 4200 2700
Wire Wire Line
	4200 2700 4200 2800
Wire Wire Line
	4200 2800 3250 2800
Wire Wire Line
	4550 3000 4200 3000
Wire Wire Line
	4200 3000 4200 2900
Wire Wire Line
	4200 2900 3250 2900
$Comp
L R R1
U 1 1 5BF5BF9F
P 5850 2500
F 0 "R1" V 5930 2500 50  0000 C CNN
F 1 "R" V 5850 2500 50  0000 C CNN
F 2 "Resistors_SMD:R_0805" V 5780 2500 50  0001 C CNN
F 3 "" H 5850 2500 50  0001 C CNN
	1    5850 2500
	-1   0    0    1   
$EndComp
$Comp
L R R5
U 1 1 5BF5C0CB
P 6650 3400
F 0 "R5" V 6730 3400 50  0000 C CNN
F 1 "R" V 6650 3400 50  0000 C CNN
F 2 "Resistors_SMD:R_0805" V 6580 3400 50  0001 C CNN
F 3 "" H 6650 3400 50  0001 C CNN
	1    6650 3400
	-1   0    0    1   
$EndComp
$Comp
L R R3
U 1 1 5BF5C21C
P 6250 2950
F 0 "R3" V 6330 2950 50  0000 C CNN
F 1 "R" V 6250 2950 50  0000 C CNN
F 2 "Resistors_SMD:R_0805" V 6180 2950 50  0001 C CNN
F 3 "" H 6250 2950 50  0001 C CNN
	1    6250 2950
	-1   0    0    1   
$EndComp
Wire Wire Line
	5850 2150 5850 2350
Connection ~ 5650 2150
Wire Wire Line
	6250 2150 6250 2800
Connection ~ 5850 2150
Wire Wire Line
	6650 2150 6650 3250
Connection ~ 6250 2150
Wire Wire Line
	6950 3550 6950 3800
Wire Wire Line
	6950 3800 4450 3800
Wire Wire Line
	4450 3800 4450 3000
Connection ~ 4450 3000
Wire Wire Line
	6550 3100 6550 3300
Wire Wire Line
	6550 3300 6150 3300
Wire Wire Line
	6150 3300 6150 3800
Connection ~ 6150 3800
Wire Wire Line
	6150 2650 6150 2850
Wire Wire Line
	6150 2850 6000 2850
Wire Wire Line
	6000 2850 6000 3800
Connection ~ 6000 3800
Wire Wire Line
	5650 2700 5850 2700
Wire Wire Line
	5850 2700 5850 2650
Wire Wire Line
	5650 2850 5900 2850
Wire Wire Line
	5900 2850 5900 3100
Wire Wire Line
	5900 3100 6250 3100
Wire Wire Line
	5650 3000 5650 3550
Wire Wire Line
	5650 3550 6650 3550
$Comp
L Conn_01x04 J2
U 1 1 5BF5C400
P 8600 2700
F 0 "J2" H 8600 2900 50  0000 C CNN
F 1 "conn_right" H 8600 2400 50  0000 C CNN
F 2 ".pretty:Connector1x4pin" H 8600 2700 50  0001 C CNN
F 3 "" H 8600 2700 50  0001 C CNN
	1    8600 2700
	1    0    0    -1  
$EndComp
Wire Wire Line
	3400 2900 3400 4300
Wire Wire Line
	3400 4300 8200 4300
Wire Wire Line
	8200 4300 8200 2900
Wire Wire Line
	8200 2900 8400 2900
Connection ~ 3400 2900
Wire Wire Line
	3950 2700 3950 3850
Wire Wire Line
	3950 3850 7500 3850
Wire Wire Line
	7500 3850 7500 2700
Wire Wire Line
	7500 2700 8400 2700
Connection ~ 3950 2700
Wire Wire Line
	3750 2800 3750 4000
Wire Wire Line
	3750 4000 7800 4000
Wire Wire Line
	7800 4000 7800 2800
Wire Wire Line
	7800 2800 8400 2800
Connection ~ 3750 2800
Wire Wire Line
	8050 2150 8050 2600
Wire Wire Line
	8050 2600 8400 2600
Connection ~ 6650 2150
$EndSCHEMATC
