(kicad_pcb (version 4) (host pcbnew 4.0.7)

  (general
    (links 5)
    (no_connects 0)
    (area 157.424999 84.924999 170.075001 97.575001)
    (thickness 1.6)
    (drawings 4)
    (tracks 37)
    (zones 0)
    (modules 4)
    (nets 3)
  )

  (page A4)
  (layers
    (0 F.Cu signal)
    (31 B.Cu signal)
    (32 B.Adhes user)
    (33 F.Adhes user)
    (34 B.Paste user)
    (35 F.Paste user)
    (36 B.SilkS user)
    (37 F.SilkS user)
    (38 B.Mask user)
    (39 F.Mask user)
    (40 Dwgs.User user)
    (41 Cmts.User user)
    (42 Eco1.User user)
    (43 Eco2.User user)
    (44 Edge.Cuts user)
    (45 Margin user)
    (46 B.CrtYd user)
    (47 F.CrtYd user)
    (48 B.Fab user)
    (49 F.Fab user)
  )

  (setup
    (last_trace_width 0.25)
    (trace_clearance 0.2)
    (zone_clearance 0.508)
    (zone_45_only no)
    (trace_min 0.2)
    (segment_width 0.2)
    (edge_width 0.15)
    (via_size 0.6)
    (via_drill 0.4)
    (via_min_size 0.4)
    (via_min_drill 0.3)
    (uvia_size 0.3)
    (uvia_drill 0.1)
    (uvias_allowed no)
    (uvia_min_size 0.2)
    (uvia_min_drill 0.1)
    (pcb_text_width 0.3)
    (pcb_text_size 1.5 1.5)
    (mod_edge_width 0.15)
    (mod_text_size 1 1)
    (mod_text_width 0.15)
    (pad_size 3.2 3.2)
    (pad_drill 3.2)
    (pad_to_mask_clearance 0.2)
    (aux_axis_origin 0 0)
    (visible_elements 7FFFFFFF)
    (pcbplotparams
      (layerselection 0x00030_80000001)
      (usegerberextensions false)
      (excludeedgelayer true)
      (linewidth 0.100000)
      (plotframeref false)
      (viasonmask false)
      (mode 1)
      (useauxorigin false)
      (hpglpennumber 1)
      (hpglpenspeed 20)
      (hpglpendiameter 15)
      (hpglpenoverlay 2)
      (psnegative false)
      (psa4output false)
      (plotreference true)
      (plotvalue true)
      (plotinvisibletext false)
      (padsonsilk false)
      (subtractmaskfromsilk false)
      (outputformat 1)
      (mirror false)
      (drillshape 1)
      (scaleselection 1)
      (outputdirectory ""))
  )

  (net 0 "")
  (net 1 "Net-(J1-Pad1)")
  (net 2 "Net-(J1-Pad2)")

  (net_class Default "Dies ist die voreingestellte Netzklasse."
    (clearance 0.2)
    (trace_width 0.25)
    (via_dia 0.6)
    (via_drill 0.4)
    (uvia_dia 0.3)
    (uvia_drill 0.1)
    (add_net "Net-(J1-Pad1)")
    (add_net "Net-(J1-Pad2)")
  )

  (module TO_SOT_Packages_THT:TO-92_Inline_Narrow_Oval (layer F.Cu) (tedit 5BD74E83) (tstamp 5BD56FC6)
    (at 159.7 88.8 45)
    (descr "TO-92 leads in-line, narrow, oval pads, drill 0.6mm (see NXP sot054_po.pdf)")
    (tags "to-92 sc-43 sc-43a sot54 PA33 transistor")
    (path /5BD56F56)
    (fp_text reference U1 (at 1.5 -1.5 45) (layer F.SilkS)
      (effects (font (size 0.5 0.5) (thickness 0.125)))
    )
    (fp_text value MAX31820PAR (at 1 2.2 45) (layer F.Fab)
      (effects (font (size 0.5 0.5) (thickness 0.125)))
    )
    (fp_text user %R (at 1.27 -3.56 45) (layer F.Fab)
      (effects (font (size 0.5 0.5) (thickness 0.125)))
    )
    (fp_line (start -0.53 1.85) (end 3.07 1.85) (layer F.SilkS) (width 0.12))
    (fp_line (start -0.5 1.75) (end 3 1.75) (layer F.Fab) (width 0.1))
    (fp_line (start -1.46 -2.73) (end 4 -2.73) (layer F.CrtYd) (width 0.05))
    (fp_line (start -1.46 -2.73) (end -1.46 2.01) (layer F.CrtYd) (width 0.05))
    (fp_line (start 4 2.01) (end 4 -2.73) (layer F.CrtYd) (width 0.05))
    (fp_line (start 4 2.01) (end -1.46 2.01) (layer F.CrtYd) (width 0.05))
    (fp_arc (start 1.27 0) (end 1.27 -2.48) (angle 135) (layer F.Fab) (width 0.1))
    (fp_arc (start 1.27 0) (end 1.27 -2.6) (angle -135) (layer F.SilkS) (width 0.12))
    (fp_arc (start 1.27 0) (end 1.27 -2.48) (angle -135) (layer F.Fab) (width 0.1))
    (fp_arc (start 1.27 0) (end 1.27 -2.6) (angle 135) (layer F.SilkS) (width 0.12))
    (pad 2 thru_hole oval (at 1.27 0 225) (size 0.9 1.5) (drill 0.6) (layers *.Cu *.Mask)
      (net 1 "Net-(J1-Pad1)"))
    (pad 3 thru_hole oval (at 2.54 0 225) (size 0.9 1.5) (drill 0.6) (layers *.Cu *.Mask)
      (net 2 "Net-(J1-Pad2)"))
    (pad 1 thru_hole rect (at 0 0 225) (size 0.9 1.5) (drill 0.6) (layers *.Cu *.Mask)
      (net 2 "Net-(J1-Pad2)"))
    (model ${KISYS3DMOD}/TO_SOT_Packages_THT.3dshapes/TO-92_Inline_Narrow_Oval.wrl
      (at (xyz 0.05 0 0))
      (scale (xyz 1 1 1))
      (rotate (xyz 0 0 -90))
    )
  )

  (module Connectors_Molex:Molex_PicoBlade_53047-0210_02x1.25mm_Straight (layer F.Cu) (tedit 5BD74F61) (tstamp 5BD57D2F)
    (at 159.6 94.5 315)
    (descr "Molex PicoBlade, single row, top entry type, through hole, PN:53047-0210")
    (tags "connector molex picoblade")
    (path /5BD56BA1)
    (fp_text reference J1 (at 0.625 2.5 315) (layer F.SilkS) hide
      (effects (font (size 1 1) (thickness 0.15)))
    )
    (fp_text value "DQ  GND" (at 0.707107 2.12132 495) (layer F.Fab)
      (effects (font (size 0.5 0.5) (thickness 0.125)))
    )
    (fp_line (start -2 -2.55) (end -2 1.6) (layer F.CrtYd) (width 0.05))
    (fp_line (start -2 1.6) (end 3.25 1.6) (layer F.CrtYd) (width 0.05))
    (fp_line (start 3.25 1.6) (end 3.25 -2.55) (layer F.CrtYd) (width 0.05))
    (fp_line (start 3.25 -2.55) (end -2 -2.55) (layer F.CrtYd) (width 0.05))
    (fp_line (start -1.5 -2.075) (end -1.5 1.125) (layer F.Fab) (width 0.1))
    (fp_line (start -1.5 1.125) (end 2.75 1.125) (layer F.Fab) (width 0.1))
    (fp_line (start 2.75 1.125) (end 2.75 -2.075) (layer F.Fab) (width 0.1))
    (fp_line (start 2.75 -2.075) (end -1.5 -2.075) (layer F.Fab) (width 0.1))
    (fp_line (start -1.65 -2.225) (end -1.65 1.275) (layer F.SilkS) (width 0.12))
    (fp_line (start -1.65 1.275) (end 2.9 1.275) (layer F.SilkS) (width 0.12))
    (fp_line (start 2.9 1.275) (end 2.9 -2.225) (layer F.SilkS) (width 0.12))
    (fp_line (start 2.9 -2.225) (end -1.65 -2.225) (layer F.SilkS) (width 0.12))
    (fp_line (start 0.625 0.725) (end -1.1 0.725) (layer F.SilkS) (width 0.12))
    (fp_line (start -1.1 0.725) (end -1.1 0) (layer F.SilkS) (width 0.12))
    (fp_line (start -1.1 0) (end -1.3 0) (layer F.SilkS) (width 0.12))
    (fp_line (start -1.3 0) (end -1.3 -0.8) (layer F.SilkS) (width 0.12))
    (fp_line (start -1.3 -0.8) (end -1.1 -0.8) (layer F.SilkS) (width 0.12))
    (fp_line (start -1.1 -0.8) (end -1.1 -1.675) (layer F.SilkS) (width 0.12))
    (fp_line (start -1.1 -1.675) (end 0.625 -1.675) (layer F.SilkS) (width 0.12))
    (fp_line (start 0.625 0.725) (end 2.35 0.725) (layer F.SilkS) (width 0.12))
    (fp_line (start 2.35 0.725) (end 2.35 0) (layer F.SilkS) (width 0.12))
    (fp_line (start 2.35 0) (end 2.55 0) (layer F.SilkS) (width 0.12))
    (fp_line (start 2.55 0) (end 2.55 -0.8) (layer F.SilkS) (width 0.12))
    (fp_line (start 2.55 -0.8) (end 2.35 -0.8) (layer F.SilkS) (width 0.12))
    (fp_line (start 2.35 -0.8) (end 2.35 -1.675) (layer F.SilkS) (width 0.12))
    (fp_line (start 2.35 -1.675) (end 0.625 -1.675) (layer F.SilkS) (width 0.12))
    (fp_line (start -1.9 1.525) (end -1.9 0.525) (layer F.SilkS) (width 0.12))
    (fp_line (start -1.9 1.525) (end -0.9 1.525) (layer F.SilkS) (width 0.12))
    (fp_text user %R (at 0.625 -1.25 315) (layer F.Fab)
      (effects (font (size 0.5 0.5) (thickness 0.125)))
    )
    (pad 1 thru_hole rect (at 0 0 315) (size 0.85 0.85) (drill 0.5) (layers *.Cu *.Mask)
      (net 1 "Net-(J1-Pad1)"))
    (pad 2 thru_hole circle (at 1.25 0 315) (size 0.85 0.85) (drill 0.5) (layers *.Cu *.Mask)
      (net 2 "Net-(J1-Pad2)"))
    (model ${KISYS3DMOD}/Connectors_Molex.3dshapes/Molex_PicoBlade_53047-0210_02x1.25mm_Straight.wrl
      (at (xyz 0 0 0))
      (scale (xyz 1 1 1))
      (rotate (xyz 0 0 0))
    )
  )

  (module Connectors_Molex:Molex_PicoBlade_53047-0210_02x1.25mm_Straight (layer F.Cu) (tedit 5BD74F43) (tstamp 5BD57D34)
    (at 166.3 87.9 315)
    (descr "Molex PicoBlade, single row, top entry type, through hole, PN:53047-0210")
    (tags "connector molex picoblade")
    (path /5BD56B5E)
    (fp_text reference J2 (at 0.625 2.5 315) (layer F.SilkS) hide
      (effects (font (size 1 1) (thickness 0.15)))
    )
    (fp_text value "DQ  GND" (at 0.565685 -2.828427 315) (layer F.Fab)
      (effects (font (size 0.5 0.5) (thickness 0.125)))
    )
    (fp_line (start -2 -2.55) (end -2 1.6) (layer F.CrtYd) (width 0.05))
    (fp_line (start -2 1.6) (end 3.25 1.6) (layer F.CrtYd) (width 0.05))
    (fp_line (start 3.25 1.6) (end 3.25 -2.55) (layer F.CrtYd) (width 0.05))
    (fp_line (start 3.25 -2.55) (end -2 -2.55) (layer F.CrtYd) (width 0.05))
    (fp_line (start -1.5 -2.075) (end -1.5 1.125) (layer F.Fab) (width 0.1))
    (fp_line (start -1.5 1.125) (end 2.75 1.125) (layer F.Fab) (width 0.1))
    (fp_line (start 2.75 1.125) (end 2.75 -2.075) (layer F.Fab) (width 0.1))
    (fp_line (start 2.75 -2.075) (end -1.5 -2.075) (layer F.Fab) (width 0.1))
    (fp_line (start -1.65 -2.225) (end -1.65 1.275) (layer F.SilkS) (width 0.12))
    (fp_line (start -1.65 1.275) (end 2.9 1.275) (layer F.SilkS) (width 0.12))
    (fp_line (start 2.9 1.275) (end 2.9 -2.225) (layer F.SilkS) (width 0.12))
    (fp_line (start 2.9 -2.225) (end -1.65 -2.225) (layer F.SilkS) (width 0.12))
    (fp_line (start 0.625 0.725) (end -1.1 0.725) (layer F.SilkS) (width 0.12))
    (fp_line (start -1.1 0.725) (end -1.1 0) (layer F.SilkS) (width 0.12))
    (fp_line (start -1.1 0) (end -1.3 0) (layer F.SilkS) (width 0.12))
    (fp_line (start -1.3 0) (end -1.3 -0.8) (layer F.SilkS) (width 0.12))
    (fp_line (start -1.3 -0.8) (end -1.1 -0.8) (layer F.SilkS) (width 0.12))
    (fp_line (start -1.1 -0.8) (end -1.1 -1.675) (layer F.SilkS) (width 0.12))
    (fp_line (start -1.1 -1.675) (end 0.625 -1.675) (layer F.SilkS) (width 0.12))
    (fp_line (start 0.625 0.725) (end 2.35 0.725) (layer F.SilkS) (width 0.12))
    (fp_line (start 2.35 0.725) (end 2.35 0) (layer F.SilkS) (width 0.12))
    (fp_line (start 2.35 0) (end 2.55 0) (layer F.SilkS) (width 0.12))
    (fp_line (start 2.55 0) (end 2.55 -0.8) (layer F.SilkS) (width 0.12))
    (fp_line (start 2.55 -0.8) (end 2.35 -0.8) (layer F.SilkS) (width 0.12))
    (fp_line (start 2.35 -0.8) (end 2.35 -1.675) (layer F.SilkS) (width 0.12))
    (fp_line (start 2.35 -1.675) (end 0.625 -1.675) (layer F.SilkS) (width 0.12))
    (fp_line (start -1.9 1.525) (end -1.9 0.525) (layer F.SilkS) (width 0.12))
    (fp_line (start -1.9 1.525) (end -0.9 1.525) (layer F.SilkS) (width 0.12))
    (fp_text user %R (at 0.282843 -1.131371 315) (layer F.Fab)
      (effects (font (size 0.5 0.5) (thickness 0.125)))
    )
    (pad 1 thru_hole rect (at 0 0 315) (size 0.85 0.85) (drill 0.5) (layers *.Cu *.Mask)
      (net 1 "Net-(J1-Pad1)"))
    (pad 2 thru_hole circle (at 1.249999 0 315) (size 0.85 0.85) (drill 0.5) (layers *.Cu *.Mask)
      (net 2 "Net-(J1-Pad2)"))
    (model ${KISYS3DMOD}/Connectors_Molex.3dshapes/Molex_PicoBlade_53047-0210_02x1.25mm_Straight.wrl
      (at (xyz 0 0 0))
      (scale (xyz 1 1 1))
      (rotate (xyz 0 0 0))
    )
  )

  (module Connectors:1pin (layer F.Cu) (tedit 5BD755F1) (tstamp 5BD75470)
    (at 163.7 91.2)
    (descr "module 1 pin (ou trou mecanique de percage)")
    (tags DEV)
    (fp_text reference REF** (at 0 -3.048) (layer F.SilkS)
      (effects (font (size 1 1) (thickness 0.15)))
    )
    (fp_text value Bohrung (at 0 0.1) (layer F.Fab)
      (effects (font (size 0.5 0.5) (thickness 0.125)))
    )
    (fp_circle (center 0 0) (end 2 0.8) (layer F.Fab) (width 0.1))
    (fp_circle (center 0 0) (end 2.6 0) (layer F.CrtYd) (width 0.05))
    (fp_circle (center 0 0) (end 0 -2.286) (layer F.SilkS) (width 0.12))
    (pad 1 thru_hole circle (at 0 0) (size 3.2 3.2) (drill 3.2) (layers *.Cu *.Mask))
  )

  (gr_line (start 170 97.5) (end 170 85) (angle 90) (layer Edge.Cuts) (width 0.15))
  (gr_line (start 157.5 97.5) (end 170 97.5) (angle 90) (layer Edge.Cuts) (width 0.15))
  (gr_line (start 157.5 85) (end 157.5 97.5) (angle 90) (layer Edge.Cuts) (width 0.15))
  (gr_line (start 170 85) (end 157.5 85) (angle 90) (layer Edge.Cuts) (width 0.15))

  (segment (start 160.598026 87.901974) (end 160.655 87.884) (width 0.25) (layer B.Cu) (net 1) (status 80000))
  (segment (start 160.655 87.884) (end 160.655 88.519) (width 0.25) (layer B.Cu) (net 1) (status 80000))
  (segment (start 160.655 88.519) (end 161.036 88.9) (width 0.25) (layer B.Cu) (net 1) (status 80000))
  (segment (start 161.036 88.9) (end 161.036 89.154) (width 0.25) (layer B.Cu) (net 1) (status 80000))
  (segment (start 161.036 89.154) (end 159.004 91.186) (width 0.25) (layer B.Cu) (net 1) (status 80000))
  (via (at 159.004 91.186) (size 0.6) (layers F.Cu B.Cu) (net 1) (status 80000))
  (segment (start 159.004 91.186) (end 159.639 91.821) (width 0.25) (layer F.Cu) (net 1) (status 80000))
  (segment (start 159.639 91.821) (end 159.639 94.488) (width 0.25) (layer F.Cu) (net 1) (status 80000))
  (segment (start 159.639 94.488) (end 159.6 94.5) (width 0.25) (layer F.Cu) (net 1) (tstamp 5BD75708) (status 80000))
  (segment (start 160.598026 87.901974) (end 160.655 87.884) (width 0.25) (layer B.Cu) (net 1) (status 80000))
  (segment (start 160.655 87.884) (end 161.163 88.392) (width 0.25) (layer B.Cu) (net 1) (status 80000))
  (segment (start 161.163 88.392) (end 161.798 88.392) (width 0.25) (layer B.Cu) (net 1) (status 80000))
  (segment (start 161.798 88.392) (end 162.306 87.884) (width 0.25) (layer B.Cu) (net 1) (status 80000))
  (segment (start 162.306 87.884) (end 166.243 87.884) (width 0.25) (layer B.Cu) (net 1) (status 80000))
  (segment (start 166.243 87.884) (end 166.3 87.9) (width 0.25) (layer B.Cu) (net 1) (tstamp 5BD75706) (status 80000))
  (segment (start 161.496051 87.003949) (end 161.544 86.995) (width 0.25) (layer B.Cu) (net 2) (status 80000))
  (segment (start 161.544 86.995) (end 161.671 86.868) (width 0.25) (layer B.Cu) (net 2) (status 80000))
  (segment (start 161.671 86.868) (end 166.497 86.868) (width 0.25) (layer B.Cu) (net 2) (status 80000))
  (segment (start 166.497 86.868) (end 167.386 87.757) (width 0.25) (layer B.Cu) (net 2) (status 80000))
  (segment (start 167.386 87.757) (end 167.386 88.519) (width 0.25) (layer B.Cu) (net 2) (status 80000))
  (segment (start 167.386 88.519) (end 167.132 88.773) (width 0.25) (layer B.Cu) (net 2) (status 80000))
  (segment (start 167.132 88.773) (end 167.183883 88.783883) (width 0.25) (layer B.Cu) (net 2) (tstamp 5BD7570A) (status 80000))
  (segment (start 161.496051 87.003949) (end 161.544 86.995) (width 0.25) (layer F.Cu) (net 2) (status 80000))
  (segment (start 161.544 86.995) (end 161.036 86.995) (width 0.25) (layer F.Cu) (net 2) (status 80000))
  (segment (start 161.036 86.995) (end 160.528 86.487) (width 0.25) (layer F.Cu) (net 2) (status 80000))
  (segment (start 160.528 86.487) (end 160.274 86.487) (width 0.25) (layer F.Cu) (net 2) (status 80000))
  (segment (start 160.274 86.487) (end 159.258 87.503) (width 0.25) (layer F.Cu) (net 2) (status 80000))
  (segment (start 159.258 87.503) (end 159.258 87.884) (width 0.25) (layer F.Cu) (net 2) (status 80000))
  (segment (start 159.258 87.884) (end 159.639 88.265) (width 0.25) (layer F.Cu) (net 2) (status 80000))
  (segment (start 159.639 88.265) (end 159.639 88.773) (width 0.25) (layer F.Cu) (net 2) (status 80000))
  (segment (start 159.639 88.773) (end 159.7 88.8) (width 0.25) (layer F.Cu) (net 2) (tstamp 5BD75709) (status 80000))
  (segment (start 159.7 88.8) (end 159.639 88.773) (width 0.25) (layer F.Cu) (net 2) (status 80000))
  (segment (start 159.639 88.773) (end 160.655 89.789) (width 0.25) (layer F.Cu) (net 2) (status 80000))
  (segment (start 160.655 89.789) (end 160.655 94.742) (width 0.25) (layer F.Cu) (net 2) (status 80000))
  (segment (start 160.655 94.742) (end 160.528 94.869) (width 0.25) (layer F.Cu) (net 2) (status 80000))
  (segment (start 160.528 94.869) (end 160.528 95.377) (width 0.25) (layer F.Cu) (net 2) (status 80000))
  (segment (start 160.528 95.377) (end 160.483883 95.383883) (width 0.25) (layer F.Cu) (net 2) (tstamp 5BD75707) (status 80000))

  (zone (net 2) (net_name "Net-(J1-Pad2)") (layer F.Cu) (tstamp 5BD7570B) (hatch edge 0.508)
    (connect_pads (clearance 0.508))
    (min_thickness 0.254)
    (fill yes (arc_segments 16) (thermal_gap 0.508) (thermal_bridge_width 0.508))
    (polygon
      (pts
        (xy 170 85) (xy 157.5 85) (xy 157.5 97.5) (xy 170 97.5)
      )
    )
    (filled_polygon
      (pts
        (xy 160.753301 85.845419) (xy 160.72495 86.053243) (xy 161.496051 86.824344) (xy 162.173459 86.146936) (xy 161.961327 85.934804)
        (xy 161.581798 85.740807) (xy 161.196707 85.71) (xy 169.29 85.71) (xy 169.29 96.79) (xy 158.21 96.79)
        (xy 158.21 91.712806) (xy 158.210883 91.714943) (xy 158.473673 91.978192) (xy 158.817201 92.120838) (xy 158.864077 92.120879)
        (xy 158.879 92.135802) (xy 158.879 93.704341) (xy 158.54115 94.042191) (xy 158.406065 94.239894) (xy 158.351581 94.491056)
        (xy 158.399105 94.743627) (xy 158.54115 94.957809) (xy 159.142191 95.55885) (xy 159.339894 95.693935) (xy 159.466158 95.721325)
        (xy 159.635119 96.052955) (xy 159.95577 96.326833) (xy 160.190549 96.424081) (xy 160.356883 96.297112) (xy 160.356883 95.510883)
        (xy 160.610883 95.510883) (xy 160.610883 96.297112) (xy 160.777217 96.424081) (xy 161.152955 96.232647) (xy 161.426833 95.911996)
        (xy 161.524081 95.677217) (xy 161.397112 95.510883) (xy 160.610883 95.510883) (xy 160.356883 95.510883) (xy 160.105776 95.510883)
        (xy 160.268526 95.348134) (xy 160.290134 95.369742) (xy 160.469742 95.190134) (xy 160.448134 95.168526) (xy 160.610883 95.005776)
        (xy 160.610883 95.256883) (xy 161.397112 95.256883) (xy 161.524081 95.090549) (xy 161.332647 94.714811) (xy 161.011996 94.440933)
        (xy 160.820714 94.361702) (xy 160.800895 94.256373) (xy 160.65885 94.042191) (xy 160.399 93.782341) (xy 160.399 91.821)
        (xy 160.363518 91.642619) (xy 161.464613 91.642619) (xy 161.804155 92.464372) (xy 162.432321 93.093636) (xy 163.253481 93.434611)
        (xy 164.142619 93.435387) (xy 164.964372 93.095845) (xy 165.593636 92.467679) (xy 165.934611 91.646519) (xy 165.935387 90.757381)
        (xy 165.595845 89.935628) (xy 164.967679 89.306364) (xy 164.146519 88.965389) (xy 163.257381 88.964613) (xy 162.435628 89.304155)
        (xy 161.806364 89.932321) (xy 161.465389 90.753481) (xy 161.464613 91.642619) (xy 160.363518 91.642619) (xy 160.341148 91.530161)
        (xy 160.176401 91.283599) (xy 159.939122 91.04632) (xy 159.939162 91.000833) (xy 159.797117 90.657057) (xy 159.534327 90.393808)
        (xy 159.190799 90.251162) (xy 158.818833 90.250838) (xy 158.475057 90.392883) (xy 158.211808 90.655673) (xy 158.21 90.660027)
        (xy 158.21 89.54476) (xy 159.134845 89.54476) (xy 159.134845 89.769267) (xy 159.552434 90.186856) (xy 159.785823 90.283528)
        (xy 160.038442 90.283528) (xy 160.271831 90.186855) (xy 160.477287 89.981399) (xy 160.477287 89.756892) (xy 159.7 88.979605)
        (xy 159.134845 89.54476) (xy 158.21 89.54476) (xy 158.21 88.461558) (xy 158.216472 88.461558) (xy 158.216472 88.714177)
        (xy 158.313144 88.947566) (xy 158.730733 89.365155) (xy 158.95524 89.365155) (xy 159.520395 88.8) (xy 158.743108 88.022713)
        (xy 158.518601 88.022713) (xy 158.313145 88.228169) (xy 158.216472 88.461558) (xy 158.21 88.461558) (xy 158.21 87.618601)
        (xy 158.922713 87.618601) (xy 158.922713 87.843108) (xy 159.7 88.620395) (xy 159.714143 88.606253) (xy 159.893748 88.785858)
        (xy 159.879605 88.8) (xy 160.656892 89.577287) (xy 160.881399 89.577287) (xy 161.086855 89.371831) (xy 161.179285 89.148685)
        (xy 161.244556 89.135702) (xy 161.596556 88.900504) (xy 161.831754 88.548504) (xy 161.884327 88.284205) (xy 162.238801 88.162479)
        (xy 162.267152 87.954655) (xy 162.203553 87.891056) (xy 165.051581 87.891056) (xy 165.099105 88.143627) (xy 165.24115 88.357809)
        (xy 165.842191 88.95885) (xy 166.039894 89.093935) (xy 166.166158 89.121325) (xy 166.335119 89.452955) (xy 166.65577 89.726833)
        (xy 166.890549 89.824081) (xy 167.056883 89.697112) (xy 167.056883 88.910883) (xy 167.310883 88.910883) (xy 167.310883 89.697112)
        (xy 167.477217 89.824081) (xy 167.852955 89.632647) (xy 168.126833 89.311996) (xy 168.224081 89.077217) (xy 168.097112 88.910883)
        (xy 167.310883 88.910883) (xy 167.056883 88.910883) (xy 166.805776 88.910883) (xy 166.968526 88.748134) (xy 166.990134 88.769742)
        (xy 167.169742 88.590134) (xy 167.148134 88.568526) (xy 167.310883 88.405776) (xy 167.310883 88.656883) (xy 168.097112 88.656883)
        (xy 168.224081 88.490549) (xy 168.032647 88.114811) (xy 167.711996 87.840933) (xy 167.520714 87.761702) (xy 167.500895 87.656373)
        (xy 167.35885 87.442191) (xy 166.757809 86.84115) (xy 166.560106 86.706065) (xy 166.308944 86.651581) (xy 166.056373 86.699105)
        (xy 165.842191 86.84115) (xy 165.24115 87.442191) (xy 165.106065 87.639894) (xy 165.051581 87.891056) (xy 162.203553 87.891056)
        (xy 161.496051 87.183554) (xy 161.481909 87.197697) (xy 161.302304 87.018092) (xy 161.316446 87.003949) (xy 161.675656 87.003949)
        (xy 162.446757 87.77505) (xy 162.654581 87.746699) (xy 162.793183 87.343081) (xy 162.759193 86.918202) (xy 162.565196 86.538673)
        (xy 162.353064 86.326541) (xy 161.675656 87.003949) (xy 161.316446 87.003949) (xy 160.545345 86.232848) (xy 160.337521 86.261199)
        (xy 160.215795 86.615673) (xy 159.951496 86.668246) (xy 159.599496 86.903444) (xy 159.364298 87.255444) (xy 159.351315 87.320715)
        (xy 159.128169 87.413145) (xy 158.922713 87.618601) (xy 158.21 87.618601) (xy 158.21 85.71) (xy 161.14765 85.71)
      )
    )
  )
  (zone (net 1) (net_name "Net-(J1-Pad1)") (layer B.Cu) (tstamp 5BD757B2) (hatch edge 0.508)
    (connect_pads (clearance 0.508))
    (min_thickness 0.254)
    (fill yes (arc_segments 16) (thermal_gap 0.508) (thermal_bridge_width 0.508))
    (polygon
      (pts
        (xy 170 85) (xy 157.5 85) (xy 157.5 97.5) (xy 170 97.5)
      )
    )
    (filled_polygon
      (pts
        (xy 160.849521 85.770221) (xy 160.497521 86.005419) (xy 160.262323 86.357419) (xy 160.20975 86.621718) (xy 159.855276 86.743444)
        (xy 159.826925 86.951268) (xy 160.598026 87.722369) (xy 160.612169 87.708227) (xy 160.791774 87.887832) (xy 160.777631 87.901974)
        (xy 161.548732 88.673075) (xy 161.756556 88.644724) (xy 161.878282 88.29025) (xy 162.142581 88.237677) (xy 162.494581 88.002479)
        (xy 162.729779 87.650479) (xy 162.73425 87.628) (xy 165.124306 87.628) (xy 165.063959 87.773691) (xy 165.06396 88.02631)
        (xy 165.160632 88.259699) (xy 165.348411 88.447477) (xy 165.572917 88.447477) (xy 166.120395 87.9) (xy 166.106253 87.885858)
        (xy 166.273154 87.718956) (xy 166.481044 87.926846) (xy 166.314143 88.093748) (xy 166.3 88.079605) (xy 165.752523 88.627083)
        (xy 165.752523 88.851589) (xy 165.940301 89.039368) (xy 166.17369 89.13604) (xy 166.182469 89.13604) (xy 166.284734 89.383541)
        (xy 166.582657 89.681984) (xy 166.972111 89.843699) (xy 167.393805 89.844067) (xy 167.783541 89.683032) (xy 168.081984 89.385109)
        (xy 168.243699 88.995655) (xy 168.244067 88.573961) (xy 168.146 88.33662) (xy 168.146 87.757) (xy 168.088148 87.466161)
        (xy 167.923401 87.219599) (xy 167.034401 86.330599) (xy 166.787839 86.165852) (xy 166.497 86.108) (xy 162.134524 86.108)
        (xy 162.031943 86.005419) (xy 161.679943 85.770221) (xy 161.377193 85.71) (xy 169.29 85.71) (xy 169.29 96.79)
        (xy 158.21 96.79) (xy 158.21 95.227083) (xy 159.052523 95.227083) (xy 159.052523 95.451589) (xy 159.240301 95.639368)
        (xy 159.47369 95.73604) (xy 159.482469 95.73604) (xy 159.584734 95.983541) (xy 159.882657 96.281984) (xy 160.272111 96.443699)
        (xy 160.693805 96.444067) (xy 161.083541 96.283032) (xy 161.381984 95.985109) (xy 161.543699 95.595655) (xy 161.544067 95.173961)
        (xy 161.383032 94.784225) (xy 161.085109 94.485782) (xy 160.83604 94.38236) (xy 160.83604 94.37369) (xy 160.739368 94.140301)
        (xy 160.551589 93.952523) (xy 160.327083 93.952523) (xy 159.779605 94.5) (xy 159.793748 94.514143) (xy 159.614143 94.693748)
        (xy 159.6 94.679605) (xy 159.052523 95.227083) (xy 158.21 95.227083) (xy 158.21 94.373691) (xy 158.363959 94.373691)
        (xy 158.36396 94.62631) (xy 158.460632 94.859699) (xy 158.648411 95.047477) (xy 158.872917 95.047477) (xy 159.420395 94.5)
        (xy 158.872917 93.952523) (xy 158.648411 93.952523) (xy 158.63926 93.961673) (xy 158.460632 94.140302) (xy 158.363959 94.373691)
        (xy 158.21 94.373691) (xy 158.21 93.548411) (xy 159.052523 93.548411) (xy 159.052523 93.772917) (xy 159.6 94.320395)
        (xy 160.147477 93.772917) (xy 160.147477 93.548411) (xy 159.959699 93.360632) (xy 159.72631 93.26396) (xy 159.473691 93.263959)
        (xy 159.240302 93.360632) (xy 159.061673 93.53926) (xy 159.052523 93.548411) (xy 158.21 93.548411) (xy 158.21 91.642619)
        (xy 161.464613 91.642619) (xy 161.804155 92.464372) (xy 162.432321 93.093636) (xy 163.253481 93.434611) (xy 164.142619 93.435387)
        (xy 164.964372 93.095845) (xy 165.593636 92.467679) (xy 165.934611 91.646519) (xy 165.935387 90.757381) (xy 165.595845 89.935628)
        (xy 164.967679 89.306364) (xy 164.146519 88.965389) (xy 163.257381 88.964613) (xy 162.435628 89.304155) (xy 161.806364 89.932321)
        (xy 161.465389 90.753481) (xy 161.464613 91.642619) (xy 158.21 91.642619) (xy 158.21 88.610312) (xy 158.251618 88.831495)
        (xy 158.393663 89.045677) (xy 159.454323 90.106337) (xy 159.652026 90.241422) (xy 159.903188 90.295906) (xy 160.155759 90.248382)
        (xy 160.369941 90.106337) (xy 161.006337 89.469941) (xy 161.141422 89.272238) (xy 161.175004 89.11743) (xy 161.340776 89.060504)
        (xy 161.369127 88.85268) (xy 160.598026 88.081579) (xy 160.583884 88.095722) (xy 160.404279 87.916117) (xy 160.418421 87.901974)
        (xy 159.64732 87.130873) (xy 159.439496 87.159224) (xy 159.382352 87.325631) (xy 159.244241 87.351618) (xy 159.030059 87.493663)
        (xy 158.393663 88.130059) (xy 158.258578 88.327762) (xy 158.21 88.551698) (xy 158.21 85.71) (xy 161.152271 85.71)
      )
    )
  )
)
