<?xml version="1.0" encoding="UTF-8" standalone="no"?>
<!-- Created with Inkscape (http://www.inkscape.org/) -->

<svg
   xmlns:dc="http://purl.org/dc/elements/1.1/"
   xmlns:cc="http://creativecommons.org/ns#"
   xmlns:rdf="http://www.w3.org/1999/02/22-rdf-syntax-ns#"
   xmlns:svg="http://www.w3.org/2000/svg"
   xmlns="http://www.w3.org/2000/svg"
   xmlns:sodipodi="http://sodipodi.sourceforge.net/DTD/sodipodi-0.dtd"
   xmlns:inkscape="http://www.inkscape.org/namespaces/inkscape"
   width="297mm"
   height="210mm"
   viewBox="0 0 297 210"
   version="1.1"
   id="svg8"
   inkscape:version="0.92.3 (2405546, 2018-03-11)"
   sodipodi:docname="Zeichnung1.svg">
  <defs
     id="defs2" />
  <sodipodi:namedview
     id="base"
     pagecolor="#ffffff"
     bordercolor="#666666"
     borderopacity="1.0"
     inkscape:pageopacity="0.0"
     inkscape:pageshadow="2"
     inkscape:zoom="0.58"
     inkscape:cx="596.04655"
     inkscape:cy="412.7472"
     inkscape:document-units="mm"
     inkscape:current-layer="layer1"
     showgrid="false"
     inkscape:window-width="1280"
     inkscape:window-height="961"
     inkscape:window-x="1672"
     inkscape:window-y="13"
     inkscape:window-maximized="1" />
  <metadata
     id="metadata5">
    <rdf:RDF>
      <cc:Work
         rdf:about="">
        <dc:format>image/svg+xml</dc:format>
        <dc:type
           rdf:resource="http://purl.org/dc/dcmitype/StillImage" />
        <dc:title></dc:title>
      </cc:Work>
    </rdf:RDF>
  </metadata>
  <g
     inkscape:label="Ebene 1"
     inkscape:groupmode="layer"
     id="layer1"
     transform="translate(0,-87)">
    <rect
       style="opacity:1;fill:#000000;fill-opacity:1;stroke:#050005;stroke-width:0.76499999;stroke-linecap:round;stroke-linejoin:round;stroke-miterlimit:4;stroke-dasharray:none;stroke-dashoffset:0;stroke-opacity:1"
       id="rect815"
       width="56.540043"
       height="67.688782"
       x="12.741418"
       y="158.83524"
       ry="0.25063503" />
    <rect
       style="opacity:1;fill:#000000;fill-opacity:1;stroke:#050005;stroke-width:0.76499999;stroke-linecap:round;stroke-linejoin:round;stroke-miterlimit:4;stroke-dasharray:none;stroke-dashoffset:0;stroke-opacity:1"
       id="rect815-3"
       width="56.540043"
       height="67.688782"
       x="240.89244"
       y="158.43707"
       ry="0.25063503" />
    <path
       style="fill:none;stroke:#000000;stroke-width:0.26458332px;stroke-linecap:butt;stroke-linejoin:miter;stroke-opacity:1"
       d="M 0.39816931,137.33411 297.3224,137.16773"
       id="path836"
       inkscape:connector-curvature="0" />
    <path
       style="fill:none;stroke:#000000;stroke-width:0.26458332px;stroke-linecap:butt;stroke-linejoin:miter;stroke-opacity:1"
       d="M 297.3224,260.90884 H 0"
       id="path838"
       inkscape:connector-curvature="0" />
    <ellipse
       style="opacity:1;fill:#ff6600;fill-opacity:1;stroke:#ff6600;stroke-width:0.76499999;stroke-linecap:round;stroke-linejoin:round;stroke-miterlimit:4;stroke-dasharray:none;stroke-dashoffset:0;stroke-opacity:1"
       id="path840"
       cx="87.120789"
       cy="166.72578"
       rx="6.44485"
       ry="6.2300215" />
    <path
       style="opacity:1;fill:#ff6600;fill-opacity:1;stroke:#ff6600;stroke-width:0.87045151;stroke-linecap:round;stroke-linejoin:round;stroke-miterlimit:4;stroke-dasharray:none;stroke-dashoffset:0;stroke-opacity:1"
       d="m 100.6817,166.84277 -6.515522,-0.0872 -0.205372,-1.12317 c -0.243941,-1.3341 -1.465101,-3.53501 -2.198481,-3.96235 -0.378839,-0.22075 -0.404379,-0.30609 -0.09359,-0.31275 0.369099,-0.008 20.127615,5.22225 20.947475,5.54488 0.16558,0.0652 -0.98596,0.0981 -2.55897,0.0732 -1.57301,-0.0249 -5.792,-0.0846 -9.37554,-0.13254 z"
       id="path850"
       inkscape:connector-curvature="0" />
    <path
       style="opacity:1;fill:#ff6600;fill-opacity:1;stroke:#ff6600;stroke-width:0.87045151;stroke-linecap:round;stroke-linejoin:round;stroke-miterlimit:4;stroke-dasharray:none;stroke-dashoffset:0;stroke-opacity:1"
       d="m 92.394306,170.99893 c 0.589888,-0.65293 1.220512,-1.73673 1.401384,-2.40844 l 0.328856,-1.22128 h 6.716704 c 3.69419,0 7.78708,0.091 9.09531,0.20213 l 2.37859,0.20214 -10.23586,2.19236 c -5.629724,1.2058 -10.353235,2.19863 -10.496686,2.2063 -0.143452,0.008 0.221813,-0.52027 0.811702,-1.17321 z"
       id="path876"
       inkscape:connector-curvature="0" />
    <path
       style="opacity:1;fill:#ff6600;fill-opacity:1;stroke:#ff6600;stroke-width:0.43465909;stroke-linecap:round;stroke-linejoin:round;stroke-miterlimit:4;stroke-dasharray:none;stroke-dashoffset:0;stroke-opacity:1"
       d="m 85.476158,173.05607 c -2.307193,-0.5591 -4.121192,-2.24974 -4.795353,-4.46927 -1.520248,-5.00509 3.365854,-9.66757 8.463933,-8.07658 0.525473,0.16399 1.166871,0.42849 1.425326,0.58777 0.436693,0.26913 0.487458,0.27207 0.717966,0.0416 0.294171,-0.29417 0.353954,-0.28005 12.26678,2.89697 9.54604,2.54583 9.39571,2.49988 9.39571,2.87146 0,0.19403 -0.11956,0.31143 -0.35049,0.34414 -0.32293,0.0457 -0.32987,0.0647 -0.0883,0.24134 0.602,0.44019 0.12956,0.60488 -4.69108,1.6353 -8.558847,1.82946 -15.300915,3.24416 -15.954091,3.34766 -0.580488,0.092 -0.638908,0.0725 -0.638908,-0.21356 v -0.3148 l -0.537769,0.31729 c -0.514223,0.30339 -3.418416,1.0276 -4.047339,1.00927 -0.165364,-0.005 -0.690229,-0.10317 -1.166365,-0.21855 z"
       id="path878"
       inkscape:connector-curvature="0" />
    <path
       style="opacity:1;fill:#ff6600;fill-opacity:1;stroke:#ff6600;stroke-width:0.43465909;stroke-linecap:round;stroke-linejoin:round;stroke-miterlimit:4;stroke-dasharray:none;stroke-dashoffset:0;stroke-opacity:1"
       d="m 85.3525,173.16563 c -5.221343,-1.363 -6.830833,-7.76211 -2.852055,-11.33938 1.430115,-1.28579 3.106663,-1.84008 5.254596,-1.73723 1.10623,0.053 1.440058,0.13673 2.313368,0.58046 0.796899,0.40491 1.047398,0.47518 1.142926,0.32061 0.09791,-0.15843 0.303969,-0.16503 1.031846,-0.033 1.835301,0.33281 19.868729,5.17876 20.519429,5.514 0.46944,0.24185 0.4962,0.33524 0.20871,0.7284 -0.11259,0.15397 -0.17572,0.39076 -0.1403,0.5262 0.0931,0.35587 -0.32517,0.50362 -3.35788,1.18629 -3.82863,0.86183 -17.736417,3.77763 -18.018555,3.77763 -0.130014,0 -0.274688,-0.0998 -0.321495,-0.22178 -0.07484,-0.19504 -0.136433,-0.19523 -0.510805,-0.002 -0.571148,0.29536 -3.264813,0.97418 -3.829431,0.96504 -0.248047,-0.004 -0.896207,-0.12351 -1.440354,-0.26556 z"
       id="path880"
       inkscape:connector-curvature="0" />
    <path
       style="opacity:1;fill:#ff6600;fill-opacity:1;stroke:#ff6600;stroke-width:1.64280605;stroke-linecap:round;stroke-linejoin:round;stroke-miterlimit:4;stroke-dasharray:none;stroke-dashoffset:0;stroke-opacity:1"
       d=""
       id="path882"
       inkscape:connector-curvature="0"
       transform="matrix(0.26458333,0,0,0.26458333,0,87)" />
    <path
       id="path884"
       style="opacity:1;fill:#ff6600;fill-opacity:1;stroke:#ff6600;stroke-width:0.43465909;stroke-linecap:round;stroke-linejoin:round;stroke-miterlimit:4;stroke-dasharray:none;stroke-dashoffset:0;stroke-opacity:1"
       d="m 114.21008,167.59761 c -0.0817,-0.001 -0.16871,0.008 -0.24185,0.0269 -0.14627,0.0381 -0.063,0.0719 0.185,0.0749 0.0827,0.001 0.14412,-0.003 0.19482,-0.008 -0.0162,-0.0225 -0.0298,-0.0403 -0.047,-0.0646 -0.004,-0.006 -0.006,-0.0162 -0.009,-0.0227 -0.0265,-0.003 -0.053,-0.006 -0.0817,-0.006 z"
       inkscape:connector-curvature="0" />
    <path
       style="opacity:1;fill:#ff6600;fill-opacity:1;stroke:#ff6600;stroke-width:1.64280605;stroke-linecap:round;stroke-linejoin:round;stroke-miterlimit:4;stroke-dasharray:none;stroke-dashoffset:0;stroke-opacity:1"
       d=""
       id="path886"
       inkscape:connector-curvature="0"
       transform="matrix(0.26458333,0,0,0.26458333,0,87)" />
    <path
       style="opacity:1;fill:#ff6600;fill-opacity:1;stroke:#ff6600;stroke-width:0.43465909;stroke-linecap:round;stroke-linejoin:round;stroke-miterlimit:4;stroke-dasharray:none;stroke-dashoffset:0;stroke-opacity:1"
       d="m 113.4391,167.17808 c 0.10335,-0.0417 0.27247,-0.0417 0.37583,0 0.10335,0.0417 0.0188,0.0758 -0.18792,0.0758 -0.2067,0 -0.29126,-0.0341 -0.18791,-0.0758 z"
       id="path888"
       inkscape:connector-curvature="0" />
    <path
       style="opacity:1;fill:#ff6600;fill-opacity:1;stroke:#ff6600;stroke-width:0.43465909;stroke-linecap:round;stroke-linejoin:round;stroke-miterlimit:4;stroke-dasharray:none;stroke-dashoffset:0;stroke-opacity:1"
       d="m 85.590201,173.38245 c -1.374949,-0.33574 -2.457854,-0.94294 -3.44117,-1.92953 -1.092978,-1.09661 -1.664097,-2.19306 -1.920182,-3.68643 -0.601742,-3.50909 1.910942,-6.99619 5.556514,-7.71133 1.322044,-0.25933 3.032308,-0.10706 4.239617,0.37748 0.537435,0.21569 1.109319,0.35851 1.270855,0.31736 0.439359,-0.11191 2.429047,0.35565 9.283705,2.18158 9.93397,2.64621 12.16983,3.30442 12.56413,3.69872 0.19067,0.19067 0.44507,0.34668 0.56534,0.34668 0.12027,0 0.21867,0.10993 0.21867,0.24429 0,0.19125 -0.0979,0.2247 -0.451,0.15408 -0.40588,-0.0812 -0.45099,-0.0522 -0.45099,0.28955 0,0.29478 -0.12262,0.43097 -0.54804,0.60872 -0.66536,0.27801 -3.84353,0.9997 -11.40331,2.58945 -8.866812,1.8646 -9.660035,2.01211 -9.949391,1.85018 -0.164524,-0.0921 -0.395714,-0.0912 -0.641065,0.002 -0.672904,0.25661 -3.376228,0.87606 -3.766195,0.863 -0.206706,-0.007 -0.714076,-0.0952 -1.127488,-0.19613 z"
       id="path890"
       inkscape:connector-curvature="0" />
    <path
       id="path892"
       style="opacity:1;fill:#ff6600;fill-opacity:1;stroke:#ff6600;stroke-width:0.43465909;stroke-linecap:round;stroke-linejoin:round;stroke-miterlimit:4;stroke-dasharray:none;stroke-dashoffset:0;stroke-opacity:1"
       d="m 86.840175,159.79809 c -0.332952,0.0101 -0.649653,0.0421 -0.94361,0.0971 -3.756189,0.70353 -6.45164,4.3734 -5.808948,7.90908 0.497811,2.73865 2.6866,5.02797 5.479769,5.73143 0.933807,0.23518 1.739297,0.16356 3.667474,-0.32556 0.802947,-0.20368 1.812933,-0.37052 2.244826,-0.37052 0.971928,0 13.244544,-2.50541 18.834504,-3.84524 2.21871,-0.5318 2.86184,-0.80049 2.86184,-1.19424 0,-0.12212 0.13539,-0.2217 0.30076,-0.2217 0.16536,0 0.30076,0.0677 0.30076,0.15038 0,0.0827 0.16898,0.14986 0.37568,0.14986 0.12296,0 0.21832,-0.0245 0.28319,-0.0672 -0.042,-0.0552 -0.086,-0.11522 -0.13539,-0.185 -0.0332,-0.0469 -0.0488,-0.12417 -0.0574,-0.21239 -0.0951,-0.0313 -0.16775,-0.12906 -0.1695,-0.24908 -0.006,-0.40173 -1.69741,-1.13891 -4.36666,-1.90273 -3.1502,-0.90144 -13.810034,-3.74498 -15.815568,-4.21886 -0.885324,-0.20919 -1.844219,-0.38034 -2.131136,-0.38034 -0.28692,0 -1.048465,-0.16961 -1.692402,-0.37672 -1.087472,-0.34976 -2.229374,-0.51863 -3.228229,-0.48834 z"
       inkscape:connector-curvature="0" />
    <path
       style="fill:none;stroke:#000000;stroke-width:0.26458332px;stroke-linecap:butt;stroke-linejoin:miter;stroke-opacity:1"
       d="m 112.31515,167.77347 v 0"
       id="path4612"
       inkscape:connector-curvature="0" />
    <path
       style="fill:none;stroke:#ff6600;stroke-width:0.26458332px;stroke-linecap:butt;stroke-linejoin:miter;stroke-opacity:1"
       d="m 114.43642,167.81155 -13.94286,3.46321"
       id="path4614"
       inkscape:connector-curvature="0" />
    <path
       inkscape:connector-curvature="0"
       id="path892-9"
       style="opacity:1;fill:#ff6600;fill-opacity:1;stroke:#ff6600;stroke-width:0.43465909;stroke-linecap:round;stroke-linejoin:round;stroke-miterlimit:4;stroke-dasharray:none;stroke-dashoffset:0;stroke-opacity:1"
       d="m 86.894879,176.72126 c -0.332951,0.0101 -0.649652,0.0421 -0.94361,0.0971 -3.756189,0.70353 -6.45164,4.37339 -5.808948,7.90908 0.497811,2.73865 2.6866,5.02797 5.479769,5.73143 0.933808,0.23517 1.739297,0.16356 3.667475,-0.32556 0.802947,-0.20369 1.812933,-0.37052 2.244826,-0.37052 0.971928,0 13.244569,-2.50541 18.834569,-3.84525 2.21871,-0.53179 2.86184,-0.80048 2.86184,-1.19424 0,-0.12211 0.13539,-0.22169 0.30075,-0.22169 0.16537,0 0.30076,0.0677 0.30076,0.15038 0,0.0827 0.16898,0.14986 0.37569,0.14986 0.12296,0 0.21831,-0.0245 0.28319,-0.0672 -0.042,-0.0552 -0.086,-0.11522 -0.13539,-0.185 -0.0332,-0.0469 -0.0488,-0.12418 -0.0574,-0.21239 -0.095,-0.0313 -0.16775,-0.12906 -0.1695,-0.24908 -0.006,-0.40174 -1.69741,-1.13892 -4.36666,-1.90273 -3.15023,-0.90144 -13.810097,-3.74499 -15.815631,-4.21886 -0.885325,-0.20919 -1.84422,-0.38034 -2.131136,-0.38034 -0.28692,0 -1.048465,-0.16962 -1.692402,-0.37672 -1.087475,-0.34976 -2.229377,-0.51863 -3.228232,-0.48834 z" />
    <path
       inkscape:connector-curvature="0"
       id="path892-0"
       style="opacity:1;fill:#ff6600;fill-opacity:1;stroke:#ff6600;stroke-width:0.43465909;stroke-linecap:round;stroke-linejoin:round;stroke-miterlimit:4;stroke-dasharray:none;stroke-dashoffset:0;stroke-opacity:1"
       d="m 87.093901,194.18313 c -0.332952,0.0101 -0.649653,0.0421 -0.94361,0.0971 -3.756189,0.70353 -6.45164,4.37339 -5.808948,7.90907 0.497811,2.73865 2.6866,5.02798 5.479769,5.73144 0.933808,0.23517 1.739297,0.16356 3.667475,-0.32556 0.802946,-0.20369 1.812932,-0.37052 2.244825,-0.37052 0.971928,0 13.244568,-2.50541 18.834558,-3.84525 2.21871,-0.53179 2.86184,-0.80048 2.86184,-1.19424 0,-0.12212 0.13539,-0.22169 0.30076,-0.22169 0.16536,0 0.30075,0.0677 0.30075,0.15038 0,0.0827 0.16899,0.14986 0.37569,0.14986 0.12296,0 0.21832,-0.0245 0.28319,-0.0672 -0.042,-0.0552 -0.086,-0.11523 -0.13539,-0.185 -0.0332,-0.0469 -0.0488,-0.12418 -0.0574,-0.2124 -0.095,-0.0313 -0.16774,-0.12905 -0.1695,-0.24907 -0.006,-0.40174 -1.69741,-1.13892 -4.36666,-1.90273 -3.15021,-0.90144 -13.810086,-3.74499 -15.81562,-4.21887 -0.885325,-0.20919 -1.84422,-0.38033 -2.131136,-0.38033 -0.28692,0 -1.048465,-0.16962 -1.692402,-0.37673 -1.087474,-0.34975 -2.229376,-0.51863 -3.228231,-0.48833 z" />
    <path
       inkscape:connector-curvature="0"
       id="path892-1"
       style="opacity:1;fill:#ff6600;fill-opacity:1;stroke:#ff6600;stroke-width:0.43465909;stroke-linecap:round;stroke-linejoin:round;stroke-miterlimit:4;stroke-dasharray:none;stroke-dashoffset:0;stroke-opacity:1"
       d="m 87.172445,211.88061 c -0.332951,0.0101 -0.649652,0.0421 -0.94361,0.0971 -3.756189,0.70353 -6.451639,4.37339 -5.808948,7.90908 0.497811,2.73865 2.6866,5.02798 5.47977,5.73144 0.933807,0.23517 1.739296,0.16356 3.667474,-0.32556 0.802947,-0.20369 1.812933,-0.37052 2.244826,-0.37052 0.971928,0 13.244573,-2.50542 18.834553,-3.84525 2.21871,-0.5318 2.86184,-0.80049 2.86184,-1.19425 0,-0.12211 0.13539,-0.22169 0.30076,-0.22169 0.16536,0 0.30075,0.0677 0.30075,0.15038 0,0.0827 0.16898,0.14986 0.37569,0.14986 0.12296,0 0.21831,-0.0245 0.28319,-0.0672 -0.042,-0.0552 -0.086,-0.11522 -0.13539,-0.185 -0.0332,-0.0469 -0.0488,-0.12418 -0.0574,-0.21239 -0.095,-0.0313 -0.16775,-0.12906 -0.1695,-0.24908 -0.006,-0.40174 -1.69741,-1.13891 -4.36666,-1.90273 -3.15021,-0.90144 -13.810081,-3.74499 -15.815615,-4.21886 -0.885325,-0.20919 -1.84422,-0.38034 -2.131136,-0.38034 -0.28692,0 -1.048465,-0.16961 -1.692402,-0.37672 -1.087475,-0.34976 -2.229377,-0.51863 -3.228232,-0.48834 z" />
    <ellipse
       style="opacity:1;fill:#ff6600;fill-opacity:1;stroke:#ff6600;stroke-width:0.76499999;stroke-linecap:round;stroke-linejoin:round;stroke-miterlimit:4;stroke-dasharray:none;stroke-dashoffset:0;stroke-opacity:1"
       id="path840-5"
       cx="-223.49687"
       cy="166.84624"
       rx="6.44485"
       ry="6.2300215"
       transform="scale(-1,1)" />
    <path
       style="opacity:1;fill:#ff6600;fill-opacity:1;stroke:#ff6600;stroke-width:0.87045151;stroke-linecap:round;stroke-linejoin:round;stroke-miterlimit:4;stroke-dasharray:none;stroke-dashoffset:0;stroke-opacity:1"
       d="m 209.93576,166.96318 6.51552,-0.0872 0.20537,-1.12317 c 0.24394,-1.3341 1.4651,-3.53501 2.19848,-3.96235 0.37884,-0.22075 0.40438,-0.30609 0.0936,-0.31275 -0.3691,-0.008 -20.12761,5.22225 -20.94747,5.54488 -0.16558,0.0652 0.98596,0.0981 2.55897,0.0732 1.57301,-0.0249 5.792,-0.0846 9.37554,-0.13254 z"
       id="path850-0"
       inkscape:connector-curvature="0" />
    <path
       style="opacity:1;fill:#ff6600;fill-opacity:1;stroke:#ff6600;stroke-width:0.87045151;stroke-linecap:round;stroke-linejoin:round;stroke-miterlimit:4;stroke-dasharray:none;stroke-dashoffset:0;stroke-opacity:1"
       d="m 218.22315,171.11934 c -0.58989,-0.65293 -1.22051,-1.73673 -1.40138,-2.40844 l -0.32886,-1.22128 h -6.7167 c -3.69419,0 -7.78708,0.091 -9.09531,0.20213 l -2.37859,0.20214 10.23586,2.19236 c 5.62972,1.2058 10.35323,2.19863 10.49668,2.2063 0.14346,0.008 -0.22181,-0.52027 -0.8117,-1.17321 z"
       id="path876-9"
       inkscape:connector-curvature="0" />
    <path
       style="opacity:1;fill:#ff6600;fill-opacity:1;stroke:#ff6600;stroke-width:0.43465909;stroke-linecap:round;stroke-linejoin:round;stroke-miterlimit:4;stroke-dasharray:none;stroke-dashoffset:0;stroke-opacity:1"
       d="m 225.1413,173.17648 c 2.30719,-0.5591 4.12119,-2.24974 4.79535,-4.46927 1.52025,-5.00509 -3.36585,-9.66757 -8.46393,-8.07658 -0.52547,0.16399 -1.16687,0.42849 -1.42533,0.58777 -0.43669,0.26913 -0.48745,0.27207 -0.71796,0.0416 -0.29417,-0.29417 -0.35396,-0.28005 -12.26678,2.89697 -9.54604,2.54583 -9.39571,2.49988 -9.39571,2.87146 0,0.19403 0.11956,0.31143 0.35049,0.34414 0.32293,0.0457 0.32987,0.0647 0.0883,0.24134 -0.602,0.44019 -0.12956,0.60488 4.69108,1.6353 8.55885,1.82946 15.30091,3.24416 15.95409,3.34766 0.58049,0.092 0.63891,0.0725 0.63891,-0.21356 v -0.3148 l 0.53777,0.31729 c 0.51422,0.30339 3.41841,1.0276 4.04734,1.00927 0.16536,-0.005 0.69023,-0.10317 1.16636,-0.21855 z"
       id="path878-2"
       inkscape:connector-curvature="0" />
    <path
       style="opacity:1;fill:#ff6600;fill-opacity:1;stroke:#ff6600;stroke-width:0.43465909;stroke-linecap:round;stroke-linejoin:round;stroke-miterlimit:4;stroke-dasharray:none;stroke-dashoffset:0;stroke-opacity:1"
       d="m 225.26496,173.28604 c 5.22134,-1.363 6.83083,-7.76211 2.85205,-11.33938 -1.43011,-1.28579 -3.10666,-1.84008 -5.25459,-1.73723 -1.10623,0.053 -1.44006,0.13673 -2.31337,0.58046 -0.7969,0.40491 -1.0474,0.47518 -1.14293,0.32061 -0.0979,-0.15843 -0.30397,-0.16503 -1.03184,-0.033 -1.8353,0.33281 -19.86873,5.17876 -20.51943,5.514 -0.46944,0.24185 -0.4962,0.33524 -0.20871,0.7284 0.11259,0.15397 0.17572,0.39076 0.1403,0.5262 -0.0931,0.35587 0.32517,0.50362 3.35788,1.18629 3.82863,0.86183 17.73642,3.77763 18.01855,3.77763 0.13002,0 0.27469,-0.0998 0.3215,-0.22178 0.0748,-0.19504 0.13643,-0.19523 0.5108,-0.002 0.57115,0.29536 3.26482,0.97418 3.82943,0.96504 0.24805,-0.004 0.89621,-0.12351 1.44036,-0.26556 z"
       id="path880-3"
       inkscape:connector-curvature="0" />
    <path
       id="path884-4"
       style="opacity:1;fill:#ff6600;fill-opacity:1;stroke:#ff6600;stroke-width:0.43465909;stroke-linecap:round;stroke-linejoin:round;stroke-miterlimit:4;stroke-dasharray:none;stroke-dashoffset:0;stroke-opacity:1"
       d="m 196.40738,167.71802 c 0.0817,-0.001 0.16871,0.008 0.24185,0.0269 0.14627,0.0381 0.063,0.0719 -0.185,0.0749 -0.0827,0.001 -0.14412,-0.003 -0.19482,-0.008 0.0162,-0.0225 0.0298,-0.0403 0.047,-0.0646 0.004,-0.006 0.006,-0.0162 0.009,-0.0227 0.0265,-0.003 0.053,-0.006 0.0817,-0.006 z"
       inkscape:connector-curvature="0" />
    <path
       style="opacity:1;fill:#ff6600;fill-opacity:1;stroke:#ff6600;stroke-width:0.43465909;stroke-linecap:round;stroke-linejoin:round;stroke-miterlimit:4;stroke-dasharray:none;stroke-dashoffset:0;stroke-opacity:1"
       d="m 197.17836,167.29849 c -0.10335,-0.0417 -0.27247,-0.0417 -0.37583,0 -0.10335,0.0417 -0.0188,0.0758 0.18792,0.0758 0.2067,0 0.29126,-0.0341 0.18791,-0.0758 z"
       id="path888-2"
       inkscape:connector-curvature="0" />
    <path
       style="opacity:1;fill:#ff6600;fill-opacity:1;stroke:#ff6600;stroke-width:0.43465909;stroke-linecap:round;stroke-linejoin:round;stroke-miterlimit:4;stroke-dasharray:none;stroke-dashoffset:0;stroke-opacity:1"
       d="m 225.02726,173.50286 c 1.37495,-0.33574 2.45785,-0.94294 3.44117,-1.92953 1.09298,-1.09661 1.66409,-2.19306 1.92018,-3.68643 0.60174,-3.50909 -1.91094,-6.99619 -5.55651,-7.71133 -1.32205,-0.25933 -3.03231,-0.10706 -4.23962,0.37748 -0.53744,0.21569 -1.10932,0.35851 -1.27086,0.31736 -0.43936,-0.11191 -2.42904,0.35565 -9.2837,2.18158 -9.93397,2.64621 -12.16983,3.30442 -12.56413,3.69872 -0.19067,0.19067 -0.44507,0.34668 -0.56534,0.34668 -0.12027,0 -0.21867,0.10993 -0.21867,0.24429 0,0.19125 0.0979,0.2247 0.451,0.15408 0.40588,-0.0812 0.45099,-0.0522 0.45099,0.28955 0,0.29478 0.12262,0.43097 0.54804,0.60872 0.66536,0.27801 3.84353,0.9997 11.40331,2.58945 8.86681,1.8646 9.66003,2.01211 9.94939,1.85018 0.16452,-0.0921 0.39571,-0.0912 0.64107,0.002 0.6729,0.25661 3.37622,0.87606 3.76619,0.863 0.20671,-0.007 0.71408,-0.0952 1.12749,-0.19613 z"
       id="path890-6"
       inkscape:connector-curvature="0" />
    <path
       id="path892-6"
       style="opacity:1;fill:#ff6600;fill-opacity:1;stroke:#ff6600;stroke-width:0.43465909;stroke-linecap:round;stroke-linejoin:round;stroke-miterlimit:4;stroke-dasharray:none;stroke-dashoffset:0;stroke-opacity:1"
       d="m 223.77728,159.9185 c 0.33296,0.0101 0.64966,0.0421 0.94361,0.0971 3.75619,0.70353 6.45164,4.3734 5.80895,7.90908 -0.49781,2.73865 -2.6866,5.02797 -5.47977,5.73143 -0.9338,0.23518 -1.73929,0.16356 -3.66747,-0.32556 -0.80295,-0.20368 -1.81293,-0.37052 -2.24483,-0.37052 -0.97193,0 -13.24454,-2.50541 -18.8345,-3.84524 -2.21871,-0.5318 -2.86184,-0.80049 -2.86184,-1.19424 0,-0.12212 -0.13539,-0.2217 -0.30076,-0.2217 -0.16536,0 -0.30076,0.0677 -0.30076,0.15038 0,0.0827 -0.16898,0.14986 -0.37568,0.14986 -0.12296,0 -0.21832,-0.0245 -0.28319,-0.0672 0.042,-0.0552 0.086,-0.11522 0.13539,-0.185 0.0332,-0.0469 0.0488,-0.12417 0.0574,-0.21239 0.0951,-0.0313 0.16775,-0.12906 0.1695,-0.24908 0.006,-0.40173 1.69741,-1.13891 4.36666,-1.90273 3.1502,-0.90144 13.81003,-3.74498 15.81557,-4.21886 0.88532,-0.20919 1.84421,-0.38034 2.13113,-0.38034 0.28692,0 1.04847,-0.16961 1.6924,-0.37672 1.08748,-0.34976 2.22938,-0.51863 3.22823,-0.48834 z"
       inkscape:connector-curvature="0" />
    <path
       style="fill:none;stroke:#000000;stroke-width:0.26458332px;stroke-linecap:butt;stroke-linejoin:miter;stroke-opacity:1"
       d="m 198.30231,167.89388 v 0"
       id="path4612-0"
       inkscape:connector-curvature="0" />
    <path
       style="fill:none;stroke:#ff6600;stroke-width:0.26458332px;stroke-linecap:butt;stroke-linejoin:miter;stroke-opacity:1"
       d="m 196.18104,167.93196 13.94286,3.46321"
       id="path4614-2"
       inkscape:connector-curvature="0" />
    <path
       inkscape:connector-curvature="0"
       id="path892-9-2"
       style="opacity:1;fill:#ff6600;fill-opacity:1;stroke:#ff6600;stroke-width:0.43465909;stroke-linecap:round;stroke-linejoin:round;stroke-miterlimit:4;stroke-dasharray:none;stroke-dashoffset:0;stroke-opacity:1"
       d="m 223.72258,176.84167 c 0.33295,0.0101 0.64965,0.0421 0.94361,0.0971 3.75619,0.70353 6.45164,4.37339 5.80895,7.90908 -0.49781,2.73866 -2.6866,5.02798 -5.47977,5.73143 -0.93381,0.23517 -1.7393,0.16356 -3.66748,-0.32556 -0.80294,-0.20368 -1.81293,-0.37052 -2.24482,-0.37052 -0.97193,0 -13.24457,-2.50541 -18.83457,-3.84525 -2.21871,-0.53179 -2.86184,-0.80048 -2.86184,-1.19424 0,-0.12211 -0.13539,-0.22169 -0.30075,-0.22169 -0.16537,0 -0.30076,0.0677 -0.30076,0.15038 0,0.0827 -0.16898,0.14986 -0.37569,0.14986 -0.12296,0 -0.21831,-0.0245 -0.28319,-0.0672 0.042,-0.0552 0.086,-0.11522 0.13539,-0.185 0.0332,-0.0469 0.0488,-0.12418 0.0574,-0.21239 0.095,-0.0313 0.16775,-0.12906 0.1695,-0.24908 0.006,-0.40174 1.69741,-1.13892 4.36666,-1.90273 3.15023,-0.90144 13.81009,-3.74499 15.81563,-4.21886 0.88532,-0.20919 1.84422,-0.38034 2.13113,-0.38034 0.28692,0 1.04847,-0.16962 1.69241,-0.37672 1.08747,-0.34976 2.22937,-0.51863 3.22823,-0.48834 z" />
    <path
       inkscape:connector-curvature="0"
       id="path892-0-7"
       style="opacity:1;fill:#ff6600;fill-opacity:1;stroke:#ff6600;stroke-width:0.43465909;stroke-linecap:round;stroke-linejoin:round;stroke-miterlimit:4;stroke-dasharray:none;stroke-dashoffset:0;stroke-opacity:1"
       d="m 223.52356,194.30355 c 0.33295,0.0101 0.64965,0.0421 0.94361,0.0971 3.75619,0.70352 6.45164,4.37339 5.80895,7.90907 -0.49782,2.73864 -2.6866,5.02798 -5.47977,5.73143 -0.93381,0.23517 -1.7393,0.16356 -3.66748,-0.32555 -0.80294,-0.20369 -1.81293,-0.37052 -2.24482,-0.37052 -0.97193,0 -13.24457,-2.50542 -18.83456,-3.84526 -2.21871,-0.53178 -2.86184,-0.80048 -2.86184,-1.19423 0,-0.12213 -0.13539,-0.2217 -0.30076,-0.2217 -0.16536,0 -0.30075,0.0677 -0.30075,0.15039 0,0.0827 -0.16899,0.14986 -0.37569,0.14986 -0.12296,0 -0.21832,-0.0245 -0.28319,-0.0672 0.042,-0.0552 0.086,-0.11524 0.13539,-0.18501 0.0332,-0.0469 0.0488,-0.12418 0.0574,-0.2124 0.095,-0.0313 0.16774,-0.12905 0.1695,-0.24907 0.006,-0.40173 1.69741,-1.13892 4.36666,-1.90273 3.15021,-0.90143 13.81009,-3.74499 15.81562,-4.21886 0.88532,-0.20919 1.84422,-0.38034 2.13114,-0.38034 0.28692,0 1.04846,-0.16961 1.6924,-0.37672 1.08747,-0.34975 2.22937,-0.51864 3.22823,-0.48834 z" />
    <path
       inkscape:connector-curvature="0"
       id="path892-1-8"
       style="opacity:1;fill:#ff6600;fill-opacity:1;stroke:#ff6600;stroke-width:0.43465909;stroke-linecap:round;stroke-linejoin:round;stroke-miterlimit:4;stroke-dasharray:none;stroke-dashoffset:0;stroke-opacity:1"
       d="m 223.44501,212.00102 c 0.33295,0.0101 0.64966,0.0421 0.94361,0.0971 3.75619,0.70353 6.45164,4.37339 5.80895,7.90909 -0.49781,2.73864 -2.6866,5.02798 -5.47977,5.73143 -0.93381,0.23518 -1.73929,0.16356 -3.66747,-0.32556 -0.80295,-0.20368 -1.81293,-0.37052 -2.24483,-0.37052 -0.97193,0 -13.24457,-2.50541 -18.83455,-3.84525 -2.21871,-0.53179 -2.86184,-0.80048 -2.86184,-1.19425 0,-0.12211 -0.13539,-0.22168 -0.30076,-0.22168 -0.16536,0 -0.30075,0.0677 -0.30075,0.15037 0,0.0827 -0.16898,0.14986 -0.37569,0.14986 -0.12296,0 -0.21831,-0.0245 -0.28319,-0.0672 0.042,-0.0552 0.086,-0.11523 0.13539,-0.185 0.0332,-0.0469 0.0488,-0.12418 0.0574,-0.2124 0.095,-0.0313 0.16775,-0.12905 0.1695,-0.24907 0.006,-0.40175 1.69741,-1.13891 4.36666,-1.90273 3.15021,-0.90145 13.81008,-3.745 15.81561,-4.21886 0.88533,-0.2092 1.84422,-0.38035 2.13114,-0.38035 0.28692,0 1.04846,-0.1696 1.6924,-0.37672 1.08748,-0.34976 2.22938,-0.51863 3.22823,-0.48833 z" />
    <path
       style="fill:none;stroke:#ff6600;stroke-width:10.08392048;stroke-linecap:butt;stroke-linejoin:miter;stroke-miterlimit:4;stroke-dasharray:none;stroke-opacity:1"
       d="M 92.246883,166.88468 216.20746,166.76956"
       id="path4697"
       inkscape:connector-curvature="0" />
    <path
       style="fill:none;stroke:#ff6600;stroke-width:15.44607925;stroke-linecap:butt;stroke-linejoin:miter;stroke-miterlimit:4;stroke-dasharray:none;stroke-opacity:1"
       d="m 124.50522,167.03289 63.41403,-0.52799"
       id="path4697-2"
       inkscape:connector-curvature="0" />
    <path
       style="fill:none;stroke:#ff6600;stroke-width:10.08392143;stroke-linecap:butt;stroke-linejoin:miter;stroke-miterlimit:4;stroke-dasharray:none;stroke-opacity:1"
       d="M 91.223293,184.10852 215.18389,183.9934"
       id="path4697-6"
       inkscape:connector-curvature="0" />
    <path
       style="fill:none;stroke:#ff6600;stroke-width:10.08392239;stroke-linecap:butt;stroke-linejoin:miter;stroke-miterlimit:4;stroke-dasharray:none;stroke-opacity:1"
       d="M 95.487151,201.05702 219.44773,200.9419"
       id="path4697-6-1"
       inkscape:connector-curvature="0" />
    <path
       style="fill:none;stroke:#ff6600;stroke-width:10.08392239;stroke-linecap:butt;stroke-linejoin:miter;stroke-miterlimit:4;stroke-dasharray:none;stroke-opacity:1"
       d="M 92.956564,218.99472 216.91723,218.8796"
       id="path4697-6-14"
       inkscape:connector-curvature="0" />
    <path
       style="fill:none;stroke:#ff6600;stroke-width:15.44607925;stroke-linecap:butt;stroke-linejoin:miter;stroke-miterlimit:4;stroke-dasharray:none;stroke-opacity:1"
       d="m 124.53333,184.35329 63.41403,-0.52799"
       id="path4697-2-0"
       inkscape:connector-curvature="0" />
    <path
       style="fill:none;stroke:#ff6600;stroke-width:15.44607925;stroke-linecap:butt;stroke-linejoin:miter;stroke-miterlimit:4;stroke-dasharray:none;stroke-opacity:1"
       d="m 124.33378,201.53181 63.41403,-0.52799"
       id="path4697-2-3"
       inkscape:connector-curvature="0" />
    <path
       style="fill:none;stroke:#ff6600;stroke-width:15.44607925;stroke-linecap:butt;stroke-linejoin:miter;stroke-miterlimit:4;stroke-dasharray:none;stroke-opacity:1"
       d="m 124.34918,218.51864 63.41403,-0.52799"
       id="path4697-2-4"
       inkscape:connector-curvature="0" />
    <ellipse
       style="opacity:1;fill:none;fill-opacity:1;stroke:#030100;stroke-width:0;stroke-linecap:round;stroke-linejoin:round;stroke-miterlimit:4;stroke-dasharray:none;stroke-dashoffset:0;stroke-opacity:1"
       id="path4821"
       cx="217.2128"
       cy="265.2197"
       rx="12.059496"
       ry="7.377574" />
    <ellipse
       style="opacity:1;fill:none;fill-opacity:1;stroke:#030100;stroke-width:0;stroke-linecap:round;stroke-linejoin:round;stroke-miterlimit:4;stroke-dasharray:none;stroke-dashoffset:0;stroke-opacity:1"
       id="path4823"
       cx="199.62013"
       cy="247.20139"
       rx="3.5469105"
       ry="7.5194502" />
    <path
       style="fill:none;stroke:#000000;stroke-width:0.26458332px;stroke-linecap:butt;stroke-linejoin:miter;stroke-opacity:1"
       d="m 179.04805,260.67964 c 0,0 -19.2952,-37.17163 -43.69794,0"
       id="path4901"
       inkscape:connector-curvature="0" />
    <path
       style="fill:none;stroke:none;stroke-width:0.26458332px;stroke-linecap:butt;stroke-linejoin:miter;stroke-opacity:1"
       d="M 179.04805,260.67964 H 135.35011"
       id="path4905"
       inkscape:connector-curvature="0" />
    <path
       style="fill:none;stroke:#fcfcfc;stroke-width:1.36500001;stroke-linecap:butt;stroke-linejoin:miter;stroke-miterlimit:4;stroke-dasharray:none;stroke-opacity:1"
       d="M 179.57722,260.67964 H 135.87928"
       id="path4909"
       inkscape:connector-curvature="0" />
    <rect
       style="opacity:1;fill:#ffffff;fill-opacity:1;stroke:#010101;stroke-width:0.46499997;stroke-linecap:round;stroke-linejoin:round;stroke-miterlimit:4;stroke-dasharray:none;stroke-dashoffset:0;stroke-opacity:1"
       id="rect4913"
       width="23.551485"
       height="7.6613269"
       x="69.864494"
       y="162.76953"
       ry="0.25063503" />
    <rect
       style="opacity:1;fill:#ffffff;fill-opacity:1;stroke:#010101;stroke-width:0.46499997;stroke-linecap:round;stroke-linejoin:round;stroke-miterlimit:4;stroke-dasharray:none;stroke-dashoffset:0;stroke-opacity:1"
       id="rect4913-4"
       width="23.551485"
       height="7.6613269"
       x="69.485016"
       y="180.08232"
       ry="0.25063503" />
    <rect
       style="opacity:1;fill:#ffffff;fill-opacity:1;stroke:#010101;stroke-width:0.46499997;stroke-linecap:round;stroke-linejoin:round;stroke-miterlimit:4;stroke-dasharray:none;stroke-dashoffset:0;stroke-opacity:1"
       id="rect4913-9"
       width="23.551485"
       height="7.6613269"
       x="69.676712"
       y="197.01547"
       ry="0.25063503" />
    <rect
       style="opacity:1;fill:#ffffff;fill-opacity:1;stroke:#010101;stroke-width:0.46499997;stroke-linecap:round;stroke-linejoin:round;stroke-miterlimit:4;stroke-dasharray:none;stroke-dashoffset:0;stroke-opacity:1"
       id="rect4913-0"
       width="23.551485"
       height="7.6613269"
       x="69.868401"
       y="215.1373"
       ry="0.25063503" />
    <rect
       style="opacity:1;fill:#ffffff;fill-opacity:1;stroke:#010101;stroke-width:0.46499997;stroke-linecap:round;stroke-linejoin:round;stroke-miterlimit:4;stroke-dasharray:none;stroke-dashoffset:0;stroke-opacity:1"
       id="rect4913-3"
       width="23.551485"
       height="7.6613269"
       x="216.94438"
       y="215.09895"
       ry="0.25063503" />
    <rect
       style="opacity:1;fill:#ffffff;fill-opacity:1;stroke:#010101;stroke-width:0.46499997;stroke-linecap:round;stroke-linejoin:round;stroke-miterlimit:4;stroke-dasharray:none;stroke-dashoffset:0;stroke-opacity:1"
       id="rect4913-09"
       width="23.551485"
       height="7.6613269"
       x="216.92905"
       y="197.10748"
       ry="0.25063503" />
    <rect
       style="opacity:1;fill:#ffffff;fill-opacity:1;stroke:#010101;stroke-width:0.46499997;stroke-linecap:round;stroke-linejoin:round;stroke-miterlimit:4;stroke-dasharray:none;stroke-dashoffset:0;stroke-opacity:1"
       id="rect4913-40"
       width="23.551485"
       height="7.6613269"
       x="217.25116"
       y="179.83691"
       ry="0.25063503" />
    <rect
       style="opacity:1;fill:#ffffff;fill-opacity:1;stroke:#010101;stroke-width:0.46499997;stroke-linecap:round;stroke-linejoin:round;stroke-miterlimit:4;stroke-dasharray:none;stroke-dashoffset:0;stroke-opacity:1"
       id="rect4913-1"
       width="23.551485"
       height="7.6613269"
       x="216.77567"
       y="162.52798"
       ry="0.25063503" />
    <ellipse
       style="opacity:1;fill:#ffffff;fill-opacity:1;stroke:#010101;stroke-width:0.26499999;stroke-linecap:round;stroke-linejoin:round;stroke-miterlimit:4;stroke-dasharray:none;stroke-dashoffset:0;stroke-opacity:1"
       id="path4966"
       cx="155.24831"
       cy="209.64247"
       rx="4.8237987"
       ry="3.9725399" />
    <ellipse
       style="opacity:1;fill:#ffffff;fill-opacity:1;stroke:#010101;stroke-width:0.26499999;stroke-linecap:round;stroke-linejoin:round;stroke-miterlimit:4;stroke-dasharray:none;stroke-dashoffset:0;stroke-opacity:1"
       id="path4966-0"
       cx="155.0493"
       cy="192.25685"
       rx="4.8237987"
       ry="3.9725399" />
    <ellipse
       style="opacity:1;fill:#ffffff;fill-opacity:1;stroke:#010101;stroke-width:0.26499999;stroke-linecap:round;stroke-linejoin:round;stroke-miterlimit:4;stroke-dasharray:none;stroke-dashoffset:0;stroke-opacity:1"
       id="path4966-6"
       cx="155.00575"
       cy="175.87589"
       rx="4.8237987"
       ry="3.9725399" />
    <path
       style="fill:none;stroke:#000000;stroke-width:0.26458332px;stroke-linecap:butt;stroke-linejoin:miter;stroke-opacity:1"
       d="m 132.71625,137.17585 c 0,0 19.2952,37.17163 43.69794,0"
       id="path4901-4"
       inkscape:connector-curvature="0" />
    <path
       style="fill:none;stroke:#000000;stroke-width:0.26458332px;stroke-linecap:butt;stroke-linejoin:miter;stroke-opacity:1"
       d="m 179.57722,260.67964 h -0.52917"
       id="path5004"
       inkscape:connector-curvature="0" />
    <path
       style="fill:none;stroke:#000000;stroke-width:0.26458332px;stroke-linecap:butt;stroke-linejoin:miter;stroke-opacity:1"
       d="m 179.57722,260.67964 -7.05549,-9.08009"
       id="path5006"
       inkscape:connector-curvature="0" />
    <path
       style="fill:none;stroke:#fcfcfc;stroke-width:1.36500001;stroke-linecap:butt;stroke-linejoin:miter;stroke-miterlimit:4;stroke-dasharray:none;stroke-opacity:1"
       d="M 176.45594,137.30088 H 132.758"
       id="path4909-9"
       inkscape:connector-curvature="0" />
    <path
       style="fill:none;stroke:#000000;stroke-width:0.26458332px;stroke-linecap:butt;stroke-linejoin:miter;stroke-opacity:1"
       d="m 176.45594,137.30088 -6.77174,8.45885"
       id="path5023"
       inkscape:connector-curvature="0" />
    <path
       style="fill:none;stroke:#000000;stroke-width:0.26458332px;stroke-linecap:butt;stroke-linejoin:miter;stroke-opacity:1"
       d="m 132.71625,137.17585 6.03889,8.58388"
       id="path5025"
       inkscape:connector-curvature="0" />
    <path
       style="fill:none;stroke:#000000;stroke-width:0.26458332px;stroke-linecap:butt;stroke-linejoin:miter;stroke-opacity:1"
       d="M 0.39816931,137.33411 0,260.90884"
       id="path5029"
       inkscape:connector-curvature="0" />
    <path
       style="fill:#808000;stroke:#000000;stroke-width:0.26458332px;stroke-linecap:butt;stroke-linejoin:miter;stroke-opacity:1"
       d="M 297.3224,260.90884 V 137.16773"
       id="path5031"
       inkscape:connector-curvature="0" />
    <path
       style="opacity:1;fill:#808000;fill-opacity:1;stroke:#010101;stroke-width:1.07414055;stroke-linecap:round;stroke-linejoin:round;stroke-miterlimit:4;stroke-dasharray:none;stroke-dashoffset:0;stroke-opacity:1"
       d="M 1.3699295,520.42596 C 1.5133083,445.66266 1.9339257,340.93773 2.3046349,287.70391 l 0.6740169,-96.78876 248.9465482,0.006 248.94654,0.006 7.69501,11.52254 c 16.69397,24.99763 35.19993,40.56229 57.18832,48.09893 4.4554,1.52711 8.78464,2.00323 17.69545,1.94609 10.49778,-0.0673 12.78015,-0.44556 20.7245,-3.4346 4.91014,-1.84743 12.8731,-5.98526 17.69545,-9.19517 10.47076,-6.96965 27.10985,-23.80507 38.04514,-38.49401 l 7.78435,-10.4564 h 218.74916 218.74918 v 38.60262 38.60261 l -97.8612,0.27376 -97.86126,0.27376 -0.31509,7.77527 -0.3151,7.77527 h -20.86334 -20.86334 l -5.09664,-3.60042 c -9.03396,-6.38189 -16.15878,-7.47097 -29.22678,-4.4675 -3.83402,0.88119 -11.17626,2.57435 -16.31608,3.76259 -8.63081,1.99529 -13.03706,2.16043 -57.64428,2.16043 h -48.29914 v -5.53885 -5.53886 l -88.65455,0.71282 c -48.76001,0.39206 -102.81157,0.71283 -120.1146,0.71283 h -31.46003 v 4.85523 4.85523 l -52.81825,-0.3195 -52.81825,-0.3195 -14.4781,-3.58752 c -22.34395,-5.53659 -32.09153,-4.55849 -40.14947,4.0287 l -3.14988,3.35678 H 285.1083 263.32368 v -7.39242 c 0,-5.7516 -0.37652,-7.53692 -1.69639,-8.04339 -2.2171,-0.85079 -211.025354,-0.85079 -213.242461,0 -1.533876,0.5886 -1.69639,13.00925 -1.69639,129.65191 0,116.64267 0.162514,129.06332 1.69639,129.65192 2.217107,0.85079 211.025361,0.85079 213.242461,0 1.31148,-0.50326 1.69615,-2.26748 1.69532,-7.77527 l -10e-4,-7.12431 22.16214,0.31138 22.16215,0.31138 3.79139,3.32889 c 2.08526,1.83089 5.93775,4.27832 8.56108,5.43875 5.66964,2.50796 8.68371,2.31554 31.80264,-2.03031 16.00099,-3.00783 16.35665,-3.02566 66.69359,-3.3454 l 50.60679,-0.32147 0.33466,4.05187 0.33465,4.05188 90.08594,-0.2838 c 49.54727,-0.15607 103.71949,-0.57312 120.38271,-0.92677 l 30.29676,-0.64298 v -3.09492 -3.09492 h 44.97285 c 34.91348,0 46.60776,0.34357 52.28203,1.53603 13.26523,2.78771 33.67551,5.97113 38.28352,5.97113 5.30933,0 14.69804,-4.31524 17.70451,-8.13737 2.03016,-2.58093 2.08681,-2.58715 23.54434,-2.58715 h 21.50928 l 0.32163,6.1666 0.32163,6.1666 97.8613,0.27375 97.8612,0.27376 v 64.34146 64.34146 H 892.4839 679.76951 l -8.95122,-12.06508 c -18.01216,-24.27805 -30.14636,-35.70525 -46.34401,-43.64376 -12.62493,-6.1875 -20.63181,-7.97326 -32.44414,-7.23593 -19.12057,1.19351 -35.13109,9.54536 -53.74224,28.0345 -8.43619,8.38087 -25.37253,29.47732 -26.93649,33.55293 -0.4181,1.08955 -50.80295,1.35734 -255.38152,1.35736 l -254.8606492,10e-6 z"
       id="path5033"
       inkscape:connector-curvature="0"
       transform="matrix(0.26458333,0,0,0.26458333,0,87)" />
    <path
       style="opacity:1;fill:#808000;fill-opacity:1;stroke:#010101;stroke-width:1.07414055;stroke-linecap:round;stroke-linejoin:round;stroke-miterlimit:4;stroke-dasharray:none;stroke-dashoffset:0;stroke-opacity:1"
       d="m 263.32262,464.65845 0.001,-18.4998 h 21.94753 c 21.08746,0 21.99402,0.0869 23.13397,2.21689 1.53666,2.87128 10.04834,8.25326 15.28104,9.66227 4.27007,1.14981 3.78073,1.21433 37.33315,-4.9225 14.09181,-2.57744 16.15035,-2.66685 61.39786,-2.66685 h 46.81718 v 5.95687 5.95686 l 50.40576,-0.32649 50.40575,-0.3265 -5.2e-4,2.28901 -5.2e-4,2.28902 -50.40524,0.79558 -50.40523,0.79558 v 5.76314 5.76313 h -48.82919 c -54.01666,0 -45.63603,0.75629 -79.0639,-7.13501 -12.63556,-2.98287 -22.51981,-0.80225 -30.50654,6.73021 l -3.75241,3.53898 -21.88041,0.3097 -21.88041,0.3097 z"
       id="path5035"
       inkscape:connector-curvature="0"
       transform="matrix(0.26458333,0,0,0.26458333,0,87)" />
    <path
       style="opacity:1;fill:#808000;fill-opacity:1;stroke:#010101;stroke-width:1.07414055;stroke-linecap:round;stroke-linejoin:round;stroke-miterlimit:4;stroke-dasharray:none;stroke-dashoffset:0;stroke-opacity:1"
       d="m 263.32265,398.16644 10e-4,-16.35489 h 21.57557 21.57557 l 3.82505,3.35844 c 4.95393,4.34961 11.5741,7.32033 16.29847,7.31373 2.06447,-0.003 10.51002,-1.29504 18.7679,-2.87147 14.85404,-2.83563 15.60109,-2.87006 69.97748,-3.22561 l 54.96315,-0.35938 v 5.85248 5.85248 l 48.62809,-0.61906 48.62809,-0.61907 0.66214,2.53208 c 0.3642,1.39264 0.50591,2.68832 0.31493,2.8793 -0.19097,0.19097 -22.61288,0.65225 -49.82646,1.02506 l -49.47925,0.67783 v 4.11592 4.11592 h -50.43365 c -45.70232,0 -51.2107,-0.18909 -58.71672,-2.01563 -30.90658,-7.52088 -38.31877,-7.38141 -47.74904,0.89848 l -3.61867,3.17723 -22.69736,0.31053 -22.69735,0.31052 z"
       id="path5039"
       inkscape:connector-curvature="0"
       transform="matrix(0.26458333,0,0,0.26458333,0,87)" />
    <path
       style="opacity:1;fill:#808000;fill-opacity:1;stroke:#010101;stroke-width:1.07414055;stroke-linecap:round;stroke-linejoin:round;stroke-miterlimit:4;stroke-dasharray:none;stroke-dashoffset:0;stroke-opacity:1"
       d="M 263.32368,333.55122 V 316.392 h 21.02335 21.02335 l 5.35591,4.81542 c 6.91167,6.21419 13.7615,8.40614 21.56416,6.90054 32.69987,-6.30975 33.30361,-6.35371 87.26595,-6.35371 h 50.75047 v 5.20879 5.20878 l 48.26032,-0.53572 48.26033,-0.53573 v 3.37033 3.37033 h -48.26033 -48.26032 v 4.82603 4.82604 h -47.64193 -47.64193 l -13.21971,-3.0977 c -25.78567,-6.04221 -30.63411,-6.88443 -35.66347,-6.19508 -6.3055,0.86426 -12.40657,4.00054 -17.01681,8.74755 l -3.65417,3.76258 h -21.07258 -21.07259 z"
       id="path5041"
       inkscape:connector-curvature="0"
       transform="matrix(0.26458333,0,0,0.26458333,0,87)" />
    <path
       style="opacity:1;fill:#808000;fill-opacity:1;stroke:#010101;stroke-width:1.07414055;stroke-linecap:round;stroke-linejoin:round;stroke-miterlimit:4;stroke-dasharray:none;stroke-dashoffset:0;stroke-opacity:1"
       d="m 865.40473,347.38194 c -3.1032,-3.42899 -10.04136,-7.14493 -15.69956,-8.40835 -4.33314,-0.96756 -7.39234,-0.6626 -20.91281,2.08469 -8.71044,1.76992 -18.20624,3.94181 -21.10176,4.82642 -4.32915,1.32261 -13.42842,1.6084 -51.20957,1.6084 h -45.94498 v -5.36226 -5.36226 H 658.111 605.68594 l -0.61877,-2.36618 c -0.34032,-1.3014 -0.38284,-2.60211 -0.0945,-2.89047 0.28835,-0.28835 24.15807,-0.7331 53.04382,-0.98832 l 52.51954,-0.46404 v -4.68888 -4.68889 l 44.23863,-7.8e-4 c 48.10587,-8.6e-4 42.81991,-0.45702 81.26273,7.01274 4.43733,0.86221 9.50466,1.56294 11.26074,1.55718 4.92542,-0.0162 13.48747,-4.53834 17.93627,-9.4733 l 4.0189,-4.4581 h 19.84315 19.84315 v 17.15923 17.15923 h -20.74659 c -19.72531,0 -20.8471,-0.11106 -22.7883,-2.25606 z"
       id="path5043"
       inkscape:connector-curvature="0"
       transform="matrix(0.26458333,0,0,0.26458333,0,87)" />
    <path
       style="opacity:1;fill:#808000;fill-opacity:1;stroke:#010101;stroke-width:1.07414055;stroke-linecap:round;stroke-linejoin:round;stroke-miterlimit:4;stroke-dasharray:none;stroke-dashoffset:0;stroke-opacity:1"
       d="m 862.82419,412.18874 c -3.81698,-4.03141 -12.57695,-7.83289 -18.07823,-7.84523 -4.3133,-0.01 -8.5139,0.76342 -26.64892,4.90454 -5.24048,1.19667 -17.49351,1.5197 -57.64428,1.5197 H 709.4636 v -4.93102 -4.93102 l -51.47768,0.79064 -51.47769,0.79065 v -2.66266 -2.66266 l 16.89112,-0.70056 c 9.29011,-0.3853 32.69637,-0.70216 52.01391,-0.70412 l 35.12279,-0.004 v -4.82603 -4.82603 h 46.99688 c 49.80034,0 51.07042,0.097 83.72468,6.39396 3.83302,0.73915 7.0909,0.76205 9.66856,0.068 4.8944,-1.31793 13.52945,-6.74128 15.33388,-9.63063 1.303,-2.08642 2.37867,-2.19355 22.02474,-2.19355 h 20.65483 v 17.15923 17.15922 l -21.71715,-0.0185 -21.71715,-0.0185 -2.68113,-2.83175 z"
       id="path5045"
       inkscape:connector-curvature="0"
       transform="matrix(0.26458333,0,0,0.26458333,0,87)" />
    <path
       style="opacity:1;fill:#808000;fill-opacity:1;stroke:#010101;stroke-width:1.07414055;stroke-linecap:round;stroke-linejoin:round;stroke-miterlimit:4;stroke-dasharray:none;stroke-dashoffset:0;stroke-opacity:1"
       d="m 864.02871,480.08146 c -1.31271,-1.39731 -4.87928,-3.89718 -7.92574,-5.55527 -6.72243,-3.6588 -14.43366,-3.9944 -26.52478,-1.15438 -4.42386,1.03909 -12.00741,2.82157 -16.8523,3.96106 -8.00492,1.88269 -13.11935,2.07179 -56.0356,2.07179 H 709.4636 v -7.14373 -7.14374 l -50.8074,0.73965 -50.8074,0.73966 v -2.71176 -2.71176 h 41.5268 c 22.83975,0 45.94438,-0.31357 51.34363,-0.69682 l 9.81682,-0.69682 v -4.66544 -4.66544 l 43.16618,-7.9e-4 c 41.3252,-7.5e-4 43.76078,0.11144 57.10806,2.63063 36.88025,6.96085 37.27403,6.9954 44.15075,3.87309 2.45853,-1.11626 6.38353,-4.00128 8.72223,-6.41115 l 4.25219,-4.38159 h 20.50208 20.50208 v 18.23168 18.23168 h -21.2621 c -20.97919,0 -21.29384,-0.0338 -23.64881,-2.54055 z"
       id="path5047"
       inkscape:connector-curvature="0"
       transform="matrix(0.26458333,0,0,0.26458333,0,87)" />
    <path
       style="fill:none;stroke:#000000;stroke-width:0.66500002;stroke-linecap:butt;stroke-linejoin:miter;stroke-miterlimit:4;stroke-dasharray:0.665, 1.995;stroke-dashoffset:0;stroke-opacity:1"
       d="m 291.96077,143.6509 -89.06601,-0.3994 1.1982,98.65159 88.2672,0.3994"
       id="path5049"
       inkscape:connector-curvature="0" />
    <path
       style="fill:none;stroke:#000000;stroke-width:0.66500002;stroke-linecap:butt;stroke-linejoin:miter;stroke-miterlimit:4;stroke-dasharray:0.66500001, 1.99500002;stroke-dashoffset:0;stroke-opacity:1"
       d="m 12.424362,143.32422 89.065938,-0.3994 -1.1982,98.65159 -88.267128,0.3994"
       id="path5049-3"
       inkscape:connector-curvature="0" />
    <path
       style="fill:none;stroke:#000000;stroke-width:1.06500006;stroke-linecap:butt;stroke-linejoin:miter;stroke-miterlimit:4;stroke-dasharray:1.065, 3.195;stroke-dashoffset:0;stroke-opacity:1"
       d="m 154.96687,101.69382 v 188.5164"
       id="path5068"
       inkscape:connector-curvature="0" />
  </g>
</svg>
