\relax 
\@writefile{toc}{\contentsline {chapter}{\numberline {A}Zusammensetzung des Batteriepacks}{71}}
\@writefile{lof}{\addvspace {10\p@ }}
\@writefile{lot}{\addvspace {10\p@ }}
\@writefile{lof}{\contentsline {figure}{\numberline {A.1}{\ignorespaces Untere Halbschale}}{71}}
\newlabel{fig:packxy}{{A.1}{71}}
\@writefile{lof}{\contentsline {figure}{\numberline {A.2}{\ignorespaces Untere und obere Halbschale}}{71}}
\newlabel{fig:pack2}{{A.2}{71}}
\@writefile{lof}{\contentsline {figure}{\numberline {A.3}{\ignorespaces MC4 Stecker mit Ringkabelschuh}}{72}}
\newlabel{fig:pack3}{{A.3}{72}}
\@writefile{lof}{\contentsline {figure}{\numberline {A.4}{\ignorespaces Angeschraubte MC4 Stecker an Pack}}{73}}
\newlabel{fig:pack4}{{A.4}{73}}
\@writefile{lof}{\contentsline {figure}{\numberline {A.5}{\ignorespaces Zoom: Angeschraubter MC4 Stecker}}{73}}
\newlabel{fig:pack5}{{A.5}{73}}
\@writefile{lof}{\contentsline {figure}{\numberline {A.6}{\ignorespaces Zoom: Ringkabelschuh an Blechen des Packs angeschraubt}}{74}}
\newlabel{fig:pack6}{{A.6}{74}}
\@writefile{lof}{\contentsline {figure}{\numberline {A.7}{\ignorespaces Kompletter Pack mit Au\IeC {\ss }enkontakten verschraubt}}{74}}
\newlabel{fig:pack7}{{A.7}{74}}
\@writefile{lof}{\contentsline {figure}{\numberline {A.8}{\ignorespaces Pack Controller Platine in Au\IeC {\ss }enbereich des Kunststoffs.}}{75}}
\newlabel{fig:pack8}{{A.8}{75}}
\@writefile{lof}{\contentsline {figure}{\numberline {A.9}{\ignorespaces H\IeC {\"a}lfte der Akkuzellen in Pack. Erst Pluspol oben, dann Minuspol oben usw.}}{75}}
\newlabel{fig:pack9}{{A.9}{75}}
\@writefile{lof}{\contentsline {figure}{\numberline {A.10}{\ignorespaces Komplette Bef\IeC {\"u}llung des Packs mit Akkuzellen}}{75}}
\newlabel{fig:pack10}{{A.10}{75}}
\@writefile{lof}{\contentsline {figure}{\numberline {A.11}{\ignorespaces flex PCB Temperaturstreifen auf Pack}}{76}}
\newlabel{fig:pack11}{{A.11}{76}}
\@writefile{lof}{\contentsline {figure}{\numberline {A.12}{\ignorespaces Eingebrachter flex PCB Streifen in Pack}}{76}}
\newlabel{fig:pack12}{{A.12}{76}}
\@writefile{lof}{\contentsline {figure}{\numberline {A.13}{\ignorespaces Zoom des flex PCB Temperaturstreifens, schwarze ICs sind die Temperatursensoren}}{77}}
\newlabel{fig:pack13}{{A.13}{77}}
\@writefile{lof}{\contentsline {figure}{\numberline {A.14}{\ignorespaces RJ45 Kommunikationskabel in Pack Controller Platine}}{77}}
\newlabel{fig:pack14}{{A.14}{77}}
\@writefile{lof}{\contentsline {figure}{\numberline {A.15}{\ignorespaces Zusammenklappen des Packs}}{78}}
\newlabel{fig:pack15}{{A.15}{78}}
\@writefile{lof}{\contentsline {figure}{\numberline {A.16}{\ignorespaces Verschrauben des Packs}}{78}}
\newlabel{fig:packx}{{A.16}{78}}
\@writefile{lof}{\contentsline {figure}{\numberline {A.17}{\ignorespaces Pack Controller Unit (PCU) vor Pack}}{79}}
\newlabel{fig:pack16}{{A.17}{79}}
\@writefile{lof}{\contentsline {figure}{\numberline {A.18}{\ignorespaces Einbringen der PCU mit Montagewerkzeug}}{79}}
\newlabel{fig:pack17}{{A.18}{79}}
\@writefile{lof}{\contentsline {figure}{\numberline {A.19}{\ignorespaces Verbinden der PCU mit der Kommunikation der Pack Controller Platine}}{80}}
\newlabel{fig:pack18}{{A.19}{80}}
\@writefile{lof}{\contentsline {figure}{\numberline {A.20}{\ignorespaces Verschrauben der Abdeckplatten oben und unten}}{80}}
\newlabel{fig:pack19}{{A.20}{80}}
\@writefile{lof}{\contentsline {figure}{\numberline {A.21}{\ignorespaces Blaue Halbschalen vorne und hinten am Pack}}{81}}
\newlabel{fig:pack20}{{A.21}{81}}
\@setckpt{document}{
\setcounter{page}{82}
\setcounter{equation}{0}
\setcounter{enumi}{3}
\setcounter{enumii}{0}
\setcounter{enumiii}{0}
\setcounter{enumiv}{35}
\setcounter{footnote}{0}
\setcounter{mpfootnote}{0}
\setcounter{part}{0}
\setcounter{chapter}{1}
\setcounter{section}{0}
\setcounter{subsection}{0}
\setcounter{subsubsection}{0}
\setcounter{paragraph}{0}
\setcounter{subparagraph}{0}
\setcounter{figure}{21}
\setcounter{table}{0}
\setcounter{parentequation}{0}
\setcounter{float@type}{4}
}
