\contentsline {chapter}{\numberline {1}Einleitung}{1}
\contentsline {section}{\numberline {1.1}Aufgabenstellung}{1}
\contentsline {chapter}{\numberline {2}Problemanalyse und L\"osungsvarianten}{2}
\contentsline {section}{\numberline {2.1}Erstes Problem}{2}
\contentsline {section}{\numberline {2.2}Zweites Problem}{2}
\contentsline {section}{\numberline {2.3}Erste L\"osungsvariante}{2}
\contentsline {section}{\numberline {2.4}Zweite L\"osungsvariante}{3}
\contentsline {section}{\numberline {2.5}Dritte L\"osungsvariante}{3}
\contentsline {chapter}{\numberline {3}Ergebnisse}{4}
\contentsline {section}{\numberline {3.1}Erstes Detailergebnis}{4}
\contentsline {section}{\numberline {3.2}Zweites Detailergebnis}{5}
\contentsline {chapter}{\numberline {4}Zusammenfassung / Ausblick}{6}
\contentsline {chapter}{Literatur}{6}
