\contentsline {chapter}{\numberline {1}Motivation und Zielsetzung}{1}
\contentsline {section}{\numberline {1.1}Anforderungen}{1}
\contentsline {section}{\numberline {1.2}Vorgehen}{1}
\contentsline {subsection}{\numberline {1.2.1}Thermische Verteilung}{1}
\contentsline {subsection}{\numberline {1.2.2}Messung der Temperatur}{2}
\contentsline {chapter}{\numberline {2}Analyse der thermischen Verteilung}{3}
\contentsline {section}{\numberline {2.1}Thermische Analyse Batterie}{3}
\contentsline {subsection}{\numberline {2.1.1}Versuchsaufbau}{3}
\contentsline {subsection}{\numberline {2.1.2}Analyse der Ergebnisse}{3}
\contentsline {section}{\numberline {2.2}Thermische Analyse Pack}{4}
\contentsline {subsection}{\numberline {2.2.1}Versuchsaufbau}{4}
\contentsline {subsection}{\numberline {2.2.2}Analyse der Ergebnisse}{4}
\contentsline {chapter}{\numberline {3}Zusammenfassung / Ausblick}{6}
