\relax 
\@writefile{toc}{\contentsline {chapter}{\numberline {1}Motivation und Zielsetzung}{1}}
\@writefile{lof}{\addvspace {10\p@ }}
\@writefile{lot}{\addvspace {10\p@ }}
\@writefile{toc}{\contentsline {section}{\numberline {1.1}Anforderungen}{1}}
\@writefile{toc}{\contentsline {section}{\numberline {1.2}Vorgehen}{1}}
\@writefile{toc}{\contentsline {subsection}{\numberline {1.2.1}Thermische Verteilung}{1}}
\@writefile{lof}{\contentsline {figure}{\numberline {1.1}{\ignorespaces Simulation mit ANSYS Fluent, der mittlere Zylinder simuliert eine erw\"armte Batterie}}{2}}
\newlabel{fig:tmpsimulation}{{1.1}{2}}
\@writefile{lof}{\contentsline {figure}{\numberline {1.2}{\ignorespaces Prinzipieller Aufbau des Zwischenglied von I2C zu 1-Wire}}{2}}
\newlabel{fig:aufbau1i}{{1.2}{2}}
\@writefile{toc}{\contentsline {subsection}{\numberline {1.2.2}Messung der Temperatur}{2}}
\@writefile{toc}{\contentsline {chapter}{\numberline {2}Analyse der thermischen Verteilung}{3}}
\@writefile{lof}{\addvspace {10\p@ }}
\@writefile{lot}{\addvspace {10\p@ }}
\@writefile{toc}{\contentsline {section}{\numberline {2.1}Thermische Analyse Batterie}{3}}
\@writefile{toc}{\contentsline {subsection}{\numberline {2.1.1}Versuchsaufbau}{3}}
\@writefile{toc}{\contentsline {subsection}{\numberline {2.1.2}Analyse der Ergebnisse}{3}}
\@writefile{lof}{\contentsline {figure}{\numberline {2.1}{\ignorespaces Der Temperaturverlauf an Kathode, Anode und Zellwand w\"ahrend eines Ladezyklus mit Konstantstrom I = 10A (oben). Erw\"armung der Zelle mit Konstantstrom I = 20A auf 50\IeC {\textdegree }C, anschlie\IeC {\ss }end Abk\"uhlung an Umgebungsluft (22\IeC {\textdegree }C) (unten)}}{3}}
\newlabel{fig:tmp_kat+anode}{{2.1}{3}}
\@writefile{lof}{\contentsline {figure}{\numberline {2.2}{\ignorespaces Aufbau des Packs mit 26650 - Zellen (links). Struktur der Form (rechts)}}{4}}
\newlabel{fig:pack_mix}{{2.2}{4}}
\@writefile{toc}{\contentsline {section}{\numberline {2.2}Thermische Analyse Pack}{4}}
\@writefile{toc}{\contentsline {subsection}{\numberline {2.2.1}Versuchsaufbau}{4}}
\@writefile{toc}{\contentsline {subsection}{\numberline {2.2.2}Analyse der Ergebnisse}{4}}
\@writefile{lof}{\contentsline {figure}{\numberline {2.3}{\ignorespaces (Links) Interne W\"armeverteilung des Packs mit leerem Heizelement - Slot, (rechts) W\"armeverteilung auf dem Pack}}{5}}
\newlabel{fig:pack2h}{{2.3}{5}}
\@writefile{toc}{\contentsline {chapter}{\numberline {3}Zusammenfassung / Ausblick}{6}}
\@writefile{lof}{\addvspace {10\p@ }}
\@writefile{lot}{\addvspace {10\p@ }}
