\relax 
\@writefile{toc}{\contentsline {chapter}{\numberline {1}Einleitung}{1}}
\@writefile{lof}{\addvspace {10\p@ }}
\@writefile{lot}{\addvspace {10\p@ }}
\@writefile{toc}{\contentsline {chapter}{\numberline {2}Annahmen zur Temperaturregelung}{2}}
\@writefile{lof}{\addvspace {10\p@ }}
\@writefile{lot}{\addvspace {10\p@ }}
\@writefile{toc}{\contentsline {section}{\numberline {2.1}DIN VDE 62619}{2}}
\@writefile{toc}{\contentsline {section}{\numberline {2.2}DIN VDE 62619: \"Uberhitzungskontrolle}{2}}
\@writefile{toc}{\contentsline {section}{\numberline {2.3}Anforderungen an Messsystem}{3}}
\@writefile{lof}{\contentsline {figure}{\numberline {2.1}{\ignorespaces W\"armefluss \"uber Temperaturanstieg in LiFePO4 - Akkus. Der Punkt (c) zeigt die Zersetzung der SEI bei 100.13 \IeC {\textdegree }C}}{3}}
\newlabel{fig:tmp_heat_relation}{{2.1}{3}}
\@writefile{toc}{\contentsline {chapter}{\numberline {3}Platzierung der Sensoren}{4}}
\@writefile{lof}{\addvspace {10\p@ }}
\@writefile{lot}{\addvspace {10\p@ }}
\@writefile{toc}{\contentsline {section}{\numberline {3.1}\"Uberlegungen zur Platzierung}{4}}
\@writefile{lof}{\contentsline {figure}{\numberline {3.1}{\ignorespaces Batterie-Pack von oben. Gr\"une Kreise sind die Fl\"achen der Batterie-Zellen, rote Punkte die m\"oglichen Platzierungen der Sensoren}}{4}}
\newlabel{fig:sensorverteilung}{{3.1}{4}}
\@writefile{toc}{\contentsline {section}{\numberline {3.2}Versuchsaufbau: Platzierung der Sensoren innen und au\IeC {\ss }en}{5}}
\@writefile{lof}{\contentsline {figure}{\numberline {3.2}{\ignorespaces 3D - Skizze des Batteriepack. Ausschnitt zeigt die Platzierung der Sensoren einmal (A) auf dem Pack oder (B) im Pack lokalisiert}}{5}}
\newlabel{fig:3dpack}{{3.2}{5}}
\@writefile{toc}{\contentsline {section}{\numberline {3.3}Messergebnisse: Platzierung der Sensoren innen und au\IeC {\ss }en}{5}}
\@writefile{lof}{\contentsline {figure}{\numberline {3.3}{\ignorespaces Erw\"armung der Sensoren auf und in Pack. Die graue Linie zeigt die Erw\"armung des Heizelements, blau den Sensor innen und rot den Sensor au\IeC {\ss }en auf dem Pack}}{6}}
\newlabel{fig:innen_aussen}{{3.3}{6}}
\@writefile{toc}{\contentsline {section}{\numberline {3.4}Versuchsaufbau: Sensorplatzierung innen}{6}}
\@writefile{toc}{\contentsline {section}{\numberline {3.5}Messergebnisse: Sensorplatzierung innen}{6}}
\@writefile{lof}{\contentsline {figure}{\numberline {3.4}{\ignorespaces Quantitative 3D - Skizze zur Ausbreitung der W\"arme innen (Abbildung oben) und Ausbreitung der W\"arme au\IeC {\ss }en (Abbildung unten). X und Y-Achse beschreiben die Fl\"ache des Packs, die Z-Achse die maximale Erw\"armung}}{7}}
\newlabel{fig:3d}{{3.4}{7}}
\@writefile{lof}{\contentsline {figure}{\numberline {3.5}{\ignorespaces M\"ogliche Anbringung der Sensoren an A (in \"Offnungen) oder B (auf Sockel im Zwischenraum)}}{8}}
\newlabel{fig:platz}{{3.5}{8}}
\@writefile{lof}{\contentsline {figure}{\numberline {3.6}{\ignorespaces Sensorplatzierung auf Sockel (t\"urkis eingef\"arbt) und in \"Offnungen (gelb eingef\"arbt). Die rote Zelle symbolisiert das Heizelement}}{8}}
\newlabel{fig:querschnitt}{{3.6}{8}}
\@writefile{lof}{\contentsline {figure}{\numberline {3.7}{\ignorespaces Sensor 3 (Sockel) sowie Sensoren in \"Offnungen drumherum (9,10,11,12)}}{8}}
\newlabel{fig:31112}{{3.7}{8}}
\@writefile{toc}{\contentsline {chapter}{\numberline {4}Fazit}{9}}
\@writefile{lof}{\addvspace {10\p@ }}
\@writefile{lot}{\addvspace {10\p@ }}
\@writefile{toc}{\contentsline {chapter}{\numberline {5}Ausblick: Implementierung}{10}}
\@writefile{lof}{\addvspace {10\p@ }}
\@writefile{lot}{\addvspace {10\p@ }}
\@writefile{lof}{\contentsline {figure}{\numberline {5.1}{\ignorespaces Darstellung der Verteilung der Sensoren}}{10}}
\newlabel{fig:packoben}{{5.1}{10}}
\@writefile{lof}{\contentsline {figure}{\numberline {5.2}{\ignorespaces Beispiel f\"ur Implementierung auf flexible PCB}}{11}}
\newlabel{fig:flexpcb}{{5.2}{11}}
