\relax 
\AC@reset@newl@bel
\newacro{nablaT}[\AC@hyperlink{nablaT}{$\nabla {T}$}]{Gradient von T}
\newacro{deltax,deltay,deltaz}[\AC@hyperlink{deltax,deltay,deltaz}{$\frac  {\partial {T}}{\partial {x}} \frac  {\partial {T}}{\partial {y}} \frac  {\partial {T}}{\partial {z}}$}]{Ableitung der Temperatur T \IeC {\"u}ber x,y,z - Koordinate}
\newacro{ex,ey,ez}[\AC@hyperlink{ex,ey,ez}{$\mathaccentV {vec}17E{e_x},\mathaccentV {vec}17E{e_y},\mathaccentV {vec}17E{e_z}$}]{Einheitsvektoren in x,y,z - Richtung}
\newacro{lambda}[\AC@hyperlink{lambda}{$\lambda $}]{W\IeC {\"a}rmeleitf\IeC {\"a}higkeitskoeffizient}
\newacro{alpha}[\AC@hyperlink{alpha}{$\alpha $}]{W\IeC {\"a}rme\IeC {\"u}bergangskoeffizient}
\newacro{sigma}[\AC@hyperlink{sigma}{$\sigma $}]{Stefan-Boltzmann-Konstante}
\newacro{varthetaM}[\AC@hyperlink{varthetaM}{$\vartheta _{M}$}]{Temperatur an Messstelle}
\newacro{varthetaV}[\AC@hyperlink{varthetaV}{$\vartheta _{V}$}]{Vergleichstemperatur (isothermer Block)}
\newacro{A}[\AC@hyperlink{A}{$A$}]{Fl\IeC {\"a}che}
\newacro{C}[\AC@hyperlink{C}{$C$}]{Kapazit\IeC {\"a}t, Kondensator}
\newacro{Cl}[\AC@hyperlink{Cl}{$C_L$}]{Leitungskapazit\IeC {\"a}t}
\newacro{Cl'}[\AC@hyperlink{Cl'}{$C_L'$}]{Leitungskapazit\IeC {\"a}tsbelag}
\newacro{Cth}[\AC@hyperlink{Cth}{$C_{th}$}]{W\IeC {\"a}rmekapazit\IeC {\"a}t}
\newacro{$E^{0}$}[\AC@hyperlink{$E^{0}$}{$E_{0}$}]{Standardpotential gegen Bezugselektrode von 0V}
\newacro{deltaE}[\AC@hyperlink{deltaE}{$\Delta {E}$}]{Differenz der Standardpotentiale}
\newacro{q}[\AC@hyperlink{q}{$\mathaccentV {dot}05FQ$}]{W\IeC {\"a}rmestrom}
\newacro{qpunkt}[\AC@hyperlink{qpunkt}{$\mathaccentV {dot}05F{q}$}]{W\IeC {\"a}rmestromdichte}
\newacro{qpunktpunkt}[\AC@hyperlink{qpunktpunkt}{$\mathaccentV {dot}05F{\mathaccentV {vec}17E{q}}$}]{W\IeC {\"a}rmestromdichte als Vektor}
\newacro{W}[\AC@hyperlink{W}{$Q$}]{W\IeC {\"a}rmemenge}
\newacro{Qs}[\AC@hyperlink{Qs}{$Q_s$}]{W\IeC {\"a}rmemenge (Strahlung)}
\newacro{Qu}[\AC@hyperlink{Qu}{$Q_u$}]{\IeC {\"U}bergangsw\IeC {\"a}rmemenge (Konvektion)}
\newacro{R0}[\AC@hyperlink{R0}{$R_0$}]{elektrischer Vergleichswiderstand}
\newacro{R25}[\AC@hyperlink{R25}{$R_{25}$}]{elektrischer Widerstand bei T = $25^\circ \rm  C$}
\newacro{Rp}[\AC@hyperlink{Rp}{$R_p$}]{pull-up Widerstand}
\newacro{RNTC}[\AC@hyperlink{RNTC}{$R_{NTC}$}]{Widerstand des NTC}
\newacro{tpfeil}[\AC@hyperlink{tpfeil}{$t$}]{Zeit}
\newacro{Tacc}[\AC@hyperlink{Tacc}{$\Delta T_{accuracy}$}]{Genauigkeitsabweichung Temperatur}
\newacro{Tdis}[\AC@hyperlink{Tdis}{$\Delta T_{distance}$}]{Genauigkeitsabweichung Temperatur durch Entfernung}
\newacro{Tk}[\AC@hyperlink{Tk}{$T_K$}]{K\IeC {\"o}rpertemperatur}
\newacro{TM}[\AC@hyperlink{TM}{$T_M$}]{mittlere thermodyn. Temperatur}
\newacro{TU}[\AC@hyperlink{TU}{$T_U$}]{Umgebungstemperatur}
\newacro{UMessdigital}[\AC@hyperlink{UMessdigital}{$U_{Mess,digital}$}]{Messspannung digitalisiert (nach ADC)}
\newacro{UMess}[\AC@hyperlink{UMess}{$U_{Mess}$}]{Messspannung}
\newacro{U0}[\AC@hyperlink{U0}{$U_0$}]{Eingangs- oder Versorgungs-spannung}
\newacro{Ucc}[\AC@hyperlink{Ucc}{$U_{CC}$}]{Versorgungsspannung}
\newacro{UOL}[\AC@hyperlink{UOL}{$U_{OL}$}]{low-level output voltage}
\newacro{UPU}[\AC@hyperlink{UPU}{$U_{PU}$}]{Spannung einer parasit\IeC {\"a}ren Einheit (unit)}
\newacro{xpfeil}[\AC@hyperlink{xpfeil}{$\mathaccentV {vec}17E{x}$}]{Ortsvektor}
\newacro{Zth}[\AC@hyperlink{Zth}{$Z_{th}$}]{thermische Impedanz}
\newacro{adc}[\AC@hyperlink{adc}{ADC}]{Analog-Digital-Konverter}
\newacro{bms}[\AC@hyperlink{bms}{BMS}]{Batteriemanagment - System}
\newacro{clk}[\AC@hyperlink{clk}{CLK}]{Clocksignal SPI}
\newacro{crc}[\AC@hyperlink{crc}{CRC}]{Cyclic-redundancy-check}
\newacro{cs}[\AC@hyperlink{cs}{CS}]{Chip-Select SPI}
\newacro{cu100}[\AC@hyperlink{cu100}{Cu100}]{Kupfer-Widerstandsthermometer (100 Ohm bei $0^\circ \rm  C$)}
\newacro{din}[\AC@hyperlink{din}{DIN}]{Deutsches Institut f\IeC {\"u}r Normung, deutsche Norm}
\newacro{diy}[\AC@hyperlink{diy}{DIY}]{do-it-yourself - Selbstaufbau}
\newacro{emk}[\AC@hyperlink{emk}{EMK}]{Elektromotorische Kraft}
\newacro{en}[\AC@hyperlink{en}{EN}]{Europ\IeC {\"a}ische Norm}
\newacro{esb}[\AC@hyperlink{esb}{ESB}]{Ersatzschaltbild}
\newacro{i2c}[\AC@hyperlink{i2c}{I2C}]{Inter-Integrated Circuit - Datenbus}
\newacro{ic}[\AC@hyperlink{ic}{IC}]{Integrated Circuit - integrierter Schaltkreis}
\newacro{lifepo4}[\AC@hyperlink{lifepo4}{LiFePO\textsubscript  {4}}]{Lithiumeisenphosphat}
\newacro{LFP}[\AC@hyperlink{LFP}{LFP}]{Lithiumeisenphosphat}
\newacro{miso}[\AC@hyperlink{miso}{MISO}]{Master Input Slave Output - Datenleitung SPI}
\newacro{mosi}[\AC@hyperlink{mosi}{MOSI}]{Master Output Slave Input - Datenleitung SPI}
\newacro{ni100}[\AC@hyperlink{ni100}{Ni100}]{Nickel-Widerstandsthermometer (100 Ohm bei $0^\circ \rm  C$)}
\newacro{nicd}[\AC@hyperlink{nicd}{NiCd}]{Nickelcadmium}
\newacro{ntc}[\AC@hyperlink{ntc}{NTC}]{Widerstandsthermometer mit negativem Temperaturkoeffizienten (Steigung)}
\newacro{nimh}[\AC@hyperlink{nimh}{NiMH}]{Nickelmetalhydrid}
\newacro{pcb}[\AC@hyperlink{pcb}{PCB}]{Printed-Circuit-Board - Leiterplatine}
\newacro{pt100}[\AC@hyperlink{pt100}{Pt100}]{Platin-Widerstandsthermometer (100 Ohm bei $0^\circ \rm  C$)}
\newacro{ptc}[\AC@hyperlink{ptc}{PTC}]{Widerstandsthermometer mit positivem Temperaturkoeffizienten (positive Steigung)}
\newacro{pwm}[\AC@hyperlink{pwm}{PWM}]{Pulsweitenmodulation}
\newacro{rtd}[\AC@hyperlink{rtd}{RTD}]{resistance temperature detector, Widerstandsthermometer}
\newacro{scl}[\AC@hyperlink{scl}{SCL}]{serial clock - Taktleitung I2C}
\newacro{sda}[\AC@hyperlink{sda}{SDA}]{seral data - Datenleitung I2C}
\newacro{sei}[\AC@hyperlink{sei}{SEI}]{Solid Electrolyte Interphase}
\newacro{soc}[\AC@hyperlink{soc}{SOC}]{State of Charge}
\newacro{spi}[\AC@hyperlink{spi}{SPI}]{Serial Peripheral Interface - Datenbus}
\newacro{un}[\AC@hyperlink{un}{UN}]{United Nations}
\newacro{vde}[\AC@hyperlink{vde}{VDE}]{Verband der Elektrotechnik}
\newacro{vdeare}[\AC@hyperlink{vdeare}{VDE-AR-E}]{Anwendungsregel des VDE}
\citation{expl}
\citation{chem}
\citation{chem}
\@writefile{toc}{\contentsline {chapter}{Einleitung}{1}}
\@writefile{lof}{\contentsline {figure}{\numberline {1}{\ignorespaces Energiedichte unterschiedlicher Akkumulatortypen im Vergleich (Abb. nach \cite  {chem})}}{2}}
\newlabel{fig:density}{{1}{2}}
\citation{Wen2012}
\citation{Wen2012}
\citation{Wen2012}
\citation{Sun2014}
\@writefile{toc}{\contentsline {chapter}{\numberline {1}Motivation und Zielsetzung}{3}}
\@writefile{lof}{\addvspace {10\p@ }}
\@writefile{lot}{\addvspace {10\p@ }}
\@writefile{lof}{\contentsline {figure}{\numberline {1.1}{\ignorespaces W\IeC {\"a}rmefluss \IeC {\"u}ber Temperaturanstieg in LiFePO4 - Akkus an Kathode und Anode. Der Punkt (c) zeigt die Zersetzung der SEI bei $100.1^\circ \rm  C$ (Abb. nach \cite  {Wen2012})}}{4}}
\newlabel{fig:tmp_heat_relation}{{1.1}{4}}
\citation{Kurzweil2015a}
\citation{Wang2012}
\citation{Wang2012}
\@writefile{toc}{\contentsline {chapter}{\numberline {2}Grundlagen}{5}}
\@writefile{lof}{\addvspace {10\p@ }}
\@writefile{lot}{\addvspace {10\p@ }}
\@writefile{toc}{\contentsline {section}{\numberline {2.1}Die Lithiumeisenphosphat - Sekund\IeC {\"a}rzelle}{5}}
\@writefile{toc}{\contentsline {subsection}{\numberline {2.1.1}Prinzipieller Aufbau und Wirkungsweise}{5}}
\citation{Graf2013}
\citation{Graf2013}
\citation{Graf2013}
\@writefile{lof}{\contentsline {figure}{\numberline {2.1}{\ignorespaces Aufbau der Elektrodenzusammensetzung einer LiFePO\textsubscript  {4} - Akkumulator - Zelle (eigene Abbildung nach \cite  {Wang2012})}}{6}}
\newlabel{fig:lfp_aufbau}{{2.1}{6}}
\@writefile{toc}{\contentsline {subsubsection}{Das Kathodenmaterial Lithiumeisenphosphat (LFP)}{6}}
\citation{Kurzweil2015a}
\@writefile{lof}{\contentsline {figure}{\numberline {2.2}{\ignorespaces Olivinstruktur von LFP mit eingezeichneter Elementarzelle(schwarz Fe; grau O; dunkelgrau und klein Li)(\cite  {Graf2013}, Abb. 4.5)}}{7}}
\newlabel{fig:olivin}{{2.2}{7}}
\@writefile{toc}{\contentsline {subsection}{\numberline {2.1.2}Spannungstypen und Kennlinie}{7}}
\citation{Kurzweil2015a}
\newlabel{eq:leer}{{2.4}{8}}
\@writefile{toc}{\contentsline {subsection}{\numberline {2.1.3}Thermisches Verhalten}{8}}
\citation{ikt:kompendium}
\@writefile{lof}{\contentsline {figure}{\numberline {2.3}{\ignorespaces Messung der Klemmenspannungsverlauf \IeC {\"u}ber dem SOC}}{9}}
\newlabel{fig:ocv}{{2.3}{9}}
\@writefile{toc}{\contentsline {subsection}{\numberline {2.1.4}Weitere charakteristische Daten}{9}}
\citation{Koehler2013}
\@writefile{toc}{\contentsline {section}{\numberline {2.2}Das Batteriespeichersystem}{11}}
\@writefile{toc}{\contentsline {subsection}{\numberline {2.2.1}Aufbau und Verschaltung des Batteriepacks}{11}}
\@writefile{lof}{\contentsline {figure}{\numberline {2.4}{\ignorespaces Serielle Verschaltung von vier Akkuzellen. Links: elektrisches Schaltbild. Rechts: 3D - Anordnung der Zellen}}{11}}
\newlabel{fig:ser1}{{2.4}{11}}
\@writefile{toc}{\contentsline {subsubsection}{Serienschaltung}{11}}
\@writefile{toc}{\contentsline {subsubsection}{Parallelschaltung}{12}}
\@writefile{lof}{\contentsline {figure}{\numberline {2.5}{\ignorespaces Parallele Verschaltung von vier Akkuzellen. Links: elektrisches Schaltbild. Rechts: 3D - Anordnung der Zellen}}{12}}
\newlabel{fig:par1}{{2.5}{12}}
\@writefile{toc}{\contentsline {subsubsection}{Batterieverschaltung}{12}}
\@writefile{lof}{\contentsline {figure}{\numberline {2.6}{\ignorespaces Packverschaltung von vier mal vier Akkuzellen. Links: elektrisches Schaltbild. Rechts: 3D - Anordnung der Zellen}}{12}}
\newlabel{fig:packv}{{2.6}{12}}
\citation{Koehler2013}
\newlabel{eq:energy}{{2.5}{13}}
\newlabel{eq:energy2}{{2.6}{13}}
\@writefile{lof}{\contentsline {figure}{\numberline {2.7}{\ignorespaces Offener Batteriepack mit 8 seriell und 16 parallel verschaltetem Aufbau. Die genaue Zusammensetzung wird im Anhang detailliert beschrieben.}}{13}}
\newlabel{fig:pack1}{{2.7}{13}}
\@writefile{toc}{\contentsline {subsection}{\numberline {2.2.2}Geh\IeC {\"a}use}{13}}
\citation{Weicker2013}
\citation{DIN}
\@writefile{toc}{\contentsline {subsection}{\numberline {2.2.3}Batterie - Management - System(BMS)}{14}}
\@writefile{toc}{\contentsline {subsubsection}{Grundlagen}{14}}
\citation{Weicker2013}
\@writefile{toc}{\contentsline {subsubsection}{Architekturen}{15}}
\@writefile{lof}{\contentsline {figure}{\numberline {2.8}{\ignorespaces Modulares BMS mit PCU, BCU und dem Security Board. Jedes Pack besitzt eine PCU, die miteinander in Daisy Chain verbunden sind und vom BCU adressiert und ausgelesen werden.}}{15}}
\newlabel{fig:BMS}{{2.8}{15}}
\citation{Jischa1982}
\@writefile{toc}{\contentsline {section}{\numberline {2.3}W\IeC {\"a}rme\IeC {\"u}bertragung}{17}}
\@writefile{toc}{\contentsline {subsection}{\numberline {2.3.1}W\IeC {\"a}rmeleitung}{17}}
\@writefile{lof}{\contentsline {figure}{\numberline {2.9}{\ignorespaces W\IeC {\"a}rmestrom entsteht durch den Temperaturgradienten zwischen zwei Systemen}}{17}}
\newlabel{fig:tmpdiff}{{2.9}{17}}
\newlabel{eq:vecs}{{2.7}{17}}
\citation{Dehli2017}
\newlabel{eq:vec2}{{2.8}{18}}
\newlabel{eq:fourier}{{2.9}{18}}
\@writefile{toc}{\contentsline {subsection}{\numberline {2.3.2}Konvektion}{18}}
\citation{Dehli2017}
\@writefile{lof}{\contentsline {figure}{\numberline {2.10}{\ignorespaces W\IeC {\"a}rmekonvektion im geschlossenem Raum: Erw\IeC {\"a}rmung der Teilchen an Au\IeC {\ss }enfl\IeC {\"a}che des Heizk\IeC {\"o}rpers T und W\IeC {\"a}rmestr\IeC {\"o}mung der Teilchen im Kreislauf}}{19}}
\newlabel{fig:tmpkonv}{{2.10}{19}}
\newlabel{eq:konv}{{2.10}{19}}
\@writefile{toc}{\contentsline {subsection}{\numberline {2.3.3}W\IeC {\"a}rmestrahlung}{19}}
\newlabel{eq:strahl}{{2.11}{19}}
\@writefile{lof}{\contentsline {figure}{\numberline {2.11}{\ignorespaces Der ideale schwarze K\IeC {\"o}rper absorbiert das gesamte einfallende Licht, das von au\IeC {\ss }en auf ihn trifft. Er emittiert ausschlie\IeC {\ss }lich W\IeC {\"a}rmestrahlung}}{20}}
\newlabel{fig:strahlung}{{2.11}{20}}
\newlabel{eq:strahl_real}{{2.12}{20}}
\citation{DIN}
\citation{DIN38}
\@writefile{toc}{\contentsline {section}{\numberline {2.4}Normen und Standards}{21}}
\@writefile{toc}{\contentsline {subsection}{\numberline {2.4.1} DIN EN 62619}{21}}
\@writefile{toc}{\contentsline {subsection}{\numberline {2.4.2}VDE-AR-E 2510-50}{21}}
\@writefile{toc}{\contentsline {subsection}{\numberline {2.4.3}UN 38.3}{21}}
\citation{Bernhard2014a}
\citation{Bernhard2014a}
\citation{Sensor17}
\@writefile{toc}{\contentsline {chapter}{\numberline {3}Experimentelle Methoden und Vorgehen}{23}}
\@writefile{lof}{\addvspace {10\p@ }}
\@writefile{lot}{\addvspace {10\p@ }}
\@writefile{toc}{\contentsline {section}{\numberline {3.1}Messmethoden zur Temperaturmessung}{23}}
\citation{Bernhard2014}
\@writefile{toc}{\contentsline {subsection}{\numberline {3.1.1}Thermoelemente}{24}}
\@writefile{lof}{\contentsline {figure}{\numberline {3.1}{\ignorespaces Prinzipielle Skizze eines Thermoelements. Zwei Materialien erzeugen eine Kontaktspannung in Referenz zum isothermen Block. Die Messspannung kann anschlie\IeC {\ss }end messtechnisch verarbeitet werden.}}{24}}
\newlabel{fig:thermmess}{{3.1}{24}}
\@writefile{toc}{\contentsline {subsection}{\numberline {3.1.2}Thermistoren}{24}}
\citation{1981}
\citation{1981}
\citation{Sensor17}
\citation{ritterm}
\@writefile{lof}{\contentsline {figure}{\numberline {3.2}{\ignorespaces Kennlinien genormter Metall-Widerstandsthermometer mit $R_{0} = 100 \Omega $ (Abb. nach \cite  {1981})}}{25}}
\newlabel{fig:rtd}{{3.2}{25}}
\@writefile{toc}{\contentsline {subsection}{\numberline {3.1.3}Ber\IeC {\"u}hrungslose Temperaturmessung}{25}}
\@writefile{lof}{\contentsline {figure}{\numberline {3.3}{\ignorespaces W\IeC {\"a}rmebildkamera auf einem Stativ (Abb. nach \cite  {ritterm})}}{26}}
\newlabel{fig:diy}{{3.3}{26}}
\@writefile{toc}{\contentsline {section}{\numberline {3.2}Temperatursensoren mit digitaler Schnittstelle}{27}}
\@writefile{lof}{\contentsline {figure}{\numberline {3.4}{\ignorespaces Blockschaltbild eines digitalen Temperatursensors. Nach Digitalisierung der am Sensor gemessenen Spannung erfolgt die Bearbeitung der Daten durch Controller und Bereitstellung zur Kommunikation mit einem Bussystem.}}{27}}
\newlabel{fig:block_temp}{{3.4}{27}}
\@writefile{toc}{\contentsline {subsection}{\numberline {3.2.1}NTC}{27}}
\newlabel{sensor1}{{3.2.1}{27}}
\newlabel{eq:spannungsteiler}{{3.2.1}{27}}
\newlabel{eq:spannungsteiler_mit_werten}{{3.2.1}{27}}
\citation{nxp:max31820par}
\@writefile{lof}{\contentsline {figure}{\numberline {3.5}{\ignorespaces Verschaltung eines NTC-Temperatursensors. Messspannung wird \IeC {\"u}ber Spannungsteiler ermittelt und \IeC {\"u}ber den ADC gewandelt im Microcontroller ausgewertet.}}{28}}
\newlabel{fig:ntc_schaltung}{{3.5}{28}}
\@writefile{toc}{\contentsline {subsection}{\numberline {3.2.2}1-Wire Temperatursensor}{28}}
\newlabel{sensor2}{{3.2.2}{28}}
\citation{nxp:max31820par}
\citation{nxp:max31820par}
\citation{nxp:pct2075}
\citation{nxp:pct2075}
\citation{nxp:pct2075}
\@writefile{lof}{\contentsline {figure}{\numberline {3.6}{\ignorespaces Interner Aufbau eines 1-Wire Temperatursensors. Es beinhaltet den Schaltkreis f\IeC {\"u}r die parasit\IeC {\"a}re Energie, die universelle 64 bit ROM und das Scratchpad mit Temperatur- und Alarmregistern. (Abb. aus \cite  {nxp:max31820par})}}{29}}
\newlabel{fig:1wire}{{3.6}{29}}
\@writefile{toc}{\contentsline {subsection}{\numberline {3.2.3}I2C - Temperatursensor}{29}}
\newlabel{sensor3}{{3.2.3}{29}}
\@writefile{lof}{\contentsline {figure}{\numberline {3.7}{\ignorespaces Anschluss des I2C - Temperatursensors PCT2075, neben VCC und GND f\IeC {\"u}r die Versorgung sind SCL und SDA f\IeC {\"u}r die I2C - Buskommunikation und drei Adresspins A0,A1 und A2 f\IeC {\"u}r die Addressierung des Bausteins vorgesehen (Abb. aus \cite  {nxp:pct2075})}}{30}}
\newlabel{fig:pct2075}{{3.7}{30}}
\citation{nxp:pct2075}
\citation{nxp:pct2075}
\@writefile{lof}{\contentsline {figure}{\numberline {3.8}{\ignorespaces I2C - Befehlskette: Auslesen des Temperaturregisters des Temperatursensors in SCL und SDA Bit-Darstellung (Abb. aus \cite  {nxp:pct2075})}}{31}}
\newlabel{fig:i2c_lese}{{3.8}{31}}
\@writefile{toc}{\contentsline {section}{\numberline {3.3}Vorgehen und Versuchsger\IeC {\"a}te}{31}}
\@writefile{toc}{\contentsline {subsection}{\numberline {3.3.1}Elektrische Betriebsmittel}{31}}
\newlabel{Mittel}{{3.3.1}{31}}
\citation{masch}
\citation{ritterm}
\citation{flir:lepton3.5}
\citation{vis:ntc}
\citation{nxp:max31820par}
\citation{nxp:pct2075}
\@writefile{toc}{\contentsline {subsection}{\numberline {3.3.2}Struktur der Messungen}{33}}
\@writefile{lof}{\contentsline {figure}{\numberline {3.9}{\ignorespaces Messung des thermischen Verhaltens nach pyramidenhaftem Aufbau: Zun\IeC {\"a}chst wird die Zelle untersucht, anschlie\IeC {\ss }end das Geh\IeC {\"a}use und abschlie\IeC {\ss }end der komplette Batteriepack}}{34}}
\newlabel{fig:therm1}{{3.9}{34}}
\citation{anderson}
\citation{anderson}
\citation{Weicker2013}
\@writefile{toc}{\contentsline {chapter}{\numberline {4}Messtechnische Untersuchungen und Analyse der Ergebnisse}{35}}
\@writefile{lof}{\addvspace {10\p@ }}
\@writefile{lot}{\addvspace {10\p@ }}
\@writefile{toc}{\contentsline {section}{\numberline {4.1}Temperaturprofil der LFP - Zelle}{35}}
\@writefile{toc}{\contentsline {subsection}{\numberline {4.1.1}Thermisches Profil von Kathode, Anode und Zellk\IeC {\"o}rper}{35}}
\@writefile{lof}{\contentsline {figure}{\numberline {4.1}{\ignorespaces Vereinfachung des thermischen Ersatzschaltbildes einer zylindrischen LFP - Zelle (Fotoabbildung nach \cite  {anderson})}}{35}}
\newlabel{fig:esb}{{4.1}{35}}
\@writefile{toc}{\contentsline {subsubsection}{Messaufbau}{36}}
\@writefile{lof}{\contentsline {figure}{\numberline {4.2}{\ignorespaces Aufnahme des W\IeC {\"a}rmebilds beim Laden einer Batteriezelle. Links: Elektrische Schaltung des Ladevorgangs. Rechts: Foto des Aufbaus mit W\IeC {\"a}rmebildkamera}}{36}}
\newlabel{fig:wbild}{{4.2}{36}}
\citation{Park2010}
\@writefile{toc}{\contentsline {subsubsection}{Auswertung}{37}}
\@writefile{lof}{\contentsline {figure}{\numberline {4.3}{\ignorespaces Messung der Temperaturerh\IeC {\"o}hung (Umgebungstemp. $22^\circ C$) an Kathode, Anode und Zellk\IeC {\"o}rper w\IeC {\"a}hrend Ladeprozess mit Strom von 5C}}{37}}
\newlabel{fig:ausw1}{{4.3}{37}}
\newlabel{eq:w\IeC {\"a}rmeleistung}{{4.1}{37}}
\citation{eleit1}
\citation{Park2010}
\citation{eleit1}
\citation{Park2010}
\@writefile{lof}{\contentsline {figure}{\numberline {4.4}{\ignorespaces elektrische Leitwerte von Li-Ionen Materialien (Tabelle nach \cite  {eleit1} und \cite  {Park2010}, Tab. 10)}}{38}}
\newlabel{tab:leit}{{4.4}{38}}
\@writefile{toc}{\contentsline {section}{\numberline {4.2}Thermische Verteilung im Batteriepack}{38}}
\@writefile{toc}{\contentsline {subsection}{\numberline {4.2.1}Leerstehendes Pack}{38}}
\@writefile{toc}{\contentsline {subsubsection}{Messaufbau}{38}}
\citation{wl2000}
\citation{abs20}
\@writefile{lof}{\contentsline {figure}{\numberline {4.5}{\ignorespaces Links: Heizelement in \glqq  Zellenform \grqq {}. Rechts: Messaufbau des Heizelements im leeren Batteriepack.}}{39}}
\newlabel{fig:heizi}{{4.5}{39}}
\@writefile{toc}{\contentsline {subsubsection}{Auswertung}{39}}
\newlabel{eq:w\IeC {\"a}rmel}{{4.2}{39}}
\citation{Nanda2014}
\@writefile{lof}{\contentsline {figure}{\numberline {4.6}{\ignorespaces Links: W\IeC {\"a}rmebild des Heizelements im leeren Pack nach einer Stunde. Rechts: Leerstehendes Pack, der stark rote Bereich zeigt den Slot, an dem das Heizelement stand}}{40}}
\newlabel{fig:leer1}{{4.6}{40}}
\@writefile{lof}{\contentsline {figure}{\numberline {4.7}{\ignorespaces W\IeC {\"a}rmeleitf\IeC {\"a}higkeit verschiedener Materialien nach \cite  {wl2000},\cite  {abs20}}}{40}}
\newlabel{tab:wleit}{{4.7}{40}}
\@writefile{toc}{\contentsline {subsection}{\numberline {4.2.2}Verteilung im Pack mit Akkumulatoren}{40}}
\@writefile{toc}{\contentsline {subsubsection}{ANSYS Simulation}{40}}
\@writefile{lof}{\contentsline {figure}{\numberline {4.8}{\ignorespaces Links: Station\IeC {\"a}re thermische Analyse f\IeC {\"u}r Temperaturverlauf im Pack. Mittlere Rundzelle wird auf $50^\circ \rm  C$ erw\IeC {\"a}rmt. Rechts: Verlauf der W\IeC {\"a}rmestromdichte im Kunststoffgeh\IeC {\"a}use}}{41}}
\newlabel{fig:sim}{{4.8}{41}}
\@writefile{toc}{\contentsline {subsubsection}{Messaufbau}{41}}
\@writefile{lof}{\contentsline {figure}{\numberline {4.9}{\ignorespaces Links: Simulationsaufbau. Rechts: Aufbau des Batteriepacks mit allen Zellen}}{42}}
\newlabel{fig:mess3}{{4.9}{42}}
\@writefile{toc}{\contentsline {subsubsection}{Auswertung}{42}}
\@writefile{lof}{\contentsline {figure}{\numberline {4.10}{\ignorespaces Links: Darstellung der Temperaturverteilung gem\IeC {\"a}\IeC {\ss } W\IeC {\"a}rmebildkamera zwischen $22^\circ \rm  C$ und $50^\circ \rm  C$. Das Bild zeigt den Aufbau des Simulationsversuchs. Rechts: Temperaturverteilung im Pack mit 128 Zellen}}{42}}
\newlabel{fig:waerme31}{{4.10}{42}}
\citation{Binder1999}
\@writefile{lof}{\contentsline {figure}{\numberline {4.11}{\ignorespaces Aufreihung der 8 umliegenden Zellen im Temperaturvergleich. Die ersten vier Zellen sind die seitlich platzierten, die letzten vier die diagonalen Zellen.}}{43}}
\newlabel{fig:batreihe}{{4.11}{43}}
\@writefile{lof}{\contentsline {figure}{\numberline {4.12}{\ignorespaces Tabelle: W\IeC {\"a}rmekapazit\IeC {\"a}ten der Materialien einer LFP - Zelle \cite  {Binder1999}}}{44}}
\newlabel{tab:wkap}{{4.12}{44}}
\@writefile{toc}{\contentsline {section}{\numberline {4.3}Versuche zur Sensorplatzierung}{44}}
\@writefile{toc}{\contentsline {subsection}{\numberline {4.3.1}Vergleich: Sensoren an verschiedenen Stellen des Batteriepacks}{44}}
\newlabel{cha}{{4.3.1}{44}}
\@writefile{toc}{\contentsline {subsubsection}{Messaufbau}{44}}
\@writefile{lof}{\contentsline {figure}{\numberline {4.13}{\ignorespaces 3D - Skizze zur Platzierung der Sensoren. Die Sensoren sind oben und unten auf den Packhalbschalen sowie im Pack platziert. Der graue Kreis zeigt den Sensor auf dem Heizelement, die gelben Sensoren die \IeC {\"u}brigen Vergleichssensoren. Die Sensoren mit halbem Zellenabstand sind sowohl unten, oben als auch im Pack verschaltet und befinden sich alle auf einer Ebene.}}{45}}
\newlabel{fig:sens_ou}{{4.13}{45}}
\@writefile{toc}{\contentsline {subsubsection}{Auswertung}{45}}
\@writefile{lof}{\contentsline {figure}{\numberline {4.14}{\ignorespaces Innerer Sensor: Graphischer Verlauf der Temperatur vom inneren Sensor \IeC {\"u}ber die Zeit in Stunden. Die gestrichelte graue Linie zeigt den Temperaturverlauf der Oberfl\IeC {\"a}che des Heizelements als Vergleichsmessung}}{46}}
\newlabel{fig:thesis1}{{4.14}{46}}
\@writefile{lof}{\contentsline {figure}{\numberline {4.15}{\ignorespaces Sensoren unten: Graphischer Verlauf der Temperatur von 5 Sensoren \IeC {\"u}ber der Zeit in Stunden.}}{47}}
\newlabel{fig:thesis2}{{4.15}{47}}
\@writefile{lof}{\contentsline {figure}{\numberline {4.16}{\ignorespaces Sensoren oben: Graphischer Verlauf der Temperatur von 5 Sensoren \IeC {\"u}ber der Zeit in Stunden.}}{47}}
\newlabel{fig:thesis3}{{4.16}{47}}
\@writefile{toc}{\contentsline {subsection}{\numberline {4.3.2}Einfluss der Kontaktplatten}{48}}
\@writefile{lof}{\contentsline {figure}{\numberline {4.17}{\ignorespaces Skizze des ge\IeC {\"o}ffneten Batteriepacks mit Blick von oben. Die grau hinterlegten Fl\IeC {\"a}chen zeigen die Kontaktplatten}}{48}}
\newlabel{fig:bl}{{4.17}{48}}
\@writefile{toc}{\contentsline {subsubsection}{Messaufbau}{48}}
\@writefile{lof}{\contentsline {figure}{\numberline {4.18}{\ignorespaces Sensorenverteilung f\IeC {\"u}r den Versuch. Die Sensoren messen in der Reihe mit Blechunterlage, als auch in der Reihe ohne Blechunterlage als Vergleich}}{49}}
\newlabel{fig:bl_aufbau}{{4.18}{49}}
\@writefile{toc}{\contentsline {subsubsection}{Auswertung}{49}}
\newlabel{eq:q}{{4.5}{49}}
\@writefile{lof}{\contentsline {figure}{\numberline {4.20}{\ignorespaces Darstellung der W\IeC {\"a}rmeleitung durch ein Blech. A steht f\IeC {\"u}r die Fl\IeC {\"a}che und l f\IeC {\"u}r die L\IeC {\"a}nge des Blechs}}{49}}
\newlabel{fig:blechl}{{4.20}{49}}
\@writefile{lof}{\contentsline {figure}{\numberline {4.19}{\ignorespaces Temperaturvergleich der Sensoren 3 und 4 (unten) und 1 und 6 (oben) \IeC {\"u}ber der Zeit. 4 und 6 befinden sich auf den Kontaktplatten, 1 und 3 abseits davon}}{50}}
\newlabel{fig:platten}{{4.19}{50}}
\@writefile{toc}{\contentsline {subsection}{\numberline {4.3.3}Vergleich: Sensoren in den \IeC {\"O}ffnungen des Innenraums}{50}}
\@writefile{lof}{\contentsline {figure}{\numberline {4.21}{\ignorespaces Orte der Sensorplatzierungen im Pack farbig umkringelt. 1: auf Sockel, 2: in \IeC {\"O}ffnungen, 3: zwischen (auf) Zellen}}{51}}
\newlabel{fig:ort_s}{{4.21}{51}}
\@writefile{lof}{\contentsline {figure}{\numberline {4.22}{\ignorespaces Darstellung der verwendeten Sensorgeh\IeC {\"a}use. Links: SOIC-8. Rechts: TO-92}}{51}}
\newlabel{fig:haus}{{4.22}{51}}
\@writefile{toc}{\contentsline {subsubsection}{Messaufbau}{52}}
\@writefile{lof}{\contentsline {figure}{\numberline {4.23}{\ignorespaces Skizze der Sensorverteilung in einem kleinen Ausschnitt des Packs. Der rote Kreis symbolisiert das Heizelement. Die gelb-tr\IeC {\"u}ben Sensoren 1-4 sind auf dem Sockel, die restlichen in den \IeC {\"O}ffnungen eingebracht}}{52}}
\newlabel{fig:platz_s}{{4.23}{52}}
\@writefile{toc}{\contentsline {subsubsection}{Auswertung}{52}}
\@writefile{lof}{\contentsline {figure}{\numberline {4.24}{\ignorespaces Graph oben: Temperaturverlauf der Sensoren 3,9,10,11 und 12. Graph unten: Abweichung von Sensor 3 vom arithmetischen Mittel der Sensoren 9,10,11 und 12}}{53}}
\newlabel{fig:graph_sensorv2}{{4.24}{53}}
\@writefile{lof}{\contentsline {figure}{\numberline {4.25}{\ignorespaces Graph oben: Temperaturverlauf der Sensoren 4,5,6,7 und 8. Graph unten: Abweichung von Sensor 4 vom arithmetischen Mittel der Sensoren 5,6,7 und 8.}}{54}}
\newlabel{fig:graph_sensorv}{{4.25}{54}}
\@writefile{toc}{\contentsline {subsection}{\numberline {4.3.4}Verifizierung der Platzierung}{55}}
\newlabel{versuch5}{{4.3.4}{55}}
\@writefile{toc}{\contentsline {subsubsection}{Messaufbau}{55}}
\@writefile{lof}{\contentsline {figure}{\numberline {4.26}{\ignorespaces Skizze der Sensorverteilung in einem Ausschnitt mit vier Zellen. Die roten Kreise zeigen die an die Zellwand aufgeklebten Sensoren (Z). Der dunkelgelbe Sensor beschreibt den Packsensor (P), der auf dem Sockel des Packs platziert wird.}}{55}}
\newlabel{fig:c_sensors}{{4.26}{55}}
\citation{nxp:max31820par}
\@writefile{toc}{\contentsline {subsubsection}{Auswertung}{56}}
\@writefile{lof}{\contentsline {figure}{\numberline {4.27}{\ignorespaces Oben: Verlauf des Temperaturanstiegs w\IeC {\"a}hrend des Kurzschlussversuchs. Der Packsensor ist rot eingezeichnet, die anderen angeklebten Zellsensoren gr\IeC {\"u}n bzw. schwarz. Mitte: Abweichung der Packsensor-Temperatur vom arith. Mittel der Zellsensoren. Unten: max. Abweichung der Packsensor-Temperatur von der gemessenen Zellsensor-Temperatur.}}{57}}
\newlabel{fig:ausw_5}{{4.27}{57}}
\@writefile{toc}{\contentsline {chapter}{\numberline {5}Umsetzung des Messkonzepts}{58}}
\@writefile{lof}{\addvspace {10\p@ }}
\@writefile{lot}{\addvspace {10\p@ }}
\@writefile{toc}{\contentsline {section}{\numberline {5.1}Finale Platzierung und Wahl der Sensoren}{58}}
\@writefile{lof}{\contentsline {figure}{\numberline {5.1}{\ignorespaces Vergleich der drei verwendeten Sensoren PCT2075, MAX31820PAR und NTC nach Vor- und Nachteilen}}{59}}
\newlabel{tab:senstyp}{{5.1}{59}}
\@writefile{toc}{\contentsline {section}{\numberline {5.2}Implementierung des Messsystems}{59}}
\citation{ti:pullup}
\citation{nxp:pct2075}
\citation{ti:pullup}
\@writefile{toc}{\contentsline {subsection}{\numberline {5.2.1}Spezifikationen f\IeC {\"u}r I2C - Kommunikation}{60}}
\@writefile{toc}{\contentsline {subsection}{\numberline {5.2.2}Aufbau der Temperaturmessung}{61}}
\@writefile{toc}{\contentsline {subsubsection}{Skizzierung der Verschaltung}{61}}
\@writefile{lof}{\contentsline {figure}{\numberline {5.2}{\ignorespaces Skizzierung der Verschaltung der Temperatursensoren. Ein Mikrocontroller steuert \IeC {\"u}ber I2C einen Multiplexer an, der \IeC {\"u}ber zwei Kan\IeC {\"a}le mit jeweils 16 in Reihe verschalteten Sensoren verf\IeC {\"u}gt}}{61}}
\newlabel{fig:mux}{{5.2}{61}}
\citation{Risse2012}
\citation{Emilio2016}
\@writefile{lof}{\contentsline {figure}{\numberline {5.3}{\ignorespaces Skizze des Batteriepacks von oben. Die zwei roten Linien zeigen die m\IeC {\"a}anderf\IeC {\"o}rmige Struktur der Sensoren durch den Pack. Jeder Punkt entspricht einem Sensorpunkt. Insgesamt werden 2 x 16 Sensoren benutzt.}}{62}}
\newlabel{fig:x}{{5.3}{62}}
\@writefile{toc}{\contentsline {subsubsection}{Flexible Printed Circuit Board (flexPCB)}{62}}
\citation{Weicker2013}
\@writefile{lof}{\contentsline {figure}{\numberline {5.4}{\ignorespaces Ausschnitt des selbst entwickelten flexPCB - Messstreifens. Die schwarzen ICs sind die Temperatursensoren.}}{63}}
\newlabel{fig:flexpcb}{{5.4}{63}}
\@writefile{toc}{\contentsline {section}{\numberline {5.3}Bewertung des Messsystems}{63}}
\@writefile{lof}{\contentsline {figure}{\numberline {5.5}{\ignorespaces Darstellung der absoluten Sensortemperatur \IeC {\"u}ber die Zeit in Minuten w\IeC {\"a}hrend des Kurzschlusstests. Der blaue Temperaturverlauf beschreibt die Umgebungstemperatur, der rote den Verlauf der Sensortemperatur an der durchgegangenen Zelle. Der schwarze Graph zeigt die arithmetische Mittelung der restlichen Sensoren. Die graue gestrichelte Linie zeigt die Abschaltgrenze nach Hersteller.}}{64}}
\newlabel{fig:sc_graph}{{5.5}{64}}
\@writefile{toc}{\contentsline {chapter}{\numberline {6}Zusammenfassung und Ausblick}{66}}
\@writefile{lof}{\addvspace {10\p@ }}
\@writefile{lot}{\addvspace {10\p@ }}
\citation{Sun2014}
\citation{a123:26650}
\bibdata{lit}
\bibcite{eleit1}{1}
\bibcite{masch}{2}
\bibcite{expl}{3}
\bibcite{chem}{4}
\bibcite{abs20}{5}
\bibcite{a123:26650}{6}
\bibcite{anderson}{7}
\bibcite{Bernhard2014}{8}
\bibcite{Bernhard2014a}{9}
\bibcite{Binder1999}{10}
\bibcite{wl2000}{11}
\bibcite{Dehli2017}{12}
\bibcite{DIN}{13}
\bibcite{Emilio2016}{14}
\bibcite{flir:lepton3.5}{15}
\bibcite{Graf2013}{16}
\bibcite{ikt:kompendium}{17}
\bibcite{Jischa1982}{18}
\bibcite{1981}{19}
\bibcite{Koehler2013}{20}
\bibcite{Kurzweil2015a}{21}
\bibcite{nxp:max31820par}{22}
\bibcite{Nanda2014}{23}
\bibcite{nxp:pct2075}{24}
\bibcite{Park2010}{25}
\bibcite{Risse2012}{26}
\bibcite{ritterm}{27}
\bibcite{Sensor17}{28}
\bibcite{Sun2014}{29}
\bibcite{ti:pullup}{30}
\bibcite{DIN38}{31}
\bibcite{vis:ntc}{32}
\bibcite{Wang2012}{33}
\bibcite{Weicker2013}{34}
\bibcite{Wen2012}{35}
\bibstyle{plain}
\@input{document.aux}
