This is BibTeX, Version 0.99dThe top-level auxiliary file: thesis.aux
The style file: plain.bst
A level-1 auxiliary file: document.aux
Database file #1: lit.bib
Warning--to sort, need author or key in expl
Warning--to sort, need author or key in chem
Warning--to sort, need author or key in masch
Warning--to sort, need author or key in eleit1
Warning--to sort, need author or key in abs20
Warning--empty journal in anderson
(There were 6 warnings)
