G04 #@! TF.FileFunction,Paste,Top*
%FSLAX46Y46*%
G04 Gerber Fmt 4.6, Leading zero omitted, Abs format (unit mm)*
G04 Created by KiCad (PCBNEW 4.0.7) date 04/05/19 17:53:13*
%MOMM*%
%LPD*%
G01*
G04 APERTURE LIST*
%ADD10C,0.100000*%
%ADD11R,5.500000X0.760000*%
%ADD12R,4.500000X8.800000*%
%ADD13R,1.143000X0.508000*%
%ADD14R,0.600000X1.650000*%
%ADD15R,0.600000X1.850000*%
%ADD16R,2.510000X1.000000*%
%ADD17R,1.000000X2.510000*%
%ADD18R,0.900000X1.200000*%
G04 APERTURE END LIST*
D10*
D11*
X221755000Y-96945000D03*
X221755000Y-95675000D03*
X221755000Y-94405000D03*
X221755000Y-93135000D03*
X221755000Y-91865000D03*
X221755000Y-90595000D03*
X221755000Y-89325000D03*
X221755000Y-88055000D03*
D12*
X206265000Y-92500000D03*
D13*
X190575000Y-103405000D03*
X190575000Y-102135000D03*
X190575000Y-100865000D03*
X190575000Y-99595000D03*
X196925000Y-99595000D03*
X196925000Y-100865000D03*
X196925000Y-102135000D03*
X196925000Y-103405000D03*
D14*
X148500000Y-94300000D03*
X149500000Y-94300000D03*
X150500000Y-94300000D03*
D15*
X151500000Y-90550000D03*
X150500000Y-90550000D03*
X149500000Y-90550000D03*
X148500000Y-90550000D03*
D14*
X151500000Y-94300000D03*
X183500000Y-94300000D03*
X184500000Y-94300000D03*
X185500000Y-94300000D03*
D15*
X186500000Y-90550000D03*
X185500000Y-90550000D03*
X184500000Y-90550000D03*
X183500000Y-90550000D03*
D14*
X186500000Y-94300000D03*
D16*
X195145000Y-90330000D03*
X195145000Y-95410000D03*
X198455000Y-87790000D03*
X198455000Y-92870000D03*
D17*
X151270000Y-103055000D03*
X148730000Y-99745000D03*
X186270000Y-103055000D03*
X183730000Y-99745000D03*
D18*
X182400000Y-84900000D03*
X182400000Y-87100000D03*
X182400000Y-83100000D03*
X182400000Y-80900000D03*
X174500000Y-83100000D03*
X174500000Y-80900000D03*
X178400000Y-83100000D03*
X178400000Y-80900000D03*
X174500000Y-84900000D03*
X174500000Y-87100000D03*
X178400000Y-84900000D03*
X178400000Y-87100000D03*
M02*
