%!PS-Adobe-3.0
%%Creator: PCBNEW
%%CreationDate: Thu Oct 11 16:56:18 2018
%%Title: D:\PEUS_Testing_GmbH\Connectors\connectors\Connector 4Pin\Male\Schematik\RJ45_4Pin\Gerber\RJ45_to_4pin-drl_map.ps
%%Pages: 1
%%PageOrder: Ascend
%%BoundingBox: 0 0 596 842
%%DocumentMedia: A4 595 842 0 () ()
%%Orientation: Landscape
%%EndComments
%%BeginProlog
/line { newpath moveto lineto stroke } bind def
/cir0 { newpath 0 360 arc stroke } bind def
/cir1 { newpath 0 360 arc gsave fill grestore stroke } bind def
/cir2 { newpath 0 360 arc gsave fill grestore stroke } bind def
/arc0 { newpath arc stroke } bind def
/arc1 { newpath 4 index 4 index moveto arc closepath gsave fill
    grestore stroke } bind def
/arc2 { newpath 4 index 4 index moveto arc closepath gsave fill
    grestore stroke } bind def
/poly0 { stroke } bind def
/poly1 { closepath gsave fill grestore stroke } bind def
/poly2 { closepath gsave fill grestore stroke } bind def
/rect0 { rectstroke } bind def
/rect1 { rectfill } bind def
/rect2 { rectfill } bind def
/linemode0 { 0 setlinecap 0 setlinejoin 0 setlinewidth } bind def
/linemode1 { 1 setlinecap 1 setlinejoin } bind def
/dashedline { [200] 100 setdash } bind def
/solidline { [] 0 setdash } bind def
/phantomshow { moveto
    /KicadFont findfont 0.000001 scalefont setfont
    show } bind def
/textshow { gsave
    findfont exch scalefont setfont concat 1 scale 0 0 moveto show
    } bind def
/reencodefont {
  findfont dup length dict begin
  { 1 index /FID ne
    { def }
    { pop pop } ifelse
  } forall
  /Encoding ISOLatin1Encoding def
  currentdict
  end } bind def
/KicadFont /Helvetica reencodefont definefont pop
/KicadFont-Bold /Helvetica-Bold reencodefont definefont pop
/KicadFont-Oblique /Helvetica-Oblique reencodefont definefont pop
/KicadFont-BoldOblique /Helvetica-BoldOblique reencodefont definefont pop
%%EndProlog
%%Page: 1 1
%%BeginPageSetup
gsave
0.0072 0.0072 scale
linemode1
82680 0 translate 90 rotate
150 setlinewidth
%%EndPageSetup
0 0 0 setrgbcolor
177.165 setlinewidth
newpath
90945.3 72639.8 moveto
25984.7 72639.8 lineto
stroke
0 0 0 setrgbcolor
newpath
90945.3 43112.2 moveto
90945.3 72639.8 lineto
stroke
0 0 0 setrgbcolor
newpath
90354.8 43112.2 moveto
90945.3 43112.2 lineto
stroke
0 0 0 setrgbcolor
newpath
25984.7 43112.2 moveto
90354.8 43112.2 lineto
stroke
0 0 0 setrgbcolor
newpath
25984.7 72639.8 moveto
25984.7 43112.2 lineto
stroke
78.7394 setlinewidth
newpath
53285.2 63055.8 moveto
55293.1 61047.9 lineto
stroke
newpath
55293.1 63055.8 moveto
53285.2 61047.9 lineto
stroke
newpath
53285.2 54704.1 moveto
55293.1 52696.2 lineto
stroke
newpath
55293.1 54704.1 moveto
53285.2 52696.2 lineto
stroke
newpath
61636.9 63055.8 moveto
63644.8 61047.9 lineto
stroke
newpath
63644.8 63055.8 moveto
61636.9 61047.9 lineto
stroke
newpath
61636.9 54704.1 moveto
63644.8 52696.2 lineto
stroke
newpath
63644.8 54704.1 moveto
61636.9 52696.2 lineto
stroke
118.11 setlinewidth
newpath
26964.7 41190.1 moveto
26964.7 42371.2 lineto
27245.9 42371.2 lineto
27414.7 42315 lineto
27527.1 42202.5 lineto
27583.4 42090 lineto
27639.6 41865 lineto
27639.6 41696.3 lineto
27583.4 41471.3 lineto
27527.1 41358.8 lineto
27414.7 41246.4 lineto
27245.9 41190.1 lineto
26964.7 41190.1 lineto
stroke
newpath
28145.8 41190.1 moveto
28145.8 41977.5 lineto
stroke
newpath
28145.8 41752.5 moveto
28202.1 41865 lineto
28258.3 41921.3 lineto
28370.8 41977.5 lineto
28483.3 41977.5 lineto
stroke
newpath
28877 41190.1 moveto
28877 41977.5 lineto
stroke
newpath
28877 42371.2 moveto
28820.7 42315 lineto
28877 42258.7 lineto
28933.2 42315 lineto
28877 42371.2 lineto
28877 42258.7 lineto
stroke
newpath
29608.1 41190.1 moveto
29495.7 41246.4 lineto
29439.4 41358.8 lineto
29439.4 42371.2 lineto
stroke
newpath
30226.8 41190.1 moveto
30114.3 41246.4 lineto
30058.1 41358.8 lineto
30058.1 42371.2 lineto
stroke
newpath
31576.6 41190.1 moveto
31576.6 42371.2 lineto
31970.3 41527.6 lineto
32364 42371.2 lineto
32364 41190.1 lineto
stroke
newpath
33432.7 41190.1 moveto
33432.7 41808.8 lineto
33376.4 41921.3 lineto
33263.9 41977.5 lineto
33039 41977.5 lineto
32926.5 41921.3 lineto
stroke
newpath
33432.7 41246.4 moveto
33320.2 41190.1 lineto
33039 41190.1 lineto
32926.5 41246.4 lineto
32870.2 41358.8 lineto
32870.2 41471.3 lineto
32926.5 41583.8 lineto
33039 41640.1 lineto
33320.2 41640.1 lineto
33432.7 41696.3 lineto
stroke
newpath
33995.1 41977.5 moveto
33995.1 40796.4 lineto
stroke
newpath
33995.1 41921.3 moveto
34107.6 41977.5 lineto
34332.5 41977.5 lineto
34445 41921.3 lineto
34501.3 41865 lineto
34557.5 41752.5 lineto
34557.5 41415.1 lineto
34501.3 41302.6 lineto
34445 41246.4 lineto
34332.5 41190.1 lineto
34107.6 41190.1 lineto
33995.1 41246.4 lineto
stroke
newpath
35063.7 41302.6 moveto
35119.9 41246.4 lineto
35063.7 41190.1 lineto
35007.5 41246.4 lineto
35063.7 41302.6 lineto
35063.7 41190.1 lineto
stroke
newpath
35063.7 41921.3 moveto
35119.9 41865 lineto
35063.7 41808.8 lineto
35007.5 41865 lineto
35063.7 41921.3 lineto
35063.7 41808.8 lineto
stroke
newpath
23888.2 40248 moveto
25896.1 38240.2 lineto
stroke
newpath
25896.1 40248 moveto
23888.2 38240.2 lineto
stroke
newpath
27583.4 38709.8 moveto
26908.5 38709.8 lineto
stroke
newpath
27245.9 38709.8 moveto
27245.9 39890.9 lineto
27133.4 39722.2 lineto
27021 39609.7 lineto
26908.5 39553.4 lineto
stroke
newpath
28089.6 38822.3 moveto
28145.8 38766 lineto
28089.6 38709.8 lineto
28033.3 38766 lineto
28089.6 38822.3 lineto
28089.6 38709.8 lineto
stroke
newpath
28539.5 39890.9 moveto
29326.9 39890.9 lineto
28820.7 38709.8 lineto
stroke
newpath
30001.8 39890.9 moveto
30114.3 39890.9 lineto
30226.8 39834.7 lineto
30283.1 39778.4 lineto
30339.3 39665.9 lineto
30395.5 39441 lineto
30395.5 39159.7 lineto
30339.3 38934.8 lineto
30283.1 38822.3 lineto
30226.8 38766 lineto
30114.3 38709.8 lineto
30001.8 38709.8 lineto
29889.4 38766 lineto
29833.1 38822.3 lineto
29776.9 38934.8 lineto
29720.6 39159.7 lineto
29720.6 39441 lineto
29776.9 39665.9 lineto
29833.1 39778.4 lineto
29889.4 39834.7 lineto
30001.8 39890.9 lineto
stroke
newpath
30901.7 38709.8 moveto
30901.7 39497.2 lineto
stroke
newpath
30901.7 39384.7 moveto
30958 39441 lineto
31070.5 39497.2 lineto
31239.2 39497.2 lineto
31351.7 39441 lineto
31407.9 39328.5 lineto
31407.9 38709.8 lineto
stroke
newpath
31407.9 39328.5 moveto
31464.2 39441 lineto
31576.6 39497.2 lineto
31745.4 39497.2 lineto
31857.9 39441 lineto
31914.1 39328.5 lineto
31914.1 38709.8 lineto
stroke
newpath
32476.5 38709.8 moveto
32476.5 39497.2 lineto
stroke
newpath
32476.5 39384.7 moveto
32532.8 39441 lineto
32645.3 39497.2 lineto
32814 39497.2 lineto
32926.5 39441 lineto
32982.7 39328.5 lineto
32982.7 38709.8 lineto
stroke
newpath
32982.7 39328.5 moveto
33039 39441 lineto
33151.4 39497.2 lineto
33320.2 39497.2 lineto
33432.7 39441 lineto
33488.9 39328.5 lineto
33488.9 38709.8 lineto
stroke
newpath
35794.9 39947.1 moveto
34782.5 38428.6 lineto
stroke
newpath
37313.4 39890.9 moveto
37425.9 39890.9 lineto
37538.4 39834.7 lineto
37594.6 39778.4 lineto
37650.9 39665.9 lineto
37707.1 39441 lineto
37707.1 39159.7 lineto
37650.9 38934.8 lineto
37594.6 38822.3 lineto
37538.4 38766 lineto
37425.9 38709.8 lineto
37313.4 38709.8 lineto
37200.9 38766 lineto
37144.7 38822.3 lineto
37088.5 38934.8 lineto
37032.2 39159.7 lineto
37032.2 39441 lineto
37088.5 39665.9 lineto
37144.7 39778.4 lineto
37200.9 39834.7 lineto
37313.4 39890.9 lineto
stroke
newpath
38213.3 38822.3 moveto
38269.6 38766 lineto
38213.3 38709.8 lineto
38157.1 38766 lineto
38213.3 38822.3 lineto
38213.3 38709.8 lineto
stroke
newpath
39000.7 39890.9 moveto
39113.2 39890.9 lineto
39225.7 39834.7 lineto
39281.9 39778.4 lineto
39338.2 39665.9 lineto
39394.4 39441 lineto
39394.4 39159.7 lineto
39338.2 38934.8 lineto
39281.9 38822.3 lineto
39225.7 38766 lineto
39113.2 38709.8 lineto
39000.7 38709.8 lineto
38888.2 38766 lineto
38832 38822.3 lineto
38775.7 38934.8 lineto
38719.5 39159.7 lineto
38719.5 39441 lineto
38775.7 39665.9 lineto
38832 39778.4 lineto
38888.2 39834.7 lineto
39000.7 39890.9 lineto
stroke
newpath
40406.8 39890.9 moveto
40181.8 39890.9 lineto
40069.3 39834.7 lineto
40013.1 39778.4 lineto
39900.6 39609.7 lineto
39844.4 39384.7 lineto
39844.4 38934.8 lineto
39900.6 38822.3 lineto
39956.8 38766 lineto
40069.3 38709.8 lineto
40294.3 38709.8 lineto
40406.8 38766 lineto
40463 38822.3 lineto
40519.3 38934.8 lineto
40519.3 39216 lineto
40463 39328.5 lineto
40406.8 39384.7 lineto
40294.3 39441 lineto
40069.3 39441 lineto
39956.8 39384.7 lineto
39900.6 39328.5 lineto
39844.4 39216 lineto
stroke
newpath
40913 39890.9 moveto
41700.4 39890.9 lineto
41194.2 38709.8 lineto
stroke
newpath
42094.1 39890.9 moveto
42094.1 39665.9 lineto
stroke
newpath
42544 39890.9 moveto
42544 39665.9 lineto
stroke
newpath
44287.6 38259.9 moveto
44231.3 38316.1 lineto
44118.8 38484.8 lineto
44062.6 38597.3 lineto
44006.3 38766 lineto
43950.1 39047.3 lineto
43950.1 39272.2 lineto
44006.3 39553.4 lineto
44062.6 39722.2 lineto
44118.8 39834.7 lineto
44231.3 40003.4 lineto
44287.6 40059.6 lineto
stroke
newpath
45243.7 39497.2 moveto
45243.7 38709.8 lineto
stroke
newpath
44962.5 39947.1 moveto
44681.3 39103.5 lineto
45412.4 39103.5 lineto
stroke
newpath
46762.2 38709.8 moveto
46762.2 39890.9 lineto
stroke
newpath
47268.4 38709.8 moveto
47268.4 39328.5 lineto
47212.2 39441 lineto
47099.7 39497.2 lineto
46931 39497.2 lineto
46818.5 39441 lineto
46762.2 39384.7 lineto
stroke
newpath
47999.6 38709.8 moveto
47887.1 38766 lineto
47830.9 38822.3 lineto
47774.6 38934.8 lineto
47774.6 39272.2 lineto
47830.9 39384.7 lineto
47887.1 39441 lineto
47999.6 39497.2 lineto
48168.3 39497.2 lineto
48280.8 39441 lineto
48337 39384.7 lineto
48393.3 39272.2 lineto
48393.3 38934.8 lineto
48337 38822.3 lineto
48280.8 38766 lineto
48168.3 38709.8 lineto
47999.6 38709.8 lineto
stroke
newpath
49068.2 38709.8 moveto
48955.7 38766 lineto
48899.5 38878.5 lineto
48899.5 39890.9 lineto
stroke
newpath
49968.1 38766 moveto
49855.6 38709.8 lineto
49630.6 38709.8 lineto
49518.2 38766 lineto
49461.9 38878.5 lineto
49461.9 39328.5 lineto
49518.2 39441 lineto
49630.6 39497.2 lineto
49855.6 39497.2 lineto
49968.1 39441 lineto
50024.3 39328.5 lineto
50024.3 39216 lineto
49461.9 39103.5 lineto
stroke
newpath
50474.3 38766 moveto
50586.8 38709.8 lineto
50811.7 38709.8 lineto
50924.2 38766 lineto
50980.5 38878.5 lineto
50980.5 38934.8 lineto
50924.2 39047.3 lineto
50811.7 39103.5 lineto
50643 39103.5 lineto
50530.5 39159.7 lineto
50474.3 39272.2 lineto
50474.3 39328.5 lineto
50530.5 39441 lineto
50643 39497.2 lineto
50811.7 39497.2 lineto
50924.2 39441 lineto
stroke
newpath
51374.2 38259.9 moveto
51430.4 38316.1 lineto
51542.9 38484.8 lineto
51599.1 38597.3 lineto
51655.4 38766 lineto
51711.6 39047.3 lineto
51711.6 39272.2 lineto
51655.4 39553.4 lineto
51599.1 39722.2 lineto
51542.9 39834.7 lineto
51430.4 40003.4 lineto
51374.2 40059.6 lineto
stroke
showpage
grestore
%%EOF
