EESchema Schematic File Version 4
LIBS:Adapter_Boart_RPI_Security_Board-cache
EELAYER 29 0
EELAYER END
$Descr A3 16535 11693
encoding utf-8
Sheet 1 3
Title ""
Date ""
Rev ""
Comp ""
Comment1 ""
Comment2 ""
Comment3 ""
Comment4 ""
$EndDescr
$Sheet
S 6800 2300 1450 550 
U 5CBA6DB8
F0 "SPI_CAN_Adapter" 50
F1 "SPI_CAN_Adapter.sch" 50
$EndSheet
$Comp
L Adapter_Boart_RPI_Security_Board-rescue:CONN_02X20-Adapter_RPI_UEXT-rescue P1
U 1 1 59F0A8F0
P 4100 3400
F 0 "P1" H 4100 4450 50  0000 C CNN
F 1 "CONN_02X20" V 4100 3400 50  0000 C CNN
F 2 "Connector_PinHeader_2.54mm:PinHeader_2x20_P2.54mm_Vertical_SMD" H 4100 2450 50  0001 C CNN
F 3 "" H 4100 2450 50  0000 C CNN
	1    4100 3400
	1    0    0    -1  
$EndComp
$Comp
L power:GND #PWR0104
U 1 1 59F0AC8B
P 4400 3350
F 0 "#PWR0104" H 4400 3100 50  0001 C CNN
F 1 "GND" H 4400 3200 50  0000 C CNN
F 2 "" H 4400 3350 50  0000 C CNN
F 3 "" H 4400 3350 50  0000 C CNN
	1    4400 3350
	0    -1   -1   0   
$EndComp
$Comp
L power:GND #PWR0105
U 1 1 59F0B160
P 3800 2850
F 0 "#PWR0105" H 3800 2600 50  0001 C CNN
F 1 "GND" H 3800 2700 50  0000 C CNN
F 2 "" H 3800 2850 50  0000 C CNN
F 3 "" H 3800 2850 50  0000 C CNN
	1    3800 2850
	0    1    1    0   
$EndComp
$Comp
L power:GND #PWR0106
U 1 1 59F0B17A
P 3800 3650
F 0 "#PWR0106" H 3800 3400 50  0001 C CNN
F 1 "GND" H 3800 3500 50  0000 C CNN
F 2 "" H 3800 3650 50  0000 C CNN
F 3 "" H 3800 3650 50  0000 C CNN
	1    3800 3650
	0    1    1    0   
$EndComp
$Comp
L power:GND #PWR0107
U 1 1 59F0B194
P 3800 4350
F 0 "#PWR0107" H 3800 4100 50  0001 C CNN
F 1 "GND" H 3800 4200 50  0000 C CNN
F 2 "" H 3800 4350 50  0000 C CNN
F 3 "" H 3800 4350 50  0000 C CNN
	1    3800 4350
	0    1    1    0   
$EndComp
$Comp
L power:GND #PWR0108
U 1 1 59F0B1AE
P 4400 2650
F 0 "#PWR0108" H 4400 2400 50  0001 C CNN
F 1 "GND" H 4400 2500 50  0000 C CNN
F 2 "" H 4400 2650 50  0000 C CNN
F 3 "" H 4400 2650 50  0000 C CNN
	1    4400 2650
	0    -1   -1   0   
$EndComp
$Comp
L power:GND #PWR0109
U 1 1 59F0B1C8
P 4400 3050
F 0 "#PWR0109" H 4400 2800 50  0001 C CNN
F 1 "GND" H 4400 2900 50  0000 C CNN
F 2 "" H 4400 3050 50  0000 C CNN
F 3 "" H 4400 3050 50  0000 C CNN
	1    4400 3050
	0    -1   -1   0   
$EndComp
$Comp
L power:GND #PWR0110
U 1 1 59F0B22D
P 4400 3850
F 0 "#PWR0110" H 4400 3600 50  0001 C CNN
F 1 "GND" H 4400 3700 50  0000 C CNN
F 2 "" H 4400 3850 50  0000 C CNN
F 3 "" H 4400 3850 50  0000 C CNN
	1    4400 3850
	0    -1   -1   0   
$EndComp
$Comp
L power:GND #PWR0111
U 1 1 59F0B247
P 4400 4050
F 0 "#PWR0111" H 4400 3800 50  0001 C CNN
F 1 "GND" H 4400 3900 50  0000 C CNN
F 2 "" H 4400 4050 50  0000 C CNN
F 3 "" H 4400 4050 50  0000 C CNN
	1    4400 4050
	0    -1   -1   0   
$EndComp
$Comp
L power:+5V #PWR0112
U 1 1 5A005B93
P 4650 2250
F 0 "#PWR0112" H 4650 2100 50  0001 C CNN
F 1 "+5V" H 4650 2390 50  0000 C CNN
F 2 "" H 4650 2250 50  0001 C CNN
F 3 "" H 4650 2250 50  0001 C CNN
	1    4650 2250
	1    0    0    -1  
$EndComp
Wire Wire Line
	4400 2650 4350 2650
Wire Wire Line
	3600 2950 3750 2950
Wire Wire Line
	4350 2950 4650 2950
Wire Wire Line
	4650 3550 4550 3550
Wire Wire Line
	4650 3650 4350 3650
Wire Wire Line
	3800 3650 3850 3650
Wire Wire Line
	3800 4350 3850 4350
Wire Wire Line
	4400 4050 4350 4050
Wire Wire Line
	4400 3850 4350 3850
Wire Wire Line
	3800 2850 3850 2850
Wire Wire Line
	3850 2450 3550 2450
Wire Wire Line
	3550 2450 3550 2250
Wire Wire Line
	4400 3350 4350 3350
Wire Wire Line
	4400 3050 4350 3050
Wire Wire Line
	3600 3350 3700 3350
Wire Wire Line
	3850 3450 3700 3450
Wire Wire Line
	3600 3550 3700 3550
Wire Wire Line
	3600 4150 3700 4150
Wire Wire Line
	4700 4250 4550 4250
Wire Wire Line
	4700 4350 4550 4350
Wire Wire Line
	4350 2450 4650 2450
Wire Wire Line
	4650 2450 4650 2250
Wire Wire Line
	4650 2750 4350 2750
Wire Wire Line
	4650 2850 4350 2850
Wire Wire Line
	3600 2550 3850 2550
Wire Wire Line
	3850 3750 3600 3750
Wire Wire Line
	3600 2650 3850 2650
Wire Wire Line
	4650 3750 4350 3750
Wire Wire Line
	4650 3150 4600 3150
Wire Wire Line
	3600 3250 3850 3250
$Comp
L Connector_Generic:Conn_02x20_Odd_Even J7
U 1 1 5CBCEFFD
P 10050 3450
F 0 "J7" H 10100 4567 50  0000 C CNN
F 1 "Conn_02x20_Odd_Even" H 10100 4476 50  0000 C CNN
F 2 "Connector_PinHeader_2.54mm:PinHeader_2x20_P2.54mm_Vertical_SMD" H 10050 3450 50  0001 C CNN
F 3 "~" H 10050 3450 50  0001 C CNN
	1    10050 3450
	1    0    0    -1  
$EndComp
Wire Notes Line
	3000 2000 5400 2000
Wire Notes Line
	5400 2000 5400 6000
Wire Notes Line
	5400 6000 3000 6000
Wire Notes Line
	3000 6000 3000 2000
Text Notes 3500 1900 0    50   ~ 0
Raspberry_Pi_40 pin Konnektor
Text GLabel 9700 2550 0    50   Input ~ 0
CAN_H
Text GLabel 10500 2550 2    50   Input ~ 0
CAN_L
Text GLabel 9700 2650 0    50   Input ~ 0
GNDD
Wire Wire Line
	9700 2550 9850 2550
Wire Wire Line
	10350 2550 10500 2550
Wire Wire Line
	9700 2650 9850 2650
$Sheet
S 6800 3100 1450 550 
U 5CBFE230
F0 "SPI_isoSPI_Adapter" 50
F1 "SPI_isoSPI_Adapter.sch" 50
$EndSheet
Text GLabel 5350 3150 2    50   Input ~ 0
INT_CANbus
Text GLabel 3150 2950 0    50   Input ~ 0
CS_can
Text GLabel 5150 4350 2    50   Input ~ 0
SCL_can
Text GLabel 5150 4250 2    50   Input ~ 0
MOSI_can
Text GLabel 3150 4150 0    50   Input ~ 0
MISO_can
$Comp
L power:+3V3 #PWR0103
U 1 1 59F0AC71
P 3550 2250
F 0 "#PWR0103" H 3550 2100 50  0001 C CNN
F 1 "+3V3" H 3550 2390 50  0000 C CNN
F 2 "" H 3550 2250 50  0000 C CNN
F 3 "" H 3550 2250 50  0000 C CNN
	1    3550 2250
	1    0    0    -1  
$EndComp
$Comp
L power:+3V3 #PWR0101
U 1 1 5CC638C7
P 3600 3250
F 0 "#PWR0101" H 3600 3100 50  0001 C CNN
F 1 "+3V3" H 3600 3390 50  0000 C CNN
F 2 "" H 3600 3250 50  0000 C CNN
F 3 "" H 3600 3250 50  0000 C CNN
	1    3600 3250
	1    0    0    -1  
$EndComp
Text GLabel 10500 3050 2    50   Input ~ 0
isoSPI_Plus_Iso
Text GLabel 9700 3050 0    50   Input ~ 0
isoSPI_Minus_Iso
Wire Wire Line
	9700 3050 9850 3050
Wire Wire Line
	10500 3050 10350 3050
Wire Wire Line
	9700 2750 9850 2750
Wire Wire Line
	10500 2750 10350 2750
$Comp
L power:+3V3 #PWR0145
U 1 1 5CC7EB73
P 6750 4150
F 0 "#PWR0145" H 6750 4000 50  0001 C CNN
F 1 "+3V3" H 6750 4290 50  0000 C CNN
F 2 "" H 6750 4150 50  0000 C CNN
F 3 "" H 6750 4150 50  0000 C CNN
	1    6750 4150
	1    0    0    -1  
$EndComp
Wire Wire Line
	6750 4150 6750 4250
Wire Wire Line
	6750 4250 6900 4250
Wire Wire Line
	6900 4350 6750 4350
Wire Wire Line
	6900 4450 6750 4450
Wire Wire Line
	6900 4650 6750 4650
Wire Wire Line
	6750 4650 6750 4800
$Comp
L power:GND #PWR0146
U 1 1 5CC84431
P 6750 4800
F 0 "#PWR0146" H 6750 4550 50  0001 C CNN
F 1 "GND" H 6750 4650 50  0000 C CNN
F 2 "" H 6750 4800 50  0000 C CNN
F 3 "" H 6750 4800 50  0000 C CNN
	1    6750 4800
	1    0    0    -1  
$EndComp
$Comp
L Connector_Generic:Conn_01x05 J6
U 1 1 5CC887DF
P 7100 4450
F 0 "J6" H 7180 4492 50  0000 L CNN
F 1 "RTC_I2C" H 7180 4401 50  0000 L CNN
F 2 "Connector_PinHeader_2.54mm:PinHeader_1x05_P2.54mm_Vertical_SMD_Pin1Right" H 7100 4450 50  0001 C CNN
F 3 "~" H 7100 4450 50  0001 C CNN
	1    7100 4450
	1    0    0    -1  
$EndComp
NoConn ~ 6900 4550
NoConn ~ 3850 2750
Wire Wire Line
	9700 4450 9850 4450
Wire Wire Line
	4650 3950 4350 3950
$Comp
L Device:R R25
U 1 1 5CC959FB
P 7350 5500
F 0 "R25" V 7143 5500 50  0000 C CNN
F 1 "10K" V 7234 5500 50  0000 C CNN
F 2 "Resistor_SMD:R_0805_2012Metric_Pad1.15x1.40mm_HandSolder" V 7280 5500 50  0001 C CNN
F 3 "~" H 7350 5500 50  0001 C CNN
	1    7350 5500
	0    1    1    0   
$EndComp
Wire Wire Line
	7200 5500 7000 5500
Wire Wire Line
	7000 5500 7000 5700
$Comp
L power:GND #PWR0147
U 1 1 5CC97E6E
P 7000 5700
F 0 "#PWR0147" H 7000 5450 50  0001 C CNN
F 1 "GND" H 7000 5550 50  0000 C CNN
F 2 "" H 7000 5700 50  0000 C CNN
F 3 "" H 7000 5700 50  0000 C CNN
	1    7000 5700
	1    0    0    -1  
$EndComp
$Comp
L Switch:SW_DIP_x01 SW1
U 1 1 5CC99E7E
P 7950 5500
F 0 "SW1" H 7950 5767 50  0000 C CNN
F 1 "SW_DIP_x01" H 7950 5676 50  0000 C CNN
F 2 "Button_Switch_SMD:SW_Push_1P1T_NO_CK_KSC7xxJ" H 7950 5500 50  0001 C CNN
F 3 "~" H 7950 5500 50  0001 C CNN
	1    7950 5500
	1    0    0    -1  
$EndComp
Wire Wire Line
	7650 5500 7600 5500
$Comp
L power:+3.3V #PWR0148
U 1 1 5CC9C315
P 8450 5300
F 0 "#PWR0148" H 8450 5150 50  0001 C CNN
F 1 "+3.3V" H 8465 5473 50  0000 C CNN
F 2 "" H 8450 5300 50  0001 C CNN
F 3 "" H 8450 5300 50  0001 C CNN
	1    8450 5300
	1    0    0    -1  
$EndComp
Wire Wire Line
	8450 5300 8450 5500
Wire Wire Line
	8450 5500 8250 5500
Wire Wire Line
	7600 5500 7600 5750
Wire Wire Line
	7600 5750 7800 5750
Connection ~ 7600 5500
Wire Wire Line
	7600 5500 7500 5500
Text GLabel 3200 3450 0    60   Input ~ 0
isoSPI_MISO
Text GLabel 3200 3550 0    60   Input ~ 0
isoSPI_SCL
Text GLabel 5100 3550 2    60   Input ~ 0
isoSPI_CS
$Comp
L Connector_Generic:Conn_01x05 J10
U 1 1 5CCDC9B2
P 5800 5150
F 0 "J10" H 5880 5192 50  0000 L CNN
F 1 "SPI_CAN" H 5880 5101 50  0000 L CNN
F 2 "Connector_PinHeader_2.54mm:PinHeader_1x05_P2.54mm_Vertical" H 5800 5150 50  0001 C CNN
F 3 "~" H 5800 5150 50  0001 C CNN
	1    5800 5150
	1    0    0    -1  
$EndComp
Wire Wire Line
	5600 4950 5400 4950
Wire Wire Line
	5400 5050 5600 5050
Wire Wire Line
	5400 5150 5600 5150
Wire Wire Line
	5400 5250 5600 5250
Wire Wire Line
	5400 5350 5600 5350
$Comp
L Connector_Generic:Conn_01x04 J11
U 1 1 5CCE8CE6
P 5800 5650
F 0 "J11" H 5880 5642 50  0000 L CNN
F 1 "SPI_isoSPI" H 5880 5551 50  0000 L CNN
F 2 "Connector_PinHeader_2.54mm:PinHeader_1x04_P2.54mm_Vertical" H 5800 5650 50  0001 C CNN
F 3 "~" H 5800 5650 50  0001 C CNN
	1    5800 5650
	1    0    0    -1  
$EndComp
Wire Wire Line
	5400 5550 5600 5550
Wire Wire Line
	5400 5650 5600 5650
Wire Wire Line
	5400 5750 5600 5750
Wire Wire Line
	5400 5850 5600 5850
Wire Wire Line
	3200 3350 3250 3350
Wire Wire Line
	3250 3350 3250 3300
Wire Wire Line
	3250 3300 3700 3300
Wire Wire Line
	3700 3300 3700 3350
Connection ~ 3700 3350
Wire Wire Line
	3700 3350 3850 3350
Wire Wire Line
	3200 3450 3250 3450
Wire Wire Line
	3250 3450 3250 3400
Wire Wire Line
	3250 3400 3700 3400
Wire Wire Line
	3700 3400 3700 3450
Connection ~ 3700 3450
Wire Wire Line
	3700 3450 3600 3450
Wire Wire Line
	3200 3550 3250 3550
Wire Wire Line
	3250 3550 3250 3500
Wire Wire Line
	3250 3500 3700 3500
Wire Wire Line
	3700 3500 3700 3550
Connection ~ 3700 3550
Wire Wire Line
	3700 3550 3850 3550
Wire Wire Line
	5100 3550 5050 3550
Wire Wire Line
	5050 3550 5050 3500
Wire Wire Line
	5050 3500 4550 3500
Wire Wire Line
	4550 3500 4550 3550
Connection ~ 4550 3550
Wire Wire Line
	4550 3550 4350 3550
Wire Wire Line
	3150 4150 3200 4150
Wire Wire Line
	3200 4150 3200 4100
Wire Wire Line
	3200 4100 3700 4100
Wire Wire Line
	3700 4100 3700 4150
Connection ~ 3700 4150
Wire Wire Line
	3700 4150 3850 4150
Wire Wire Line
	5150 4250 5100 4250
Wire Wire Line
	5100 4250 5100 4200
Wire Wire Line
	5100 4200 4550 4200
Wire Wire Line
	4550 4200 4550 4250
Connection ~ 4550 4250
Wire Wire Line
	4550 4250 4350 4250
Wire Wire Line
	5150 4350 5100 4350
Wire Wire Line
	5100 4350 5100 4300
Wire Wire Line
	5100 4300 4550 4300
Wire Wire Line
	4550 4300 4550 4350
Connection ~ 4550 4350
Wire Wire Line
	4550 4350 4350 4350
Wire Wire Line
	3150 2950 3200 2950
Wire Wire Line
	3200 2950 3200 2900
Wire Wire Line
	3200 2900 3750 2900
Wire Wire Line
	3750 2900 3750 2950
Connection ~ 3750 2950
Wire Wire Line
	3750 2950 3850 2950
Wire Wire Line
	5350 3150 5300 3150
Wire Wire Line
	5300 3150 5300 3100
Wire Wire Line
	5300 3100 4600 3100
Wire Wire Line
	4600 3100 4600 3150
Connection ~ 4600 3150
Wire Wire Line
	4600 3150 4350 3150
Wire Wire Line
	4950 3450 4350 3450
Text GLabel 3200 3350 0    60   Input ~ 0
isoSPI_MOSI
Text GLabel 5400 5550 0    60   Input ~ 0
isoSPI_MOSI
Text GLabel 5400 5650 0    60   Input ~ 0
isoSPI_MISO
Text GLabel 5400 5750 0    60   Input ~ 0
isoSPI_SCL
Text GLabel 5400 5850 0    60   Input ~ 0
isoSPI_CS
Text GLabel 5400 5350 0    50   Input ~ 0
INT_CANbus
Text GLabel 5400 5250 0    50   Input ~ 0
CS_can
Text GLabel 5400 5150 0    50   Input ~ 0
SCL_can
Text GLabel 5400 5050 0    50   Input ~ 0
MOSI_can
Text GLabel 5400 4950 0    50   Input ~ 0
MISO_can
$Comp
L Connector:RJ45 J14
U 1 1 5CDE6D6B
P 9550 1450
F 0 "J14" H 9220 1454 50  0000 R CNN
F 1 "CAN_RJ45" H 9220 1545 50  0000 R CNN
F 2 "Adapter_Boart_RPI_Security_Board:RJ45_SMT" V 9550 1475 50  0001 C CNN
F 3 "~" V 9550 1475 50  0001 C CNN
	1    9550 1450
	-1   0    0    1   
$EndComp
Text GLabel 9000 1150 0    50   Input ~ 0
CAN_H
Wire Wire Line
	9000 1150 9150 1150
Text GLabel 9000 1250 0    50   Input ~ 0
CAN_L
Wire Wire Line
	9000 1250 9150 1250
Text GLabel 9000 1350 0    50   Input ~ 0
GNDD
Wire Wire Line
	9000 1350 9150 1350
Text GLabel 3600 2550 0    60   Input ~ 0
SDA_I2C_1
Text GLabel 3600 2650 0    60   Input ~ 0
SCL_I2C_1
Text GLabel 3600 2950 0    60   Input ~ 0
CS1.1
Text GLabel 4650 2750 2    60   Input ~ 0
UART_TX
Text GLabel 4650 2850 2    60   Input ~ 0
UART_RX
Text GLabel 4650 2950 2    60   Input ~ 0
CS1.0
Text GLabel 4650 3150 2    60   Input ~ 0
INT_CANbus
Text GLabel 3600 3350 0    60   Input ~ 0
MOSI0
Text GLabel 3600 3450 0    60   Input ~ 0
MISO0
Text GLabel 3600 3550 0    60   Input ~ 0
SCL0
Text GLabel 4950 3450 2    50   Input ~ 0
External_Enable
Text GLabel 4650 3550 2    60   Input ~ 0
CS0.0
Text GLabel 4650 3650 2    60   Input ~ 0
CS0.1
Text GLabel 4650 3750 2    60   Input ~ 0
SCL_I2C_0
Text GLabel 4650 3950 2    50   Input ~ 0
ON_OFF
Text GLabel 3600 3750 0    60   Input ~ 0
SDA_I2C_0
Text GLabel 3600 4150 0    60   Input ~ 0
MISO1
Text GLabel 4700 4250 2    60   Input ~ 0
MOSI1
Text GLabel 4700 4350 2    60   Input ~ 0
SCL1
Text GLabel 6750 4350 0    60   Input ~ 0
SDA_I2C_1
Text GLabel 6750 4450 0    60   Input ~ 0
SCL_I2C_1
Text GLabel 7800 5750 2    50   Input ~ 0
ON_OFF
Text GLabel 9700 4450 0    50   Input ~ 0
External_Enable
Text GLabel 10500 2750 2    60   Input ~ 0
UART_RX
Text GLabel 9700 2750 0    60   Input ~ 0
UART_TX
Text GLabel 9000 1750 0    50   Input ~ 0
GNDD
Wire Wire Line
	9000 1750 9150 1750
$Comp
L Connector_Generic:Conn_01x02 J18
U 1 1 5CC126AC
P 8150 1150
F 0 "J18" H 8230 1142 50  0000 L CNN
F 1 "UART" H 8230 1051 50  0000 L CNN
F 2 "Connector_PinHeader_2.54mm:PinHeader_1x02_P2.54mm_Vertical" H 8150 1150 50  0001 C CNN
F 3 "~" H 8150 1150 50  0001 C CNN
	1    8150 1150
	1    0    0    -1  
$EndComp
Text GLabel 7800 1250 0    60   Input ~ 0
UART_TX
Text GLabel 7800 1150 0    60   Input ~ 0
UART_RX
Wire Wire Line
	7800 1150 7950 1150
Wire Wire Line
	7950 1250 7800 1250
$Comp
L Connector_Generic:Conn_01x04 J22
U 1 1 5CC40291
P 8450 4400
F 0 "J22" H 8530 4392 50  0000 L CNN
F 1 "Ect_I2C" H 8530 4301 50  0000 L CNN
F 2 "Connector_PinHeader_2.54mm:PinHeader_1x04_P2.54mm_Vertical" H 8450 4400 50  0001 C CNN
F 3 "~" H 8450 4400 50  0001 C CNN
	1    8450 4400
	1    0    0    -1  
$EndComp
Text GLabel 8150 4400 0    60   Input ~ 0
SCL_I2C_1
Text GLabel 8150 4300 0    60   Input ~ 0
SDA_I2C_1
$Comp
L power:+3V3 #PWR0102
U 1 1 5CC473CE
P 7600 4100
F 0 "#PWR0102" H 7600 3950 50  0001 C CNN
F 1 "+3V3" H 7600 4240 50  0000 C CNN
F 2 "" H 7600 4100 50  0000 C CNN
F 3 "" H 7600 4100 50  0000 C CNN
	1    7600 4100
	1    0    0    -1  
$EndComp
$Comp
L power:GND #PWR0132
U 1 1 5CC47666
P 7600 4750
F 0 "#PWR0132" H 7600 4500 50  0001 C CNN
F 1 "GND" H 7600 4600 50  0000 C CNN
F 2 "" H 7600 4750 50  0000 C CNN
F 3 "" H 7600 4750 50  0000 C CNN
	1    7600 4750
	1    0    0    -1  
$EndComp
Wire Wire Line
	7600 4750 7600 4600
Wire Wire Line
	7600 4600 8250 4600
Wire Wire Line
	8250 4500 7600 4500
Wire Wire Line
	7600 4500 7600 4100
Wire Wire Line
	8150 4300 8250 4300
Wire Wire Line
	8250 4400 8150 4400
$Comp
L power:+5V #PWR0149
U 1 1 5CC5DCBC
P 4950 2250
F 0 "#PWR0149" H 4950 2100 50  0001 C CNN
F 1 "+5V" H 4950 2390 50  0000 C CNN
F 2 "" H 4950 2250 50  0001 C CNN
F 3 "" H 4950 2250 50  0001 C CNN
	1    4950 2250
	1    0    0    -1  
$EndComp
Wire Wire Line
	4950 2350 4950 2250
$Comp
L power:+3V3 #PWR0150
U 1 1 5CC65E03
P 5150 2250
F 0 "#PWR0150" H 5150 2100 50  0001 C CNN
F 1 "+3V3" H 5150 2390 50  0000 C CNN
F 2 "" H 5150 2250 50  0000 C CNN
F 3 "" H 5150 2250 50  0000 C CNN
	1    5150 2250
	1    0    0    -1  
$EndComp
Wire Wire Line
	5150 2350 5150 2250
$Comp
L power:GND #PWR0151
U 1 1 5CC6C912
P 5800 2600
F 0 "#PWR0151" H 5800 2350 50  0001 C CNN
F 1 "GND" H 5800 2450 50  0000 C CNN
F 2 "" H 5800 2600 50  0000 C CNN
F 3 "" H 5800 2600 50  0000 C CNN
	1    5800 2600
	1    0    0    -1  
$EndComp
$Comp
L Connector_Generic:Conn_01x03 J3
U 1 1 5CCB3E08
P 5050 2550
F 0 "J3" V 4922 2362 50  0000 R CNN
F 1 "Conn_01x03" V 5013 2362 50  0000 R CNN
F 2 "Connector_PinHeader_2.54mm:PinHeader_1x03_P2.54mm_Vertical" H 5050 2550 50  0001 C CNN
F 3 "~" H 5050 2550 50  0001 C CNN
	1    5050 2550
	0    -1   1    0   
$EndComp
Wire Wire Line
	5800 1900 5050 1900
Wire Wire Line
	5050 1900 5050 2350
Wire Wire Line
	5800 1900 5800 2600
$EndSCHEMATC
