EESchema Schematic File Version 4
LIBS:Adapter_Boart_RPI_Security_Board-cache
EELAYER 29 0
EELAYER END
$Descr A4 11693 8268
encoding utf-8
Sheet 3 3
Title ""
Date ""
Rev ""
Comp ""
Comment1 ""
Comment2 ""
Comment3 ""
Comment4 ""
$EndDescr
$Comp
L Adapter_Boart_RPI_Security_Board-rescue:LTC6820IMS-SPI_isoSPI-rescue U2
U 1 1 59F35069
P 5850 3650
F 0 "U2" H 5850 3150 60  0000 C CNN
F 1 "LTC6820IMS" H 5850 3050 60  0000 C CNN
F 2 "Package_SO:MSOP-16_3x4mm_P0.5mm" H 5850 3650 60  0001 C CNN
F 3 "" H 5850 3650 60  0001 C CNN
	1    5850 3650
	1    0    0    -1  
$EndComp
$Comp
L Device:R R21
U 1 1 59F3506A
P 6850 2900
F 0 "R21" V 6930 2900 50  0000 C CNN
F 1 "1.2K" V 6850 2900 50  0000 C CNN
F 2 "Resistor_SMD:R_0805_2012Metric_Pad1.15x1.40mm_HandSolder" V 6780 2900 50  0001 C CNN
F 3 "" H 6850 2900 50  0001 C CNN
	1    6850 2900
	0    -1   -1   0   
$EndComp
$Comp
L Device:R R22
U 1 1 59F3506B
P 7800 2900
F 0 "R22" V 7880 2900 50  0000 C CNN
F 1 "1,2K" V 7800 2900 50  0000 C CNN
F 2 "Resistor_SMD:R_0805_2012Metric_Pad1.15x1.40mm_HandSolder" V 7730 2900 50  0001 C CNN
F 3 "" H 7800 2900 50  0001 C CNN
	1    7800 2900
	0    -1   -1   0   
$EndComp
$Comp
L power:GND #PWR0113
U 1 1 59F3506C
P 8800 3300
F 0 "#PWR0113" H 8800 3050 50  0001 C CNN
F 1 "GND" H 8800 3150 50  0000 C CNN
F 2 "" H 8800 3300 50  0001 C CNN
F 3 "" H 8800 3300 50  0001 C CNN
	1    8800 3300
	1    0    0    -1  
$EndComp
Wire Wire Line
	6350 3300 6550 3300
Wire Wire Line
	6550 3300 6550 2900
Wire Wire Line
	6550 2900 6700 2900
Wire Wire Line
	7000 2900 7350 2900
Wire Wire Line
	7950 2900 8800 2900
Wire Wire Line
	8800 2900 8800 3300
Wire Wire Line
	6350 3400 7350 3400
Wire Wire Line
	7350 3400 7350 2900
Connection ~ 7350 2900
$Comp
L power:GND #PWR0114
U 1 1 59F3506D
P 6650 3500
F 0 "#PWR0114" H 6650 3250 50  0001 C CNN
F 1 "GND" H 6650 3350 50  0000 C CNN
F 2 "" H 6650 3500 50  0001 C CNN
F 3 "" H 6650 3500 50  0001 C CNN
	1    6650 3500
	0    -1   -1   0   
$EndComp
Wire Wire Line
	6650 3500 6350 3500
Wire Wire Line
	6900 3600 6350 3600
Wire Wire Line
	6500 3700 6350 3700
Wire Wire Line
	6900 3800 6350 3800
Wire Wire Line
	6900 3900 6350 3900
Wire Wire Line
	6500 4000 6350 4000
Wire Wire Line
	5350 3300 5050 3300
Wire Wire Line
	3450 3400 4400 3400
Wire Wire Line
	3450 3500 4100 3500
$Comp
L Device:R R12
U 1 1 59F3506F
P 4100 3100
F 0 "R12" V 4180 3100 50  0000 C CNN
F 1 "2K" V 4100 3100 50  0000 C CNN
F 2 "Resistor_SMD:R_0805_2012Metric_Pad1.15x1.40mm_HandSolder" V 4030 3100 50  0001 C CNN
F 3 "" H 4100 3100 50  0001 C CNN
	1    4100 3100
	1    0    0    -1  
$EndComp
$Comp
L Device:R R15
U 1 1 59F35070
P 4400 3100
F 0 "R15" V 4480 3100 50  0000 C CNN
F 1 "2K" V 4400 3100 50  0000 C CNN
F 2 "Resistor_SMD:R_0805_2012Metric_Pad1.15x1.40mm_HandSolder" V 4330 3100 50  0001 C CNN
F 3 "" H 4400 3100 50  0001 C CNN
	1    4400 3100
	1    0    0    -1  
$EndComp
Wire Wire Line
	4400 2950 4400 2800
Wire Wire Line
	4400 2800 4250 2800
Wire Wire Line
	4100 2800 4100 2950
Wire Wire Line
	4250 2700 4250 2800
Connection ~ 4250 2800
Wire Wire Line
	4400 3400 4400 3250
Wire Wire Line
	4100 3500 4100 3250
Connection ~ 4400 3400
Connection ~ 4100 3500
Wire Wire Line
	3450 3600 5350 3600
Wire Wire Line
	3450 3700 5350 3700
Wire Wire Line
	5350 3800 5100 3800
Wire Wire Line
	5350 3900 4500 3900
Wire Wire Line
	4500 4000 5350 4000
$Comp
L Device:R R8
U 1 1 59F35076
P 2750 5900
F 0 "R8" V 2830 5900 50  0000 C CNN
F 1 "0R" V 2750 5900 50  0000 C CNN
F 2 "Resistor_SMD:R_0805_2012Metric_Pad1.15x1.40mm_HandSolder" V 2680 5900 50  0001 C CNN
F 3 "" H 2750 5900 50  0001 C CNN
	1    2750 5900
	1    0    0    -1  
$EndComp
$Comp
L Device:R R9
U 1 1 59F35077
P 2750 6500
F 0 "R9" V 2830 6500 50  0000 C CNN
F 1 "N/A" V 2750 6500 50  0000 C CNN
F 2 "Resistor_SMD:R_0805_2012Metric_Pad1.15x1.40mm_HandSolder" V 2680 6500 50  0001 C CNN
F 3 "" H 2750 6500 50  0001 C CNN
	1    2750 6500
	1    0    0    -1  
$EndComp
$Comp
L power:GND #PWR0115
U 1 1 59F35078
P 2750 6900
F 0 "#PWR0115" H 2750 6650 50  0001 C CNN
F 1 "GND" H 2750 6750 50  0000 C CNN
F 2 "" H 2750 6900 50  0001 C CNN
F 3 "" H 2750 6900 50  0001 C CNN
	1    2750 6900
	1    0    0    -1  
$EndComp
Wire Wire Line
	2750 5600 2750 5750
Wire Wire Line
	2750 6050 2750 6250
Wire Wire Line
	2750 6650 2750 6900
$Comp
L Device:R R10
U 1 1 59F3507A
P 3500 5900
F 0 "R10" V 3580 5900 50  0000 C CNN
F 1 "0R" V 3500 5900 50  0000 C CNN
F 2 "Resistor_SMD:R_0805_2012Metric_Pad1.15x1.40mm_HandSolder" V 3430 5900 50  0001 C CNN
F 3 "" H 3500 5900 50  0001 C CNN
	1    3500 5900
	1    0    0    -1  
$EndComp
$Comp
L Device:R R11
U 1 1 59F3507B
P 3500 6500
F 0 "R11" V 3580 6500 50  0000 C CNN
F 1 "N/A" V 3500 6500 50  0000 C CNN
F 2 "Resistor_SMD:R_0805_2012Metric_Pad1.15x1.40mm_HandSolder" V 3430 6500 50  0001 C CNN
F 3 "" H 3500 6500 50  0001 C CNN
	1    3500 6500
	1    0    0    -1  
$EndComp
$Comp
L power:GND #PWR0133
U 1 1 59F3507C
P 3500 6900
F 0 "#PWR0133" H 3500 6650 50  0001 C CNN
F 1 "GND" H 3500 6750 50  0000 C CNN
F 2 "" H 3500 6900 50  0001 C CNN
F 3 "" H 3500 6900 50  0001 C CNN
	1    3500 6900
	1    0    0    -1  
$EndComp
Wire Wire Line
	3500 5600 3500 5750
Wire Wire Line
	3500 6050 3500 6200
Wire Wire Line
	3500 6650 3500 6900
$Comp
L Device:R R13
U 1 1 59F3507E
P 4250 5900
F 0 "R13" V 4330 5900 50  0000 C CNN
F 1 "N/A" V 4250 5900 50  0000 C CNN
F 2 "Resistor_SMD:R_0805_2012Metric_Pad1.15x1.40mm_HandSolder" V 4180 5900 50  0001 C CNN
F 3 "" H 4250 5900 50  0001 C CNN
	1    4250 5900
	1    0    0    -1  
$EndComp
$Comp
L Device:R R14
U 1 1 59F3507F
P 4250 6500
F 0 "R14" V 4330 6500 50  0000 C CNN
F 1 "0R" V 4250 6500 50  0000 C CNN
F 2 "Resistor_SMD:R_0805_2012Metric_Pad1.15x1.40mm_HandSolder" V 4180 6500 50  0001 C CNN
F 3 "" H 4250 6500 50  0001 C CNN
	1    4250 6500
	1    0    0    -1  
$EndComp
$Comp
L power:GND #PWR0134
U 1 1 59F35080
P 4250 6900
F 0 "#PWR0134" H 4250 6650 50  0001 C CNN
F 1 "GND" H 4250 6750 50  0000 C CNN
F 2 "" H 4250 6900 50  0001 C CNN
F 3 "" H 4250 6900 50  0001 C CNN
	1    4250 6900
	1    0    0    -1  
$EndComp
Wire Wire Line
	4250 5600 4250 5750
Wire Wire Line
	4250 6050 4250 6200
Wire Wire Line
	4250 6650 4250 6900
Wire Wire Line
	1500 5000 3900 5000
Wire Wire Line
	3900 5000 3900 6200
Wire Wire Line
	3900 6200 4250 6200
Connection ~ 4250 6200
Wire Wire Line
	1500 5150 3150 5150
Wire Wire Line
	3150 5150 3150 6200
Wire Wire Line
	3150 6200 3500 6200
Connection ~ 3500 6200
Wire Wire Line
	1500 5300 2400 5300
Wire Wire Line
	2400 5300 2400 6250
Wire Wire Line
	2400 6250 2750 6250
Connection ~ 2750 6250
$Comp
L Device:R R16
U 1 1 59F35082
P 5100 5900
F 0 "R16" V 5180 5900 50  0000 C CNN
F 1 "0R" V 5100 5900 50  0000 C CNN
F 2 "Resistor_SMD:R_0805_2012Metric_Pad1.15x1.40mm_HandSolder" V 5030 5900 50  0001 C CNN
F 3 "" H 5100 5900 50  0001 C CNN
	1    5100 5900
	1    0    0    -1  
$EndComp
$Comp
L Device:R R17
U 1 1 59F35083
P 5100 6500
F 0 "R17" V 5180 6500 50  0000 C CNN
F 1 "N/A" V 5100 6500 50  0000 C CNN
F 2 "Resistor_SMD:R_0805_2012Metric_Pad1.15x1.40mm_HandSolder" V 5030 6500 50  0001 C CNN
F 3 "" H 5100 6500 50  0001 C CNN
	1    5100 6500
	1    0    0    -1  
$EndComp
$Comp
L power:GND #PWR0135
U 1 1 59F35084
P 5100 6900
F 0 "#PWR0135" H 5100 6650 50  0001 C CNN
F 1 "GND" H 5100 6750 50  0000 C CNN
F 2 "" H 5100 6900 50  0001 C CNN
F 3 "" H 5100 6900 50  0001 C CNN
	1    5100 6900
	1    0    0    -1  
$EndComp
Wire Wire Line
	5100 5600 5100 5750
Wire Wire Line
	5100 6050 5100 6200
Wire Wire Line
	5100 6650 5100 6900
Wire Wire Line
	4750 6200 5100 6200
Connection ~ 5100 6200
Wire Wire Line
	4750 4850 4750 6200
Wire Wire Line
	4750 4850 1500 4850
$Comp
L Device:R R18
U 1 1 59F35086
P 5950 5900
F 0 "R18" V 6030 5900 50  0000 C CNN
F 1 "0R" V 5950 5900 50  0000 C CNN
F 2 "Resistor_SMD:R_0805_2012Metric_Pad1.15x1.40mm_HandSolder" V 5880 5900 50  0001 C CNN
F 3 "" H 5950 5900 50  0001 C CNN
	1    5950 5900
	1    0    0    -1  
$EndComp
$Comp
L Device:R R19
U 1 1 59F35087
P 5950 6500
F 0 "R19" V 6030 6500 50  0000 C CNN
F 1 "N/A" V 5950 6500 50  0000 C CNN
F 2 "Resistor_SMD:R_0805_2012Metric_Pad1.15x1.40mm_HandSolder" V 5880 6500 50  0001 C CNN
F 3 "" H 5950 6500 50  0001 C CNN
	1    5950 6500
	1    0    0    -1  
$EndComp
$Comp
L power:GND #PWR0136
U 1 1 59F35088
P 5950 6900
F 0 "#PWR0136" H 5950 6650 50  0001 C CNN
F 1 "GND" H 5950 6750 50  0000 C CNN
F 2 "" H 5950 6900 50  0001 C CNN
F 3 "" H 5950 6900 50  0001 C CNN
	1    5950 6900
	1    0    0    -1  
$EndComp
Wire Wire Line
	5950 5600 5950 5750
Wire Wire Line
	5950 6050 5950 6200
Wire Wire Line
	5950 6650 5950 6900
Wire Wire Line
	5600 6200 5950 6200
Connection ~ 5950 6200
Wire Wire Line
	5600 6200 5600 4700
Wire Wire Line
	5600 4700 1500 4700
$Comp
L Adapter_Boart_RPI_Security_Board-rescue:Conn_02x03_Counter_Clockwise-SPI_isoSPI-rescue T1
U 1 1 59F3508A
P 7300 1700
AR Path="/59F3508A" Ref="T1"  Part="1" 
AR Path="/5CBFE230/59F3508A" Ref="T1"  Part="1" 
F 0 "T1" H 7350 1900 50  0000 C CNN
F 1 "B8204A" H 7350 1500 50  0000 C CNN
F 2 "Transformer_SMD:Transformer_NF_ETAL_P2781_HandSoldering" H 7300 1700 50  0001 C CNN
F 3 "" H 7300 1700 50  0001 C CNN
	1    7300 1700
	-1   0    0    1   
$EndComp
$Comp
L Device:R R23
U 1 1 59F3508B
P 8050 1600
F 0 "R23" V 8130 1600 50  0000 C CNN
F 1 "0R" V 8050 1600 50  0000 C CNN
F 2 "Resistor_SMD:R_0805_2012Metric_Pad1.15x1.40mm_HandSolder" V 7980 1600 50  0001 C CNN
F 3 "" H 8050 1600 50  0001 C CNN
	1    8050 1600
	0    1    1    0   
$EndComp
$Comp
L Device:R R24
U 1 1 59F3508C
P 8050 1800
F 0 "R24" V 8130 1800 50  0000 C CNN
F 1 "0R" V 8050 1800 50  0000 C CNN
F 2 "Resistor_SMD:R_0805_2012Metric_Pad1.15x1.40mm_HandSolder" V 7980 1800 50  0001 C CNN
F 3 "" H 8050 1800 50  0001 C CNN
	1    8050 1800
	0    1    1    0   
$EndComp
Wire Wire Line
	7000 1600 6600 1600
Wire Wire Line
	6600 1600 6600 1300
Wire Wire Line
	6600 1300 6450 1300
Wire Wire Line
	6300 2100 6450 2100
Wire Wire Line
	6600 2100 6600 1800
Wire Wire Line
	6600 1800 7000 1800
$Comp
L Device:R R20
U 1 1 59F3508D
P 6450 1700
F 0 "R20" V 6530 1700 50  0000 C CNN
F 1 "120" V 6450 1700 50  0000 C CNN
F 2 "Resistor_SMD:R_0805_2012Metric_Pad1.15x1.40mm_HandSolder" V 6380 1700 50  0001 C CNN
F 3 "" H 6450 1700 50  0001 C CNN
	1    6450 1700
	1    0    0    -1  
$EndComp
Wire Wire Line
	6450 1550 6450 1300
Connection ~ 6450 1300
Wire Wire Line
	6450 1850 6450 2100
Connection ~ 6450 2100
Text Notes 2050 7300 0    60   ~ 0
Set POL = 1 and PHA = 1 for use with LTC6811\n
Text Notes 1600 5000 0    60   ~ 0
for clock > 200kHz SLOW = 0
Text Notes 8950 3350 0    60   ~ 0
R21 and R22 should be the same.\nThis sets the LTC6820 output drive to 1.2V,\nand the receiver input threshold to 600mV. The \nsettings are compatible with other Linear \nTechnology isoSPI-based demo boards.\n
Wire Wire Line
	7350 2900 7650 2900
Wire Wire Line
	4250 2800 4100 2800
Wire Wire Line
	4400 3400 5350 3400
Wire Wire Line
	4100 3500 5350 3500
Wire Wire Line
	4250 6200 4250 6350
Wire Wire Line
	3500 6200 3500 6350
Wire Wire Line
	2750 6250 2750 6350
Wire Wire Line
	5100 6200 5100 6350
Wire Wire Line
	5950 6200 5950 6350
Wire Wire Line
	6450 1300 6300 1300
Wire Wire Line
	6450 2100 6600 2100
$Comp
L Connector_Generic:Conn_01x01 J8
U 1 1 5CC09C91
P 7000 4500
F 0 "J8" V 6964 4412 50  0000 R CNN
F 1 "IP_TP" V 6873 4412 50  0000 R CNN
F 2 "Connector_PinHeader_2.54mm:PinHeader_1x01_P2.54mm_Vertical" H 7000 4500 50  0001 C CNN
F 3 "~" H 7000 4500 50  0001 C CNN
	1    7000 4500
	0    -1   -1   0   
$EndComp
$Comp
L Connector_Generic:Conn_01x01 J9
U 1 1 5CC0A95F
P 7600 4500
F 0 "J9" V 7564 4412 50  0000 R CNN
F 1 "IM_TP" V 7473 4412 50  0000 R CNN
F 2 "Connector_PinHeader_2.54mm:PinHeader_1x01_P2.54mm_Vertical" H 7600 4500 50  0001 C CNN
F 3 "~" H 7600 4500 50  0001 C CNN
	1    7600 4500
	0    -1   -1   0   
$EndComp
Wire Wire Line
	7000 4700 7000 4850
Wire Wire Line
	7600 4700 7600 4850
$Comp
L power:+3.3V #PWR0137
U 1 1 5CC2E019
P 2750 5600
F 0 "#PWR0137" H 2750 5450 50  0001 C CNN
F 1 "+3.3V" H 2765 5773 50  0000 C CNN
F 2 "" H 2750 5600 50  0001 C CNN
F 3 "" H 2750 5600 50  0001 C CNN
	1    2750 5600
	1    0    0    -1  
$EndComp
$Comp
L power:+3.3V #PWR0138
U 1 1 5CC2F3C1
P 3500 5600
F 0 "#PWR0138" H 3500 5450 50  0001 C CNN
F 1 "+3.3V" H 3515 5773 50  0000 C CNN
F 2 "" H 3500 5600 50  0001 C CNN
F 3 "" H 3500 5600 50  0001 C CNN
	1    3500 5600
	1    0    0    -1  
$EndComp
$Comp
L power:+3.3V #PWR0139
U 1 1 5CC2F74B
P 4250 5600
F 0 "#PWR0139" H 4250 5450 50  0001 C CNN
F 1 "+3.3V" H 4265 5773 50  0000 C CNN
F 2 "" H 4250 5600 50  0001 C CNN
F 3 "" H 4250 5600 50  0001 C CNN
	1    4250 5600
	1    0    0    -1  
$EndComp
$Comp
L power:+3.3V #PWR0140
U 1 1 5CC2FBB0
P 5100 5600
F 0 "#PWR0140" H 5100 5450 50  0001 C CNN
F 1 "+3.3V" H 5115 5773 50  0000 C CNN
F 2 "" H 5100 5600 50  0001 C CNN
F 3 "" H 5100 5600 50  0001 C CNN
	1    5100 5600
	1    0    0    -1  
$EndComp
$Comp
L power:+3.3V #PWR0141
U 1 1 5CC3016E
P 5950 5600
F 0 "#PWR0141" H 5950 5450 50  0001 C CNN
F 1 "+3.3V" H 5965 5773 50  0000 C CNN
F 2 "" H 5950 5600 50  0001 C CNN
F 3 "" H 5950 5600 50  0001 C CNN
	1    5950 5600
	1    0    0    -1  
$EndComp
$Comp
L power:+3.3V #PWR0142
U 1 1 5CC305C7
P 5100 3800
F 0 "#PWR0142" H 5100 3650 50  0001 C CNN
F 1 "+3.3V" V 5115 3928 50  0000 L CNN
F 2 "" H 5100 3800 50  0001 C CNN
F 3 "" H 5100 3800 50  0001 C CNN
	1    5100 3800
	0    -1   -1   0   
$EndComp
$Comp
L power:+3.3V #PWR0143
U 1 1 5CC31D80
P 4250 2700
F 0 "#PWR0143" H 4250 2550 50  0001 C CNN
F 1 "+3.3V" H 4265 2873 50  0000 C CNN
F 2 "" H 4250 2700 50  0001 C CNN
F 3 "" H 4250 2700 50  0001 C CNN
	1    4250 2700
	1    0    0    -1  
$EndComp
$Comp
L power:+3.3V #PWR0144
U 1 1 5CC324E8
P 6500 4000
F 0 "#PWR0144" H 6500 3850 50  0001 C CNN
F 1 "+3.3V" V 6515 4128 50  0000 L CNN
F 2 "" H 6500 4000 50  0001 C CNN
F 3 "" H 6500 4000 50  0001 C CNN
	1    6500 4000
	0    1    1    0   
$EndComp
Wire Wire Line
	8350 1600 8200 1600
Wire Wire Line
	8200 1800 8350 1800
NoConn ~ 7000 1700
NoConn ~ 7500 1700
Text GLabel 3450 3600 0    60   Input ~ 0
isoSPI_SCL
Text GLabel 3450 3700 0    60   Input ~ 0
isoSPI_CS
Text GLabel 8350 1600 2    50   Input ~ 0
isoSPI_Plus_Iso
Text GLabel 8350 1800 2    50   Input ~ 0
isoSPI_Minus_Iso
Text GLabel 3450 3500 0    60   Input ~ 0
isoSPI_MISO
Text GLabel 3450 3400 0    60   Input ~ 0
isoSPI_MOSI
Text GLabel 1500 4700 0    60   Input ~ 0
EN
Text GLabel 1500 4850 0    60   Input ~ 0
MSTR
Text GLabel 1500 5000 0    60   Input ~ 0
SLOW
Text GLabel 1500 5150 0    60   Input ~ 0
POL
Text GLabel 1500 5300 0    60   Input ~ 0
PHA
Text GLabel 4500 3900 0    60   Input ~ 0
POL
Text GLabel 4500 4000 0    60   Input ~ 0
PHA
Text GLabel 6900 3600 2    60   Input ~ 0
SLOW
Text GLabel 6500 3700 2    60   Input ~ 0
MSTR
Text GLabel 6900 3800 2    60   Input ~ 0
IP
Text GLabel 6900 3900 2    60   Input ~ 0
IM
Text GLabel 5050 3300 0    60   Input ~ 0
EN
Text GLabel 7000 4850 3    60   Input ~ 0
IP
Text GLabel 7600 4850 3    60   Input ~ 0
IM
Text GLabel 6300 1300 0    60   Input ~ 0
IP
Text GLabel 6300 2100 0    60   Input ~ 0
IM
$Comp
L Connector_Generic:Conn_01x02 J5
U 1 1 5CCD2AEC
P 9550 1650
F 0 "J5" H 9630 1642 50  0000 L CNN
F 1 "isoSPI_Ext" H 9630 1551 50  0000 L CNN
F 2 "Connector_PinHeader_2.54mm:PinHeader_1x02_P2.54mm_Vertical" H 9550 1650 50  0001 C CNN
F 3 "~" H 9550 1650 50  0001 C CNN
	1    9550 1650
	1    0    0    -1  
$EndComp
Wire Wire Line
	7500 1600 7800 1600
Wire Wire Line
	7500 1800 7800 1800
Wire Wire Line
	7800 1600 7800 1350
Wire Wire Line
	7800 1350 9150 1350
Wire Wire Line
	9150 1350 9150 1650
Wire Wire Line
	9150 1650 9350 1650
Connection ~ 7800 1600
Wire Wire Line
	7800 1600 7900 1600
Wire Wire Line
	9150 1750 9150 1950
Wire Wire Line
	9150 1950 7800 1950
Wire Wire Line
	7800 1950 7800 1800
Connection ~ 7800 1800
Wire Wire Line
	7800 1800 7900 1800
Wire Wire Line
	9150 1750 9350 1750
$EndSCHEMATC
