EESchema Schematic File Version 4
LIBS:Adapter_Boart_RPI_Security_Board-cache
EELAYER 29 0
EELAYER END
$Descr A3 16535 11693
encoding utf-8
Sheet 2 3
Title ""
Date ""
Rev ""
Comp ""
Comment1 ""
Comment2 ""
Comment3 ""
Comment4 ""
$EndDescr
Text Notes 4250 1150 0    60   ~ 0
THE IC Hausing is TSSOP (Farnel 10x1,50)\nis smaller than SOIC \nbut coust some cent more
$Comp
L power:GND #PWR0116
U 1 1 5CBA758D
P 4800 3250
F 0 "#PWR0116" H 4800 3000 50  0001 C CNN
F 1 "GND" H 4800 3100 50  0000 C CNN
F 2 "" H 4800 3250 50  0001 C CNN
F 3 "" H 4800 3250 50  0001 C CNN
	1    4800 3250
	1    0    0    -1  
$EndComp
$Comp
L power:+3.3V #PWR0117
U 1 1 5CBA7593
P 4800 1400
F 0 "#PWR0117" H 4800 1250 50  0001 C CNN
F 1 "+3.3V" H 4800 1540 50  0000 C CNN
F 2 "" H 4800 1400 50  0001 C CNN
F 3 "" H 4800 1400 50  0001 C CNN
	1    4800 1400
	1    0    0    -1  
$EndComp
$Comp
L Device:D D3
U 1 1 5CBA7599
P 8000 1950
F 0 "D3" H 8000 2050 50  0000 C CNN
F 1 "D" H 8000 1850 50  0000 C CNN
F 2 "Diode_SMD:D_1206_3216Metric_Pad1.42x1.75mm_HandSolder" H 8000 1950 50  0001 C CNN
F 3 "" H 8000 1950 50  0001 C CNN
	1    8000 1950
	0    1    1    0   
$EndComp
$Comp
L Device:R R6
U 1 1 5CBA75A0
P 8300 1950
F 0 "R6" V 8380 1950 50  0000 C CNN
F 1 "10K" V 8300 1950 50  0000 C CNN
F 2 "Resistor_SMD:R_0805_2012Metric_Pad1.15x1.40mm_HandSolder" V 8230 1950 50  0001 C CNN
F 3 "" H 8300 1950 50  0001 C CNN
	1    8300 1950
	1    0    0    -1  
$EndComp
$Comp
L Device:R R7
U 1 1 5CBA75A7
P 8650 2200
F 0 "R7" V 8730 2200 50  0000 C CNN
F 1 "10K" V 8650 2200 50  0000 C CNN
F 2 "Resistor_SMD:R_0805_2012Metric_Pad1.15x1.40mm_HandSolder" V 8580 2200 50  0001 C CNN
F 3 "" H 8650 2200 50  0001 C CNN
	1    8650 2200
	0    1    1    0   
$EndComp
$Comp
L Device:C C7
U 1 1 5CBA75AE
P 8300 2600
F 0 "C7" H 8325 2700 50  0000 L CNN
F 1 "22pF" H 8325 2500 50  0000 L CNN
F 2 "Capacitor_SMD:C_0805_2012Metric_Pad1.15x1.40mm_HandSolder" H 8338 2450 50  0001 C CNN
F 3 "" H 8300 2600 50  0001 C CNN
	1    8300 2600
	1    0    0    -1  
$EndComp
$Comp
L power:GND #PWR0118
U 1 1 5CBA75B5
P 8300 2950
F 0 "#PWR0118" H 8300 2700 50  0001 C CNN
F 1 "GND" H 8300 2800 50  0000 C CNN
F 2 "" H 8300 2950 50  0001 C CNN
F 3 "" H 8300 2950 50  0001 C CNN
	1    8300 2950
	1    0    0    -1  
$EndComp
$Comp
L power:+3.3V #PWR0119
U 1 1 5CBA75BB
P 8300 1500
F 0 "#PWR0119" H 8300 1350 50  0001 C CNN
F 1 "+3.3V" H 8300 1640 50  0000 C CNN
F 2 "" H 8300 1500 50  0001 C CNN
F 3 "" H 8300 1500 50  0001 C CNN
	1    8300 1500
	1    0    0    -1  
$EndComp
$Comp
L Adapter_Boart_RPI_Security_Board-rescue:TEST_1P-SPI_CAN_Adapter-rescue J1
U 1 1 5CBA75C3
P 4000 2700
F 0 "J1" V 4000 2950 50  0000 C CNN
F 1 "CLKOUT/SOF" V 3900 2750 50  0000 C CNN
F 2 "Connector_Pin:Pin_D1.2mm_L10.2mm_W2.9mm_FlatFork" H 4200 2700 50  0001 C CNN
F 3 "" H 4200 2700 50  0001 C CNN
	1    4000 2700
	0    -1   -1   0   
$EndComp
$Comp
L Device:Crystal Y1
U 1 1 5CBA75CA
P 3050 2550
F 0 "Y1" V 3150 2350 50  0000 C CNN
F 1 "Crystal" V 3050 2250 50  0000 C CNN
F 2 "Crystal:Crystal_SMD_HC49-SD" H 3050 2550 50  0001 C CNN
F 3 "" H 3050 2550 50  0001 C CNN
	1    3050 2550
	0    1    1    0   
$EndComp
$Comp
L Device:C C2
U 1 1 5CBA75D1
P 2450 2400
F 0 "C2" V 2500 2500 50  0000 L CNN
F 1 "22pF" V 2500 2150 50  0000 L CNN
F 2 "Capacitor_SMD:C_0805_2012Metric_Pad1.15x1.40mm_HandSolder" H 2488 2250 50  0001 C CNN
F 3 "" H 2450 2400 50  0001 C CNN
	1    2450 2400
	0    1    1    0   
$EndComp
$Comp
L Device:C C3
U 1 1 5CBA75D8
P 2450 2700
F 0 "C3" V 2500 2800 50  0000 L CNN
F 1 "22pF" V 2500 2450 50  0000 L CNN
F 2 "Capacitor_SMD:C_0805_2012Metric_Pad1.15x1.40mm_HandSolder" H 2488 2550 50  0001 C CNN
F 3 "" H 2450 2700 50  0001 C CNN
	1    2450 2700
	0    1    1    0   
$EndComp
$Comp
L power:GND #PWR0120
U 1 1 5CBA75DF
P 2050 2850
F 0 "#PWR0120" H 2050 2600 50  0001 C CNN
F 1 "GND" H 2050 2700 50  0000 C CNN
F 2 "" H 2050 2850 50  0001 C CNN
F 3 "" H 2050 2850 50  0001 C CNN
	1    2050 2850
	1    0    0    -1  
$EndComp
$Comp
L Device:R R4
U 1 1 5CBA75E8
P 6600 2050
F 0 "R4" V 6680 2050 50  0000 C CNN
F 1 "10K" V 6600 2050 50  0000 C CNN
F 2 "Resistor_SMD:R_0805_2012Metric_Pad1.15x1.40mm_HandSolder" V 6530 2050 50  0001 C CNN
F 3 "" H 6600 2050 50  0001 C CNN
	1    6600 2050
	1    0    0    -1  
$EndComp
$Comp
L Device:R R5
U 1 1 5CBA75EF
P 6850 1700
F 0 "R5" V 6930 1700 50  0000 C CNN
F 1 "10K" V 6850 1700 50  0000 C CNN
F 2 "Resistor_SMD:R_0805_2012Metric_Pad1.15x1.40mm_HandSolder" V 6780 1700 50  0001 C CNN
F 3 "" H 6850 1700 50  0001 C CNN
	1    6850 1700
	0    1    1    0   
$EndComp
$Comp
L power:GND #PWR0121
U 1 1 5CBA75F6
P 6600 2300
F 0 "#PWR0121" H 6600 2050 50  0001 C CNN
F 1 "GND" H 6600 2150 50  0000 C CNN
F 2 "" H 6600 2300 50  0001 C CNN
F 3 "" H 6600 2300 50  0001 C CNN
	1    6600 2300
	1    0    0    -1  
$EndComp
$Comp
L Adapter_Boart_RPI_Security_Board-rescue:Conn_02x04_Counter_Clockwise-SPI_CAN_Adapter-rescue DC1
U 1 1 5CBA75FD
P 2750 6700
F 0 "DC1" H 2800 6900 50  0000 C CNN
F 1 "R1SE-0505" H 2800 6400 50  0000 C CNN
F 2 "Package_SO:SOP-8_6.62x9.15mm_P2.54mm" H 2750 6700 50  0001 C CNN
F 3 "" H 2750 6700 50  0001 C CNN
	1    2750 6700
	1    0    0    -1  
$EndComp
$Comp
L Device:C C1
U 1 1 5CBA7604
P 2000 6750
F 0 "C1" H 2025 6850 50  0000 L CNN
F 1 "1uF" H 2025 6650 50  0000 L CNN
F 2 "Capacitor_SMD:C_0805_2012Metric_Pad1.15x1.40mm_HandSolder" H 2038 6600 50  0001 C CNN
F 3 "" H 2000 6750 50  0001 C CNN
	1    2000 6750
	-1   0    0    1   
$EndComp
$Comp
L power:GND #PWR0122
U 1 1 5CBA760B
P 2000 6300
F 0 "#PWR0122" H 2000 6050 50  0001 C CNN
F 1 "GND" H 2000 6150 50  0000 C CNN
F 2 "" H 2000 6300 50  0001 C CNN
F 3 "" H 2000 6300 50  0001 C CNN
	1    2000 6300
	-1   0    0    1   
$EndComp
NoConn ~ 2550 6800
NoConn ~ 3050 6800
NoConn ~ 3050 6700
NoConn ~ 3050 6600
$Comp
L Device:C C4
U 1 1 5CBA7615
P 3550 6750
F 0 "C4" H 3575 6850 50  0000 L CNN
F 1 "1uF" H 3575 6650 50  0000 L CNN
F 2 "Capacitor_SMD:C_0805_2012Metric_Pad1.15x1.40mm_HandSolder" H 3588 6600 50  0001 C CNN
F 3 "" H 3550 6750 50  0001 C CNN
	1    3550 6750
	1    0    0    -1  
$EndComp
Text Notes 3150 7000 0    60   ~ 0
V_out\n
Text Notes 2450 6500 0    60   ~ 0
V_in\n
$Comp
L power:GNDD #PWR0123
U 1 1 5CBA761E
P 3550 7200
F 0 "#PWR0123" H 3550 6950 50  0001 C CNN
F 1 "GNDD" H 3550 7075 50  0000 C CNN
F 2 "" H 3550 7200 50  0001 C CNN
F 3 "" H 3550 7200 50  0001 C CNN
	1    3550 7200
	1    0    0    -1  
$EndComp
$Comp
L Adapter_Boart_RPI_Security_Board-rescue:ISO1050-SPI_CAN_Adapter IC?
U 1 1 5CBA7624
P 2800 8350
AR Path="/5CBA7624" Ref="IC?"  Part="1" 
AR Path="/5CBA6DB8/5CBA7624" Ref="IC1"  Part="1" 
F 0 "IC1" H 2500 8650 60  0000 C CNN
F 1 "ISO1050" H 2600 8000 60  0000 C CNN
F 2 "Package_SO:SOP-8_6.62x9.15mm_P2.54mm" H 2800 8350 60  0001 C CNN
F 3 "" H 2800 8350 60  0001 C CNN
	1    2800 8350
	1    0    0    -1  
$EndComp
$Comp
L power:GND #PWR0124
U 1 1 5CBA762B
P 2000 8850
F 0 "#PWR0124" H 2000 8600 50  0001 C CNN
F 1 "GND" H 2000 8700 50  0000 C CNN
F 2 "" H 2000 8850 50  0001 C CNN
F 3 "" H 2000 8850 50  0001 C CNN
	1    2000 8850
	1    0    0    -1  
$EndComp
$Comp
L power:GNDD #PWR0125
U 1 1 5CBA7633
P 3550 8850
F 0 "#PWR0125" H 3550 8600 50  0001 C CNN
F 1 "GNDD" H 3550 8725 50  0000 C CNN
F 2 "" H 3550 8850 50  0001 C CNN
F 3 "" H 3550 8850 50  0001 C CNN
	1    3550 8850
	1    0    0    -1  
$EndComp
$Comp
L power:+5V #PWR0126
U 1 1 5CBA7639
P 1000 7100
F 0 "#PWR0126" H 1000 6950 50  0001 C CNN
F 1 "+5V" H 1000 7240 50  0000 C CNN
F 2 "" H 1000 7100 50  0001 C CNN
F 3 "" H 1000 7100 50  0001 C CNN
	1    1000 7100
	1    0    0    -1  
$EndComp
$Comp
L Device:C C5
U 1 1 5CBA763F
P 4050 6750
F 0 "C5" H 4075 6850 50  0000 L CNN
F 1 "100nF" H 4075 6650 50  0000 L CNN
F 2 "Capacitor_SMD:C_0805_2012Metric_Pad1.15x1.40mm_HandSolder" H 4088 6600 50  0001 C CNN
F 3 "" H 4050 6750 50  0001 C CNN
	1    4050 6750
	1    0    0    -1  
$EndComp
$Comp
L Device:C C6
U 1 1 5CBA7646
P 4500 6750
F 0 "C6" H 4525 6850 50  0000 L CNN
F 1 "1uF" H 4525 6650 50  0000 L CNN
F 2 "Capacitor_SMD:C_0805_2012Metric_Pad1.15x1.40mm_HandSolder" H 4538 6600 50  0001 C CNN
F 3 "" H 4500 6750 50  0001 C CNN
	1    4500 6750
	1    0    0    -1  
$EndComp
$Comp
L power:GNDD #PWR0127
U 1 1 5CBA764D
P 4050 7200
F 0 "#PWR0127" H 4050 6950 50  0001 C CNN
F 1 "GNDD" H 4050 7075 50  0000 C CNN
F 2 "" H 4050 7200 50  0001 C CNN
F 3 "" H 4050 7200 50  0001 C CNN
	1    4050 7200
	1    0    0    -1  
$EndComp
$Comp
L power:GNDD #PWR0128
U 1 1 5CBA7653
P 4500 7200
F 0 "#PWR0128" H 4500 6950 50  0001 C CNN
F 1 "GNDD" H 4500 7075 50  0000 C CNN
F 2 "" H 4500 7200 50  0001 C CNN
F 3 "" H 4500 7200 50  0001 C CNN
	1    4500 7200
	1    0    0    -1  
$EndComp
$Comp
L Adapter_Boart_RPI_Security_Board-rescue:PESD1CAN-RESCUE-SPI_CAN_Adapter-SPI_CAN_Adapter-rescue D2
U 1 1 5CBA765B
P 5350 8900
F 0 "D2" H 5100 9150 60  0000 C CNN
F 1 "PESD1CAN" H 4950 9000 60  0000 C CNN
F 2 "Package_TO_SOT_SMD:SOT-23_Handsoldering" H 5350 8900 60  0001 C CNN
F 3 "" H 5350 8900 60  0001 C CNN
	1    5350 8900
	1    0    0    -1  
$EndComp
$Comp
L power:GNDD #PWR0129
U 1 1 5CBA7664
P 5350 9450
F 0 "#PWR0129" H 5350 9200 50  0001 C CNN
F 1 "GNDD" H 5350 9325 50  0000 C CNN
F 2 "" H 5350 9450 50  0001 C CNN
F 3 "" H 5350 9450 50  0001 C CNN
	1    5350 9450
	1    0    0    -1  
$EndComp
$Comp
L Device:R R3
U 1 1 5CBA766A
P 5050 8100
F 0 "R3" H 4950 8150 50  0000 C CNN
F 1 "120" H 4900 8050 50  0000 C CNN
F 2 "Resistor_SMD:R_0805_2012Metric_Pad1.15x1.40mm_HandSolder" V 4980 8100 50  0001 C CNN
F 3 "" H 5050 8100 50  0001 C CNN
	1    5050 8100
	1    0    0    -1  
$EndComp
$Comp
L power:GNDD #PWR0130
U 1 1 5CBA7678
P 5900 9150
F 0 "#PWR0130" H 5900 8900 50  0001 C CNN
F 1 "GNDD" H 5900 9025 50  0000 C CNN
F 2 "" H 5900 9150 50  0001 C CNN
F 3 "" H 5900 9150 50  0001 C CNN
	1    5900 9150
	1    0    0    -1  
$EndComp
$Comp
L Adapter_Boart_RPI_Security_Board-rescue:Conn_01x02-SPI_CAN_Adapter-rescue J2
U 1 1 5CBA767E
P 5050 7600
F 0 "J2" V 5050 7700 50  0000 C CNN
F 1 "Termination" V 5150 7650 50  0000 C CNN
F 2 "Connector_PinHeader_2.54mm:PinHeader_1x02_P2.54mm_Vertical_SMD_Pin1Right" H 5050 7600 50  0001 C CNN
F 3 "" H 5050 7600 50  0001 C CNN
	1    5050 7600
	0    -1   -1   0   
$EndComp
Text Notes 4500 3750 0    60   ~ 0
ISOLATED ZONE
$Comp
L Device:R R2
U 1 1 5CBA7686
P 3450 2600
F 0 "R2" V 3530 2600 50  0000 C CNN
F 1 "RS" V 3450 2600 50  0000 C CNN
F 2 "Resistor_SMD:R_0805_2012Metric_Pad1.15x1.40mm_HandSolder" V 3380 2600 50  0001 C CNN
F 3 "" H 3450 2600 50  0001 C CNN
	1    3450 2600
	0    1    1    0   
$EndComp
Text Notes 2950 3150 0    60   ~ 0
A Series Resistor (RS)\n may be required for \nAT strip cut crystals
Text Notes 5550 3150 0    60   ~ 0
1. Hardware Reset – Low on RESET pin.\n2. SPI Reset – Reset via SPI command.
Text Notes 8500 2000 0    60   ~ 0
1: The diode, D, helps discharge the capacitor\nquickly when VDD powers down.\n2: R7 = 1 kOhm to 10 kOhm will limit any current \nflowing into RESET from the \nexternal capacitor, C, in the event of RESET pin \nbreakdown due to Electrostatic\nDischarge (ESD) or Electrical Overstress (EOS).
Text Notes 3650 9600 0    60   ~ 0
package designed to protect two \nautomotive Controller Area Network \n(CAN) bus lines from the damage \ncaused by ElectroStatic Discharge \n(ESD) and other transients.\n
Text Notes 4250 9100 0    60   ~ 0
PESD1CAN
$Comp
L Device:L L1
U 1 1 5CBA7692
P 1400 7450
F 0 "L1" V 1350 7450 50  0000 C CNN
F 1 "2.2uH" V 1475 7450 50  0000 C CNN
F 2 "Inductor_SMD:L_1206_3216Metric_Pad1.42x1.75mm_HandSolder" H 1400 7450 50  0001 C CNN
F 3 "" H 1400 7450 50  0001 C CNN
	1    1400 7450
	0    1    1    0   
$EndComp
$Comp
L Adapter_Boart_RPI_Security_Board-rescue:MCP2515-E_SO-SPI_CAN_Adapter-rescue U1
U 1 1 5CBA7699
P 4800 2300
F 0 "U1" H 4400 3075 50  0000 R CNN
F 1 "MCP2515-E/SO" H 5550 3100 50  0000 R TNN
F 2 "Package_SO:SOIC-18W_7.5x11.6mm_P1.27mm" H 4800 1400 50  0001 C CIN
F 3 "" H 4900 1500 50  0001 C CNN
	1    4800 2300
	1    0    0    -1  
$EndComp
NoConn ~ 5400 2400
NoConn ~ 5400 2500
NoConn ~ 5400 2600
NoConn ~ 5400 2700
NoConn ~ 5400 2800
Wire Wire Line
	5550 2300 5400 2300
Wire Wire Line
	4800 3250 4800 3100
Wire Wire Line
	4800 1400 4800 1500
Wire Wire Line
	8000 1800 8000 1700
Wire Wire Line
	8000 1700 8300 1700
Wire Wire Line
	8300 1500 8300 1700
Connection ~ 8300 1700
Wire Wire Line
	8300 2100 8300 2200
Wire Wire Line
	8000 2200 8300 2200
Wire Wire Line
	8000 2200 8000 2100
Connection ~ 8300 2200
Wire Wire Line
	8300 2750 8300 2950
Wire Wire Line
	9100 2200 8800 2200
Wire Wire Line
	5550 2900 5400 2900
Wire Wire Line
	2600 2700 3050 2700
Wire Wire Line
	3200 2700 3200 2600
Wire Wire Line
	4200 2500 3200 2500
Wire Wire Line
	3200 2500 3200 2400
Wire Wire Line
	3200 2400 3050 2400
Connection ~ 3050 2400
Connection ~ 3050 2700
Wire Wire Line
	2300 2400 2050 2400
Wire Wire Line
	2050 2400 2050 2700
Wire Wire Line
	2050 2700 2300 2700
Connection ~ 2050 2700
Wire Wire Line
	5600 1700 5400 1700
Wire Wire Line
	5600 1800 5400 1800
Wire Wire Line
	6600 2300 6600 2200
Wire Wire Line
	6700 1700 6600 1700
Wire Wire Line
	6600 1700 6600 1900
Connection ~ 6600 1700
Wire Wire Line
	7300 1700 7000 1700
Wire Wire Line
	4200 2700 4000 2700
Wire Wire Line
	2000 6900 2000 7000
Wire Wire Line
	2000 6600 2000 6500
Wire Wire Line
	2550 6600 2400 6600
Wire Wire Line
	2550 6700 2400 6700
Wire Wire Line
	2400 6700 2400 7000
Wire Wire Line
	2400 7000 2000 7000
Connection ~ 2000 7000
Wire Wire Line
	2000 6500 2400 6500
Wire Wire Line
	2400 6500 2400 6600
Connection ~ 2000 6500
Wire Wire Line
	3550 6100 3550 6300
Wire Wire Line
	3550 6900 3550 7000
Connection ~ 3550 6500
Connection ~ 3550 7000
Wire Wire Line
	2550 6900 2500 6900
Wire Wire Line
	2500 6900 2500 7100
Wire Wire Line
	2500 7100 3400 7100
Wire Wire Line
	3400 7100 3400 7000
Wire Wire Line
	3400 7000 3550 7000
Wire Wire Line
	3550 6500 3400 6500
Wire Wire Line
	3400 6500 3400 6900
Wire Wire Line
	3400 6900 3050 6900
Wire Wire Line
	2000 8200 2250 8200
Wire Wire Line
	2000 8500 2250 8500
Wire Wire Line
	2100 8300 2250 8300
Wire Wire Line
	2100 8400 2250 8400
Wire Wire Line
	3550 7750 3550 8200
Wire Wire Line
	3550 8200 3350 8200
Wire Wire Line
	3550 8850 3550 8500
Wire Wire Line
	3550 8500 3350 8500
Wire Wire Line
	2000 8850 2000 8500
Wire Wire Line
	4500 6100 4500 6600
Wire Wire Line
	4050 6100 4050 6600
Wire Wire Line
	4050 7200 4050 6900
Wire Wire Line
	4500 6900 4500 7200
Wire Wire Line
	5250 8400 5250 8550
Wire Wire Line
	5350 9450 5350 9250
Connection ~ 5250 8400
Wire Wire Line
	5050 7950 5050 7800
Wire Wire Line
	5050 8250 5050 8400
Connection ~ 5050 8400
Wire Wire Line
	5150 7800 5150 8300
Connection ~ 5150 8300
Wire Notes Line
	2800 3750 2800 9700
Wire Notes Line
	2800 9700 6950 9700
Wire Notes Line
	6950 9700 6950 3750
Wire Wire Line
	3600 2600 4200 2600
Wire Wire Line
	3200 2600 3300 2600
Wire Wire Line
	1250 7450 1000 7450
Wire Wire Line
	1000 7100 1000 7450
Wire Wire Line
	2000 7450 1550 7450
Wire Wire Line
	3450 6100 3550 6100
Wire Wire Line
	3450 7750 3550 7750
Wire Notes Line
	6950 3750 2800 3750
$Comp
L Device:LED D1
U 1 1 5CBA771B
P 1000 7900
F 0 "D1" H 1000 8000 50  0000 C CNN
F 1 "LED_5V" H 1000 7800 50  0000 C CNN
F 2 "LED_SMD:LED_0805_2012Metric_Castellated" H 1000 7900 50  0001 C CNN
F 3 "" H 1000 7900 50  0001 C CNN
	1    1000 7900
	0    -1   -1   0   
$EndComp
$Comp
L Device:R R1
U 1 1 5CBA7722
P 1000 8350
F 0 "R1" V 1080 8350 50  0000 C CNN
F 1 "350K" V 1000 8350 50  0000 C CNN
F 2 "Resistor_SMD:R_0805_2012Metric_Pad1.15x1.40mm_HandSolder" V 930 8350 50  0001 C CNN
F 3 "" H 1000 8350 50  0001 C CNN
	1    1000 8350
	1    0    0    -1  
$EndComp
Wire Wire Line
	1000 8200 1000 8050
$Comp
L power:GND #PWR0131
U 1 1 5CBA772A
P 1000 8650
F 0 "#PWR0131" H 1000 8400 50  0001 C CNN
F 1 "GND" H 1000 8500 50  0000 C CNN
F 2 "" H 1000 8650 50  0001 C CNN
F 3 "" H 1000 8650 50  0001 C CNN
	1    1000 8650
	1    0    0    -1  
$EndComp
Wire Wire Line
	1000 8650 1000 8500
Connection ~ 1000 7450
Wire Wire Line
	8300 1700 8300 1800
Wire Wire Line
	8300 2200 8300 2450
Wire Wire Line
	8300 2200 8500 2200
Wire Wire Line
	3050 2400 2600 2400
Wire Wire Line
	3050 2700 3200 2700
Wire Wire Line
	2050 2700 2050 2850
Wire Wire Line
	6600 1700 6400 1700
Wire Wire Line
	2000 7000 2000 7450
Wire Wire Line
	2000 6500 2000 6300
Wire Wire Line
	3550 6500 3550 6600
Wire Wire Line
	3550 7000 3550 7200
Wire Wire Line
	5450 8300 5150 8300
Wire Wire Line
	5450 8300 5450 8550
Wire Wire Line
	5250 8400 5050 8400
Wire Wire Line
	5050 8400 4850 8400
Wire Wire Line
	1000 7450 1000 7750
Wire Wire Line
	2000 8200 2000 7450
Connection ~ 2000 7450
Text GLabel 4000 1800 0    50   Input ~ 0
MISO_can
Text GLabel 4000 1700 0    50   Input ~ 0
MOSI_can
Text GLabel 4000 2000 0    50   Input ~ 0
SCL_can
Text GLabel 4000 1900 0    50   Input ~ 0
CS_can
Text GLabel 5550 2300 2    50   Input ~ 0
INT_CANbus
Text HLabel 4600 8300 0    60   Input ~ 0
CANH_ISO
Text HLabel 4600 8400 0    60   Input ~ 0
CANL_ISO
Text GLabel 4550 8000 0    50   Input ~ 0
CAN_H
Text GLabel 4550 8650 0    50   Input ~ 0
CAN_L
Text GLabel 6200 8700 2    50   Input ~ 0
GNDD
Wire Wire Line
	4550 8650 4850 8650
Wire Wire Line
	4850 8650 4850 8500
Connection ~ 4850 8400
Wire Wire Line
	4850 8400 4600 8400
Wire Wire Line
	4850 8300 4850 8200
Wire Wire Line
	4850 8000 4550 8000
Wire Wire Line
	5150 8300 4850 8300
Wire Wire Line
	4850 8300 4600 8300
Connection ~ 4850 8300
Wire Wire Line
	6200 8700 5900 8700
Wire Wire Line
	5900 8700 5900 9150
Wire Wire Line
	4000 1900 4200 1900
Wire Wire Line
	4000 1800 4200 1800
Wire Wire Line
	4200 1700 4000 1700
Wire Wire Line
	4000 2000 4200 2000
Wire Wire Line
	3650 8300 3650 8200
Wire Wire Line
	3650 8200 4850 8200
Wire Wire Line
	3350 8300 3650 8300
Connection ~ 4850 8200
Wire Wire Line
	4850 8200 4850 8000
Wire Wire Line
	3650 8400 3650 8500
Wire Wire Line
	3650 8500 4850 8500
Wire Wire Line
	3350 8400 3650 8400
Connection ~ 4850 8500
Wire Wire Line
	4850 8500 4850 8400
Text GLabel 5600 1700 2    60   Input ~ 0
RXCAN
Text GLabel 5600 1800 2    60   Input ~ 0
TXCAN
Text GLabel 6400 1700 0    60   Input ~ 0
RXCAN
Text GLabel 7300 1700 2    60   Input ~ 0
RXD
Text GLabel 9100 2200 2    60   Input ~ 0
RESET
Text GLabel 3450 6100 0    60   Input ~ 0
5V_iso
Wire Wire Line
	4050 6100 4500 6100
Connection ~ 4050 6100
Wire Wire Line
	3600 6100 3600 6300
Wire Wire Line
	3600 6300 3550 6300
Wire Wire Line
	3600 6100 4050 6100
Connection ~ 3550 6300
Wire Wire Line
	3550 6300 3550 6500
Text GLabel 3450 7750 0    60   Input ~ 0
5V_iso
Text GLabel 2100 8300 0    60   Input ~ 0
RXD
Text GLabel 2100 8400 0    60   Input ~ 0
TXCAN
Text GLabel 5550 2900 2    60   Input ~ 0
RESET
$Comp
L Connector_Generic:Conn_01x03 J4
U 1 1 5CCC0877
P 6200 8400
F 0 "J4" H 6280 8442 50  0000 L CNN
F 1 "Conn_01x03" H 6280 8351 50  0000 L CNN
F 2 "Connector_PinHeader_2.54mm:PinHeader_1x03_P2.54mm_Vertical" H 6200 8400 50  0001 C CNN
F 3 "~" H 6200 8400 50  0001 C CNN
	1    6200 8400
	1    0    0    -1  
$EndComp
Wire Wire Line
	5900 8700 5900 8500
Wire Wire Line
	5900 8500 6000 8500
Connection ~ 5900 8700
Wire Wire Line
	5250 8400 6000 8400
Wire Wire Line
	5450 8300 6000 8300
Connection ~ 5450 8300
$EndSCHEMATC
