M48
;DRILL file {KiCad 4.0.7} date 11/28/18 12:02:54
;FORMAT={-:-/ absolute / inch / decimal}
FMAT,2
INCH,TZ
T1C0.035
%
G90
G05
M72
T1
X0.8583Y-6.6
X0.8583Y-6.7
X0.8583Y-6.8
X0.8583Y-6.9
X9.9921Y-6.7
X9.9921Y-6.8
X9.9921Y-6.9
T1
X9.9921Y-6.6G85X9.9921Y-6.6
G05
T0
M30
