18.000; 17.875; 18.250; 18.125; 18.250; 18.375; 18.250; 18.500; 18.375; 18.500; 18.750; 18.875; 19.875; 19.250; 19.250; 19.500; 0;18.375; 18.250; 18.125; 18.250; 18.250; 18.250; 18.250; 18.125; 18.625; 18.625; 18.500; 18.625; 19.250; 19.125; 19.125; 19.875; 19.750; 
18.000; 17.875; 18.125; 18.250; 18.250; 18.375; 18.375; 18.375; 18.250; 18.375; 18.750; 18.875; 19.875; 19.250; 19.250; 19.500; 0;18.375; 18.250; 18.125; 18.250; 18.250; 18.250; 18.250; 18.125; 18.500; 18.625; 18.500; 18.625; 19.125; 19.125; 19.125; 19.750; 19.625; 
18.125; 17.875; 18.250; 18.250; 18.250; 18.375; 18.250; 18.375; 18.375; 18.500; 18.750; 18.750; 19.875; 19.250; 19.250; 19.500; 0;18.375; 18.250; 18.125; 18.250; 18.250; 18.250; 18.250; 18.125; 18.500; 18.625; 18.375; 18.625; 19.125; 19.125; 19.125; 19.750; 19.375; 
18.000; 18.000; 18.250; 18.250; 18.250; 18.375; 18.250; 18.500; 18.250; 18.375; 18.750; 18.875; 19.875; 19.250; 19.125; 19.500; 0;18.375; 18.125; 18.125; 18.250; 18.250; 18.250; 18.250; 18.125; 18.625; 18.625; 18.375; 18.625; 19.125; 19.125; 19.125; 19.750; 19.375; 
18.000; 17.875; 18.250; 18.125; 18.250; 18.500; 18.375; 18.375; 18.375; 18.375; 18.750; 18.750; 19.875; 19.250; 19.250; 19.500; 0;18.375; 18.250; 18.125; 18.250; 18.250; 18.250; 18.250; 18.125; 18.625; 18.625; 18.500; 18.625; 19.125; 19.125; 19.125; 19.875; 19.250; 
18.000; 17.875; 18.125; 18.125; 18.250; 18.375; 18.250; 18.500; 18.375; 18.500; 18.875; 18.875; 19.875; 19.375; 19.250; 19.500; 0;18.375; 18.250; 18.125; 18.250; 18.250; 18.250; 18.250; 18.125; 18.625; 18.625; 18.500; 18.500; 19.250; 19.125; 19.125; 19.875; 19.125; 
18.125; 17.875; 18.250; 18.250; 18.250; 18.375; 18.250; 18.500; 18.375; 18.500; 18.750; 19.000; 19.875; 19.375; 19.250; 19.375; 0;18.250; 18.250; 18.125; 18.250; 18.250; 18.250; 18.250; 18.125; 18.625; 18.625; 18.375; 18.625; 19.125; 19.125; 19.250; 19.875; 19.000; 
18.125; 18.000; 18.250; 18.125; 18.250; 18.375; 18.375; 18.500; 18.375; 18.500; 18.875; 18.875; 19.875; 19.375; 19.250; 19.500; 0;18.250; 18.250; 18.125; 18.250; 18.250; 18.250; 18.250; 18.125; 18.625; 18.750; 18.375; 18.625; 19.125; 19.125; 19.250; 19.750; 18.875; 
18.000; 17.875; 18.250; 18.250; 18.250; 18.375; 18.375; 18.500; 18.375; 18.500; 18.875; 19.000; 19.875; 19.375; 19.250; 19.500; 0;18.250; 18.250; 18.125; 18.250; 18.250; 18.250; 18.250; 18.125; 18.500; 18.625; 18.500; 18.625; 19.125; 19.125; 19.125; 19.875; 18.875; 
18.125; 18.000; 18.250; 18.250; 18.250; 18.500; 18.250; 18.500; 18.375; 18.500; 18.875; 18.875; 19.875; 19.375; 19.375; 19.500; 0;18.375; 18.125; 18.125; 18.250; 18.250; 18.250; 18.250; 18.125; 18.625; 18.625; 18.375; 18.625; 19.125; 19.125; 19.250; 19.875; 18.875; 
18.125; 17.875; 18.250; 18.250; 18.250; 18.500; 18.375; 18.375; 18.375; 18.500; 18.875; 18.875; 19.875; 19.375; 19.250; 19.500; 0;18.375; 18.125; 18.125; 18.250; 18.250; 18.250; 18.250; 18.125; 18.500; 18.625; 18.500; 18.625; 19.125; 19.125; 19.250; 19.875; 18.750; 
18.125; 17.875; 18.250; 18.250; 18.375; 18.375; 18.375; 18.500; 18.375; 18.500; 18.875; 19.000; 19.875; 19.250; 19.250; 19.500; 0;18.375; 18.125; 18.125; 18.250; 18.250; 18.250; 18.250; 18.125; 18.625; 18.625; 18.375; 18.625; 19.250; 19.125; 19.125; 19.750; 18.750; 
18.125; 18.000; 18.250; 18.250; 18.250; 18.500; 18.375; 18.500; 18.375; 18.500; 18.875; 19.000; 19.875; 19.250; 19.250; 19.500; 0;18.375; 18.125; 18.125; 18.250; 18.250; 18.250; 18.250; 18.125; 18.500; 18.625; 18.375; 18.625; 19.125; 19.125; 19.125; 19.750; 18.750; 
18.125; 17.875; 18.250; 18.250; 18.250; 18.375; 18.375; 18.500; 18.375; 18.500; 18.875; 18.875; 19.875; 19.375; 19.250; 19.500; 0;18.375; 18.125; 18.125; 18.250; 18.250; 18.250; 18.375; 18.125; 18.500; 18.625; 18.375; 18.625; 19.125; 19.125; 19.125; 19.750; 18.625; 
18.125; 17.875; 18.250; 18.250; 18.250; 18.500; 18.375; 18.500; 18.375; 18.500; 18.875; 18.875; 19.875; 19.250; 19.250; 19.500; 0;18.375; 18.125; 18.125; 18.250; 18.250; 18.250; 18.250; 18.125; 18.625; 18.625; 18.375; 18.625; 19.125; 19.125; 19.125; 19.750; 18.625; 
18.125; 17.875; 18.125; 18.250; 18.250; 18.375; 18.375; 18.500; 18.250; 18.500; 18.875; 18.875; 20.000; 19.375; 19.250; 19.500; 0;18.375; 18.125; 18.125; 18.250; 18.250; 18.250; 18.250; 18.125; 18.625; 18.625; 18.375; 18.625; 19.125; 19.125; 19.125; 19.875; 18.500; 
18.125; 18.000; 18.250; 18.250; 18.250; 18.500; 18.375; 18.500; 18.375; 18.500; 18.875; 19.000; 19.875; 19.375; 19.250; 19.500; 0;18.250; 18.250; 18.125; 18.250; 18.250; 18.125; 18.250; 18.125; 18.625; 18.625; 18.375; 18.625; 19.125; 19.125; 19.125; 19.875; 18.500; 
18.125; 17.875; 18.250; 18.250; 18.250; 18.375; 18.375; 18.500; 18.375; 18.500; 18.875; 18.875; 19.875; 19.375; 19.250; 19.500; 0;18.375; 18.125; 18.125; 18.250; 18.250; 18.250; 18.375; 18.125; 18.625; 18.625; 18.375; 18.625; 19.125; 19.125; 19.375; 19.875; 18.375; 
18.125; 17.875; 18.250; 18.250; 18.250; 18.375; 18.375; 18.500; 18.375; 18.500; 18.875; 18.875; 19.875; 19.250; 19.250; 19.500; 0;18.375; 18.125; 18.125; 18.250; 18.250; 18.125; 18.250; 18.250; 18.625; 18.625; 18.375; 18.625; 19.125; 19.125; 19.250; 19.750; 18.375; 
18.125; 17.875; 18.250; 18.250; 18.250; 18.375; 18.375; 18.500; 18.375; 18.500; 18.875; 18.875; 19.875; 19.375; 19.250; 19.500; 0;18.250; 18.125; 18.125; 18.250; 18.250; 18.250; 18.250; 18.125; 18.500; 18.625; 18.500; 18.625; 19.125; 19.125; 19.250; 19.875; 18.375; 
18.125; 17.875; 18.250; 18.125; 18.250; 18.500; 18.375; 18.500; 18.375; 18.500; 18.875; 18.875; 19.875; 19.375; 19.250; 19.500; 0;18.375; 18.125; 18.125; 18.250; 18.250; 18.125; 18.125; 18.125; 18.500; 18.625; 18.375; 18.625; 19.125; 19.125; 19.250; 19.875; 18.375; 
18.125; 18.000; 18.250; 18.250; 18.250; 18.500; 18.375; 18.500; 18.375; 18.500; 18.875; 19.000; 19.875; 19.250; 19.375; 19.500; 0;18.250; 18.125; 18.000; 18.250; 18.250; 18.250; 18.250; 18.125; 18.500; 18.625; 18.500; 18.625; 19.125; 19.125; 19.125; 19.750; 18.500; 
18.125; 17.875; 18.250; 18.250; 18.250; 18.500; 18.375; 18.500; 18.375; 18.500; 18.875; 18.875; 19.875; 19.250; 19.250; 19.500; 0;18.250; 18.125; 18.125; 18.250; 18.250; 18.250; 18.250; 18.125; 18.500; 18.625; 18.375; 18.625; 19.125; 19.125; 19.125; 19.875; 18.375; 
18.125; 18.000; 18.250; 18.250; 18.250; 18.500; 18.375; 18.500; 18.375; 18.500; 18.875; 19.000; 19.875; 19.250; 19.250; 19.500; 0;18.375; 18.125; 18.125; 18.250; 18.250; 18.250; 18.250; 18.125; 18.500; 18.625; 18.375; 18.500; 19.125; 19.125; 19.125; 19.875; 18.375; 
18.125; 18.000; 18.250; 18.250; 18.250; 18.500; 18.375; 18.500; 18.375; 18.500; 18.875; 18.875; 19.875; 19.375; 19.250; 19.500; 0;18.375; 18.250; 18.125; 18.250; 18.250; 18.250; 18.250; 18.125; 18.625; 18.625; 18.375; 18.625; 19.125; 19.125; 19.250; 19.750; 18.375; 
18.125; 18.000; 18.250; 18.250; 18.250; 18.500; 18.375; 18.500; 18.375; 18.500; 18.875; 18.875; 19.875; 19.375; 19.375; 19.500; 0;18.375; 18.125; 18.125; 18.250; 18.250; 18.125; 18.375; 18.125; 18.625; 18.625; 18.375; 18.625; 19.125; 19.000; 19.125; 19.750; 18.250; 
18.125; 17.875; 18.250; 18.125; 18.250; 18.500; 18.375; 18.500; 18.375; 18.500; 18.875; 18.875; 19.875; 19.250; 19.250; 19.500; 0;18.250; 18.250; 18.125; 18.250; 18.250; 18.125; 18.250; 18.125; 18.625; 18.625; 18.375; 18.625; 19.125; 19.125; 19.125; 19.875; 18.375; 
18.125; 17.875; 18.250; 18.250; 18.250; 18.500; 18.375; 18.500; 18.375; 18.500; 18.875; 19.000; 20.000; 19.375; 19.250; 19.500; 0;18.375; 18.125; 18.125; 18.250; 18.250; 18.250; 18.375; 18.125; 18.625; 18.625; 18.500; 18.625; 19.125; 19.125; 19.125; 19.875; 18.250; 
18.125; 18.000; 18.250; 18.125; 18.250; 18.500; 18.250; 18.375; 18.375; 18.500; 18.875; 19.000; 19.875; 19.250; 19.250; 19.500; 0;18.375; 18.250; 18.125; 18.250; 18.250; 18.250; 18.250; 18.125; 18.625; 18.750; 18.375; 18.625; 19.125; 19.125; 19.125; 19.875; 18.375; 
18.125; 18.000; 18.250; 18.125; 18.250; 18.500; 18.375; 18.500; 18.375; 18.500; 18.875; 18.875; 19.875; 19.375; 19.250; 19.500; 0;18.375; 18.250; 18.125; 18.250; 18.250; 18.125; 18.250; 18.125; 18.625; 18.625; 18.500; 18.625; 19.125; 19.125; 19.125; 19.750; 18.250; 
18.125; 17.875; 18.250; 18.250; 18.250; 18.375; 18.375; 18.500; 18.375; 18.500; 19.000; 19.000; 19.875; 19.250; 19.250; 19.500; 0;18.250; 18.125; 18.125; 18.250; 18.250; 18.125; 18.250; 18.125; 18.500; 18.625; 18.375; 18.625; 19.125; 19.000; 19.125; 19.750; 18.250; 
18.125; 17.875; 18.250; 18.250; 18.250; 18.500; 18.375; 18.500; 18.375; 18.500; 18.875; 18.875; 19.875; 19.250; 19.250; 19.500; 0;18.375; 18.125; 18.125; 18.250; 18.250; 18.250; 18.250; 18.125; 18.500; 18.625; 18.375; 18.625; 19.125; 19.000; 19.250; 19.750; 18.250; 
18.125; 18.000; 18.250; 18.250; 18.250; 18.500; 18.375; 18.500; 18.375; 18.500; 18.875; 19.000; 19.875; 19.250; 19.250; 19.500; 0;18.375; 18.125; 18.000; 18.250; 18.250; 18.250; 18.250; 18.125; 18.625; 18.625; 18.375; 18.625; 19.125; 19.125; 19.125; 19.750; 18.250; 
18.125; 17.875; 18.250; 18.125; 18.250; 18.500; 18.375; 18.500; 18.250; 18.500; 18.875; 19.000; 19.875; 19.375; 19.375; 19.500; 0;18.250; 18.125; 18.125; 18.250; 18.250; 18.250; 18.375; 18.125; 18.625; 18.625; 18.500; 18.625; 19.125; 19.125; 19.125; 19.875; 18.250; 
18.125; 18.000; 18.250; 18.250; 18.250; 18.500; 18.375; 18.500; 18.375; 18.500; 18.875; 18.875; 19.875; 19.250; 19.375; 19.500; 0;18.375; 18.250; 18.125; 18.250; 18.250; 18.250; 18.125; 18.125; 18.500; 18.625; 18.375; 18.625; 19.125; 19.000; 19.125; 19.750; 18.250; 
18.250; 17.875; 18.250; 18.125; 18.250; 18.500; 18.250; 18.500; 18.375; 18.500; 18.875; 18.875; 19.875; 19.250; 19.250; 19.500; 0;18.250; 18.125; 18.125; 18.250; 18.125; 18.250; 18.250; 18.125; 18.500; 18.750; 18.375; 18.625; 19.125; 19.000; 19.125; 19.750; 18.250; 
18.125; 18.000; 18.250; 18.250; 18.250; 18.500; 18.500; 18.500; 18.375; 18.500; 18.875; 18.875; 19.875; 19.250; 19.250; 19.500; 0;18.375; 18.125; 18.125; 18.250; 18.250; 18.250; 18.375; 18.125; 18.625; 18.625; 18.375; 18.625; 19.125; 19.125; 19.125; 19.875; 18.125; 
18.125; 17.875; 18.250; 18.250; 18.250; 18.500; 18.375; 18.500; 18.375; 18.500; 18.875; 18.875; 19.875; 19.250; 19.375; 19.500; 0;18.375; 18.125; 18.125; 18.250; 18.250; 18.250; 18.250; 18.125; 18.500; 18.625; 18.375; 18.625; 19.125; 19.000; 19.125; 19.750; 18.125; 
18.125; 17.875; 18.125; 18.125; 18.250; 18.500; 18.500; 18.500; 18.375; 18.500; 18.875; 19.000; 19.875; 19.250; 19.250; 19.500; 0;18.375; 18.125; 18.125; 18.250; 18.250; 18.125; 18.250; 18.000; 18.500; 18.625; 18.375; 18.625; 19.125; 19.125; 19.125; 19.875; 18.125; 
18.125; 18.000; 18.250; 18.250; 18.250; 18.500; 18.250; 18.375; 18.375; 18.500; 18.875; 18.875; 19.875; 19.250; 19.250; 19.500; 0;18.250; 18.250; 18.125; 18.250; 18.250; 18.250; 18.250; 18.125; 18.500; 18.625; 18.375; 18.625; 19.125; 19.125; 19.125; 19.875; 18.125; 
18.125; 18.000; 18.250; 18.250; 18.250; 18.375; 18.375; 18.500; 18.375; 18.500; 18.875; 18.875; 19.875; 19.375; 19.250; 19.500; 0;18.375; 18.125; 18.125; 18.250; 18.250; 18.250; 18.250; 18.125; 18.625; 18.625; 18.500; 18.625; 19.125; 19.125; 19.125; 19.875; 18.125; 
18.125; 17.875; 18.250; 18.250; 18.250; 18.500; 18.375; 18.500; 18.375; 18.500; 18.875; 18.875; 19.875; 19.250; 19.250; 19.500; 0;18.250; 18.125; 18.125; 18.250; 18.250; 18.250; 18.250; 18.125; 18.500; 18.625; 18.375; 18.625; 19.125; 19.125; 19.125; 19.875; 18.250; 
18.125; 17.875; 18.125; 18.250; 18.250; 18.500; 18.250; 18.500; 18.375; 18.500; 18.875; 18.875; 19.875; 19.250; 19.375; 19.500; 0;18.250; 18.250; 18.125; 18.250; 18.250; 18.250; 18.250; 18.125; 18.500; 18.750; 18.375; 18.625; 19.125; 19.125; 19.250; 19.750; 18.250; 
18.125; 17.875; 18.250; 18.250; 18.250; 18.500; 18.250; 18.500; 18.375; 18.500; 18.875; 18.875; 19.875; 19.125; 19.250; 19.500; 0;18.375; 18.125; 18.125; 18.250; 18.250; 18.250; 18.375; 18.125; 18.500; 18.625; 18.500; 18.625; 19.125; 19.125; 19.250; 19.875; 18.250; 
18.125; 17.875; 18.250; 18.250; 18.250; 18.500; 18.375; 18.500; 18.375; 18.500; 18.875; 18.875; 19.875; 19.375; 19.250; 19.500; 0;18.375; 18.250; 18.125; 18.250; 18.250; 18.125; 18.250; 18.125; 18.625; 18.625; 18.375; 18.625; 19.125; 19.125; 19.250; 19.875; 18.125; 
18.125; 17.875; 18.250; 18.250; 18.250; 18.375; 18.375; 18.625; 18.375; 18.500; 18.875; 19.000; 19.875; 19.375; 19.250; 19.500; 0;18.375; 18.125; 18.125; 18.250; 18.250; 18.250; 18.250; 18.125; 18.625; 18.750; 18.375; 18.500; 19.125; 19.000; 19.125; 19.750; 18.250; 
18.125; 17.875; 18.250; 18.125; 18.250; 18.500; 18.375; 18.625; 18.375; 18.500; 18.875; 18.875; 19.875; 19.250; 19.250; 19.500; 0;18.375; 18.125; 18.125; 18.250; 18.250; 18.250; 18.250; 18.125; 18.625; 18.625; 18.375; 18.625; 19.125; 19.000; 19.250; 19.750; 18.125; 
18.125; 17.875; 18.250; 18.250; 18.250; 18.375; 18.375; 18.500; 18.375; 18.500; 18.875; 19.000; 19.875; 19.250; 19.250; 19.500; 0;18.250; 18.125; 18.125; 18.250; 18.250; 18.250; 18.250; 18.125; 18.500; 18.625; 18.375; 18.625; 19.125; 19.125; 19.125; 19.750; 18.125; 
18.125; 18.000; 18.250; 18.250; 18.250; 18.375; 18.375; 18.500; 18.375; 18.500; 18.875; 18.875; 19.875; 19.375; 19.250; 19.500; 0;18.375; 18.250; 18.000; 18.250; 18.250; 18.125; 18.250; 18.125; 18.625; 18.625; 18.375; 18.625; 19.125; 19.000; 19.125; 19.875; 18.125; 
18.125; 17.875; 18.250; 18.125; 18.250; 18.500; 18.250; 18.500; 18.375; 18.500; 18.875; 18.875; 19.750; 19.375; 19.125; 19.500; 0;18.250; 18.250; 18.125; 18.250; 18.250; 18.125; 18.250; 18.125; 18.625; 18.625; 18.375; 18.625; 19.125; 19.000; 19.125; 19.750; 18.250; 
18.125; 17.875; 18.250; 18.250; 18.250; 18.375; 18.375; 18.500; 18.375; 18.500; 18.875; 18.875; 19.875; 19.375; 19.250; 19.500; 0;18.375; 18.125; 18.125; 18.250; 18.250; 18.250; 18.250; 18.125; 18.625; 18.625; 18.375; 18.500; 19.125; 19.000; 19.125; 19.750; 18.250; 
18.125; 17.875; 18.250; 18.250; 18.250; 18.500; 18.375; 18.500; 18.375; 18.500; 18.875; 18.875; 19.875; 19.375; 19.250; 19.500; 0;18.250; 18.250; 18.125; 18.250; 18.250; 18.250; 18.250; 18.125; 18.625; 18.625; 18.500; 18.625; 19.125; 19.125; 19.125; 19.750; 18.125; 
18.125; 17.875; 18.250; 18.125; 18.250; 18.500; 18.375; 18.500; 18.375; 18.500; 18.875; 18.750; 19.875; 19.250; 19.250; 19.500; 0;18.375; 18.125; 18.125; 18.250; 18.250; 18.250; 18.250; 18.125; 18.625; 18.625; 18.500; 18.625; 19.250; 19.125; 19.125; 19.750; 18.125; 
18.125; 17.875; 18.250; 18.250; 18.250; 18.500; 18.375; 18.625; 18.375; 18.500; 18.875; 18.875; 19.875; 19.250; 19.250; 19.500; 0;18.375; 18.250; 18.125; 18.250; 18.250; 18.250; 18.250; 18.125; 18.625; 18.625; 18.500; 18.625; 19.125; 19.000; 19.125; 19.875; 18.125; 
18.125; 17.875; 18.250; 18.250; 18.250; 18.500; 18.375; 18.500; 18.375; 18.500; 18.875; 18.875; 19.875; 19.375; 19.250; 19.500; 0;18.375; 18.250; 18.125; 18.250; 18.250; 18.250; 18.250; 18.125; 18.625; 18.625; 18.500; 18.625; 19.125; 19.000; 19.125; 19.750; 18.125; 
18.125; 17.875; 18.250; 18.125; 18.250; 18.375; 18.375; 18.500; 18.375; 18.500; 18.875; 18.875; 19.875; 19.375; 19.250; 19.625; 0;18.375; 18.125; 18.125; 18.250; 18.250; 18.250; 18.250; 18.125; 18.500; 18.625; 18.375; 18.625; 19.125; 19.125; 19.125; 19.750; 18.125; 
