(module Connector1x4pin (layer F.Cu) (tedit 5BFBE8CB)
  (fp_text reference J1 (at 3.81 2.54) (layer F.SilkS)
    (effects (font (size 0.5 0.5) (thickness 0.125)))
  )
  (fp_text value conn_left (at 3.81 -2.54) (layer F.Fab)
    (effects (font (size 0.5 0.5) (thickness 0.125)))
  )
  (fp_line (start -1.27 -1.27) (end -1.27 1.27) (layer F.SilkS) (width 0.15))
  (fp_line (start -1.27 1.27) (end 8.89 1.27) (layer F.SilkS) (width 0.15))
  (fp_line (start 8.89 1.27) (end 8.89 -1.27) (layer F.SilkS) (width 0.15))
  (fp_line (start 8.89 -1.27) (end -1.27 -1.27) (layer F.SilkS) (width 0.15))
  (pad 1 thru_hole circle (at 0 0) (size 1.524 1.524) (drill 0.762) (layers *.Cu *.Mask))
  (pad 2 thru_hole circle (at 2.54 0) (size 1.524 1.524) (drill 0.762) (layers *.Cu *.Mask))
  (pad 3 thru_hole circle (at 5.08 0) (size 1.524 1.524) (drill 0.762) (layers *.Cu *.Mask))
  (pad 4 thru_hole circle (at 7.62 0) (size 1.524 1.524) (drill 0.762) (layers *.Cu *.Mask))
)
