(module R_0805_circuit_breaker (layer F.Cu) (tedit 5BFC231D)
  (descr "Resistor SMD 0805, reflow soldering, Vishay (see dcrcw.pdf)")
  (tags "resistor 0805")
  (attr smd)
  (fp_text reference R1 (at -3.81 0) (layer F.SilkS)
    (effects (font (size 1 1) (thickness 0.15)))
  )
  (fp_text value R (at 0 1.75) (layer F.Fab)
    (effects (font (size 1 1) (thickness 0.15)))
  )
  (fp_text user %R (at 0 0) (layer F.Fab)
    (effects (font (size 0.5 0.5) (thickness 0.075)))
  )
  (fp_line (start -1 0.62) (end -1 -0.62) (layer F.Fab) (width 0.1))
  (fp_line (start 1 0.62) (end -1 0.62) (layer F.Fab) (width 0.1))
  (fp_line (start 1 -0.62) (end 1 0.62) (layer F.Fab) (width 0.1))
  (fp_line (start -1 -0.62) (end 1 -0.62) (layer F.Fab) (width 0.1))
  (fp_line (start 0.6 0.88) (end -0.6 0.88) (layer F.SilkS) (width 0.12))
  (fp_line (start -0.6 -0.88) (end 0.6 -0.88) (layer F.SilkS) (width 0.12))
  (fp_line (start -1.55 -0.9) (end 1.55 -0.9) (layer F.CrtYd) (width 0.05))
  (fp_line (start -1.55 -0.9) (end -1.55 0.9) (layer F.CrtYd) (width 0.05))
  (fp_line (start 1.55 0.9) (end 1.55 -0.9) (layer F.CrtYd) (width 0.05))
  (fp_line (start 1.55 0.9) (end -1.55 0.9) (layer F.CrtYd) (width 0.05))
  (pad 1 smd rect (at -0.7 0) (size 1.2 1.3) (layers F.Cu F.Paste F.Mask))
  (pad 2 smd rect (at 0.7 0) (size 1.2 1.3) (layers F.Cu F.Paste F.Mask))
  (model ${KISYS3DMOD}/Resistors_SMD.3dshapes/R_0805.wrl
    (at (xyz 0 0 0))
    (scale (xyz 1 1 1))
    (rotate (xyz 0 0 0))
  )
)
