<?xml version="1.0" encoding="UTF-8" standalone="no"?>
<!-- Created with Inkscape (http://www.inkscape.org/) -->

<svg
   xmlns:dc="http://purl.org/dc/elements/1.1/"
   xmlns:cc="http://creativecommons.org/ns#"
   xmlns:rdf="http://www.w3.org/1999/02/22-rdf-syntax-ns#"
   xmlns:svg="http://www.w3.org/2000/svg"
   xmlns="http://www.w3.org/2000/svg"
   xmlns:sodipodi="http://sodipodi.sourceforge.net/DTD/sodipodi-0.dtd"
   xmlns:inkscape="http://www.inkscape.org/namespaces/inkscape"
   width="150mm"
   height="90mm"
   viewBox="0 0 150 90"
   version="1.1"
   id="svg8"
   inkscape:version="0.92.3 (2405546, 2018-03-11)"
   sodipodi:docname="aufteilung_sensoren.svg">
  <defs
     id="defs2" />
  <sodipodi:namedview
     id="base"
     pagecolor="#ffffff"
     bordercolor="#666666"
     borderopacity="1.0"
     inkscape:pageopacity="0.0"
     inkscape:pageshadow="2"
     inkscape:zoom="0.66245342"
     inkscape:cx="406.0045"
     inkscape:cy="319.31068"
     inkscape:document-units="mm"
     inkscape:current-layer="layer1"
     showgrid="false"
     inkscape:window-width="1800"
     inkscape:window-height="1106"
     inkscape:window-x="-11"
     inkscape:window-y="-11"
     inkscape:window-maximized="1" />
  <metadata
     id="metadata5">
    <rdf:RDF>
      <cc:Work
         rdf:about="">
        <dc:format>image/svg+xml</dc:format>
        <dc:type
           rdf:resource="http://purl.org/dc/dcmitype/StillImage" />
        <dc:title></dc:title>
      </cc:Work>
    </rdf:RDF>
  </metadata>
  <g
     inkscape:label="Ebene 1"
     inkscape:groupmode="layer"
     id="layer1"
     transform="translate(0,-207)">
    <ellipse
       style="opacity:1;fill:#00ff00;fill-opacity:1;stroke:#010000;stroke-width:0.4925586;stroke-linecap:round;stroke-linejoin:round;stroke-miterlimit:4;stroke-dasharray:none;stroke-dashoffset:0;stroke-opacity:0.98634817"
       id="path823"
       cx="15.678649"
       cy="260.28308"
       rx="4.2284498"
       ry="4.3740935"
       transform="matrix(0.9998136,0.01930708,-0.01908843,0.9998178,0,0)" />
    <ellipse
       style="opacity:1;fill:#00ff00;fill-opacity:1;stroke:#010000;stroke-width:0.4925586;stroke-linecap:round;stroke-linejoin:round;stroke-miterlimit:4;stroke-dasharray:none;stroke-dashoffset:0;stroke-opacity:0.98634817"
       id="path823-3"
       cx="15.794631"
       cy="269.49057"
       rx="4.2284503"
       ry="4.3740935"
       transform="matrix(0.9998136,0.01930708,-0.01908843,0.9998178,0,0)" />
    <ellipse
       style="opacity:1;fill:#00ff00;fill-opacity:1;stroke:#010000;stroke-width:0.4925586;stroke-linecap:round;stroke-linejoin:round;stroke-miterlimit:4;stroke-dasharray:none;stroke-dashoffset:0;stroke-opacity:0.98634817"
       id="path823-8"
       cx="16.062834"
       cy="278.53638"
       rx="4.2284503"
       ry="4.3740935"
       transform="matrix(0.9998136,0.01930708,-0.01908843,0.9998178,0,0)" />
    <ellipse
       style="opacity:1;fill:#00ff00;fill-opacity:1;stroke:#010000;stroke-width:0.4925586;stroke-linecap:round;stroke-linejoin:round;stroke-miterlimit:4;stroke-dasharray:none;stroke-dashoffset:0;stroke-opacity:0.98634817"
       id="path823-3-7"
       cx="16.178816"
       cy="287.74393"
       rx="4.2284508"
       ry="4.3740935"
       transform="matrix(0.9998136,0.01930708,-0.01908843,0.9998178,0,0)" />
    <ellipse
       style="opacity:1;fill:#00ff00;fill-opacity:1;stroke:#010000;stroke-width:0.4925586;stroke-linecap:round;stroke-linejoin:round;stroke-miterlimit:4;stroke-dasharray:none;stroke-dashoffset:0;stroke-opacity:0.98634817"
       id="path823-6"
       cx="15.063712"
       cy="223.8221"
       rx="4.2284503"
       ry="4.3740935"
       transform="matrix(0.9998136,0.01930708,-0.01908843,0.9998178,0,0)" />
    <ellipse
       style="opacity:1;fill:#00ff00;fill-opacity:1;stroke:#010000;stroke-width:0.4925586;stroke-linecap:round;stroke-linejoin:round;stroke-miterlimit:4;stroke-dasharray:none;stroke-dashoffset:0;stroke-opacity:0.98634817"
       id="path823-3-0"
       cx="15.179694"
       cy="233.02951"
       rx="4.2284508"
       ry="4.3740935"
       transform="matrix(0.9998136,0.01930708,-0.01908843,0.9998178,0,0)" />
    <ellipse
       style="opacity:1;fill:#00ff00;fill-opacity:1;stroke:#010000;stroke-width:0.4925586;stroke-linecap:round;stroke-linejoin:round;stroke-miterlimit:4;stroke-dasharray:none;stroke-dashoffset:0;stroke-opacity:0.98634817"
       id="path823-8-4"
       cx="15.447898"
       cy="242.07527"
       rx="4.2284508"
       ry="4.3740935"
       transform="matrix(0.9998136,0.01930708,-0.01908843,0.9998178,0,0)" />
    <ellipse
       style="opacity:1;fill:#00ff00;fill-opacity:1;stroke:#010000;stroke-width:0.4925586;stroke-linecap:round;stroke-linejoin:round;stroke-miterlimit:4;stroke-dasharray:none;stroke-dashoffset:0;stroke-opacity:0.98634817"
       id="path823-3-7-2"
       cx="15.56388"
       cy="251.28276"
       rx="4.2284508"
       ry="4.3740935"
       transform="matrix(0.9998136,0.01930708,-0.01908843,0.9998178,0,0)" />
    <ellipse
       style="opacity:1;fill:#00ff00;fill-opacity:1;stroke:#010000;stroke-width:0.4925586;stroke-linecap:round;stroke-linejoin:round;stroke-miterlimit:4;stroke-dasharray:none;stroke-dashoffset:0;stroke-opacity:0.98634817"
       id="path823-60"
       cx="24.507048"
       cy="260.1517"
       rx="4.2284503"
       ry="4.3740935"
       transform="matrix(0.9998136,0.01930708,-0.01908843,0.9998178,0,0)" />
    <ellipse
       style="opacity:1;fill:#00ff00;fill-opacity:1;stroke:#010000;stroke-width:0.4925586;stroke-linecap:round;stroke-linejoin:round;stroke-miterlimit:4;stroke-dasharray:none;stroke-dashoffset:0;stroke-opacity:0.98634817"
       id="path823-3-6"
       cx="24.62303"
       cy="269.35895"
       rx="4.2284508"
       ry="4.3740935"
       transform="matrix(0.9998136,0.01930708,-0.01908843,0.9998178,0,0)" />
    <ellipse
       style="opacity:1;fill:#00ff00;fill-opacity:1;stroke:#010000;stroke-width:0.4925586;stroke-linecap:round;stroke-linejoin:round;stroke-miterlimit:4;stroke-dasharray:none;stroke-dashoffset:0;stroke-opacity:0.98634817"
       id="path823-8-3"
       cx="24.891233"
       cy="278.40448"
       rx="4.2284508"
       ry="4.3740935"
       transform="matrix(0.9998136,0.01930708,-0.01908843,0.9998178,0,0)" />
    <ellipse
       style="opacity:1;fill:#00ff00;fill-opacity:1;stroke:#010000;stroke-width:0.4925586;stroke-linecap:round;stroke-linejoin:round;stroke-miterlimit:4;stroke-dasharray:none;stroke-dashoffset:0;stroke-opacity:0.98634817"
       id="path823-3-7-9"
       cx="25.007215"
       cy="287.61182"
       rx="4.2284508"
       ry="4.3740935"
       transform="matrix(0.9998136,0.01930708,-0.01908843,0.9998178,0,0)" />
    <ellipse
       style="opacity:1;fill:#00ff00;fill-opacity:1;stroke:#010000;stroke-width:0.4925586;stroke-linecap:round;stroke-linejoin:round;stroke-miterlimit:4;stroke-dasharray:none;stroke-dashoffset:0;stroke-opacity:0.98634817"
       id="path823-6-0"
       cx="23.892103"
       cy="223.69112"
       rx="4.2284508"
       ry="4.3740935"
       transform="matrix(0.9998136,0.01930708,-0.01908843,0.9998178,0,0)" />
    <ellipse
       style="opacity:1;fill:#00ff00;fill-opacity:1;stroke:#010000;stroke-width:0.4925586;stroke-linecap:round;stroke-linejoin:round;stroke-miterlimit:4;stroke-dasharray:none;stroke-dashoffset:0;stroke-opacity:0.98634817"
       id="path823-3-0-8"
       cx="24.008085"
       cy="232.89857"
       rx="4.2284508"
       ry="4.3740935"
       transform="matrix(0.9998136,0.01930708,-0.01908843,0.9998178,0,0)" />
    <ellipse
       style="opacity:1;fill:#00ff00;fill-opacity:1;stroke:#010000;stroke-width:0.4925586;stroke-linecap:round;stroke-linejoin:round;stroke-miterlimit:4;stroke-dasharray:none;stroke-dashoffset:0;stroke-opacity:0.98634817"
       id="path823-8-4-7"
       cx="24.276289"
       cy="241.94432"
       rx="4.2284508"
       ry="4.3740935"
       transform="matrix(0.9998136,0.01930708,-0.01908843,0.9998178,0,0)" />
    <ellipse
       style="opacity:1;fill:#00ff00;fill-opacity:1;stroke:#010000;stroke-width:0.4925586;stroke-linecap:round;stroke-linejoin:round;stroke-miterlimit:4;stroke-dasharray:none;stroke-dashoffset:0;stroke-opacity:0.98634817"
       id="path823-3-7-2-8"
       cx="24.392271"
       cy="251.15167"
       rx="4.2284508"
       ry="4.3740935"
       transform="matrix(0.9998136,0.01930708,-0.01908843,0.9998178,0,0)" />
    <ellipse
       style="opacity:1;fill:#00ff00;fill-opacity:1;stroke:#010000;stroke-width:0.4925586;stroke-linecap:round;stroke-linejoin:round;stroke-miterlimit:4;stroke-dasharray:none;stroke-dashoffset:0;stroke-opacity:0.98634817"
       id="path823-69"
       cx="33.205887"
       cy="260.07153"
       rx="4.2284503"
       ry="4.3740935"
       transform="matrix(0.9998136,0.01930708,-0.01908843,0.9998178,0,0)" />
    <ellipse
       style="opacity:1;fill:#00ff00;fill-opacity:1;stroke:#010000;stroke-width:0.4925586;stroke-linecap:round;stroke-linejoin:round;stroke-miterlimit:4;stroke-dasharray:none;stroke-dashoffset:0;stroke-opacity:0.98634817"
       id="path823-3-1"
       cx="33.321854"
       cy="269.27881"
       rx="4.2284508"
       ry="4.3740935"
       transform="matrix(0.9998136,0.01930708,-0.01908843,0.9998178,0,0)" />
    <ellipse
       style="opacity:1;fill:#00ff00;fill-opacity:1;stroke:#010000;stroke-width:0.4925586;stroke-linecap:round;stroke-linejoin:round;stroke-miterlimit:4;stroke-dasharray:none;stroke-dashoffset:0;stroke-opacity:0.98634817"
       id="path823-8-2"
       cx="33.590073"
       cy="278.32431"
       rx="4.2284508"
       ry="4.3740935"
       transform="matrix(0.9998136,0.01930708,-0.01908843,0.9998178,0,0)" />
    <ellipse
       style="opacity:1;fill:#00ff00;fill-opacity:1;stroke:#010000;stroke-width:0.4925586;stroke-linecap:round;stroke-linejoin:round;stroke-miterlimit:4;stroke-dasharray:none;stroke-dashoffset:0;stroke-opacity:0.98634817"
       id="path823-3-7-0"
       cx="33.706039"
       cy="287.53168"
       rx="4.2284508"
       ry="4.3740935"
       transform="matrix(0.9998136,0.01930708,-0.01908843,0.9998178,0,0)" />
    <ellipse
       style="opacity:1;fill:#00ff00;fill-opacity:1;stroke:#010000;stroke-width:0.4925586;stroke-linecap:round;stroke-linejoin:round;stroke-miterlimit:4;stroke-dasharray:none;stroke-dashoffset:0;stroke-opacity:0.98634817"
       id="path823-6-4"
       cx="32.590942"
       cy="223.61066"
       rx="4.2284508"
       ry="4.3740935"
       transform="matrix(0.9998136,0.01930708,-0.01908843,0.9998178,0,0)" />
    <ellipse
       style="opacity:1;fill:#00ff00;fill-opacity:1;stroke:#010000;stroke-width:0.4925586;stroke-linecap:round;stroke-linejoin:round;stroke-miterlimit:4;stroke-dasharray:none;stroke-dashoffset:0;stroke-opacity:0.98634817"
       id="path823-3-0-6"
       cx="32.70694"
       cy="232.81813"
       rx="4.2284508"
       ry="4.3740935"
       transform="matrix(0.9998136,0.01930708,-0.01908843,0.9998178,0,0)" />
    <ellipse
       style="opacity:1;fill:#00ff00;fill-opacity:1;stroke:#010000;stroke-width:0.4925586;stroke-linecap:round;stroke-linejoin:round;stroke-miterlimit:4;stroke-dasharray:none;stroke-dashoffset:0;stroke-opacity:0.98634817"
       id="path823-8-4-9"
       cx="32.975113"
       cy="241.86386"
       rx="4.2284508"
       ry="4.3740935"
       transform="matrix(0.9998136,0.01930708,-0.01908843,0.9998178,0,0)" />
    <ellipse
       style="opacity:1;fill:#00ff00;fill-opacity:1;stroke:#010000;stroke-width:0.4925586;stroke-linecap:round;stroke-linejoin:round;stroke-miterlimit:4;stroke-dasharray:none;stroke-dashoffset:0;stroke-opacity:0.98634817"
       id="path823-3-7-2-4"
       cx="33.09111"
       cy="251.07137"
       rx="4.2284508"
       ry="4.3740935"
       transform="matrix(0.9998136,0.01930708,-0.01908843,0.9998178,0,0)" />
    <ellipse
       style="opacity:1;fill:#00ff00;fill-opacity:1;stroke:#010000;stroke-width:0.4925586;stroke-linecap:round;stroke-linejoin:round;stroke-miterlimit:4;stroke-dasharray:none;stroke-dashoffset:0;stroke-opacity:0.98634817"
       id="path823-60-4"
       cx="42.034363"
       cy="259.94019"
       rx="4.2284508"
       ry="4.3740935"
       transform="matrix(0.9998136,0.01930708,-0.01908843,0.9998178,0,0)" />
    <ellipse
       style="opacity:1;fill:#00ff00;fill-opacity:1;stroke:#010000;stroke-width:0.4925586;stroke-linecap:round;stroke-linejoin:round;stroke-miterlimit:4;stroke-dasharray:none;stroke-dashoffset:0;stroke-opacity:0.98634817"
       id="path823-3-6-8"
       cx="42.150345"
       cy="269.14716"
       rx="4.2284508"
       ry="4.3740935"
       transform="matrix(0.9998136,0.01930708,-0.01908843,0.9998178,0,0)" />
    <ellipse
       style="opacity:1;fill:#00ff00;fill-opacity:1;stroke:#010000;stroke-width:0.4925586;stroke-linecap:round;stroke-linejoin:round;stroke-miterlimit:4;stroke-dasharray:none;stroke-dashoffset:0;stroke-opacity:0.98634817"
       id="path823-8-3-1"
       cx="42.418533"
       cy="278.19241"
       rx="4.2284508"
       ry="4.3740935"
       transform="matrix(0.9998136,0.01930708,-0.01908843,0.9998178,0,0)" />
    <ellipse
       style="opacity:1;fill:#00ff00;fill-opacity:1;stroke:#010000;stroke-width:0.4925586;stroke-linecap:round;stroke-linejoin:round;stroke-miterlimit:4;stroke-dasharray:none;stroke-dashoffset:0;stroke-opacity:0.98634817"
       id="path823-3-7-9-7"
       cx="42.5345"
       cy="287.39957"
       rx="4.2284508"
       ry="4.3740935"
       transform="matrix(0.9998136,0.01930708,-0.01908843,0.9998178,0,0)" />
    <ellipse
       style="opacity:1;fill:#00ff00;fill-opacity:1;stroke:#010000;stroke-width:0.4925586;stroke-linecap:round;stroke-linejoin:round;stroke-miterlimit:4;stroke-dasharray:none;stroke-dashoffset:0;stroke-opacity:0.98634817"
       id="path823-6-0-8"
       cx="41.419403"
       cy="223.47969"
       rx="4.2284508"
       ry="4.3740935"
       transform="matrix(0.9998136,0.01930708,-0.01908843,0.9998178,0,0)" />
    <ellipse
       style="opacity:1;fill:#00ff00;fill-opacity:1;stroke:#010000;stroke-width:0.4925586;stroke-linecap:round;stroke-linejoin:round;stroke-miterlimit:4;stroke-dasharray:none;stroke-dashoffset:0;stroke-opacity:0.98634817"
       id="path823-3-0-8-7"
       cx="41.5354"
       cy="232.68718"
       rx="4.2284508"
       ry="4.3740935"
       transform="matrix(0.9998136,0.01930708,-0.01908843,0.9998178,0,0)" />
    <ellipse
       style="opacity:1;fill:#00ff00;fill-opacity:1;stroke:#010000;stroke-width:0.4925586;stroke-linecap:round;stroke-linejoin:round;stroke-miterlimit:4;stroke-dasharray:none;stroke-dashoffset:0;stroke-opacity:0.98634817"
       id="path823-8-4-7-2"
       cx="41.803589"
       cy="241.73293"
       rx="4.2284508"
       ry="4.3740935"
       transform="matrix(0.9998136,0.01930708,-0.01908843,0.9998178,0,0)" />
    <ellipse
       style="opacity:1;fill:#00ff00;fill-opacity:1;stroke:#010000;stroke-width:0.4925586;stroke-linecap:round;stroke-linejoin:round;stroke-miterlimit:4;stroke-dasharray:none;stroke-dashoffset:0;stroke-opacity:0.98634817"
       id="path823-3-7-2-8-0"
       cx="41.919571"
       cy="250.94026"
       rx="4.2284508"
       ry="4.3740935"
       transform="matrix(0.9998136,0.01930708,-0.01908843,0.9998178,0,0)" />
    <ellipse
       style="opacity:1;fill:#00ff00;fill-opacity:1;stroke:#010000;stroke-width:0.4925586;stroke-linecap:round;stroke-linejoin:round;stroke-miterlimit:4;stroke-dasharray:none;stroke-dashoffset:0;stroke-opacity:0.98634817"
       id="path823-4"
       cx="50.844727"
       cy="259.87338"
       rx="4.2284503"
       ry="4.3740935"
       transform="matrix(0.9998136,0.01930708,-0.01908843,0.9998178,0,0)" />
    <ellipse
       style="opacity:1;fill:#00ff00;fill-opacity:1;stroke:#010000;stroke-width:0.4925586;stroke-linecap:round;stroke-linejoin:round;stroke-miterlimit:4;stroke-dasharray:none;stroke-dashoffset:0;stroke-opacity:0.98634817"
       id="path823-3-3"
       cx="50.960709"
       cy="269.0809"
       rx="4.2284508"
       ry="4.3740935"
       transform="matrix(0.9998136,0.01930708,-0.01908843,0.9998178,0,0)" />
    <ellipse
       style="opacity:1;fill:#00ff00;fill-opacity:1;stroke:#010000;stroke-width:0.4925586;stroke-linecap:round;stroke-linejoin:round;stroke-miterlimit:4;stroke-dasharray:none;stroke-dashoffset:0;stroke-opacity:0.98634817"
       id="path823-8-1"
       cx="51.228897"
       cy="278.12659"
       rx="4.2284508"
       ry="4.3740935"
       transform="matrix(0.9998136,0.01930708,-0.01908843,0.9998178,0,0)" />
    <ellipse
       style="opacity:1;fill:#00ff00;fill-opacity:1;stroke:#010000;stroke-width:0.4925586;stroke-linecap:round;stroke-linejoin:round;stroke-miterlimit:4;stroke-dasharray:none;stroke-dashoffset:0;stroke-opacity:0.98634817"
       id="path823-3-7-5"
       cx="51.344879"
       cy="287.33389"
       rx="4.2284508"
       ry="4.3740935"
       transform="matrix(0.9998136,0.01930708,-0.01908843,0.9998178,0,0)" />
    <ellipse
       style="opacity:1;fill:#00ff00;fill-opacity:1;stroke:#010000;stroke-width:0.4925586;stroke-linecap:round;stroke-linejoin:round;stroke-miterlimit:4;stroke-dasharray:none;stroke-dashoffset:0;stroke-opacity:0.98634817"
       id="path823-6-2"
       cx="50.229782"
       cy="223.41238"
       rx="4.2284508"
       ry="4.3740935"
       transform="matrix(0.9998136,0.01930708,-0.01908843,0.9998178,0,0)" />
    <ellipse
       style="opacity:1;fill:#00ff00;fill-opacity:1;stroke:#010000;stroke-width:0.4925586;stroke-linecap:round;stroke-linejoin:round;stroke-miterlimit:4;stroke-dasharray:none;stroke-dashoffset:0;stroke-opacity:0.98634817"
       id="path823-3-0-5"
       cx="50.345764"
       cy="232.61984"
       rx="4.2284508"
       ry="4.3740935"
       transform="matrix(0.9998136,0.01930708,-0.01908843,0.9998178,0,0)" />
    <ellipse
       style="opacity:1;fill:#00ff00;fill-opacity:1;stroke:#010000;stroke-width:0.4925586;stroke-linecap:round;stroke-linejoin:round;stroke-miterlimit:4;stroke-dasharray:none;stroke-dashoffset:0;stroke-opacity:0.98634817"
       id="path823-8-4-0"
       cx="50.613968"
       cy="241.66559"
       rx="4.2284508"
       ry="4.3740935"
       transform="matrix(0.9998136,0.01930708,-0.01908843,0.9998178,0,0)" />
    <ellipse
       style="opacity:1;fill:#00ff00;fill-opacity:1;stroke:#010000;stroke-width:0.4925586;stroke-linecap:round;stroke-linejoin:round;stroke-miterlimit:4;stroke-dasharray:none;stroke-dashoffset:0;stroke-opacity:0.98634817"
       id="path823-3-7-2-1"
       cx="50.72995"
       cy="250.87309"
       rx="4.2284508"
       ry="4.3740935"
       transform="matrix(0.9998136,0.01930708,-0.01908843,0.9998178,0,0)" />
    <ellipse
       style="opacity:1;fill:#00ff00;fill-opacity:1;stroke:#010000;stroke-width:0.4925586;stroke-linecap:round;stroke-linejoin:round;stroke-miterlimit:4;stroke-dasharray:none;stroke-dashoffset:0;stroke-opacity:0.98634817"
       id="path823-60-45"
       cx="59.673111"
       cy="259.74203"
       rx="4.2284508"
       ry="4.3740935"
       transform="matrix(0.9998136,0.01930708,-0.01908843,0.9998178,0,0)" />
    <ellipse
       style="opacity:1;fill:#00ff00;fill-opacity:1;stroke:#010000;stroke-width:0.4925586;stroke-linecap:round;stroke-linejoin:round;stroke-miterlimit:4;stroke-dasharray:none;stroke-dashoffset:0;stroke-opacity:0.98634817"
       id="path823-3-6-1"
       cx="59.789093"
       cy="268.94928"
       rx="4.2284508"
       ry="4.3740935"
       transform="matrix(0.9998136,0.01930708,-0.01908843,0.9998178,0,0)" />
    <ellipse
       style="opacity:1;fill:#00ff00;fill-opacity:1;stroke:#010000;stroke-width:0.4925586;stroke-linecap:round;stroke-linejoin:round;stroke-miterlimit:4;stroke-dasharray:none;stroke-dashoffset:0;stroke-opacity:0.98634817"
       id="path823-8-3-7"
       cx="60.057297"
       cy="277.99466"
       rx="4.2284508"
       ry="4.3740935"
       transform="matrix(0.9998136,0.01930708,-0.01908843,0.9998178,0,0)" />
    <ellipse
       style="opacity:1;fill:#00ff00;fill-opacity:1;stroke:#010000;stroke-width:0.4925586;stroke-linecap:round;stroke-linejoin:round;stroke-miterlimit:4;stroke-dasharray:none;stroke-dashoffset:0;stroke-opacity:0.98634817"
       id="path823-3-7-9-0"
       cx="60.173294"
       cy="287.20181"
       rx="4.2284508"
       ry="4.3740935"
       transform="matrix(0.9998136,0.01930708,-0.01908843,0.9998178,0,0)" />
    <ellipse
       style="opacity:1;fill:#00ff00;fill-opacity:1;stroke:#010000;stroke-width:0.4925586;stroke-linecap:round;stroke-linejoin:round;stroke-miterlimit:4;stroke-dasharray:none;stroke-dashoffset:0;stroke-opacity:0.98634817"
       id="path823-6-0-3"
       cx="59.058182"
       cy="223.28142"
       rx="4.2284508"
       ry="4.3740935"
       transform="matrix(0.9998136,0.01930708,-0.01908843,0.9998178,0,0)" />
    <ellipse
       style="opacity:1;fill:#00ff00;fill-opacity:1;stroke:#010000;stroke-width:0.4925586;stroke-linecap:round;stroke-linejoin:round;stroke-miterlimit:4;stroke-dasharray:none;stroke-dashoffset:0;stroke-opacity:0.98634817"
       id="path823-3-0-8-5"
       cx="59.174164"
       cy="232.48889"
       rx="4.2284508"
       ry="4.3740935"
       transform="matrix(0.9998136,0.01930708,-0.01908843,0.9998178,0,0)" />
    <ellipse
       style="opacity:1;fill:#00ff00;fill-opacity:1;stroke:#010000;stroke-width:0.4925586;stroke-linecap:round;stroke-linejoin:round;stroke-miterlimit:4;stroke-dasharray:none;stroke-dashoffset:0;stroke-opacity:0.98634817"
       id="path823-8-4-7-23"
       cx="59.442368"
       cy="241.53464"
       rx="4.2284508"
       ry="4.3740935"
       transform="matrix(0.9998136,0.01930708,-0.01908843,0.9998178,0,0)" />
    <ellipse
       style="opacity:1;fill:#00ff00;fill-opacity:1;stroke:#010000;stroke-width:0.4925586;stroke-linecap:round;stroke-linejoin:round;stroke-miterlimit:4;stroke-dasharray:none;stroke-dashoffset:0;stroke-opacity:0.98634817"
       id="path823-3-7-2-8-1"
       cx="59.55835"
       cy="250.74199"
       rx="4.2284508"
       ry="4.3740935"
       transform="matrix(0.9998136,0.01930708,-0.01908843,0.9998178,0,0)" />
    <ellipse
       style="opacity:1;fill:#00ff00;fill-opacity:1;stroke:#010000;stroke-width:0.4925586;stroke-linecap:round;stroke-linejoin:round;stroke-miterlimit:4;stroke-dasharray:none;stroke-dashoffset:0;stroke-opacity:0.98634817"
       id="path823-69-5"
       cx="68.371979"
       cy="259.66187"
       rx="4.2284508"
       ry="4.3740935"
       transform="matrix(0.9998136,0.01930708,-0.01908843,0.9998178,0,0)" />
    <ellipse
       style="opacity:1;fill:#00ff00;fill-opacity:1;stroke:#010000;stroke-width:0.4925586;stroke-linecap:round;stroke-linejoin:round;stroke-miterlimit:4;stroke-dasharray:none;stroke-dashoffset:0;stroke-opacity:0.98634817"
       id="path823-3-1-5"
       cx="68.48793"
       cy="268.86911"
       rx="4.2284508"
       ry="4.3740935"
       transform="matrix(0.9998136,0.01930708,-0.01908843,0.9998178,0,0)" />
    <ellipse
       style="opacity:1;fill:#00ff00;fill-opacity:1;stroke:#010000;stroke-width:0.4925586;stroke-linecap:round;stroke-linejoin:round;stroke-miterlimit:4;stroke-dasharray:none;stroke-dashoffset:0;stroke-opacity:0.98634817"
       id="path823-8-2-9"
       cx="68.756134"
       cy="277.91452"
       rx="4.2284508"
       ry="4.3740935"
       transform="matrix(0.9998136,0.01930708,-0.01908843,0.9998178,0,0)" />
    <ellipse
       style="opacity:1;fill:#00ff00;fill-opacity:1;stroke:#010000;stroke-width:0.4925586;stroke-linecap:round;stroke-linejoin:round;stroke-miterlimit:4;stroke-dasharray:none;stroke-dashoffset:0;stroke-opacity:0.98634817"
       id="path823-3-7-0-4"
       cx="68.872131"
       cy="287.12164"
       rx="4.2284508"
       ry="4.3740935"
       transform="matrix(0.9998136,0.01930708,-0.01908843,0.9998178,0,0)" />
    <ellipse
       style="opacity:1;fill:#00ff00;fill-opacity:1;stroke:#010000;stroke-width:0.4925586;stroke-linecap:round;stroke-linejoin:round;stroke-miterlimit:4;stroke-dasharray:none;stroke-dashoffset:0;stroke-opacity:0.98634817"
       id="path823-6-4-4"
       cx="67.757019"
       cy="223.20096"
       rx="4.2284508"
       ry="4.3740935"
       transform="matrix(0.9998136,0.01930708,-0.01908843,0.9998178,0,0)" />
    <ellipse
       style="opacity:1;fill:#00ff00;fill-opacity:1;stroke:#010000;stroke-width:0.4925586;stroke-linecap:round;stroke-linejoin:round;stroke-miterlimit:4;stroke-dasharray:none;stroke-dashoffset:0;stroke-opacity:0.98634817"
       id="path823-3-0-6-2"
       cx="67.873016"
       cy="232.40845"
       rx="4.2284508"
       ry="4.3740935"
       transform="matrix(0.9998136,0.01930708,-0.01908843,0.9998178,0,0)" />
    <ellipse
       style="opacity:1;fill:#00ff00;fill-opacity:1;stroke:#010000;stroke-width:0.4925586;stroke-linecap:round;stroke-linejoin:round;stroke-miterlimit:4;stroke-dasharray:none;stroke-dashoffset:0;stroke-opacity:0.98634817"
       id="path823-8-4-9-6"
       cx="68.141205"
       cy="241.45419"
       rx="4.2284508"
       ry="4.3740935"
       transform="matrix(0.9998136,0.01930708,-0.01908843,0.9998178,0,0)" />
    <ellipse
       style="opacity:1;fill:#00ff00;fill-opacity:1;stroke:#010000;stroke-width:0.4925586;stroke-linecap:round;stroke-linejoin:round;stroke-miterlimit:4;stroke-dasharray:none;stroke-dashoffset:0;stroke-opacity:0.98634817"
       id="path823-3-7-2-4-3"
       cx="68.257187"
       cy="250.6617"
       rx="4.2284508"
       ry="4.3740935"
       transform="matrix(0.9998136,0.01930708,-0.01908843,0.9998178,0,0)" />
    <ellipse
       style="opacity:1;fill:#00ff00;fill-opacity:1;stroke:#010000;stroke-width:0.4925586;stroke-linecap:round;stroke-linejoin:round;stroke-miterlimit:4;stroke-dasharray:none;stroke-dashoffset:0;stroke-opacity:0.98634817"
       id="path823-60-4-6"
       cx="77.200439"
       cy="259.53052"
       rx="4.2284508"
       ry="4.3740935"
       transform="matrix(0.9998136,0.01930708,-0.01908843,0.9998178,0,0)" />
    <ellipse
       style="opacity:1;fill:#00ff00;fill-opacity:1;stroke:#010000;stroke-width:0.4925586;stroke-linecap:round;stroke-linejoin:round;stroke-miterlimit:4;stroke-dasharray:none;stroke-dashoffset:0;stroke-opacity:0.98634817"
       id="path823-3-6-8-2"
       cx="77.316422"
       cy="268.73749"
       rx="4.2284508"
       ry="4.3740935"
       transform="matrix(0.9998136,0.01930708,-0.01908843,0.9998178,0,0)" />
    <ellipse
       style="opacity:1;fill:#00ff00;fill-opacity:1;stroke:#010000;stroke-width:0.4925586;stroke-linecap:round;stroke-linejoin:round;stroke-miterlimit:4;stroke-dasharray:none;stroke-dashoffset:0;stroke-opacity:0.98634817"
       id="path823-8-3-1-2"
       cx="77.584625"
       cy="277.78265"
       rx="4.2284508"
       ry="4.3740935"
       transform="matrix(0.9998136,0.01930708,-0.01908843,0.9998178,0,0)" />
    <ellipse
       style="opacity:1;fill:#00ff00;fill-opacity:1;stroke:#010000;stroke-width:0.4925586;stroke-linecap:round;stroke-linejoin:round;stroke-miterlimit:4;stroke-dasharray:none;stroke-dashoffset:0;stroke-opacity:0.98634817"
       id="path823-3-7-9-7-6"
       cx="77.700592"
       cy="286.98956"
       rx="4.2284508"
       ry="4.3740935"
       transform="matrix(0.9998136,0.01930708,-0.01908843,0.9998178,0,0)" />
    <ellipse
       style="opacity:1;fill:#00ff00;fill-opacity:1;stroke:#010000;stroke-width:0.4925586;stroke-linecap:round;stroke-linejoin:round;stroke-miterlimit:4;stroke-dasharray:none;stroke-dashoffset:0;stroke-opacity:0.98634817"
       id="path823-6-0-8-5"
       cx="76.58548"
       cy="223.06996"
       rx="4.2284508"
       ry="4.3740935"
       transform="matrix(0.9998136,0.01930708,-0.01908843,0.9998178,0,0)" />
    <ellipse
       style="opacity:1;fill:#00ff00;fill-opacity:1;stroke:#010000;stroke-width:0.4925586;stroke-linecap:round;stroke-linejoin:round;stroke-miterlimit:4;stroke-dasharray:none;stroke-dashoffset:0;stroke-opacity:0.98634817"
       id="path823-3-0-8-7-0"
       cx="76.701477"
       cy="232.27751"
       rx="4.2284508"
       ry="4.3740935"
       transform="matrix(0.9998136,0.01930708,-0.01908843,0.9998178,0,0)" />
    <ellipse
       style="opacity:1;fill:#00ff00;fill-opacity:1;stroke:#010000;stroke-width:0.4925586;stroke-linecap:round;stroke-linejoin:round;stroke-miterlimit:4;stroke-dasharray:none;stroke-dashoffset:0;stroke-opacity:0.98634817"
       id="path823-8-4-7-2-9"
       cx="76.969681"
       cy="241.32324"
       rx="4.2284508"
       ry="4.3740935"
       transform="matrix(0.9998136,0.01930708,-0.01908843,0.9998178,0,0)" />
    <ellipse
       style="opacity:1;fill:#00ff00;fill-opacity:1;stroke:#010000;stroke-width:0.4925586;stroke-linecap:round;stroke-linejoin:round;stroke-miterlimit:4;stroke-dasharray:none;stroke-dashoffset:0;stroke-opacity:0.98634817"
       id="path823-3-7-2-8-0-3"
       cx="77.085648"
       cy="250.53059"
       rx="4.2284508"
       ry="4.3740935"
       transform="matrix(0.9998136,0.01930708,-0.01908843,0.9998178,0,0)" />
    <ellipse
       style="opacity:1;fill:#00ff00;fill-opacity:1;stroke:#010000;stroke-width:0.4925586;stroke-linecap:round;stroke-linejoin:round;stroke-miterlimit:4;stroke-dasharray:none;stroke-dashoffset:0;stroke-opacity:0.98634817"
       id="path823-1"
       cx="85.853897"
       cy="259.34177"
       rx="4.2284503"
       ry="4.3740935"
       transform="matrix(0.9998136,0.01930708,-0.01908843,0.9998178,0,0)" />
    <ellipse
       style="opacity:1;fill:#00ff00;fill-opacity:1;stroke:#010000;stroke-width:0.4925586;stroke-linecap:round;stroke-linejoin:round;stroke-miterlimit:4;stroke-dasharray:none;stroke-dashoffset:0;stroke-opacity:0.98634817"
       id="path823-3-9"
       cx="85.969879"
       cy="268.54929"
       rx="4.2284508"
       ry="4.3740935"
       transform="matrix(0.9998136,0.01930708,-0.01908843,0.9998178,0,0)" />
    <ellipse
       style="opacity:1;fill:#00ff00;fill-opacity:1;stroke:#010000;stroke-width:0.4925586;stroke-linecap:round;stroke-linejoin:round;stroke-miterlimit:4;stroke-dasharray:none;stroke-dashoffset:0;stroke-opacity:0.98634817"
       id="path823-8-8"
       cx="86.238083"
       cy="277.59509"
       rx="4.2284508"
       ry="4.3740935"
       transform="matrix(0.9998136,0.01930708,-0.01908843,0.9998178,0,0)" />
    <ellipse
       style="opacity:1;fill:#00ff00;fill-opacity:1;stroke:#010000;stroke-width:0.4925586;stroke-linecap:round;stroke-linejoin:round;stroke-miterlimit:4;stroke-dasharray:none;stroke-dashoffset:0;stroke-opacity:0.98634817"
       id="path823-3-7-6"
       cx="86.35405"
       cy="286.80264"
       rx="4.2284508"
       ry="4.3740935"
       transform="matrix(0.9998136,0.01930708,-0.01908843,0.9998178,0,0)" />
    <ellipse
       style="opacity:1;fill:#00ff00;fill-opacity:1;stroke:#010000;stroke-width:0.4925586;stroke-linecap:round;stroke-linejoin:round;stroke-miterlimit:4;stroke-dasharray:none;stroke-dashoffset:0;stroke-opacity:0.98634817"
       id="path823-6-3"
       cx="85.238968"
       cy="222.88081"
       rx="4.2284508"
       ry="4.3740935"
       transform="matrix(0.9998136,0.01930708,-0.01908843,0.9998178,0,0)" />
    <ellipse
       style="opacity:1;fill:#00ff00;fill-opacity:1;stroke:#010000;stroke-width:0.4925586;stroke-linecap:round;stroke-linejoin:round;stroke-miterlimit:4;stroke-dasharray:none;stroke-dashoffset:0;stroke-opacity:0.98634817"
       id="path823-3-0-1"
       cx="85.354935"
       cy="232.08824"
       rx="4.2284508"
       ry="4.3740935"
       transform="matrix(0.9998136,0.01930708,-0.01908843,0.9998178,0,0)" />
    <ellipse
       style="opacity:1;fill:#00ff00;fill-opacity:1;stroke:#010000;stroke-width:0.4925586;stroke-linecap:round;stroke-linejoin:round;stroke-miterlimit:4;stroke-dasharray:none;stroke-dashoffset:0;stroke-opacity:0.98634817"
       id="path823-8-4-4"
       cx="85.623138"
       cy="241.13397"
       rx="4.2284508"
       ry="4.3740935"
       transform="matrix(0.9998136,0.01930708,-0.01908843,0.9998178,0,0)" />
    <ellipse
       style="opacity:1;fill:#00ff00;fill-opacity:1;stroke:#010000;stroke-width:0.4925586;stroke-linecap:round;stroke-linejoin:round;stroke-miterlimit:4;stroke-dasharray:none;stroke-dashoffset:0;stroke-opacity:0.98634817"
       id="path823-3-7-2-7"
       cx="85.73912"
       cy="250.34148"
       rx="4.2284508"
       ry="4.3740935"
       transform="matrix(0.9998136,0.01930708,-0.01908843,0.9998178,0,0)" />
    <ellipse
       style="opacity:1;fill:#00ff00;fill-opacity:1;stroke:#010000;stroke-width:0.4925586;stroke-linecap:round;stroke-linejoin:round;stroke-miterlimit:4;stroke-dasharray:none;stroke-dashoffset:0;stroke-opacity:0.98634817"
       id="path823-60-0"
       cx="94.682297"
       cy="259.21042"
       rx="4.2284508"
       ry="4.3740935"
       transform="matrix(0.9998136,0.01930708,-0.01908843,0.9998178,0,0)" />
    <ellipse
       style="opacity:1;fill:#00ff00;fill-opacity:1;stroke:#010000;stroke-width:0.4925586;stroke-linecap:round;stroke-linejoin:round;stroke-miterlimit:4;stroke-dasharray:none;stroke-dashoffset:0;stroke-opacity:0.98634817"
       id="path823-3-6-3"
       cx="94.798264"
       cy="268.41766"
       rx="4.2284508"
       ry="4.3740935"
       transform="matrix(0.9998136,0.01930708,-0.01908843,0.9998178,0,0)" />
    <ellipse
       style="opacity:1;fill:#00ff00;fill-opacity:1;stroke:#010000;stroke-width:0.4925586;stroke-linecap:round;stroke-linejoin:round;stroke-miterlimit:4;stroke-dasharray:none;stroke-dashoffset:0;stroke-opacity:0.98634817"
       id="path823-8-3-2"
       cx="95.066483"
       cy="277.4632"
       rx="4.2284508"
       ry="4.3740935"
       transform="matrix(0.9998136,0.01930708,-0.01908843,0.9998178,0,0)" />
    <ellipse
       style="opacity:1;fill:#00ff00;fill-opacity:1;stroke:#010000;stroke-width:0.4925586;stroke-linecap:round;stroke-linejoin:round;stroke-miterlimit:4;stroke-dasharray:none;stroke-dashoffset:0;stroke-opacity:0.98634817"
       id="path823-3-7-9-1"
       cx="95.182449"
       cy="286.67053"
       rx="4.2284508"
       ry="4.3740935"
       transform="matrix(0.9998136,0.01930708,-0.01908843,0.9998178,0,0)" />
    <ellipse
       style="opacity:1;fill:#00ff00;fill-opacity:1;stroke:#010000;stroke-width:0.4925586;stroke-linecap:round;stroke-linejoin:round;stroke-miterlimit:4;stroke-dasharray:none;stroke-dashoffset:0;stroke-opacity:0.98634817"
       id="path823-6-0-1"
       cx="94.067352"
       cy="222.74985"
       rx="4.2284508"
       ry="4.3740935"
       transform="matrix(0.9998136,0.01930708,-0.01908843,0.9998178,0,0)" />
    <ellipse
       style="opacity:1;fill:#00ff00;fill-opacity:1;stroke:#010000;stroke-width:0.4925586;stroke-linecap:round;stroke-linejoin:round;stroke-miterlimit:4;stroke-dasharray:none;stroke-dashoffset:0;stroke-opacity:0.98634817"
       id="path823-3-0-8-9"
       cx="94.183334"
       cy="231.95729"
       rx="4.2284508"
       ry="4.3740935"
       transform="matrix(0.9998136,0.01930708,-0.01908843,0.9998178,0,0)" />
    <ellipse
       style="opacity:1;fill:#00ff00;fill-opacity:1;stroke:#010000;stroke-width:0.4925586;stroke-linecap:round;stroke-linejoin:round;stroke-miterlimit:4;stroke-dasharray:none;stroke-dashoffset:0;stroke-opacity:0.98634817"
       id="path823-8-4-7-7"
       cx="94.451538"
       cy="241.00304"
       rx="4.2284508"
       ry="4.3740935"
       transform="matrix(0.9998136,0.01930708,-0.01908843,0.9998178,0,0)" />
    <ellipse
       style="opacity:1;fill:#00ff00;fill-opacity:1;stroke:#010000;stroke-width:0.4925586;stroke-linecap:round;stroke-linejoin:round;stroke-miterlimit:4;stroke-dasharray:none;stroke-dashoffset:0;stroke-opacity:0.98634817"
       id="path823-3-7-2-8-4"
       cx="94.56752"
       cy="250.21037"
       rx="4.2284508"
       ry="4.3740935"
       transform="matrix(0.9998136,0.01930708,-0.01908843,0.9998178,0,0)" />
    <ellipse
       style="opacity:1;fill:#00ff00;fill-opacity:1;stroke:#010000;stroke-width:0.4925586;stroke-linecap:round;stroke-linejoin:round;stroke-miterlimit:4;stroke-dasharray:none;stroke-dashoffset:0;stroke-opacity:0.98634817"
       id="path823-69-9"
       cx="103.38113"
       cy="259.13025"
       rx="4.2284508"
       ry="4.3740935"
       transform="matrix(0.9998136,0.01930708,-0.01908843,0.9998178,0,0)" />
    <ellipse
       style="opacity:1;fill:#00ff00;fill-opacity:1;stroke:#010000;stroke-width:0.4925586;stroke-linecap:round;stroke-linejoin:round;stroke-miterlimit:4;stroke-dasharray:none;stroke-dashoffset:0;stroke-opacity:0.98634817"
       id="path823-3-1-2"
       cx="103.4971"
       cy="268.33752"
       rx="4.2284508"
       ry="4.3740935"
       transform="matrix(0.9998136,0.01930708,-0.01908843,0.9998178,0,0)" />
    <ellipse
       style="opacity:1;fill:#00ff00;fill-opacity:1;stroke:#010000;stroke-width:0.4925586;stroke-linecap:round;stroke-linejoin:round;stroke-miterlimit:4;stroke-dasharray:none;stroke-dashoffset:0;stroke-opacity:0.98634817"
       id="path823-8-2-8"
       cx="103.7653"
       cy="277.38303"
       rx="4.2284508"
       ry="4.3740935"
       transform="matrix(0.9998136,0.01930708,-0.01908843,0.9998178,0,0)" />
    <ellipse
       style="opacity:1;fill:#00ff00;fill-opacity:1;stroke:#010000;stroke-width:0.4925586;stroke-linecap:round;stroke-linejoin:round;stroke-miterlimit:4;stroke-dasharray:none;stroke-dashoffset:0;stroke-opacity:0.98634817"
       id="path823-3-7-0-1"
       cx="103.88129"
       cy="286.59039"
       rx="4.2284508"
       ry="4.3740935"
       transform="matrix(0.9998136,0.01930708,-0.01908843,0.9998178,0,0)" />
    <ellipse
       style="opacity:1;fill:#00ff00;fill-opacity:1;stroke:#010000;stroke-width:0.4925586;stroke-linecap:round;stroke-linejoin:round;stroke-miterlimit:4;stroke-dasharray:none;stroke-dashoffset:0;stroke-opacity:0.98634817"
       id="path823-6-4-49"
       cx="102.76619"
       cy="222.66939"
       rx="4.2284508"
       ry="4.3740935"
       transform="matrix(0.9998136,0.01930708,-0.01908843,0.9998178,0,0)" />
    <ellipse
       style="opacity:1;fill:#00ff00;fill-opacity:1;stroke:#010000;stroke-width:0.4925586;stroke-linecap:round;stroke-linejoin:round;stroke-miterlimit:4;stroke-dasharray:none;stroke-dashoffset:0;stroke-opacity:0.98634817"
       id="path823-3-0-6-26"
       cx="102.88217"
       cy="231.87685"
       rx="4.2284508"
       ry="4.3740935"
       transform="matrix(0.9998136,0.01930708,-0.01908843,0.9998178,0,0)" />
    <ellipse
       style="opacity:1;fill:#00ff00;fill-opacity:1;stroke:#010000;stroke-width:0.4925586;stroke-linecap:round;stroke-linejoin:round;stroke-miterlimit:4;stroke-dasharray:none;stroke-dashoffset:0;stroke-opacity:0.98634817"
       id="path823-8-4-9-8"
       cx="103.15038"
       cy="240.92258"
       rx="4.2284508"
       ry="4.3740935"
       transform="matrix(0.9998136,0.01930708,-0.01908843,0.9998178,0,0)" />
    <ellipse
       style="opacity:1;fill:#00ff00;fill-opacity:1;stroke:#010000;stroke-width:0.4925586;stroke-linecap:round;stroke-linejoin:round;stroke-miterlimit:4;stroke-dasharray:none;stroke-dashoffset:0;stroke-opacity:0.98634817"
       id="path823-3-7-2-4-6"
       cx="103.26636"
       cy="250.13008"
       rx="4.2284508"
       ry="4.3740935"
       transform="matrix(0.9998136,0.01930708,-0.01908843,0.9998178,0,0)" />
    <ellipse
       style="opacity:1;fill:#00ff00;fill-opacity:1;stroke:#010000;stroke-width:0.4925586;stroke-linecap:round;stroke-linejoin:round;stroke-miterlimit:4;stroke-dasharray:none;stroke-dashoffset:0;stroke-opacity:0.98634817"
       id="path823-60-4-4"
       cx="112.20963"
       cy="258.9989"
       rx="4.2284508"
       ry="4.3740935"
       transform="matrix(0.9998136,0.01930708,-0.01908843,0.9998178,0,0)" />
    <ellipse
       style="opacity:1;fill:#00ff00;fill-opacity:1;stroke:#010000;stroke-width:0.4925586;stroke-linecap:round;stroke-linejoin:round;stroke-miterlimit:4;stroke-dasharray:none;stroke-dashoffset:0;stroke-opacity:0.98634817"
       id="path823-3-6-8-8"
       cx="112.32561"
       cy="268.20587"
       rx="4.2284508"
       ry="4.3740935"
       transform="matrix(0.9998136,0.01930708,-0.01908843,0.9998178,0,0)" />
    <ellipse
       style="opacity:1;fill:#00ff00;fill-opacity:1;stroke:#010000;stroke-width:0.4925586;stroke-linecap:round;stroke-linejoin:round;stroke-miterlimit:4;stroke-dasharray:none;stroke-dashoffset:0;stroke-opacity:0.98634817"
       id="path823-8-3-1-8"
       cx="112.59381"
       cy="277.25113"
       rx="4.2284508"
       ry="4.3740935"
       transform="matrix(0.9998136,0.01930708,-0.01908843,0.9998178,0,0)" />
    <ellipse
       style="opacity:1;fill:#00ff00;fill-opacity:1;stroke:#010000;stroke-width:0.4925586;stroke-linecap:round;stroke-linejoin:round;stroke-miterlimit:4;stroke-dasharray:none;stroke-dashoffset:0;stroke-opacity:0.98634817"
       id="path823-3-7-9-7-5"
       cx="112.70979"
       cy="286.45828"
       rx="4.2284508"
       ry="4.3740935"
       transform="matrix(0.9998136,0.01930708,-0.01908843,0.9998178,0,0)" />
    <ellipse
       style="opacity:1;fill:#00ff00;fill-opacity:1;stroke:#010000;stroke-width:0.4925586;stroke-linecap:round;stroke-linejoin:round;stroke-miterlimit:4;stroke-dasharray:none;stroke-dashoffset:0;stroke-opacity:0.98634817"
       id="path823-6-0-8-2"
       cx="111.59467"
       cy="222.53841"
       rx="4.2284508"
       ry="4.3740935"
       transform="matrix(0.9998136,0.01930708,-0.01908843,0.9998178,0,0)" />
    <ellipse
       style="opacity:1;fill:#00ff00;fill-opacity:1;stroke:#010000;stroke-width:0.4925586;stroke-linecap:round;stroke-linejoin:round;stroke-miterlimit:4;stroke-dasharray:none;stroke-dashoffset:0;stroke-opacity:0.98634817"
       id="path823-3-0-8-7-8"
       cx="111.71066"
       cy="231.74591"
       rx="4.2284508"
       ry="4.3740935"
       transform="matrix(0.9998136,0.01930708,-0.01908843,0.9998178,0,0)" />
    <ellipse
       style="opacity:1;fill:#00ff00;fill-opacity:1;stroke:#010000;stroke-width:0.4925586;stroke-linecap:round;stroke-linejoin:round;stroke-miterlimit:4;stroke-dasharray:none;stroke-dashoffset:0;stroke-opacity:0.98634817"
       id="path823-8-4-7-2-8"
       cx="111.97887"
       cy="240.79164"
       rx="4.2284508"
       ry="4.3740935"
       transform="matrix(0.9998136,0.01930708,-0.01908843,0.9998178,0,0)" />
    <ellipse
       style="opacity:1;fill:#00ff00;fill-opacity:1;stroke:#010000;stroke-width:0.4925586;stroke-linecap:round;stroke-linejoin:round;stroke-miterlimit:4;stroke-dasharray:none;stroke-dashoffset:0;stroke-opacity:0.98634817"
       id="path823-3-7-2-8-0-0"
       cx="112.09485"
       cy="249.99898"
       rx="4.2284508"
       ry="4.3740935"
       transform="matrix(0.9998136,0.01930708,-0.01908843,0.9998178,0,0)" />
    <ellipse
       style="opacity:1;fill:#00ff00;fill-opacity:1;stroke:#010000;stroke-width:0.4925586;stroke-linecap:round;stroke-linejoin:round;stroke-miterlimit:4;stroke-dasharray:none;stroke-dashoffset:0;stroke-opacity:0.98634817"
       id="path823-4-5"
       cx="121.02"
       cy="258.9321"
       rx="4.2284508"
       ry="4.3740935"
       transform="matrix(0.9998136,0.01930708,-0.01908843,0.9998178,0,0)" />
    <ellipse
       style="opacity:1;fill:#00ff00;fill-opacity:1;stroke:#010000;stroke-width:0.4925586;stroke-linecap:round;stroke-linejoin:round;stroke-miterlimit:4;stroke-dasharray:none;stroke-dashoffset:0;stroke-opacity:0.98634817"
       id="path823-3-3-6"
       cx="121.13599"
       cy="268.13962"
       rx="4.2284508"
       ry="4.3740935"
       transform="matrix(0.9998136,0.01930708,-0.01908843,0.9998178,0,0)" />
    <ellipse
       style="opacity:1;fill:#00ff00;fill-opacity:1;stroke:#010000;stroke-width:0.4925586;stroke-linecap:round;stroke-linejoin:round;stroke-miterlimit:4;stroke-dasharray:none;stroke-dashoffset:0;stroke-opacity:0.98634817"
       id="path823-8-1-9"
       cx="121.40419"
       cy="277.18527"
       rx="4.2284508"
       ry="4.3740935"
       transform="matrix(0.9998136,0.01930708,-0.01908843,0.9998178,0,0)" />
    <ellipse
       style="opacity:1;fill:#00ff00;fill-opacity:1;stroke:#010000;stroke-width:0.4925586;stroke-linecap:round;stroke-linejoin:round;stroke-miterlimit:4;stroke-dasharray:none;stroke-dashoffset:0;stroke-opacity:0.98634817"
       id="path823-3-7-5-3"
       cx="121.52017"
       cy="286.39261"
       rx="4.2284508"
       ry="4.3740935"
       transform="matrix(0.9998136,0.01930708,-0.01908843,0.9998178,0,0)" />
    <ellipse
       style="opacity:1;fill:#00ff00;fill-opacity:1;stroke:#010000;stroke-width:0.4925586;stroke-linecap:round;stroke-linejoin:round;stroke-miterlimit:4;stroke-dasharray:none;stroke-dashoffset:0;stroke-opacity:0.98634817"
       id="path823-6-2-9"
       cx="120.40506"
       cy="222.4711"
       rx="4.2284508"
       ry="4.3740935"
       transform="matrix(0.9998136,0.01930708,-0.01908843,0.9998178,0,0)" />
    <ellipse
       style="opacity:1;fill:#00ff00;fill-opacity:1;stroke:#010000;stroke-width:0.4925586;stroke-linecap:round;stroke-linejoin:round;stroke-miterlimit:4;stroke-dasharray:none;stroke-dashoffset:0;stroke-opacity:0.98634817"
       id="path823-3-0-5-5"
       cx="120.52104"
       cy="231.67854"
       rx="4.2284508"
       ry="4.3740935"
       transform="matrix(0.9998136,0.01930708,-0.01908843,0.9998178,0,0)" />
    <ellipse
       style="opacity:1;fill:#00ff00;fill-opacity:1;stroke:#010000;stroke-width:0.4925586;stroke-linecap:round;stroke-linejoin:round;stroke-miterlimit:4;stroke-dasharray:none;stroke-dashoffset:0;stroke-opacity:0.98634817"
       id="path823-8-4-0-7"
       cx="120.78925"
       cy="240.7243"
       rx="4.2284508"
       ry="4.3740935"
       transform="matrix(0.9998136,0.01930708,-0.01908843,0.9998178,0,0)" />
    <ellipse
       style="opacity:1;fill:#00ff00;fill-opacity:1;stroke:#010000;stroke-width:0.4925586;stroke-linecap:round;stroke-linejoin:round;stroke-miterlimit:4;stroke-dasharray:none;stroke-dashoffset:0;stroke-opacity:0.98634817"
       id="path823-3-7-2-1-5"
       cx="120.90523"
       cy="249.93181"
       rx="4.2284508"
       ry="4.3740935"
       transform="matrix(0.9998136,0.01930708,-0.01908843,0.9998178,0,0)" />
    <ellipse
       style="opacity:1;fill:#00ff00;fill-opacity:1;stroke:#010000;stroke-width:0.4925586;stroke-linecap:round;stroke-linejoin:round;stroke-miterlimit:4;stroke-dasharray:none;stroke-dashoffset:0;stroke-opacity:0.98634817"
       id="path823-60-45-8"
       cx="129.84839"
       cy="258.80075"
       rx="4.2284508"
       ry="4.3740935"
       transform="matrix(0.9998136,0.01930708,-0.01908843,0.9998178,0,0)" />
    <ellipse
       style="opacity:1;fill:#00ff00;fill-opacity:1;stroke:#010000;stroke-width:0.4925586;stroke-linecap:round;stroke-linejoin:round;stroke-miterlimit:4;stroke-dasharray:none;stroke-dashoffset:0;stroke-opacity:0.98634817"
       id="path823-3-6-1-7"
       cx="129.96437"
       cy="268.008"
       rx="4.2284508"
       ry="4.3740935"
       transform="matrix(0.9998136,0.01930708,-0.01908843,0.9998178,0,0)" />
    <ellipse
       style="opacity:1;fill:#00ff00;fill-opacity:1;stroke:#010000;stroke-width:0.4925586;stroke-linecap:round;stroke-linejoin:round;stroke-miterlimit:4;stroke-dasharray:none;stroke-dashoffset:0;stroke-opacity:0.98634817"
       id="path823-8-3-7-9"
       cx="130.23256"
       cy="277.05338"
       rx="4.2284508"
       ry="4.3740935"
       transform="matrix(0.9998136,0.01930708,-0.01908843,0.9998178,0,0)" />
    <ellipse
       style="opacity:1;fill:#00ff00;fill-opacity:1;stroke:#010000;stroke-width:0.4925586;stroke-linecap:round;stroke-linejoin:round;stroke-miterlimit:4;stroke-dasharray:none;stroke-dashoffset:0;stroke-opacity:0.98634817"
       id="path823-3-7-9-0-5"
       cx="130.34856"
       cy="286.26053"
       rx="4.2284508"
       ry="4.3740935"
       transform="matrix(0.9998136,0.01930708,-0.01908843,0.9998178,0,0)" />
    <ellipse
       style="opacity:1;fill:#00ff00;fill-opacity:1;stroke:#010000;stroke-width:0.4925586;stroke-linecap:round;stroke-linejoin:round;stroke-miterlimit:4;stroke-dasharray:none;stroke-dashoffset:0;stroke-opacity:0.98634817"
       id="path823-6-0-3-4"
       cx="129.23346"
       cy="222.34013"
       rx="4.2284508"
       ry="4.3740935"
       transform="matrix(0.9998136,0.01930708,-0.01908843,0.9998178,0,0)" />
    <ellipse
       style="opacity:1;fill:#00ff00;fill-opacity:1;stroke:#010000;stroke-width:0.4925586;stroke-linecap:round;stroke-linejoin:round;stroke-miterlimit:4;stroke-dasharray:none;stroke-dashoffset:0;stroke-opacity:0.98634817"
       id="path823-3-0-8-5-4"
       cx="129.34944"
       cy="231.54761"
       rx="4.2284508"
       ry="4.3740935"
       transform="matrix(0.9998136,0.01930708,-0.01908843,0.9998178,0,0)" />
    <ellipse
       style="opacity:1;fill:#00ff00;fill-opacity:1;stroke:#010000;stroke-width:0.4925586;stroke-linecap:round;stroke-linejoin:round;stroke-miterlimit:4;stroke-dasharray:none;stroke-dashoffset:0;stroke-opacity:0.98634817"
       id="path823-8-4-7-23-7"
       cx="129.61763"
       cy="240.59335"
       rx="4.2284508"
       ry="4.3740935"
       transform="matrix(0.9998136,0.01930708,-0.01908843,0.9998178,0,0)" />
    <ellipse
       style="opacity:1;fill:#00ff00;fill-opacity:1;stroke:#010000;stroke-width:0.4925586;stroke-linecap:round;stroke-linejoin:round;stroke-miterlimit:4;stroke-dasharray:none;stroke-dashoffset:0;stroke-opacity:0.98634817"
       id="path823-3-7-2-8-1-7"
       cx="129.73361"
       cy="249.8007"
       rx="4.2284508"
       ry="4.3740935"
       transform="matrix(0.9998136,0.01930708,-0.01908843,0.9998178,0,0)" />
    <ellipse
       style="opacity:1;fill:#00ff00;fill-opacity:1;stroke:#010000;stroke-width:0.4925586;stroke-linecap:round;stroke-linejoin:round;stroke-miterlimit:4;stroke-dasharray:none;stroke-dashoffset:0;stroke-opacity:0.98634817"
       id="path823-69-5-7"
       cx="138.54724"
       cy="258.72058"
       rx="4.2284508"
       ry="4.3740935"
       transform="matrix(0.9998136,0.01930708,-0.01908843,0.9998178,0,0)" />
    <ellipse
       style="opacity:1;fill:#00ff00;fill-opacity:1;stroke:#010000;stroke-width:0.4925586;stroke-linecap:round;stroke-linejoin:round;stroke-miterlimit:4;stroke-dasharray:none;stroke-dashoffset:0;stroke-opacity:0.98634817"
       id="path823-3-1-5-9"
       cx="138.66321"
       cy="267.92783"
       rx="4.2284508"
       ry="4.3740935"
       transform="matrix(0.9998136,0.01930708,-0.01908843,0.9998178,0,0)" />
    <ellipse
       style="opacity:1;fill:#00ff00;fill-opacity:1;stroke:#010000;stroke-width:0.4925586;stroke-linecap:round;stroke-linejoin:round;stroke-miterlimit:4;stroke-dasharray:none;stroke-dashoffset:0;stroke-opacity:0.98634817"
       id="path823-8-2-9-5"
       cx="138.9314"
       cy="276.97324"
       rx="4.2284508"
       ry="4.3740935"
       transform="matrix(0.9998136,0.01930708,-0.01908843,0.9998178,0,0)" />
    <ellipse
       style="opacity:1;fill:#00ff00;fill-opacity:1;stroke:#010000;stroke-width:0.4925586;stroke-linecap:round;stroke-linejoin:round;stroke-miterlimit:4;stroke-dasharray:none;stroke-dashoffset:0;stroke-opacity:0.98634817"
       id="path823-3-7-0-4-5"
       cx="139.04738"
       cy="286.18039"
       rx="4.2284508"
       ry="4.3740935"
       transform="matrix(0.9998136,0.01930708,-0.01908843,0.9998178,0,0)" />
    <ellipse
       style="opacity:1;fill:#00ff00;fill-opacity:1;stroke:#010000;stroke-width:0.4925586;stroke-linecap:round;stroke-linejoin:round;stroke-miterlimit:4;stroke-dasharray:none;stroke-dashoffset:0;stroke-opacity:0.98634817"
       id="path823-6-4-4-9"
       cx="137.93228"
       cy="222.25967"
       rx="4.2284508"
       ry="4.3740935"
       transform="matrix(0.9998136,0.01930708,-0.01908843,0.9998178,0,0)" />
    <ellipse
       style="opacity:1;fill:#00ff00;fill-opacity:1;stroke:#010000;stroke-width:0.4925586;stroke-linecap:round;stroke-linejoin:round;stroke-miterlimit:4;stroke-dasharray:none;stroke-dashoffset:0;stroke-opacity:0.98634817"
       id="path823-3-0-6-2-0"
       cx="138.04826"
       cy="231.46716"
       rx="4.2284508"
       ry="4.3740935"
       transform="matrix(0.9998136,0.01930708,-0.01908843,0.9998178,0,0)" />
    <ellipse
       style="opacity:1;fill:#00ff00;fill-opacity:1;stroke:#010000;stroke-width:0.4925586;stroke-linecap:round;stroke-linejoin:round;stroke-miterlimit:4;stroke-dasharray:none;stroke-dashoffset:0;stroke-opacity:0.98634817"
       id="path823-8-4-9-6-3"
       cx="138.31647"
       cy="240.51291"
       rx="4.2284508"
       ry="4.3740935"
       transform="matrix(0.9998136,0.01930708,-0.01908843,0.9998178,0,0)" />
    <ellipse
       style="opacity:1;fill:#00ff00;fill-opacity:1;stroke:#010000;stroke-width:0.4925586;stroke-linecap:round;stroke-linejoin:round;stroke-miterlimit:4;stroke-dasharray:none;stroke-dashoffset:0;stroke-opacity:0.98634817"
       id="path823-3-7-2-4-3-0"
       cx="138.43246"
       cy="249.7204"
       rx="4.2284508"
       ry="4.3740935"
       transform="matrix(0.9998136,0.01930708,-0.01908843,0.9998178,0,0)" />
    <ellipse
       style="opacity:1;fill:#00ff00;fill-opacity:1;stroke:#010000;stroke-width:0.4925586;stroke-linecap:round;stroke-linejoin:round;stroke-miterlimit:4;stroke-dasharray:none;stroke-dashoffset:0;stroke-opacity:0.98634817"
       id="path823-60-4-6-2"
       cx="147.3757"
       cy="258.58923"
       rx="4.2284508"
       ry="4.3740935"
       transform="matrix(0.9998136,0.01930708,-0.01908843,0.9998178,0,0)" />
    <ellipse
       style="opacity:1;fill:#00ff00;fill-opacity:1;stroke:#010000;stroke-width:0.4925586;stroke-linecap:round;stroke-linejoin:round;stroke-miterlimit:4;stroke-dasharray:none;stroke-dashoffset:0;stroke-opacity:0.98634817"
       id="path823-3-6-8-2-5"
       cx="147.49167"
       cy="267.7962"
       rx="4.2284508"
       ry="4.3740935"
       transform="matrix(0.9998136,0.01930708,-0.01908843,0.9998178,0,0)" />
    <ellipse
       style="opacity:1;fill:#00ff00;fill-opacity:1;stroke:#010000;stroke-width:0.4925586;stroke-linecap:round;stroke-linejoin:round;stroke-miterlimit:4;stroke-dasharray:none;stroke-dashoffset:0;stroke-opacity:0.98634817"
       id="path823-8-3-1-2-3"
       cx="147.75989"
       cy="276.84137"
       rx="4.2284508"
       ry="4.3740935"
       transform="matrix(0.9998136,0.01930708,-0.01908843,0.9998178,0,0)" />
    <ellipse
       style="opacity:1;fill:#00ff00;fill-opacity:1;stroke:#010000;stroke-width:0.4925586;stroke-linecap:round;stroke-linejoin:round;stroke-miterlimit:4;stroke-dasharray:none;stroke-dashoffset:0;stroke-opacity:0.98634817"
       id="path823-3-7-9-7-6-9"
       cx="147.87585"
       cy="286.04828"
       rx="4.2284508"
       ry="4.3740935"
       transform="matrix(0.9998136,0.01930708,-0.01908843,0.9998178,0,0)" />
    <ellipse
       style="opacity:1;fill:#00ff00;fill-opacity:1;stroke:#010000;stroke-width:0.4925586;stroke-linecap:round;stroke-linejoin:round;stroke-miterlimit:4;stroke-dasharray:none;stroke-dashoffset:0;stroke-opacity:0.98634817"
       id="path823-6-0-8-5-4"
       cx="146.76074"
       cy="222.12868"
       rx="4.2284508"
       ry="4.3740935"
       transform="matrix(0.9998136,0.01930708,-0.01908843,0.9998178,0,0)" />
    <ellipse
       style="opacity:1;fill:#00ff00;fill-opacity:1;stroke:#010000;stroke-width:0.4925586;stroke-linecap:round;stroke-linejoin:round;stroke-miterlimit:4;stroke-dasharray:none;stroke-dashoffset:0;stroke-opacity:0.98634817"
       id="path823-3-0-8-7-0-0"
       cx="146.87674"
       cy="231.33621"
       rx="4.2284508"
       ry="4.3740935"
       transform="matrix(0.9998136,0.01930708,-0.01908843,0.9998178,0,0)" />
    <ellipse
       style="opacity:1;fill:#00ff00;fill-opacity:1;stroke:#010000;stroke-width:0.4925586;stroke-linecap:round;stroke-linejoin:round;stroke-miterlimit:4;stroke-dasharray:none;stroke-dashoffset:0;stroke-opacity:0.98634817"
       id="path823-8-4-7-2-9-0"
       cx="147.14493"
       cy="240.38196"
       rx="4.2284508"
       ry="4.3740935"
       transform="matrix(0.9998136,0.01930708,-0.01908843,0.9998178,0,0)" />
    <ellipse
       style="opacity:1;fill:#00ff00;fill-opacity:1;stroke:#010000;stroke-width:0.4925586;stroke-linecap:round;stroke-linejoin:round;stroke-miterlimit:4;stroke-dasharray:none;stroke-dashoffset:0;stroke-opacity:0.98634817"
       id="path823-3-7-2-8-0-3-5"
       cx="147.26093"
       cy="249.58931"
       rx="4.2284508"
       ry="4.3740935"
       transform="matrix(0.9998136,0.01930708,-0.01908843,0.9998178,0,0)" />
    <rect
       style="opacity:1;fill:#000000;fill-opacity:1;stroke:#010000;stroke-width:0.61291701;stroke-linecap:round;stroke-linejoin:round;stroke-miterlimit:4;stroke-dasharray:none;stroke-dashoffset:0;stroke-opacity:0.98634817"
       id="rect1384"
       width="15.630327"
       height="7.8151636"
       x="68.37809"
       y="209.30556"
       ry="0.1730336" />
    <flowRoot
       xml:space="preserve"
       id="flowRoot1386"
       style="font-style:normal;font-variant:normal;font-weight:bold;font-stretch:normal;font-size:18.66666603px;line-height:1.25;font-family:Arial;-inkscape-font-specification:'Arial Bold';letter-spacing:0px;word-spacing:0px;fill:#f8fff8;fill-opacity:1;stroke:none;stroke-opacity:0.98634817"
       transform="matrix(0.15227005,0,0,0.15227005,-2.803128,196.32665)"><flowRegion
         id="flowRegion1388"
         style="fill:#f8fff8;fill-opacity:1;stroke:none;stroke-opacity:0.98634817"><rect
           id="rect1390"
           width="102.64873"
           height="51.324375"
           x="469.46695"
           y="87.236061"
           style="fill:#f8fff8;fill-opacity:1;stroke:none;stroke-opacity:0.98634817" /></flowRegion><flowPara
         id="flowPara1392">Pack-Connector</flowPara></flowRoot>    <circle
       style="opacity:1;fill:#f8fff8;fill-opacity:1;stroke:none;stroke-width:1.06500006;stroke-linecap:round;stroke-linejoin:round;stroke-miterlimit:4;stroke-dasharray:none;stroke-dashoffset:0;stroke-opacity:0.98634817"
       id="path2350"
       cx="48.926395"
       cy="280.42493"
       r="2.1966953" />
    <ellipse
       style="opacity:1;fill:#ff0000;fill-opacity:1;stroke:none;stroke-width:0.61291701;stroke-linecap:round;stroke-linejoin:round;stroke-miterlimit:4;stroke-dasharray:none;stroke-dashoffset:0;stroke-opacity:0.98634817"
       id="path2352-3"
       cx="67.843697"
       cy="229.07332"
       rx="1.4940754"
       ry="1.3791466" />
    <ellipse
       style="opacity:1;fill:#ff0000;fill-opacity:1;stroke:none;stroke-width:0.61291701;stroke-linecap:round;stroke-linejoin:round;stroke-miterlimit:4;stroke-dasharray:none;stroke-dashoffset:0;stroke-opacity:0.98634817"
       id="path2352-9"
       cx="67.918373"
       cy="246.77237"
       rx="1.4940754"
       ry="1.3791466" />
    <ellipse
       style="opacity:1;fill:#ff0000;fill-opacity:1;stroke:none;stroke-width:0.61291701;stroke-linecap:round;stroke-linejoin:round;stroke-miterlimit:4;stroke-dasharray:none;stroke-dashoffset:0;stroke-opacity:0.98634817"
       id="path2352-0"
       cx="67.688515"
       cy="265.16098"
       rx="1.4940754"
       ry="1.3791466" />
    <ellipse
       style="opacity:1;fill:#ff0000;fill-opacity:1;stroke:none;stroke-width:0.61291701;stroke-linecap:round;stroke-linejoin:round;stroke-miterlimit:4;stroke-dasharray:none;stroke-dashoffset:0;stroke-opacity:0.98634817"
       id="path2352-1"
       cx="67.769005"
       cy="283.85413"
       rx="1.4940754"
       ry="1.3791466" />
    <ellipse
       style="opacity:1;fill:#ff0000;fill-opacity:1;stroke:none;stroke-width:0.61291701;stroke-linecap:round;stroke-linejoin:round;stroke-miterlimit:4;stroke-dasharray:none;stroke-dashoffset:0;stroke-opacity:0.98634817"
       id="path2352-6"
       cx="50.144646"
       cy="283.6301"
       rx="1.4940754"
       ry="1.3791466" />
    <ellipse
       style="opacity:1;fill:#ff0000;fill-opacity:1;stroke:none;stroke-width:0.61291701;stroke-linecap:round;stroke-linejoin:round;stroke-miterlimit:4;stroke-dasharray:none;stroke-dashoffset:0;stroke-opacity:0.98634817"
       id="path2352-97"
       cx="49.989479"
       cy="265.6207"
       rx="1.4940754"
       ry="1.3791466" />
    <ellipse
       style="opacity:1;fill:#ff0000;fill-opacity:1;stroke:none;stroke-width:0.61291701;stroke-linecap:round;stroke-linejoin:round;stroke-miterlimit:4;stroke-dasharray:none;stroke-dashoffset:0;stroke-opacity:0.98634817"
       id="path2352-99"
       cx="49.989479"
       cy="247.00223"
       rx="1.4940754"
       ry="1.3791466" />
    <ellipse
       style="opacity:1;fill:#ff0000;fill-opacity:1;stroke:none;stroke-width:0.61291701;stroke-linecap:round;stroke-linejoin:round;stroke-miterlimit:4;stroke-dasharray:none;stroke-dashoffset:0;stroke-opacity:0.98634817"
       id="path2352-35"
       cx="50.299828"
       cy="228.68828"
       rx="1.4940754"
       ry="1.3791466" />
    <ellipse
       style="opacity:1;fill:#ff0000;fill-opacity:1;stroke:none;stroke-width:0.61291701;stroke-linecap:round;stroke-linejoin:round;stroke-miterlimit:4;stroke-dasharray:none;stroke-dashoffset:0;stroke-opacity:0.98634817"
       id="path2352-31"
       cx="32.600777"
       cy="228.6136"
       rx="1.4940754"
       ry="1.3791466" />
    <ellipse
       style="opacity:1;fill:#ff0000;fill-opacity:1;stroke:none;stroke-width:0.61291701;stroke-linecap:round;stroke-linejoin:round;stroke-miterlimit:4;stroke-dasharray:none;stroke-dashoffset:0;stroke-opacity:0.98634817"
       id="path2352-33"
       cx="32.600777"
       cy="247.00223"
       rx="1.4940754"
       ry="1.3791466" />
    <ellipse
       style="opacity:1;fill:#ff0000;fill-opacity:1;stroke:none;stroke-width:0.61291701;stroke-linecap:round;stroke-linejoin:round;stroke-miterlimit:4;stroke-dasharray:none;stroke-dashoffset:0;stroke-opacity:0.98634817"
       id="path2352-11"
       cx="32.824821"
       cy="265.0058"
       rx="1.4940754"
       ry="1.3791466" />
    <ellipse
       style="opacity:1;fill:#ff0000;fill-opacity:1;stroke:none;stroke-width:0.61291701;stroke-linecap:round;stroke-linejoin:round;stroke-miterlimit:4;stroke-dasharray:none;stroke-dashoffset:0;stroke-opacity:0.98634817"
       id="path2352-63"
       cx="32.675453"
       cy="283.31973"
       rx="1.4940754"
       ry="1.3791466" />
    <ellipse
       style="opacity:1;fill:#ff0000;fill-opacity:1;stroke:none;stroke-width:0.61291701;stroke-linecap:round;stroke-linejoin:round;stroke-miterlimit:4;stroke-dasharray:none;stroke-dashoffset:0;stroke-opacity:0.98634817"
       id="path2352-5"
       cx="15.206276"
       cy="283.31973"
       rx="1.4940754"
       ry="1.3791466" />
    <ellipse
       style="opacity:1;fill:#ff0000;fill-opacity:1;stroke:none;stroke-width:0.61291701;stroke-linecap:round;stroke-linejoin:round;stroke-miterlimit:4;stroke-dasharray:none;stroke-dashoffset:0;stroke-opacity:0.98634817"
       id="path2352-7"
       cx="15.280952"
       cy="265.39084"
       rx="1.4940754"
       ry="1.3791466" />
    <ellipse
       style="opacity:1;fill:#ff0000;fill-opacity:1;stroke:none;stroke-width:0.61291701;stroke-linecap:round;stroke-linejoin:round;stroke-miterlimit:4;stroke-dasharray:none;stroke-dashoffset:0;stroke-opacity:0.98634817"
       id="path2352-73"
       cx="15.206276"
       cy="247.08272"
       rx="1.4940754"
       ry="1.3791466" />
    <ellipse
       style="opacity:1;fill:#ff0000;fill-opacity:1;stroke:none;stroke-width:0.61291701;stroke-linecap:round;stroke-linejoin:round;stroke-miterlimit:4;stroke-dasharray:none;stroke-dashoffset:0;stroke-opacity:0.98634817"
       id="path2352-77"
       cx="15.051094"
       cy="228.6136"
       rx="1.4940754"
       ry="1.3791466" />
    <ellipse
       style="opacity:1;fill:#ff0000;fill-opacity:1;stroke:none;stroke-width:0.61291701;stroke-linecap:round;stroke-linejoin:round;stroke-miterlimit:4;stroke-dasharray:none;stroke-dashoffset:0;stroke-opacity:0.98634817"
       id="path2352-8"
       cx="85.312889"
       cy="228.99864"
       rx="1.4940754"
       ry="1.3791466" />
    <ellipse
       style="opacity:1;fill:#ff0000;fill-opacity:1;stroke:none;stroke-width:0.61291701;stroke-linecap:round;stroke-linejoin:round;stroke-miterlimit:4;stroke-dasharray:none;stroke-dashoffset:0;stroke-opacity:0.98634817"
       id="path2352-53"
       cx="85.312889"
       cy="247.46194"
       rx="1.4940754"
       ry="1.3791466" />
    <ellipse
       style="opacity:1;fill:#ff0000;fill-opacity:1;stroke:none;stroke-width:0.61291701;stroke-linecap:round;stroke-linejoin:round;stroke-miterlimit:4;stroke-dasharray:none;stroke-dashoffset:0;stroke-opacity:0.98634817"
       id="path2352-4"
       cx="85.083031"
       cy="265.39667"
       rx="1.4940754"
       ry="1.3791466" />
    <ellipse
       style="opacity:1;fill:#ff0000;fill-opacity:1;stroke:none;stroke-width:0.61291701;stroke-linecap:round;stroke-linejoin:round;stroke-miterlimit:4;stroke-dasharray:none;stroke-dashoffset:0;stroke-opacity:0.98634817"
       id="path2352-76"
       cx="85.307076"
       cy="283.85995"
       rx="1.4940754"
       ry="1.3791466" />
    <ellipse
       style="opacity:1;fill:#ff0000;fill-opacity:1;stroke:none;stroke-width:0.61291701;stroke-linecap:round;stroke-linejoin:round;stroke-miterlimit:4;stroke-dasharray:none;stroke-dashoffset:0;stroke-opacity:0.98634817"
       id="path2352-75"
       cx="102.85676"
       cy="283.77945"
       rx="1.4940754"
       ry="1.3791466" />
    <ellipse
       style="opacity:1;fill:#ff0000;fill-opacity:1;stroke:none;stroke-width:0.61291701;stroke-linecap:round;stroke-linejoin:round;stroke-miterlimit:4;stroke-dasharray:none;stroke-dashoffset:0;stroke-opacity:0.98634817"
       id="path2352-46"
       cx="102.93726"
       cy="265.46552"
       rx="1.4940754"
       ry="1.3791466" />
    <ellipse
       style="opacity:1;fill:#ff0000;fill-opacity:1;stroke:none;stroke-width:0.61291701;stroke-linecap:round;stroke-linejoin:round;stroke-miterlimit:4;stroke-dasharray:none;stroke-dashoffset:0;stroke-opacity:0.98634817"
       id="path2352-71"
       cx="102.85676"
       cy="247.6918"
       rx="1.4940754"
       ry="1.3791466" />
    <ellipse
       style="opacity:1;fill:#ff0000;fill-opacity:1;stroke:none;stroke-width:0.61291701;stroke-linecap:round;stroke-linejoin:round;stroke-miterlimit:4;stroke-dasharray:none;stroke-dashoffset:0;stroke-opacity:0.98634817"
       id="path2352-95"
       cx="102.78208"
       cy="229.15382"
       rx="1.4940754"
       ry="1.3791466" />
    <ellipse
       style="opacity:1;fill:#ff0000;fill-opacity:1;stroke:none;stroke-width:0.61291701;stroke-linecap:round;stroke-linejoin:round;stroke-miterlimit:4;stroke-dasharray:none;stroke-dashoffset:0;stroke-opacity:0.98634817"
       id="path2352-08"
       cx="120.55581"
       cy="229.53304"
       rx="1.4940754"
       ry="1.3791466" />
    <ellipse
       style="opacity:1;fill:#ff0000;fill-opacity:1;stroke:none;stroke-width:0.61291701;stroke-linecap:round;stroke-linejoin:round;stroke-miterlimit:4;stroke-dasharray:none;stroke-dashoffset:0;stroke-opacity:0.98634817"
       id="path2352-531"
       cx="120.48112"
       cy="247.76648"
       rx="1.4940754"
       ry="1.3791466" />
    <ellipse
       style="opacity:1;fill:#ff0000;fill-opacity:1;stroke:none;stroke-width:0.61291701;stroke-linecap:round;stroke-linejoin:round;stroke-miterlimit:4;stroke-dasharray:none;stroke-dashoffset:0;stroke-opacity:0.98634817"
       id="path2352-82"
       cx="120.55581"
       cy="265.6207"
       rx="1.4940754"
       ry="1.3791466" />
    <ellipse
       style="opacity:1;fill:#ff0000;fill-opacity:1;stroke:none;stroke-width:0.61291701;stroke-linecap:round;stroke-linejoin:round;stroke-miterlimit:4;stroke-dasharray:none;stroke-dashoffset:0;stroke-opacity:0.98634817"
       id="path2352-87"
       cx="120.48112"
       cy="284.00931"
       rx="1.4940754"
       ry="1.3791466" />
    <ellipse
       style="opacity:1;fill:#ff0000;fill-opacity:1;stroke:none;stroke-width:0.61291701;stroke-linecap:round;stroke-linejoin:round;stroke-miterlimit:4;stroke-dasharray:none;stroke-dashoffset:0;stroke-opacity:0.98634817"
       id="path2352-79"
       cx="138.1055"
       cy="284.46902"
       rx="1.4940754"
       ry="1.3791466" />
    <ellipse
       style="opacity:1;fill:#ff0000;fill-opacity:1;stroke:none;stroke-width:0.61291701;stroke-linecap:round;stroke-linejoin:round;stroke-miterlimit:4;stroke-dasharray:none;stroke-dashoffset:0;stroke-opacity:0.98634817"
       id="path2352-2"
       cx="138.02501"
       cy="265.6207"
       rx="1.4940754"
       ry="1.3791466" />
    <ellipse
       style="opacity:1;fill:#ff0000;fill-opacity:1;stroke:none;stroke-width:0.61291701;stroke-linecap:round;stroke-linejoin:round;stroke-miterlimit:4;stroke-dasharray:none;stroke-dashoffset:0;stroke-opacity:0.98634817"
       id="path2352-50"
       cx="138.02501"
       cy="247.92165"
       rx="1.4940754"
       ry="1.3791466" />
    <ellipse
       style="opacity:1;fill:#ff0000;fill-opacity:1;stroke:none;stroke-width:0.61291701;stroke-linecap:round;stroke-linejoin:round;stroke-miterlimit:4;stroke-dasharray:none;stroke-dashoffset:0;stroke-opacity:0.98634817"
       id="path2352-81"
       cx="138.02501"
       cy="229.38368"
       rx="1.4940754"
       ry="1.3791466" />
    <path
       style="fill:none;stroke:#f90000;stroke-width:0.44026428;stroke-linecap:butt;stroke-linejoin:miter;stroke-miterlimit:4;stroke-dasharray:none;stroke-opacity:1"
       d="m 68.378092,217.12072 v 4.827 l -0.68957,-0.22985 v 7.5853 17.23934 l -0.22986,18.84833 0.45972,18.84834 -17.92891,-0.22986 -0.22986,-18.61848 v -18.61848 l 0.45972,-17.92891 -17.69905,-0.45971 -0.22986,18.84834 v 17.69904 l 0.22986,18.38862 h -16.77961 l -0.68958,-18.61847 0.22986,-17.92891 -0.45971,-18.15876"
       id="path2563"
       inkscape:connector-curvature="0" />
    <path
       style="fill:none;stroke:#f90000;stroke-width:0.44026428;stroke-linecap:butt;stroke-linejoin:miter;stroke-miterlimit:4;stroke-dasharray:none;stroke-opacity:1"
       d="m 84.008422,217.12072 v 0 l 1.37915,11.95259 -0.22986,18.61848 -0.22986,17.46919 v 18.84834 h 18.388618 l -0.45972,-18.61848 v -18.15876 l -0.22985,-18.15877 17.9289,0.22986 v 18.38862 17.69905 18.38862 l 17.46919,0.45972 0.45971,-19.0782 -0.45971,-17.69904 0.22986,-18.61849"
       id="path2567"
       inkscape:connector-curvature="0" />
  </g>
</svg>
