<?xml version="1.0" encoding="UTF-8" standalone="no"?>
<!-- Created with Inkscape (http://www.inkscape.org/) -->

<svg
   xmlns:dc="http://purl.org/dc/elements/1.1/"
   xmlns:cc="http://creativecommons.org/ns#"
   xmlns:rdf="http://www.w3.org/1999/02/22-rdf-syntax-ns#"
   xmlns:svg="http://www.w3.org/2000/svg"
   xmlns="http://www.w3.org/2000/svg"
   xmlns:sodipodi="http://sodipodi.sourceforge.net/DTD/sodipodi-0.dtd"
   xmlns:inkscape="http://www.inkscape.org/namespaces/inkscape"
   width="150mm"
   height="90mm"
   viewBox="0 0 150 90"
   version="1.1"
   id="svg5039"
   inkscape:export-filename="C:\Users\maxhu\OneDrive\Desktop\git_BA\thesis\tex2\figures_thesis\temp_konv.png"
   inkscape:export-xdpi="96"
   inkscape:export-ydpi="96"
   inkscape:version="0.92.3 (2405546, 2018-03-11)"
   sodipodi:docname="inkscape_konvektion.svg">
  <defs
     id="defs5033">
    <marker
       inkscape:stockid="Arrow2Lend"
       orient="auto"
       refY="0"
       refX="0"
       id="marker10997"
       style="overflow:visible"
       inkscape:isstock="true">
      <path
         id="path10995"
         style="fill:#000000;fill-opacity:1;fill-rule:evenodd;stroke:#000000;stroke-width:0.625;stroke-linejoin:round;stroke-opacity:1"
         d="M 8.7185878,4.0337352 -2.2072895,0.01601326 8.7185884,-4.0017078 c -1.7454984,2.3720609 -1.7354408,5.6174519 -6e-7,8.035443 z"
         transform="matrix(-1.1,0,0,-1.1,-1.1,0)"
         inkscape:connector-curvature="0" />
    </marker>
    <marker
       inkscape:stockid="Arrow2Lend"
       orient="auto"
       refY="0"
       refX="0"
       id="marker10903"
       style="overflow:visible"
       inkscape:isstock="true">
      <path
         id="path10901"
         style="fill:#000000;fill-opacity:1;fill-rule:evenodd;stroke:#000000;stroke-width:0.625;stroke-linejoin:round;stroke-opacity:1"
         d="M 8.7185878,4.0337352 -2.2072895,0.01601326 8.7185884,-4.0017078 c -1.7454984,2.3720609 -1.7354408,5.6174519 -6e-7,8.035443 z"
         transform="matrix(-1.1,0,0,-1.1,-1.1,0)"
         inkscape:connector-curvature="0" />
    </marker>
    <marker
       inkscape:stockid="Arrow2Lend"
       orient="auto"
       refY="0"
       refX="0"
       id="marker10699"
       style="overflow:visible"
       inkscape:isstock="true">
      <path
         id="path10697"
         style="fill:#000000;fill-opacity:1;fill-rule:evenodd;stroke:#000000;stroke-width:0.625;stroke-linejoin:round;stroke-opacity:1"
         d="M 8.7185878,4.0337352 -2.2072895,0.01601326 8.7185884,-4.0017078 c -1.7454984,2.3720609 -1.7354408,5.6174519 -6e-7,8.035443 z"
         transform="matrix(-1.1,0,0,-1.1,-1.1,0)"
         inkscape:connector-curvature="0" />
    </marker>
    <marker
       inkscape:stockid="Arrow2Lstart"
       orient="auto"
       refY="0"
       refX="0"
       id="marker10617"
       style="overflow:visible"
       inkscape:isstock="true">
      <path
         id="path10615"
         style="fill:#000000;fill-opacity:1;fill-rule:evenodd;stroke:#000000;stroke-width:0.625;stroke-linejoin:round;stroke-opacity:1"
         d="M 8.7185878,4.0337352 -2.2072895,0.01601326 8.7185884,-4.0017078 c -1.7454984,2.3720609 -1.7354408,5.6174519 -6e-7,8.035443 z"
         transform="matrix(1.1,0,0,1.1,1.1,0)"
         inkscape:connector-curvature="0" />
    </marker>
    <marker
       inkscape:stockid="Arrow2Lstart"
       orient="auto"
       refY="0"
       refX="0"
       id="marker9187"
       style="overflow:visible"
       inkscape:isstock="true">
      <path
         id="path9185"
         style="fill:#ec3900;fill-opacity:1;fill-rule:evenodd;stroke:#ec3900;stroke-width:0.625;stroke-linejoin:round;stroke-opacity:1"
         d="M 8.7185878,4.0337352 -2.2072895,0.01601326 8.7185884,-4.0017078 c -1.7454984,2.3720609 -1.7354408,5.6174519 -6e-7,8.035443 z"
         transform="matrix(1.1,0,0,1.1,1.1,0)"
         inkscape:connector-curvature="0" />
    </marker>
    <marker
       inkscape:stockid="Arrow2Lstart"
       orient="auto"
       refY="0"
       refX="0"
       id="Arrow2Lstart"
       style="overflow:visible"
       inkscape:isstock="true">
      <path
         id="path4636"
         style="fill:#ce5d00;fill-opacity:1;fill-rule:evenodd;stroke:#ce5d00;stroke-width:0.625;stroke-linejoin:round;stroke-opacity:1"
         d="M 8.7185878,4.0337352 -2.2072895,0.01601326 8.7185884,-4.0017078 c -1.7454984,2.3720609 -1.7354408,5.6174519 -6e-7,8.035443 z"
         transform="matrix(1.1,0,0,1.1,1.1,0)"
         inkscape:connector-curvature="0" />
    </marker>
    <marker
       inkscape:stockid="Arrow2Lend"
       orient="auto"
       refY="0"
       refX="0"
       id="marker7441"
       style="overflow:visible"
       inkscape:isstock="true">
      <path
         id="path7439"
         style="fill:#fd0000;fill-opacity:1;fill-rule:evenodd;stroke:#fd0000;stroke-width:0.625;stroke-linejoin:round;stroke-opacity:1"
         d="M 8.7185878,4.0337352 -2.2072895,0.01601326 8.7185884,-4.0017078 c -1.7454984,2.3720609 -1.7354408,5.6174519 -6e-7,8.035443 z"
         transform="matrix(-1.1,0,0,-1.1,-1.1,0)"
         inkscape:connector-curvature="0" />
    </marker>
    <marker
       inkscape:stockid="Arrow2Lend"
       orient="auto"
       refY="0"
       refX="0"
       id="Arrow2Lend"
       style="overflow:visible"
       inkscape:isstock="true">
      <path
         id="path4639"
         style="fill:#0087dc;fill-opacity:1;fill-rule:evenodd;stroke:#0087dc;stroke-width:0.625;stroke-linejoin:round;stroke-opacity:1"
         d="M 8.7185878,4.0337352 -2.2072895,0.01601326 8.7185884,-4.0017078 c -1.7454984,2.3720609 -1.7354408,5.6174519 -6e-7,8.035443 z"
         transform="matrix(-1.1,0,0,-1.1,-1.1,0)"
         inkscape:connector-curvature="0" />
    </marker>
    <inkscape:perspective
       sodipodi:type="inkscape:persp3d"
       inkscape:vp_x="0 : 148.5 : 1"
       inkscape:vp_y="0 : 1000 : 0"
       inkscape:vp_z="210 : 148.5 : 1"
       inkscape:persp3d-origin="105.00001 : 99 : 1"
       id="perspective5043" />
    <marker
       inkscape:stockid="Arrow2Lend"
       orient="auto"
       refY="0"
       refX="0"
       id="Arrow2Lend-4"
       style="overflow:visible"
       inkscape:isstock="true">
      <path
         inkscape:connector-curvature="0"
         id="path4639-5"
         style="fill:#ec3900;fill-opacity:1;fill-rule:evenodd;stroke:#ec3900;stroke-width:0.625;stroke-linejoin:round;stroke-opacity:1"
         d="M 8.7185878,4.0337352 -2.2072895,0.01601326 8.7185884,-4.0017078 c -1.7454984,2.3720609 -1.7354408,5.6174519 -6e-7,8.035443 z"
         transform="matrix(-1.1,0,0,-1.1,-1.1,0)" />
    </marker>
    <marker
       inkscape:stockid="Arrow2Lend"
       orient="auto"
       refY="0"
       refX="0"
       id="Arrow2Lend-4-9"
       style="overflow:visible"
       inkscape:isstock="true">
      <path
         inkscape:connector-curvature="0"
         id="path4639-5-9"
         style="fill:#0087dc;fill-opacity:1;fill-rule:evenodd;stroke:#0087dc;stroke-width:0.625;stroke-linejoin:round;stroke-opacity:1"
         d="M 8.7185878,4.0337352 -2.2072895,0.01601326 8.7185884,-4.0017078 c -1.7454984,2.3720609 -1.7354408,5.6174519 -6e-7,8.035443 z"
         transform="matrix(-1.1,0,0,-1.1,-1.1,0)" />
    </marker>
    <marker
       inkscape:stockid="Arrow2Lend"
       orient="auto"
       refY="0"
       refX="0"
       id="Arrow2Lend-2"
       style="overflow:visible"
       inkscape:isstock="true">
      <path
         inkscape:connector-curvature="0"
         id="path4639-51"
         style="fill:#ec3900;fill-opacity:1;fill-rule:evenodd;stroke:#ec3900;stroke-width:0.625;stroke-linejoin:round;stroke-opacity:1"
         d="M 8.7185878,4.0337352 -2.2072895,0.01601326 8.7185884,-4.0017078 c -1.7454984,2.3720609 -1.7354408,5.6174519 -6e-7,8.035443 z"
         transform="matrix(-1.1,0,0,-1.1,-1.1,0)" />
    </marker>
    <marker
       inkscape:stockid="Arrow2Lend"
       orient="auto"
       refY="0"
       refX="0"
       id="marker7441-8"
       style="overflow:visible"
       inkscape:isstock="true">
      <path
         inkscape:connector-curvature="0"
         id="path7439-6"
         style="fill:#000000;fill-opacity:1;fill-rule:evenodd;stroke:#000000;stroke-width:0.625;stroke-linejoin:round;stroke-opacity:1"
         d="M 8.7185878,4.0337352 -2.2072895,0.01601326 8.7185884,-4.0017078 c -1.7454984,2.3720609 -1.7354408,5.6174519 -6e-7,8.035443 z"
         transform="matrix(-1.1,0,0,-1.1,-1.1,0)" />
    </marker>
    <marker
       inkscape:stockid="Arrow2Lend"
       orient="auto"
       refY="0"
       refX="0"
       id="marker7441-2"
       style="overflow:visible"
       inkscape:isstock="true">
      <path
         inkscape:connector-curvature="0"
         id="path7439-3"
         style="fill:#0087dc;fill-opacity:1;fill-rule:evenodd;stroke:#0087dc;stroke-width:0.625;stroke-linejoin:round;stroke-opacity:1"
         d="M 8.7185878,4.0337352 -2.2072895,0.01601326 8.7185884,-4.0017078 c -1.7454984,2.3720609 -1.7354408,5.6174519 -6e-7,8.035443 z"
         transform="matrix(-1.1,0,0,-1.1,-1.1,0)" />
    </marker>
    <marker
       inkscape:stockid="Arrow2Lend"
       orient="auto"
       refY="0"
       refX="0"
       id="marker7441-4"
       style="overflow:visible"
       inkscape:isstock="true">
      <path
         inkscape:connector-curvature="0"
         id="path7439-0"
         style="fill:#000000;fill-opacity:1;fill-rule:evenodd;stroke:#000000;stroke-width:0.625;stroke-linejoin:round;stroke-opacity:1"
         d="M 8.7185878,4.0337352 -2.2072895,0.01601326 8.7185884,-4.0017078 c -1.7454984,2.3720609 -1.7354408,5.6174519 -6e-7,8.035443 z"
         transform="matrix(-1.1,0,0,-1.1,-1.1,0)" />
    </marker>
  </defs>
  <sodipodi:namedview
     id="base"
     pagecolor="#ffffff"
     bordercolor="#666666"
     borderopacity="1.0"
     inkscape:pageopacity="0.0"
     inkscape:pageshadow="2"
     inkscape:zoom="1.8756036"
     inkscape:cx="318.4146"
     inkscape:cy="177.57911"
     inkscape:document-units="mm"
     inkscape:current-layer="layer1"
     showgrid="false"
     inkscape:window-width="1800"
     inkscape:window-height="1106"
     inkscape:window-x="-11"
     inkscape:window-y="-11"
     inkscape:window-maximized="1"
     width="150mm" />
  <metadata
     id="metadata5036">
    <rdf:RDF>
      <cc:Work
         rdf:about="">
        <dc:format>image/svg+xml</dc:format>
        <dc:type
           rdf:resource="http://purl.org/dc/dcmitype/StillImage" />
        <dc:title></dc:title>
      </cc:Work>
    </rdf:RDF>
  </metadata>
  <g
     inkscape:label="Ebene 1"
     inkscape:groupmode="layer"
     id="layer1"
     transform="translate(0,-207)">
    <rect
       style="fill:none;stroke:none;stroke-width:0.4298304;stroke-miterlimit:4;stroke-dasharray:0.4298304, 1.28949121;stroke-dashoffset:0;stroke-opacity:1"
       id="rect5041"
       width="106.39043"
       height="85.436981"
       x="23.360298"
       y="212.97876" />
    <rect
       style="fill:none;stroke:#000000;stroke-width:0.4298304;stroke-miterlimit:4;stroke-dasharray:none;stroke-dashoffset:0;stroke-opacity:1"
       id="rect5059"
       width="100.48804"
       height="80.71508"
       x="26.040606"
       y="211.38211" />
    <rect
       style="fill:#b3b3b3;stroke:#000000;stroke-width:0.4298304;stroke-miterlimit:4;stroke-dasharray:none;stroke-dashoffset:0;stroke-opacity:1"
       id="rect5616"
       width="19.035181"
       height="32.315544"
       x="97.898201"
       y="236.77287" />
    <path
       style="fill:none;stroke:#0087dc;stroke-width:0.4298304;stroke-linecap:butt;stroke-linejoin:miter;stroke-miterlimit:4;stroke-dasharray:none;stroke-opacity:1;marker-end:url(#Arrow2Lend)"
       d="m 76.437586,286.65921 c 0,0 18.149786,-0.7378 18.00223,-18.00235"
       id="path5786"
       inkscape:connector-curvature="0" />
    <path
       style="fill:none;stroke:#ec3900;stroke-width:0.4298304;stroke-linecap:butt;stroke-linejoin:miter;stroke-miterlimit:4;stroke-dasharray:none;stroke-opacity:1;marker-end:url(#Arrow2Lend-4)"
       d="m 48.960115,219.82216 c 0,0 -18.149692,0.73779 -18.002134,18.00234"
       id="path5786-1"
       inkscape:connector-curvature="0" />
    <path
       style="fill:none;stroke:#0087dc;stroke-width:0.4298304;stroke-linecap:butt;stroke-linejoin:miter;stroke-miterlimit:4;stroke-dasharray:none;stroke-opacity:1;marker-end:url(#Arrow2Lend-4-9)"
       d="m 31.346904,268.63547 c 0,0 0.737798,18.14987 18.002186,18.00232"
       id="path5786-1-3"
       inkscape:connector-curvature="0" />
    <path
       style="fill:none;stroke:#ec3900;stroke-width:0.4298304;stroke-linecap:butt;stroke-linejoin:miter;stroke-miterlimit:4;stroke-dasharray:none;stroke-opacity:1;marker-end:url(#Arrow2Lend-2)"
       d="m 94.399212,237.4462 c 0,0 -0.737795,-18.14994 -18.002162,-18.00238"
       id="path5786-0"
       inkscape:connector-curvature="0" />
    <path
       style="fill:none;stroke:#fd0000;stroke-width:0.4298304;stroke-linecap:butt;stroke-linejoin:miter;stroke-miterlimit:4;stroke-dasharray:none;stroke-opacity:1;marker-end:url(#marker7441)"
       d="M 94.483723,262.70814 V 245.14846"
       id="path7437"
       inkscape:connector-curvature="0" />
    <path
       style="fill:none;stroke:#ce5d00;stroke-width:0.4298304;stroke-linecap:butt;stroke-linejoin:miter;stroke-miterlimit:4;stroke-dasharray:none;stroke-opacity:1;marker-start:url(#Arrow2Lstart)"
       d="M 31.280465,262.88853 V 245.32887"
       id="path7437-7"
       inkscape:connector-curvature="0" />
    <path
       style="fill:none;stroke:#0087dc;stroke-width:0.4298304;stroke-linecap:butt;stroke-linejoin:miter;stroke-miterlimit:4;stroke-dasharray:none;stroke-opacity:1;marker-end:url(#marker7441-2)"
       d="M 54.840349,286.6209 H 72.39985"
       id="path7437-6"
       inkscape:connector-curvature="0" />
    <path
       style="fill:none;stroke:#ec3900;stroke-width:0.4298304;stroke-linecap:butt;stroke-linejoin:miter;stroke-miterlimit:4;stroke-dasharray:none;stroke-opacity:1;marker-start:url(#marker9187)"
       d="m 54.261135,219.37255 h 17.55951"
       id="path7437-62"
       inkscape:connector-curvature="0" />
    <flowRoot
       xml:space="preserve"
       id="flowRoot10605"
       style="font-style:normal;font-weight:normal;font-size:26.66666794px;line-height:1.25;font-family:sans-serif;letter-spacing:0px;word-spacing:0px;fill:#000000;fill-opacity:1;stroke:none"
       transform="matrix(0.14866139,0,0,0.14866139,14.627861,195.09598)"><flowRegion
         id="flowRegion10607"
         style="font-size:26.66666794px"><rect
           id="rect10609"
           width="465.52393"
           height="151.86603"
           x="553.86426"
           y="508.10754"
           style="font-size:26.66666794px" /></flowRegion><flowPara
         id="flowPara10611"
         style="font-size:28.47634704px">Heizkörper</flowPara></flowRoot>    <path
       style="fill:none;stroke:#000000;stroke-width:0.14889549;stroke-linecap:butt;stroke-linejoin:miter;stroke-miterlimit:4;stroke-dasharray:none;stroke-opacity:1;marker-start:url(#marker10617);marker-end:url(#marker10699)"
       d="m 121.48708,236.44242 v 32.75837"
       id="path10613"
       inkscape:connector-curvature="0" />
    <path
       style="fill:none;stroke:#000000;stroke-width:0.15527436px;stroke-linecap:butt;stroke-linejoin:miter;stroke-opacity:1"
       d="m 105.90753,312.05494 0.92473,0.6165"
       id="path10791"
       inkscape:connector-curvature="0" />
    <flowRoot
       xml:space="preserve"
       id="flowRoot10793"
       style="font-style:normal;font-weight:normal;font-size:32px;line-height:1.25;font-family:sans-serif;letter-spacing:0px;word-spacing:0px;fill:#000000;fill-opacity:1;stroke:none"
       transform="matrix(0.14866139,0,0,0.14866139,18.79038,202.82641)"><flowRegion
         id="flowRegion10795"
         style="font-size:32px"><rect
           id="rect10797"
           width="35.733177"
           height="73.45153"
           x="696.797"
           y="326.46387"
           style="font-size:32px" /></flowRegion><flowPara
         id="flowPara10799"
         style="font-size:28.47634704px">A</flowPara></flowRoot>    <ellipse
       style="fill:#0000ff;stroke:#0087dc;stroke-width:0.14889549;stroke-miterlimit:4;stroke-dasharray:none;stroke-dashoffset:0;stroke-opacity:1"
       id="path10801"
       cx="87.032585"
       cy="265.80472"
       rx="1.9920539"
       ry="2.0658338" />
    <ellipse
       style="fill:#0000ff;stroke:#0087dc;stroke-width:0.14889549;stroke-miterlimit:4;stroke-dasharray:none;stroke-dashoffset:0;stroke-opacity:1"
       id="path10801-1"
       cx="82.089325"
       cy="274.06821"
       rx="1.9920539"
       ry="2.0658338" />
    <ellipse
       style="fill:#0000ff;stroke:#0087dc;stroke-width:0.14889549;stroke-miterlimit:4;stroke-dasharray:none;stroke-dashoffset:0;stroke-opacity:1"
       id="path10801-11"
       cx="76.186844"
       cy="263.44376"
       rx="1.9920539"
       ry="2.0658338" />
    <ellipse
       style="fill:#0000ff;stroke:#0087dc;stroke-width:0.14889549;stroke-miterlimit:4;stroke-dasharray:none;stroke-dashoffset:0;stroke-opacity:1"
       id="path10801-6"
       cx="88.434425"
       cy="272.44501"
       rx="1.9920539"
       ry="2.0658338" />
    <ellipse
       style="fill:#0000ff;stroke:#0087dc;stroke-width:0.14889549;stroke-miterlimit:4;stroke-dasharray:none;stroke-dashoffset:0;stroke-opacity:1"
       id="path10801-0"
       cx="76.334419"
       cy="274.36334"
       rx="1.9920539"
       ry="2.0658338" />
    <ellipse
       style="fill:#0000ff;stroke:#0087dc;stroke-width:0.14889549;stroke-miterlimit:4;stroke-dasharray:none;stroke-dashoffset:0;stroke-opacity:1"
       id="path10801-8"
       cx="80.466156"
       cy="268.01816"
       rx="1.9920539"
       ry="2.0658338" />
    <ellipse
       style="fill:#ff2a2a;stroke:#0087dc;stroke-width:0.14889549;stroke-miterlimit:4;stroke-dasharray:none;stroke-dashoffset:0;stroke-opacity:1"
       id="path10801-3"
       cx="83.712479"
       cy="238.21112"
       rx="1.9920539"
       ry="2.0658338" />
    <ellipse
       style="fill:#ff2a2a;stroke:#0087dc;stroke-width:0.14889549;stroke-miterlimit:4;stroke-dasharray:none;stroke-dashoffset:0;stroke-opacity:1"
       id="path10801-66"
       cx="87.696625"
       cy="233.04663"
       rx="1.9920539"
       ry="2.0658338" />
    <ellipse
       style="fill:#ff2a2a;stroke:#0087dc;stroke-width:0.14889549;stroke-miterlimit:4;stroke-dasharray:none;stroke-dashoffset:0;stroke-opacity:1"
       id="path10801-5"
       cx="90.20517"
       cy="238.65376"
       rx="1.9920539"
       ry="2.0658338" />
    <ellipse
       style="fill:#ff2a2a;stroke:#0087dc;stroke-width:0.14889549;stroke-miterlimit:4;stroke-dasharray:none;stroke-dashoffset:0;stroke-opacity:1"
       id="path10801-2"
       cx="83.712479"
       cy="243.52322"
       rx="1.9920539"
       ry="2.0658338" />
    <ellipse
       style="fill:#ff2a2a;stroke:#0087dc;stroke-width:0.14889549;stroke-miterlimit:4;stroke-dasharray:none;stroke-dashoffset:0;stroke-opacity:1"
       id="path10801-20"
       cx="89.330833"
       cy="244.71025"
       rx="1.9920539"
       ry="2.0658338" />
    <ellipse
       style="fill:#ff2a2a;stroke:#0087dc;stroke-width:0.14889549;stroke-miterlimit:4;stroke-dasharray:none;stroke-dashoffset:0;stroke-opacity:1"
       id="path10801-57"
       cx="77.662453"
       cy="237.76842"
       rx="1.9920539"
       ry="2.0658338" />
    <flowRoot
       xml:space="preserve"
       id="flowRoot10889"
       style="font-style:normal;font-weight:normal;font-size:32px;line-height:1.25;font-family:sans-serif;letter-spacing:0px;word-spacing:0px;fill:#000000;fill-opacity:1;stroke:none"
       transform="matrix(0.14866139,0,0,0.14866139,28.00739,202.23177)"><flowRegion
         id="flowRegion10891"
         style="font-size:32px"><rect
           id="rect10893"
           width="252.11743"
           height="199.51025"
           x="148.88824"
           y="294.70105"
           style="font-size:32px" /></flowRegion><flowPara
         id="flowPara10895"
         style="font-size:28.47634704px">Gas/Fluid - Teilchen</flowPara></flowRoot>    <path
       style="fill:none;stroke:#000000;stroke-width:0.14866139px;stroke-linecap:butt;stroke-linejoin:miter;stroke-opacity:1;marker-end:url(#marker10903)"
       d="M 63.053698,243.67285 76.629113,242.0497"
       id="path10897"
       inkscape:connector-curvature="0" />
    <path
       style="fill:none;stroke:#000000;stroke-width:0.14866139px;stroke-linecap:butt;stroke-linejoin:miter;stroke-opacity:1;marker-end:url(#marker10997)"
       d="m 61.725671,259.16668 10.771796,9.14874"
       id="path10899"
       inkscape:connector-curvature="0" />
    <flowRoot
       xml:space="preserve"
       id="flowRoot11095"
       style="font-style:normal;font-weight:normal;font-size:48px;line-height:1.25;font-family:sans-serif;letter-spacing:0px;word-spacing:0px;fill:#000000;fill-opacity:1;stroke:none"
       transform="matrix(0.26458333,0,0,0.26458333,-4.7625002,-1.0583333)"><flowRegion
         id="flowRegion11097"
         style="font-size:48px"><rect
           id="rect11099"
           width="72.458946"
           height="93.303299"
           x="573.716"
           y="341.35269"
           style="font-size:48px" /></flowRegion><flowPara
         id="flowPara11101"
         style="font-size:16px" /></flowRoot>    <flowRoot
       xml:space="preserve"
       id="flowRoot11103"
       style="font-style:normal;font-weight:normal;font-size:40px;line-height:1.25;font-family:sans-serif;letter-spacing:0px;word-spacing:0px;fill:#000000;fill-opacity:1;stroke:none"
       transform="matrix(0.14866139,0,0,0.14866139,30.385974,207.88093)"><flowRegion
         id="flowRegion11105"><rect
           id="rect11107"
           width="89.332947"
           height="100.25142"
           x="239.21378"
           y="443.58929" /></flowRegion><flowPara
         id="flowPara11109"
         style="font-size:28.47634697px">T<flowSpan
   style="font-size:65%;baseline-shift:sub"
   id="flowSpan1080">m</flowSpan></flowPara></flowRoot>    <flowRoot
       xml:space="preserve"
       id="flowRoot11103-4"
       style="font-style:normal;font-weight:normal;font-size:40px;line-height:1.25;font-family:sans-serif;letter-spacing:0px;word-spacing:0px;fill:#000000;fill-opacity:1;stroke:none"
       transform="matrix(0.14866139,0,0,0.14866139,28.432635,159.26419)"><flowRegion
         id="flowRegion11105-2"><rect
           id="rect11107-5"
           width="168.74001"
           height="162.7845"
           x="239.21378"
           y="443.58929" /></flowRegion><flowPara
         id="flowPara11109-7"><flowSpan
   style="font-size:28.47634697px"
   id="flowSpan1066">T<flowSpan
   style="font-size:65%;baseline-shift:sub"
   id="flowSpan1078">m</flowSpan> + ΔT</flowSpan> </flowPara></flowRoot>    <text
       xml:space="preserve"
       style="font-style:normal;font-weight:normal;font-size:4.23333311px;line-height:1.25;font-family:sans-serif;letter-spacing:0px;word-spacing:0px;fill:#000000;fill-opacity:1;stroke:none;stroke-width:0.26458332"
       x="101.1792"
       y="255.10278"
       id="text1076"><tspan
         sodipodi:role="line"
         id="tspan1074"
         x="101.1792"
         y="255.10278"
         style="font-size:4.23333311px;stroke-width:0.26458332">T</tspan></text>
  </g>
</svg>
