<?xml version="1.0" encoding="UTF-8" standalone="no"?>
<!-- Created with Inkscape (http://www.inkscape.org/) -->

<svg
   xmlns:dc="http://purl.org/dc/elements/1.1/"
   xmlns:cc="http://creativecommons.org/ns#"
   xmlns:rdf="http://www.w3.org/1999/02/22-rdf-syntax-ns#"
   xmlns:svg="http://www.w3.org/2000/svg"
   xmlns="http://www.w3.org/2000/svg"
   xmlns:sodipodi="http://sodipodi.sourceforge.net/DTD/sodipodi-0.dtd"
   xmlns:inkscape="http://www.inkscape.org/namespaces/inkscape"
   width="150mm"
   height="80mm"
   viewBox="0 0 150 80"
   version="1.1"
   id="svg8"
   inkscape:export-filename="C:\Users\peus\Desktop\git_BA\thesis\tex2\figures_thesis\aufbau_bleche.png"
   inkscape:export-xdpi="96"
   inkscape:export-ydpi="96"
   inkscape:version="0.92.3 (2405546, 2018-03-11)"
   sodipodi:docname="Messaufbau_Bleche.svg">
  <defs
     id="defs2" />
  <sodipodi:namedview
     id="base"
     pagecolor="#ffffff"
     bordercolor="#666666"
     borderopacity="1.0"
     inkscape:pageopacity="0.0"
     inkscape:pageshadow="2"
     inkscape:zoom="0.71"
     inkscape:cx="407.97417"
     inkscape:cy="390.98592"
     inkscape:document-units="mm"
     inkscape:current-layer="layer1"
     showgrid="false"
     inkscape:window-width="1800"
     inkscape:window-height="1106"
     inkscape:window-x="-11"
     inkscape:window-y="-11"
     inkscape:window-maximized="1" />
  <metadata
     id="metadata5">
    <rdf:RDF>
      <cc:Work
         rdf:about="">
        <dc:format>image/svg+xml</dc:format>
        <dc:type
           rdf:resource="http://purl.org/dc/dcmitype/StillImage" />
        <dc:title></dc:title>
      </cc:Work>
    </rdf:RDF>
  </metadata>
  <g
     inkscape:label="Ebene 1"
     inkscape:groupmode="layer"
     id="layer1"
     transform="translate(0,-217)">
    <rect
       style="opacity:1;fill:#b3b3b3;fill-opacity:1;stroke:#040404;stroke-width:0.35701773;stroke-linecap:round;stroke-linejoin:round;stroke-miterlimit:4;stroke-dasharray:none;stroke-dashoffset:0;stroke-opacity:1"
       id="rect914"
       width="148.2021"
       height="24.545219"
       x="1.0567003"
       y="233.41853"
       ry="0.11625623" />
    <ellipse
       style="opacity:1;fill:#00ff00;fill-opacity:1;stroke:#040404;stroke-width:0.49167112;stroke-linecap:round;stroke-linejoin:round;stroke-miterlimit:4;stroke-dasharray:none;stroke-dashoffset:0;stroke-opacity:1"
       id="path815"
       cx="13.421434"
       cy="233.36185"
       rx="12.32293"
       ry="11.674354" />
    <ellipse
       style="opacity:1;fill:#00ff00;fill-opacity:1;stroke:#040404;stroke-width:0.49167114;stroke-linecap:round;stroke-linejoin:round;stroke-miterlimit:4;stroke-dasharray:none;stroke-dashoffset:0;stroke-opacity:1"
       id="path815-5"
       cx="13.525215"
       cy="256.93768"
       rx="12.32293"
       ry="11.674354" />
    <ellipse
       style="opacity:1;fill:#00ff00;fill-opacity:1;stroke:#040404;stroke-width:0.49167114;stroke-linecap:round;stroke-linejoin:round;stroke-miterlimit:4;stroke-dasharray:none;stroke-dashoffset:0;stroke-opacity:1"
       id="path815-7"
       cx="13.421443"
       cy="280.50821"
       rx="12.32293"
       ry="11.674354" />
    <ellipse
       style="opacity:1;fill:#00ff00;fill-opacity:1;stroke:#040404;stroke-width:0.49167114;stroke-linecap:round;stroke-linejoin:round;stroke-miterlimit:4;stroke-dasharray:none;stroke-dashoffset:0;stroke-opacity:1"
       id="path815-78"
       cx="38.021961"
       cy="233.40352"
       rx="12.32293"
       ry="11.674354" />
    <ellipse
       style="opacity:1;fill:#00ff00;fill-opacity:1;stroke:#040404;stroke-width:0.49167114;stroke-linecap:round;stroke-linejoin:round;stroke-miterlimit:4;stroke-dasharray:none;stroke-dashoffset:0;stroke-opacity:1"
       id="path815-5-1"
       cx="38.125717"
       cy="256.97934"
       rx="12.32293"
       ry="11.674354" />
    <ellipse
       style="opacity:1;fill:#00ff00;fill-opacity:1;stroke:#040404;stroke-width:0.49167114;stroke-linecap:round;stroke-linejoin:round;stroke-miterlimit:4;stroke-dasharray:none;stroke-dashoffset:0;stroke-opacity:1"
       id="path815-7-0"
       cx="38.021961"
       cy="280.54984"
       rx="12.32293"
       ry="11.674354" />
    <ellipse
       style="opacity:1;fill:#00ff00;fill-opacity:1;stroke:#040404;stroke-width:0.49167114;stroke-linecap:round;stroke-linejoin:round;stroke-miterlimit:4;stroke-dasharray:none;stroke-dashoffset:0;stroke-opacity:1"
       id="path815-75"
       cx="62.736164"
       cy="233.60349"
       rx="12.32293"
       ry="11.674354" />
    <ellipse
       style="opacity:1;fill:#ff0000;fill-opacity:1;stroke:#040404;stroke-width:0.49167114;stroke-linecap:round;stroke-linejoin:round;stroke-miterlimit:4;stroke-dasharray:none;stroke-dashoffset:0;stroke-opacity:1"
       id="path815-5-3"
       cx="62.839939"
       cy="257.17929"
       rx="12.32293"
       ry="11.674354" />
    <ellipse
       style="opacity:1;fill:#00ff00;fill-opacity:1;stroke:#040404;stroke-width:0.49167114;stroke-linecap:round;stroke-linejoin:round;stroke-miterlimit:4;stroke-dasharray:none;stroke-dashoffset:0;stroke-opacity:1"
       id="path815-7-1"
       cx="62.736164"
       cy="280.74982"
       rx="12.32293"
       ry="11.674354" />
    <ellipse
       style="opacity:1;fill:#00ff00;fill-opacity:1;stroke:#040404;stroke-width:0.49167114;stroke-linecap:round;stroke-linejoin:round;stroke-miterlimit:4;stroke-dasharray:none;stroke-dashoffset:0;stroke-opacity:1"
       id="path815-78-8"
       cx="87.336685"
       cy="233.64516"
       rx="12.32293"
       ry="11.674354" />
    <ellipse
       style="opacity:1;fill:#00ff00;fill-opacity:1;stroke:#040404;stroke-width:0.49167114;stroke-linecap:round;stroke-linejoin:round;stroke-miterlimit:4;stroke-dasharray:none;stroke-dashoffset:0;stroke-opacity:1"
       id="path815-5-1-7"
       cx="87.440437"
       cy="257.22098"
       rx="12.32293"
       ry="11.674354" />
    <ellipse
       style="opacity:1;fill:#00ff00;fill-opacity:1;stroke:#040404;stroke-width:0.49167114;stroke-linecap:round;stroke-linejoin:round;stroke-miterlimit:4;stroke-dasharray:none;stroke-dashoffset:0;stroke-opacity:1"
       id="path815-7-0-2"
       cx="87.336685"
       cy="280.79147"
       rx="12.32293"
       ry="11.674354" />
    <ellipse
       style="opacity:1;fill:#00ff00;fill-opacity:1;stroke:#040404;stroke-width:0.49167114;stroke-linecap:round;stroke-linejoin:round;stroke-miterlimit:4;stroke-dasharray:none;stroke-dashoffset:0;stroke-opacity:1"
       id="path815-2"
       cx="112.02097"
       cy="233.81046"
       rx="12.32293"
       ry="11.674354" />
    <ellipse
       style="opacity:1;fill:#00ff00;fill-opacity:1;stroke:#040404;stroke-width:0.49167114;stroke-linecap:round;stroke-linejoin:round;stroke-miterlimit:4;stroke-dasharray:none;stroke-dashoffset:0;stroke-opacity:1"
       id="path815-5-8"
       cx="112.12473"
       cy="257.38629"
       rx="12.32293"
       ry="11.674354" />
    <ellipse
       style="opacity:1;fill:#00ff00;fill-opacity:1;stroke:#040404;stroke-width:0.49167114;stroke-linecap:round;stroke-linejoin:round;stroke-miterlimit:4;stroke-dasharray:none;stroke-dashoffset:0;stroke-opacity:1"
       id="path815-7-07"
       cx="112.02097"
       cy="280.95682"
       rx="12.32293"
       ry="11.674354" />
    <ellipse
       style="opacity:1;fill:#00ff00;fill-opacity:1;stroke:#040404;stroke-width:0.49167114;stroke-linecap:round;stroke-linejoin:round;stroke-miterlimit:4;stroke-dasharray:none;stroke-dashoffset:0;stroke-opacity:1"
       id="path815-78-6"
       cx="136.62148"
       cy="233.85211"
       rx="12.32293"
       ry="11.674354" />
    <ellipse
       style="opacity:1;fill:#00ff00;fill-opacity:1;stroke:#040404;stroke-width:0.49167114;stroke-linecap:round;stroke-linejoin:round;stroke-miterlimit:4;stroke-dasharray:none;stroke-dashoffset:0;stroke-opacity:1"
       id="path815-5-1-0"
       cx="136.72523"
       cy="257.42792"
       rx="12.32293"
       ry="11.674354" />
    <ellipse
       style="opacity:1;fill:#00ff00;fill-opacity:1;stroke:#040404;stroke-width:0.49167114;stroke-linecap:round;stroke-linejoin:round;stroke-miterlimit:4;stroke-dasharray:none;stroke-dashoffset:0;stroke-opacity:1"
       id="path815-7-0-4"
       cx="136.62148"
       cy="280.99844"
       rx="12.32293"
       ry="11.674354" />
    <ellipse
       style="opacity:1;fill:#ffff00;fill-opacity:1;stroke:#040404;stroke-width:0.49167106;stroke-linecap:round;stroke-linejoin:round;stroke-miterlimit:4;stroke-dasharray:none;stroke-dashoffset:0;stroke-opacity:1"
       id="path971"
       cx="124.35375"
       cy="268.94922"
       rx="3.7293079"
       ry="3.5671637" />
    <ellipse
       style="opacity:1;fill:#ffff00;fill-opacity:1;stroke:#040404;stroke-width:0.49167112;stroke-linecap:round;stroke-linejoin:round;stroke-miterlimit:4;stroke-dasharray:none;stroke-dashoffset:0;stroke-opacity:1"
       id="path971-8"
       cx="74.79245"
       cy="268.90677"
       rx="3.7293079"
       ry="3.5671637" />
    <ellipse
       style="opacity:1;fill:#ffff00;fill-opacity:1;stroke:#040404;stroke-width:0.49167112;stroke-linecap:round;stroke-linejoin:round;stroke-miterlimit:4;stroke-dasharray:none;stroke-dashoffset:0;stroke-opacity:1"
       id="path971-2"
       cx="25.429552"
       cy="268.70923"
       rx="3.7293079"
       ry="3.5671637" />
    <ellipse
       style="opacity:1;fill:#ffff00;fill-opacity:1;stroke:#040404;stroke-width:0.49167112;stroke-linecap:round;stroke-linejoin:round;stroke-miterlimit:4;stroke-dasharray:none;stroke-dashoffset:0;stroke-opacity:1"
       id="path971-5"
       cx="25.504408"
       cy="245.16295"
       rx="3.7293079"
       ry="3.5671637" />
    <ellipse
       style="opacity:1;fill:#ffff00;fill-opacity:1;stroke:#040404;stroke-width:0.49167112;stroke-linecap:round;stroke-linejoin:round;stroke-miterlimit:4;stroke-dasharray:none;stroke-dashoffset:0;stroke-opacity:1"
       id="path971-7"
       cx="74.848"
       cy="245.4967"
       rx="3.7293079"
       ry="3.5671637" />
    <ellipse
       style="opacity:1;fill:#ffff00;fill-opacity:1;stroke:#040404;stroke-width:0.49167112;stroke-linecap:round;stroke-linejoin:round;stroke-miterlimit:4;stroke-dasharray:none;stroke-dashoffset:0;stroke-opacity:1"
       id="path971-3"
       cx="124.12576"
       cy="245.4967"
       rx="3.7293079"
       ry="3.5671637" />
    <text
       xml:space="preserve"
       style="font-style:normal;font-variant:normal;font-weight:bold;font-stretch:normal;font-size:4.29789162px;line-height:1.25;font-family:Arial;-inkscape-font-specification:'Arial Bold';letter-spacing:0px;word-spacing:0px;fill:#000000;fill-opacity:1;stroke:none;stroke-width:0.2302442"
       x="122.89448"
       y="270.68735"
       id="text1014"><tspan
         sodipodi:role="line"
         id="tspan1012"
         x="122.89448"
         y="270.68735"
         style="stroke-width:0.2302442">1</tspan></text>
    <text
       xml:space="preserve"
       style="font-style:normal;font-variant:normal;font-weight:bold;font-stretch:normal;font-size:4.29789162px;line-height:1.25;font-family:Arial;-inkscape-font-specification:'Arial Bold';letter-spacing:0px;word-spacing:0px;fill:#000000;fill-opacity:1;stroke:none;stroke-width:0.2302442"
       x="73.558716"
       y="270.23935"
       id="text1018"><tspan
         sodipodi:role="line"
         id="tspan1016"
         x="73.558716"
         y="270.23935"
         style="stroke-width:0.2302442">2</tspan></text>
    <text
       xml:space="preserve"
       style="font-style:normal;font-variant:normal;font-weight:bold;font-stretch:normal;font-size:4.29789162px;line-height:1.25;font-family:Arial;-inkscape-font-specification:'Arial Bold';letter-spacing:0px;word-spacing:0px;fill:#000000;fill-opacity:1;stroke:none;stroke-width:0.2302442"
       x="24.211229"
       y="270.12543"
       id="text1022"><tspan
         sodipodi:role="line"
         id="tspan1020"
         x="24.211229"
         y="270.12543"
         style="stroke-width:0.2302442">3</tspan></text>
    <text
       xml:space="preserve"
       style="font-style:normal;font-variant:normal;font-weight:bold;font-stretch:normal;font-size:4.29789162px;line-height:1.25;font-family:Arial;-inkscape-font-specification:'Arial Bold';letter-spacing:0px;word-spacing:0px;fill:#000000;fill-opacity:1;stroke:none;stroke-width:0.2302442"
       x="24.31019"
       y="246.43608"
       id="text1026"><tspan
         sodipodi:role="line"
         id="tspan1024"
         x="24.31019"
         y="246.43608"
         style="stroke-width:0.2302442">4</tspan></text>
    <text
       xml:space="preserve"
       style="font-style:normal;font-variant:normal;font-weight:bold;font-stretch:normal;font-size:4.29789162px;line-height:1.25;font-family:Arial;-inkscape-font-specification:'Arial Bold';letter-spacing:0px;word-spacing:0px;fill:#000000;fill-opacity:1;stroke:none;stroke-width:0.2302442"
       x="73.550858"
       y="246.73067"
       id="text1030"><tspan
         sodipodi:role="line"
         id="tspan1028"
         x="73.550858"
         y="246.73067"
         style="stroke-width:0.2302442">5</tspan></text>
    <text
       xml:space="preserve"
       style="font-style:normal;font-variant:normal;font-weight:bold;font-stretch:normal;font-size:4.29789162px;line-height:1.25;font-family:Arial;-inkscape-font-specification:'Arial Bold';letter-spacing:0px;word-spacing:0px;fill:#000000;fill-opacity:1;stroke:none;stroke-width:0.2302442"
       x="122.85218"
       y="246.90472"
       id="text1034"><tspan
         sodipodi:role="line"
         id="tspan1032"
         x="122.85218"
         y="246.90472"
         style="stroke-width:0.2302442">6</tspan></text>
  </g>
</svg>
