<?xml version="1.0" encoding="UTF-8" standalone="no"?>
<!-- Created with Inkscape (http://www.inkscape.org/) -->

<svg
   xmlns:dc="http://purl.org/dc/elements/1.1/"
   xmlns:cc="http://creativecommons.org/ns#"
   xmlns:rdf="http://www.w3.org/1999/02/22-rdf-syntax-ns#"
   xmlns:svg="http://www.w3.org/2000/svg"
   xmlns="http://www.w3.org/2000/svg"
   xmlns:sodipodi="http://sodipodi.sourceforge.net/DTD/sodipodi-0.dtd"
   xmlns:inkscape="http://www.inkscape.org/namespaces/inkscape"
   width="150mm"
   height="40mm"
   viewBox="0 0 150 40"
   version="1.1"
   id="svg8850"
   inkscape:version="0.92.3 (2405546, 2018-03-11)"
   sodipodi:docname="wärmel1.svg">
  <defs
     id="defs8844">
    <marker
       inkscape:stockid="Arrow2Lend"
       orient="auto"
       refY="0.0"
       refX="0.0"
       id="marker9885"
       style="overflow:visible;"
       inkscape:isstock="true">
      <path
         id="path9883"
         style="fill-rule:evenodd;stroke-width:0.625;stroke-linejoin:round;stroke:#fa0000;stroke-opacity:1;fill:#ff0000;fill-opacity:1"
         d="M 8.7185878,4.0337352 L -2.2072895,0.016013256 L 8.7185884,-4.0017078 C 6.9730900,-1.6296469 6.9831476,1.6157441 8.7185878,4.0337352 z "
         transform="scale(1.1) rotate(180) translate(1,0)" />
    </marker>
    <marker
       inkscape:stockid="Arrow2Lend"
       orient="auto"
       refY="0.0"
       refX="0.0"
       id="Arrow2Lend"
       style="overflow:visible;"
       inkscape:isstock="true">
      <path
         id="path6605"
         style="fill-rule:evenodd;stroke-width:0.625;stroke-linejoin:round;stroke:#000000;stroke-opacity:1;fill:#000000;fill-opacity:1"
         d="M 8.7185878,4.0337352 L -2.2072895,0.016013256 L 8.7185884,-4.0017078 C 6.9730900,-1.6296469 6.9831476,1.6157441 8.7185878,4.0337352 z "
         transform="scale(1.1) rotate(180) translate(1,0)" />
    </marker>
    <marker
       inkscape:stockid="Arrow2Lstart"
       orient="auto"
       refY="0.0"
       refX="0.0"
       id="Arrow2Lstart"
       style="overflow:visible"
       inkscape:isstock="true">
      <path
         id="path6602"
         style="fill-rule:evenodd;stroke-width:0.625;stroke-linejoin:round;stroke:#000000;stroke-opacity:1;fill:#000000;fill-opacity:1"
         d="M 8.7185878,4.0337352 L -2.2072895,0.016013256 L 8.7185884,-4.0017078 C 6.9730900,-1.6296469 6.9831476,1.6157441 8.7185878,4.0337352 z "
         transform="scale(1.1) translate(1,0)" />
    </marker>
    <inkscape:perspective
       sodipodi:type="inkscape:persp3d"
       inkscape:vp_x="163.0101 : 14.261535 : 0"
       inkscape:vp_y="573.79862 : 2609.7857 : 0"
       inkscape:vp_z="148.54218 : -68.636121 : 0"
       inkscape:persp3d-origin="85.531944 : -28.347412 : 1"
       id="perspective9443" />
  </defs>
  <sodipodi:namedview
     id="base"
     pagecolor="#ffffff"
     bordercolor="#666666"
     borderopacity="1.0"
     inkscape:pageopacity="0.0"
     inkscape:pageshadow="2"
     inkscape:zoom="1.08"
     inkscape:cx="238.86494"
     inkscape:cy="95.588995"
     inkscape:document-units="mm"
     inkscape:current-layer="layer1"
     showgrid="false"
     width="150mm"
     inkscape:window-width="1280"
     inkscape:window-height="961"
     inkscape:window-x="1672"
     inkscape:window-y="13"
     inkscape:window-maximized="1" />
  <metadata
     id="metadata8847">
    <rdf:RDF>
      <cc:Work
         rdf:about="">
        <dc:format>image/svg+xml</dc:format>
        <dc:type
           rdf:resource="http://purl.org/dc/dcmitype/StillImage" />
        <dc:title></dc:title>
      </cc:Work>
    </rdf:RDF>
  </metadata>
  <g
     inkscape:label="Ebene 1"
     inkscape:groupmode="layer"
     id="layer1"
     transform="translate(0,-257)">
    <g
       sodipodi:type="inkscape:box3d"
       id="g9627"
       style="opacity:1;fill:#ff0000;fill-opacity:1;stroke:#201a1b;stroke-width:0.30199999;stroke-linecap:round;stroke-linejoin:round;stroke-miterlimit:4;stroke-dasharray:none;stroke-dashoffset:0;stroke-opacity:1"
       inkscape:perspectiveID="#perspective9443"
       inkscape:corner0="-0.071107817 : 0.024508442 : 0 : 1"
       inkscape:corner7="-0.44798021 : 0.023329199 : 0.25 : 1">
      <path
         sodipodi:type="inkscape:box3dside"
         id="path9629"
         style="fill:#353564;fill-rule:evenodd;stroke:#201a1b;stroke-width:0.30199999;stroke-linejoin:round;stroke-miterlimit:4;stroke-dasharray:none;stroke-opacity:1"
         inkscape:box3dsidetype="6"
         d="m 88.003563,262.39974 -0.676649,3.07757 37.135546,17.15903 0.67665,-3.07757 z"
         points="87.326914,265.47731 124.46246,282.63634 125.13911,279.55877 88.003563,262.39974 " />
      <path
         sodipodi:type="inkscape:box3dside"
         id="path9637"
         style="fill:#afafde;fill-rule:evenodd;stroke:#201a1b;stroke-width:0.30199999;stroke-linejoin:round;stroke-miterlimit:4;stroke-dasharray:none;stroke-opacity:1"
         inkscape:box3dsidetype="13"
         d="m 87.326914,265.47731 -61.434006,5.37478 37.135545,17.15903 61.434007,-5.37478 z"
         points="25.892908,270.85209 63.028453,288.01112 124.46246,282.63634 87.326914,265.47731 " />
      <path
         sodipodi:type="inkscape:box3dside"
         id="path9633"
         style="fill:#8686bf;fill-rule:evenodd;stroke:#201a1b;stroke-width:0.30199999;stroke-linejoin:round;stroke-miterlimit:4;stroke-dasharray:none;stroke-opacity:1"
         inkscape:box3dsidetype="3"
         d="m 88.003563,262.39974 -61.434007,5.37478 -0.676648,3.07757 61.434006,-5.37478 z"
         points="26.569556,267.77452 25.892908,270.85209 87.326914,265.47731 88.003563,262.39974 " />
      <path
         sodipodi:type="inkscape:box3dside"
         id="path9639"
         style="fill:#e9e9ff;fill-rule:evenodd;stroke:#201a1b;stroke-width:0.30199999;stroke-linejoin:round;stroke-miterlimit:4;stroke-dasharray:none;stroke-opacity:1"
         inkscape:box3dsidetype="11"
         d="m 125.13911,279.55877 -61.434009,5.37478 -0.676648,3.07757 61.434007,-5.37478 z"
         points="63.705101,284.93355 63.028453,288.01112 124.46246,282.63634 125.13911,279.55877 " />
      <path
         sodipodi:type="inkscape:box3dside"
         id="path9631"
         style="fill:#4d4d9f;fill-rule:evenodd;stroke:#201a1b;stroke-width:0.30199999;stroke-linejoin:round;stroke-miterlimit:4;stroke-dasharray:none;stroke-opacity:1"
         inkscape:box3dsidetype="5"
         d="m 88.003563,262.39974 -61.434007,5.37478 37.135545,17.15903 61.434009,-5.37478 z"
         points="26.569556,267.77452 63.705101,284.93355 125.13911,279.55877 88.003563,262.39974 " />
      <path
         sodipodi:type="inkscape:box3dside"
         id="path9635"
         style="fill:#808000;fill-rule:evenodd;stroke:#201a1b;stroke-width:0.30199999;stroke-linejoin:round;stroke-miterlimit:4;stroke-dasharray:none;stroke-opacity:1"
         inkscape:box3dsidetype="14"
         d="m 26.569556,267.77452 -0.676648,3.07757 37.135545,17.15903 0.676648,-3.07757 z"
         points="25.892908,270.85209 63.028453,288.01112 63.705101,284.93355 26.569556,267.77452 " />
    </g>
    <path
       style="fill:none;stroke:#000000;stroke-width:0.26458332px;stroke-linecap:butt;stroke-linejoin:miter;stroke-opacity:1;marker-start:url(#Arrow2Lstart);marker-end:url(#Arrow2Lend)"
       d="m 63.557618,292.77365 61.434012,-5.37478"
       id="path9655"
       inkscape:connector-curvature="0" />
    <flowRoot
       xml:space="preserve"
       id="flowRoot9865"
       style="font-style:normal;font-variant:normal;font-weight:bold;font-stretch:normal;font-size:18.66666603px;line-height:1.25;font-family:Arial;-inkscape-font-specification:'Arial Bold';letter-spacing:0px;word-spacing:0px;fill:#000000;fill-opacity:1;stroke:none"
       transform="matrix(0.26458333,0,0,0.26458333,0,257)"><flowRegion
         id="flowRegion9867"><rect
           id="rect9869"
           width="68.518517"
           height="21.296297"
           x="355.55554"
           y="126.18111" /></flowRegion><flowPara
         id="flowPara9871"
         style="-inkscape-font-specification:'Lucida Calligraphy Bold';font-family:'Lucida Calligraphy';font-weight:bold;font-style:normal;font-stretch:normal;font-variant:normal">l</flowPara></flowRoot>    <text
       xml:space="preserve"
       style="font-style:normal;font-variant:normal;font-weight:bold;font-stretch:normal;font-size:4.93888855px;line-height:1.25;font-family:Arial;-inkscape-font-specification:'Arial Bold';letter-spacing:0px;word-spacing:0px;fill:#000000;fill-opacity:1;stroke:none;stroke-width:0.26458332"
       x="96.073151"
       y="294.38358"
       id="text9875"><tspan
         sodipodi:role="line"
         id="tspan9873"
         x="96.073151"
         y="294.38358"
         style="font-style:normal;font-variant:normal;font-weight:bold;font-stretch:normal;font-family:'Lucida Calligraphy';-inkscape-font-specification:'Lucida Calligraphy Bold';stroke-width:0.26458332">ℓ</tspan></text>
    <text
       xml:space="preserve"
       style="font-style:normal;font-variant:normal;font-weight:bold;font-stretch:normal;font-size:4.93888855px;line-height:1.25;font-family:Arial;-inkscape-font-specification:'Arial Bold';letter-spacing:0px;word-spacing:0px;fill:#808000;fill-opacity:1;stroke:none;stroke-width:0.26458332;"
       x="36.7085"
       y="282.3891"
       id="text9879"><tspan
         sodipodi:role="line"
         id="tspan9877"
         x="36.7085"
         y="282.3891"
         style="font-style:normal;font-variant:normal;font-weight:bold;font-stretch:normal;font-family:Arial;-inkscape-font-specification:'Arial Bold';stroke-width:0.26458332;fill:#808000;">A</tspan></text>
    <path
       style="fill:#ff0000;stroke:#fa0000;stroke-width:0.26458332px;stroke-linecap:butt;stroke-linejoin:miter;stroke-opacity:1;marker-end:url(#marker9885)"
       d="m 46.057097,276.4213 60.756173,-5.63465"
       id="path9881"
       inkscape:connector-curvature="0" />
    <flowRoot
       xml:space="preserve"
       id="flowRoot9935"
       style="font-style:normal;font-variant:normal;font-weight:bold;font-stretch:normal;font-size:18.66666603px;line-height:1.25;font-family:Arial;-inkscape-font-specification:'Arial Bold';letter-spacing:0px;word-spacing:0px;fill:#ff0000;fill-opacity:1;stroke:none;"
       transform="matrix(0.26458333,0,0,0.26458333,6.5361888,258.18572)"><flowRegion
         id="flowRegion9937"
         style="fill:#ff0000;"><rect
           id="rect9939"
           width="49.074074"
           height="42.592594"
           x="245.37038"
           y="35.440365"
           style="fill:#ff0000;" /></flowRegion><flowPara
         id="flowPara9941">Q</flowPara></flowRoot>    <text
       xml:space="preserve"
       style="font-style:normal;font-variant:normal;font-weight:bold;font-stretch:normal;font-size:4.93888855px;line-height:1.25;font-family:Arial;-inkscape-font-specification:'Arial Bold';letter-spacing:0px;word-spacing:0px;fill:#ff0000;fill-opacity:1;stroke:none;stroke-width:0.26458332;"
       x="72.68203"
       y="268.05261"
       id="text9945"><tspan
         sodipodi:role="line"
         id="tspan9943"
         x="72.68203"
         y="268.05261"
         style="stroke-width:0.26458332;fill:#ff0000;">.</tspan></text>
  </g>
</svg>
