<?xml version="1.0" encoding="UTF-8" standalone="no"?>
<!-- Created with Inkscape (http://www.inkscape.org/) -->

<svg
   xmlns:dc="http://purl.org/dc/elements/1.1/"
   xmlns:cc="http://creativecommons.org/ns#"
   xmlns:rdf="http://www.w3.org/1999/02/22-rdf-syntax-ns#"
   xmlns:svg="http://www.w3.org/2000/svg"
   xmlns="http://www.w3.org/2000/svg"
   xmlns:sodipodi="http://sodipodi.sourceforge.net/DTD/sodipodi-0.dtd"
   xmlns:inkscape="http://www.inkscape.org/namespaces/inkscape"
   width="150mm"
   height="90mm"
   viewBox="0 0 150 90"
   version="1.1"
   id="svg8"
   inkscape:version="0.92.3 (2405546, 2018-03-11)"
   sodipodi:docname="ZeichnungBMS.svg">
  <defs
     id="defs2">
    <marker
       inkscape:stockid="Tail"
       orient="auto"
       refY="0"
       refX="0"
       id="Tail"
       style="overflow:visible"
       inkscape:isstock="true">
      <g
         id="g1122"
         transform="scale(-1.2)"
         style="fill:#000000;fill-opacity:1;stroke:#000000;stroke-opacity:1">
        <path
           id="path1110"
           d="M -3.8048674,-3.9585227 0.54352094,0"
           style="fill:#000000;fill-opacity:1;fill-rule:evenodd;stroke:#000000;stroke-width:0.80000001;stroke-linecap:round;stroke-opacity:1"
           inkscape:connector-curvature="0" />
        <path
           id="path1112"
           d="M -1.2866832,-3.9585227 3.0617053,0"
           style="fill:#000000;fill-opacity:1;fill-rule:evenodd;stroke:#000000;stroke-width:0.80000001;stroke-linecap:round;stroke-opacity:1"
           inkscape:connector-curvature="0" />
        <path
           id="path1114"
           d="M 1.3053582,-3.9585227 5.6537466,0"
           style="fill:#000000;fill-opacity:1;fill-rule:evenodd;stroke:#000000;stroke-width:0.80000001;stroke-linecap:round;stroke-opacity:1"
           inkscape:connector-curvature="0" />
        <path
           id="path1116"
           d="M -3.8048674,4.1775838 0.54352094,0.21974226"
           style="fill:#000000;fill-opacity:1;fill-rule:evenodd;stroke:#000000;stroke-width:0.80000001;stroke-linecap:round;stroke-opacity:1"
           inkscape:connector-curvature="0" />
        <path
           id="path1118"
           d="M -1.2866832,4.1775838 3.0617053,0.21974226"
           style="fill:#000000;fill-opacity:1;fill-rule:evenodd;stroke:#000000;stroke-width:0.80000001;stroke-linecap:round;stroke-opacity:1"
           inkscape:connector-curvature="0" />
        <path
           id="path1120"
           d="M 1.3053582,4.1775838 5.6537466,0.21974226"
           style="fill:#000000;fill-opacity:1;fill-rule:evenodd;stroke:#000000;stroke-width:0.80000001;stroke-linecap:round;stroke-opacity:1"
           inkscape:connector-curvature="0" />
      </g>
    </marker>
    <marker
       inkscape:stockid="Arrow1Sstart"
       orient="auto"
       refY="0"
       refX="0"
       id="Arrow1Sstart"
       style="overflow:visible"
       inkscape:isstock="true">
      <path
         id="path1086"
         d="M 0,0 5,-5 -12.5,0 5,5 Z"
         style="fill:#000000;fill-opacity:1;fill-rule:evenodd;stroke:#000000;stroke-width:1.00000003pt;stroke-opacity:1"
         transform="matrix(0.2,0,0,0.2,1.2,0)"
         inkscape:connector-curvature="0" />
    </marker>
    <marker
       inkscape:stockid="Arrow1Mend"
       orient="auto"
       refY="0"
       refX="0"
       id="Arrow1Mend"
       style="overflow:visible"
       inkscape:isstock="true">
      <path
         id="path1083"
         d="M 0,0 5,-5 -12.5,0 5,5 Z"
         style="fill:#000000;fill-opacity:1;fill-rule:evenodd;stroke:#000000;stroke-width:1.00000003pt;stroke-opacity:1"
         transform="matrix(-0.4,0,0,-0.4,-4,0)"
         inkscape:connector-curvature="0" />
    </marker>
    <marker
       inkscape:stockid="DotL"
       orient="auto"
       refY="0"
       refX="0"
       id="DotL"
       style="overflow:visible"
       inkscape:isstock="true">
      <path
         id="path1135"
         d="m -2.5,-1 c 0,2.76 -2.24,5 -5,5 -2.76,0 -5,-2.24 -5,-5 0,-2.76 2.24,-5 5,-5 2.76,0 5,2.24 5,5 z"
         style="fill:#000000;fill-opacity:1;fill-rule:evenodd;stroke:#000000;stroke-width:1.00000003pt;stroke-opacity:1"
         transform="matrix(0.8,0,0,0.8,5.92,0.8)"
         inkscape:connector-curvature="0" />
    </marker>
    <marker
       inkscape:stockid="Tail"
       orient="auto"
       refY="0"
       refX="0"
       id="Tail-0"
       style="overflow:visible"
       inkscape:isstock="true">
      <g
         id="g1122-6"
         transform="scale(-1.2)"
         style="fill:#000000;fill-opacity:1;stroke:#000000;stroke-opacity:1">
        <path
           inkscape:connector-curvature="0"
           id="path1110-4"
           d="M -3.8048674,-3.9585227 0.54352094,0"
           style="fill:#000000;fill-opacity:1;fill-rule:evenodd;stroke:#000000;stroke-width:0.80000001;stroke-linecap:round;stroke-opacity:1" />
        <path
           inkscape:connector-curvature="0"
           id="path1112-2"
           d="M -1.2866832,-3.9585227 3.0617053,0"
           style="fill:#000000;fill-opacity:1;fill-rule:evenodd;stroke:#000000;stroke-width:0.80000001;stroke-linecap:round;stroke-opacity:1" />
        <path
           inkscape:connector-curvature="0"
           id="path1114-9"
           d="M 1.3053582,-3.9585227 5.6537466,0"
           style="fill:#000000;fill-opacity:1;fill-rule:evenodd;stroke:#000000;stroke-width:0.80000001;stroke-linecap:round;stroke-opacity:1" />
        <path
           inkscape:connector-curvature="0"
           id="path1116-2"
           d="M -3.8048674,4.1775838 0.54352094,0.21974226"
           style="fill:#000000;fill-opacity:1;fill-rule:evenodd;stroke:#000000;stroke-width:0.80000001;stroke-linecap:round;stroke-opacity:1" />
        <path
           inkscape:connector-curvature="0"
           id="path1118-2"
           d="M -1.2866832,4.1775838 3.0617053,0.21974226"
           style="fill:#000000;fill-opacity:1;fill-rule:evenodd;stroke:#000000;stroke-width:0.80000001;stroke-linecap:round;stroke-opacity:1" />
        <path
           inkscape:connector-curvature="0"
           id="path1120-6"
           d="M 1.3053582,4.1775838 5.6537466,0.21974226"
           style="fill:#000000;fill-opacity:1;fill-rule:evenodd;stroke:#000000;stroke-width:0.80000001;stroke-linecap:round;stroke-opacity:1" />
      </g>
    </marker>
    <marker
       inkscape:stockid="Tail"
       orient="auto"
       refY="0"
       refX="0"
       id="Tail-0-4"
       style="overflow:visible"
       inkscape:isstock="true">
      <g
         id="g1122-6-8"
         transform="scale(-1.2)"
         style="fill:#000000;fill-opacity:1;stroke:#000000;stroke-opacity:1">
        <path
           inkscape:connector-curvature="0"
           id="path1110-4-5"
           d="M -3.8048674,-3.9585227 0.54352094,0"
           style="fill:#000000;fill-opacity:1;fill-rule:evenodd;stroke:#000000;stroke-width:0.80000001;stroke-linecap:round;stroke-opacity:1" />
        <path
           inkscape:connector-curvature="0"
           id="path1112-2-7"
           d="M -1.2866832,-3.9585227 3.0617053,0"
           style="fill:#000000;fill-opacity:1;fill-rule:evenodd;stroke:#000000;stroke-width:0.80000001;stroke-linecap:round;stroke-opacity:1" />
        <path
           inkscape:connector-curvature="0"
           id="path1114-9-7"
           d="M 1.3053582,-3.9585227 5.6537466,0"
           style="fill:#000000;fill-opacity:1;fill-rule:evenodd;stroke:#000000;stroke-width:0.80000001;stroke-linecap:round;stroke-opacity:1" />
        <path
           inkscape:connector-curvature="0"
           id="path1116-2-2"
           d="M -3.8048674,4.1775838 0.54352094,0.21974226"
           style="fill:#000000;fill-opacity:1;fill-rule:evenodd;stroke:#000000;stroke-width:0.80000001;stroke-linecap:round;stroke-opacity:1" />
        <path
           inkscape:connector-curvature="0"
           id="path1118-2-2"
           d="M -1.2866832,4.1775838 3.0617053,0.21974226"
           style="fill:#000000;fill-opacity:1;fill-rule:evenodd;stroke:#000000;stroke-width:0.80000001;stroke-linecap:round;stroke-opacity:1" />
        <path
           inkscape:connector-curvature="0"
           id="path1120-6-8"
           d="M 1.3053582,4.1775838 5.6537466,0.21974226"
           style="fill:#000000;fill-opacity:1;fill-rule:evenodd;stroke:#000000;stroke-width:0.80000001;stroke-linecap:round;stroke-opacity:1" />
      </g>
    </marker>
    <marker
       inkscape:stockid="Tail"
       orient="auto"
       refY="0"
       refX="0"
       id="Tail-0-4-1"
       style="overflow:visible"
       inkscape:isstock="true">
      <g
         id="g1122-6-8-9"
         transform="scale(-1.2)"
         style="fill:#000000;fill-opacity:1;stroke:#000000;stroke-opacity:1">
        <path
           inkscape:connector-curvature="0"
           id="path1110-4-5-0"
           d="M -3.8048674,-3.9585227 0.54352094,0"
           style="fill:#000000;fill-opacity:1;fill-rule:evenodd;stroke:#000000;stroke-width:0.80000001;stroke-linecap:round;stroke-opacity:1" />
        <path
           inkscape:connector-curvature="0"
           id="path1112-2-7-4"
           d="M -1.2866832,-3.9585227 3.0617053,0"
           style="fill:#000000;fill-opacity:1;fill-rule:evenodd;stroke:#000000;stroke-width:0.80000001;stroke-linecap:round;stroke-opacity:1" />
        <path
           inkscape:connector-curvature="0"
           id="path1114-9-7-4"
           d="M 1.3053582,-3.9585227 5.6537466,0"
           style="fill:#000000;fill-opacity:1;fill-rule:evenodd;stroke:#000000;stroke-width:0.80000001;stroke-linecap:round;stroke-opacity:1" />
        <path
           inkscape:connector-curvature="0"
           id="path1116-2-2-5"
           d="M -3.8048674,4.1775838 0.54352094,0.21974226"
           style="fill:#000000;fill-opacity:1;fill-rule:evenodd;stroke:#000000;stroke-width:0.80000001;stroke-linecap:round;stroke-opacity:1" />
        <path
           inkscape:connector-curvature="0"
           id="path1118-2-2-0"
           d="M -1.2866832,4.1775838 3.0617053,0.21974226"
           style="fill:#000000;fill-opacity:1;fill-rule:evenodd;stroke:#000000;stroke-width:0.80000001;stroke-linecap:round;stroke-opacity:1" />
        <path
           inkscape:connector-curvature="0"
           id="path1120-6-8-8"
           d="M 1.3053582,4.1775838 5.6537466,0.21974226"
           style="fill:#000000;fill-opacity:1;fill-rule:evenodd;stroke:#000000;stroke-width:0.80000001;stroke-linecap:round;stroke-opacity:1" />
      </g>
    </marker>
    <marker
       inkscape:stockid="Tail"
       orient="auto"
       refY="0"
       refX="0"
       id="Tail-0-4-4"
       style="overflow:visible"
       inkscape:isstock="true">
      <g
         id="g1122-6-8-0"
         transform="scale(-1.2)"
         style="fill:#000000;fill-opacity:1;stroke:#000000;stroke-opacity:1">
        <path
           inkscape:connector-curvature="0"
           id="path1110-4-5-08"
           d="M -3.8048674,-3.9585227 0.54352094,0"
           style="fill:#000000;fill-opacity:1;fill-rule:evenodd;stroke:#000000;stroke-width:0.80000001;stroke-linecap:round;stroke-opacity:1" />
        <path
           inkscape:connector-curvature="0"
           id="path1112-2-7-0"
           d="M -1.2866832,-3.9585227 3.0617053,0"
           style="fill:#000000;fill-opacity:1;fill-rule:evenodd;stroke:#000000;stroke-width:0.80000001;stroke-linecap:round;stroke-opacity:1" />
        <path
           inkscape:connector-curvature="0"
           id="path1114-9-7-3"
           d="M 1.3053582,-3.9585227 5.6537466,0"
           style="fill:#000000;fill-opacity:1;fill-rule:evenodd;stroke:#000000;stroke-width:0.80000001;stroke-linecap:round;stroke-opacity:1" />
        <path
           inkscape:connector-curvature="0"
           id="path1116-2-2-2"
           d="M -3.8048674,4.1775838 0.54352094,0.21974226"
           style="fill:#000000;fill-opacity:1;fill-rule:evenodd;stroke:#000000;stroke-width:0.80000001;stroke-linecap:round;stroke-opacity:1" />
        <path
           inkscape:connector-curvature="0"
           id="path1118-2-2-7"
           d="M -1.2866832,4.1775838 3.0617053,0.21974226"
           style="fill:#000000;fill-opacity:1;fill-rule:evenodd;stroke:#000000;stroke-width:0.80000001;stroke-linecap:round;stroke-opacity:1" />
        <path
           inkscape:connector-curvature="0"
           id="path1120-6-8-6"
           d="M 1.3053582,4.1775838 5.6537466,0.21974226"
           style="fill:#000000;fill-opacity:1;fill-rule:evenodd;stroke:#000000;stroke-width:0.80000001;stroke-linecap:round;stroke-opacity:1" />
      </g>
    </marker>
    <marker
       inkscape:stockid="Tail"
       orient="auto"
       refY="0"
       refX="0"
       id="Tail-0-4-2"
       style="overflow:visible"
       inkscape:isstock="true">
      <g
         id="g1122-6-8-98"
         transform="scale(-1.2)"
         style="fill:#000000;fill-opacity:1;stroke:#000000;stroke-opacity:1">
        <path
           inkscape:connector-curvature="0"
           id="path1110-4-5-5"
           d="M -3.8048674,-3.9585227 0.54352094,0"
           style="fill:#000000;fill-opacity:1;fill-rule:evenodd;stroke:#000000;stroke-width:0.80000001;stroke-linecap:round;stroke-opacity:1" />
        <path
           inkscape:connector-curvature="0"
           id="path1112-2-7-7"
           d="M -1.2866832,-3.9585227 3.0617053,0"
           style="fill:#000000;fill-opacity:1;fill-rule:evenodd;stroke:#000000;stroke-width:0.80000001;stroke-linecap:round;stroke-opacity:1" />
        <path
           inkscape:connector-curvature="0"
           id="path1114-9-7-47"
           d="M 1.3053582,-3.9585227 5.6537466,0"
           style="fill:#000000;fill-opacity:1;fill-rule:evenodd;stroke:#000000;stroke-width:0.80000001;stroke-linecap:round;stroke-opacity:1" />
        <path
           inkscape:connector-curvature="0"
           id="path1116-2-2-51"
           d="M -3.8048674,4.1775838 0.54352094,0.21974226"
           style="fill:#000000;fill-opacity:1;fill-rule:evenodd;stroke:#000000;stroke-width:0.80000001;stroke-linecap:round;stroke-opacity:1" />
        <path
           inkscape:connector-curvature="0"
           id="path1118-2-2-1"
           d="M -1.2866832,4.1775838 3.0617053,0.21974226"
           style="fill:#000000;fill-opacity:1;fill-rule:evenodd;stroke:#000000;stroke-width:0.80000001;stroke-linecap:round;stroke-opacity:1" />
        <path
           inkscape:connector-curvature="0"
           id="path1120-6-8-63"
           d="M 1.3053582,4.1775838 5.6537466,0.21974226"
           style="fill:#000000;fill-opacity:1;fill-rule:evenodd;stroke:#000000;stroke-width:0.80000001;stroke-linecap:round;stroke-opacity:1" />
      </g>
    </marker>
    <marker
       inkscape:stockid="Tail"
       orient="auto"
       refY="0"
       refX="0"
       id="Tail-0-4-29"
       style="overflow:visible"
       inkscape:isstock="true">
      <g
         id="g1122-6-8-4"
         transform="scale(-1.2)"
         style="fill:#000000;fill-opacity:1;stroke:#000000;stroke-opacity:1">
        <path
           inkscape:connector-curvature="0"
           id="path1110-4-5-8"
           d="M -3.8048674,-3.9585227 0.54352094,0"
           style="fill:#000000;fill-opacity:1;fill-rule:evenodd;stroke:#000000;stroke-width:0.80000001;stroke-linecap:round;stroke-opacity:1" />
        <path
           inkscape:connector-curvature="0"
           id="path1112-2-7-9"
           d="M -1.2866832,-3.9585227 3.0617053,0"
           style="fill:#000000;fill-opacity:1;fill-rule:evenodd;stroke:#000000;stroke-width:0.80000001;stroke-linecap:round;stroke-opacity:1" />
        <path
           inkscape:connector-curvature="0"
           id="path1114-9-7-5"
           d="M 1.3053582,-3.9585227 5.6537466,0"
           style="fill:#000000;fill-opacity:1;fill-rule:evenodd;stroke:#000000;stroke-width:0.80000001;stroke-linecap:round;stroke-opacity:1" />
        <path
           inkscape:connector-curvature="0"
           id="path1116-2-2-8"
           d="M -3.8048674,4.1775838 0.54352094,0.21974226"
           style="fill:#000000;fill-opacity:1;fill-rule:evenodd;stroke:#000000;stroke-width:0.80000001;stroke-linecap:round;stroke-opacity:1" />
        <path
           inkscape:connector-curvature="0"
           id="path1118-2-2-01"
           d="M -1.2866832,4.1775838 3.0617053,0.21974226"
           style="fill:#000000;fill-opacity:1;fill-rule:evenodd;stroke:#000000;stroke-width:0.80000001;stroke-linecap:round;stroke-opacity:1" />
        <path
           inkscape:connector-curvature="0"
           id="path1120-6-8-1"
           d="M 1.3053582,4.1775838 5.6537466,0.21974226"
           style="fill:#000000;fill-opacity:1;fill-rule:evenodd;stroke:#000000;stroke-width:0.80000001;stroke-linecap:round;stroke-opacity:1" />
      </g>
    </marker>
    <marker
       inkscape:stockid="Tail"
       orient="auto"
       refY="0"
       refX="0"
       id="Tail-0-4-7"
       style="overflow:visible"
       inkscape:isstock="true">
      <g
         id="g1122-6-8-8"
         transform="scale(-1.2)"
         style="fill:#000000;fill-opacity:1;stroke:#000000;stroke-opacity:1">
        <path
           inkscape:connector-curvature="0"
           id="path1110-4-5-080"
           d="M -3.8048674,-3.9585227 0.54352094,0"
           style="fill:#000000;fill-opacity:1;fill-rule:evenodd;stroke:#000000;stroke-width:0.80000001;stroke-linecap:round;stroke-opacity:1" />
        <path
           inkscape:connector-curvature="0"
           id="path1112-2-7-48"
           d="M -1.2866832,-3.9585227 3.0617053,0"
           style="fill:#000000;fill-opacity:1;fill-rule:evenodd;stroke:#000000;stroke-width:0.80000001;stroke-linecap:round;stroke-opacity:1" />
        <path
           inkscape:connector-curvature="0"
           id="path1114-9-7-53"
           d="M 1.3053582,-3.9585227 5.6537466,0"
           style="fill:#000000;fill-opacity:1;fill-rule:evenodd;stroke:#000000;stroke-width:0.80000001;stroke-linecap:round;stroke-opacity:1" />
        <path
           inkscape:connector-curvature="0"
           id="path1116-2-2-0"
           d="M -3.8048674,4.1775838 0.54352094,0.21974226"
           style="fill:#000000;fill-opacity:1;fill-rule:evenodd;stroke:#000000;stroke-width:0.80000001;stroke-linecap:round;stroke-opacity:1" />
        <path
           inkscape:connector-curvature="0"
           id="path1118-2-2-73"
           d="M -1.2866832,4.1775838 3.0617053,0.21974226"
           style="fill:#000000;fill-opacity:1;fill-rule:evenodd;stroke:#000000;stroke-width:0.80000001;stroke-linecap:round;stroke-opacity:1" />
        <path
           inkscape:connector-curvature="0"
           id="path1120-6-8-2"
           d="M 1.3053582,4.1775838 5.6537466,0.21974226"
           style="fill:#000000;fill-opacity:1;fill-rule:evenodd;stroke:#000000;stroke-width:0.80000001;stroke-linecap:round;stroke-opacity:1" />
      </g>
    </marker>
  </defs>
  <sodipodi:namedview
     id="base"
     pagecolor="#ffffff"
     bordercolor="#666666"
     borderopacity="1.0"
     inkscape:pageopacity="0.0"
     inkscape:pageshadow="2"
     inkscape:zoom="1.32"
     inkscape:cx="275.81848"
     inkscape:cy="163.02733"
     inkscape:document-units="mm"
     inkscape:current-layer="layer1"
     showgrid="false"
     width="150mm"
     inkscape:window-width="1280"
     inkscape:window-height="961"
     inkscape:window-x="1672"
     inkscape:window-y="13"
     inkscape:window-maximized="1" />
  <metadata
     id="metadata5">
    <rdf:RDF>
      <cc:Work
         rdf:about="">
        <dc:format>image/svg+xml</dc:format>
        <dc:type
           rdf:resource="http://purl.org/dc/dcmitype/StillImage" />
        <dc:title></dc:title>
      </cc:Work>
    </rdf:RDF>
  </metadata>
  <g
     inkscape:label="Ebene 1"
     inkscape:groupmode="layer"
     id="layer1"
     transform="translate(0,-207)">
    <path
       style="fill:none;stroke:#000000;stroke-width:0.10781206px;stroke-linecap:butt;stroke-linejoin:miter;stroke-opacity:1"
       d="m 40.637191,276.29571 h 5.443967 v 15.26448 l -25.405097,0.10674 v -15.26449 h 6.191155"
       id="path865"
       inkscape:connector-curvature="0" />
    <path
       style="fill:none;stroke:#000000;stroke-width:0.31172118;stroke-linecap:butt;stroke-linejoin:miter;stroke-miterlimit:4;stroke-dasharray:none;stroke-opacity:1"
       d="m 28.982844,272.90366 c 0,0.42698 0,7.47213 0,7.47213"
       id="path815-2"
       inkscape:connector-curvature="0" />
    <path
       style="fill:none;stroke:#000000;stroke-width:0.31172118;stroke-linecap:butt;stroke-linejoin:miter;stroke-miterlimit:4;stroke-dasharray:none;stroke-opacity:1"
       d="m 26.996637,274.85921 v 3.52257"
       id="path817-84"
       inkscape:connector-curvature="0" />
    <path
       style="fill:none;stroke:#000000;stroke-width:0.31172118;stroke-linecap:butt;stroke-linejoin:miter;stroke-miterlimit:4;stroke-dasharray:none;stroke-opacity:1"
       d="m 32.854962,272.84092 c 0,0.42697 0,7.47212 0,7.47212"
       id="path815-2-7"
       inkscape:connector-curvature="0" />
    <path
       style="fill:none;stroke:#000000;stroke-width:0.31172118;stroke-linecap:butt;stroke-linejoin:miter;stroke-miterlimit:4;stroke-dasharray:none;stroke-opacity:1"
       d="m 30.868768,274.79646 v 3.52258"
       id="path817-84-6"
       inkscape:connector-curvature="0" />
    <path
       style="fill:none;stroke:#000000;stroke-width:0.31172118;stroke-linecap:butt;stroke-linejoin:miter;stroke-miterlimit:4;stroke-dasharray:none;stroke-opacity:1"
       d="m 36.859148,272.82151 c 0,0.42698 0,7.47213 0,7.47213"
       id="path815-2-4"
       inkscape:connector-curvature="0" />
    <path
       style="fill:none;stroke:#000000;stroke-width:0.31172118;stroke-linecap:butt;stroke-linejoin:miter;stroke-miterlimit:4;stroke-dasharray:none;stroke-opacity:1"
       d="m 34.872949,274.77706 v 3.52257"
       id="path817-84-8"
       inkscape:connector-curvature="0" />
    <path
       style="fill:none;stroke:#000000;stroke-width:0.31172118;stroke-linecap:butt;stroke-linejoin:miter;stroke-miterlimit:4;stroke-dasharray:none;stroke-opacity:1"
       d="m 40.731257,272.75876 c 0,0.42698 0,7.47212 0,7.47212"
       id="path815-2-7-4"
       inkscape:connector-curvature="0" />
    <path
       style="fill:none;stroke:#000000;stroke-width:0.31172118;stroke-linecap:butt;stroke-linejoin:miter;stroke-miterlimit:4;stroke-dasharray:none;stroke-opacity:1"
       d="m 38.745062,274.71431 v 3.52257"
       id="path817-84-6-8"
       inkscape:connector-curvature="0" />
    <path
       style="fill:none;stroke:#000000;stroke-width:0.10781206px;stroke-linecap:butt;stroke-linejoin:miter;stroke-opacity:1"
       d="m 73.73645,276.20221 h 5.44396 v 15.26449 l -25.405094,0.10674 v -15.26448 h 6.191158"
       id="path865-5"
       inkscape:connector-curvature="0" />
    <path
       style="fill:none;stroke:#000000;stroke-width:0.31172118;stroke-linecap:butt;stroke-linejoin:miter;stroke-miterlimit:4;stroke-dasharray:none;stroke-opacity:1"
       d="m 62.082103,272.81018 c 0,0.42698 0,7.47212 0,7.47212"
       id="path815-2-8"
       inkscape:connector-curvature="0" />
    <path
       style="fill:none;stroke:#000000;stroke-width:0.31172118;stroke-linecap:butt;stroke-linejoin:miter;stroke-miterlimit:4;stroke-dasharray:none;stroke-opacity:1"
       d="m 60.095897,274.76573 v 3.52257"
       id="path817-84-69"
       inkscape:connector-curvature="0" />
    <path
       style="fill:none;stroke:#000000;stroke-width:0.31172118;stroke-linecap:butt;stroke-linejoin:miter;stroke-miterlimit:4;stroke-dasharray:none;stroke-opacity:1"
       d="m 65.954218,272.74743 c 0,0.42698 0,7.47212 0,7.47212"
       id="path815-2-7-1"
       inkscape:connector-curvature="0" />
    <path
       style="fill:none;stroke:#000000;stroke-width:0.31172118;stroke-linecap:butt;stroke-linejoin:miter;stroke-miterlimit:4;stroke-dasharray:none;stroke-opacity:1"
       d="m 63.968024,274.70297 v 3.52258"
       id="path817-84-6-2"
       inkscape:connector-curvature="0" />
    <path
       style="fill:none;stroke:#000000;stroke-width:0.31172118;stroke-linecap:butt;stroke-linejoin:miter;stroke-miterlimit:4;stroke-dasharray:none;stroke-opacity:1"
       d="m 69.958406,272.72803 c 0,0.42697 0,7.47213 0,7.47213"
       id="path815-2-4-0"
       inkscape:connector-curvature="0" />
    <path
       style="fill:none;stroke:#000000;stroke-width:0.31172118;stroke-linecap:butt;stroke-linejoin:miter;stroke-miterlimit:4;stroke-dasharray:none;stroke-opacity:1"
       d="m 67.972207,274.68358 v 3.52257"
       id="path817-84-8-1"
       inkscape:connector-curvature="0" />
    <path
       style="fill:none;stroke:#000000;stroke-width:0.31172118;stroke-linecap:butt;stroke-linejoin:miter;stroke-miterlimit:4;stroke-dasharray:none;stroke-opacity:1"
       d="m 73.830516,272.66528 c 0,0.42698 0,7.47212 0,7.47212"
       id="path815-2-7-4-2"
       inkscape:connector-curvature="0" />
    <path
       style="fill:none;stroke:#000000;stroke-width:0.31172118;stroke-linecap:butt;stroke-linejoin:miter;stroke-miterlimit:4;stroke-dasharray:none;stroke-opacity:1"
       d="m 71.844319,274.62083 v 3.52257"
       id="path817-84-6-8-0"
       inkscape:connector-curvature="0" />
    <path
       style="fill:none;stroke:#000000;stroke-width:0.10781206px;stroke-linecap:butt;stroke-linejoin:miter;stroke-opacity:1"
       d="m 113.78178,276.15363 h 5.44397 v 15.26448 l -25.405099,0.10675 v -15.26448 h 6.191149"
       id="path865-9"
       inkscape:connector-curvature="0" />
    <path
       style="fill:none;stroke:#000000;stroke-width:0.31172118;stroke-linecap:butt;stroke-linejoin:miter;stroke-miterlimit:4;stroke-dasharray:none;stroke-opacity:1"
       d="m 102.12743,272.7616 c 0,0.42697 0,7.47211 0,7.47211"
       id="path815-2-3"
       inkscape:connector-curvature="0" />
    <path
       style="fill:none;stroke:#000000;stroke-width:0.31172118;stroke-linecap:butt;stroke-linejoin:miter;stroke-miterlimit:4;stroke-dasharray:none;stroke-opacity:1"
       d="m 100.14122,274.71714 v 3.52257"
       id="path817-84-7"
       inkscape:connector-curvature="0" />
    <path
       style="fill:none;stroke:#000000;stroke-width:0.31172118;stroke-linecap:butt;stroke-linejoin:miter;stroke-miterlimit:4;stroke-dasharray:none;stroke-opacity:1"
       d="m 105.99955,272.69884 c 0,0.42698 0,7.47213 0,7.47213"
       id="path815-2-7-3"
       inkscape:connector-curvature="0" />
    <path
       style="fill:none;stroke:#000000;stroke-width:0.31172118;stroke-linecap:butt;stroke-linejoin:miter;stroke-miterlimit:4;stroke-dasharray:none;stroke-opacity:1"
       d="m 104.01336,274.65439 v 3.52257"
       id="path817-84-6-0"
       inkscape:connector-curvature="0" />
    <path
       style="fill:none;stroke:#000000;stroke-width:0.31172118;stroke-linecap:butt;stroke-linejoin:miter;stroke-miterlimit:4;stroke-dasharray:none;stroke-opacity:1"
       d="m 110.00373,272.67944 c 0,0.42698 0,7.47213 0,7.47213"
       id="path815-2-4-1"
       inkscape:connector-curvature="0" />
    <path
       style="fill:none;stroke:#000000;stroke-width:0.31172118;stroke-linecap:butt;stroke-linejoin:miter;stroke-miterlimit:4;stroke-dasharray:none;stroke-opacity:1"
       d="m 108.01754,274.63499 v 3.52257"
       id="path817-84-8-3"
       inkscape:connector-curvature="0" />
    <path
       style="fill:none;stroke:#000000;stroke-width:0.31172118;stroke-linecap:butt;stroke-linejoin:miter;stroke-miterlimit:4;stroke-dasharray:none;stroke-opacity:1"
       d="m 113.87585,272.61669 c 0,0.42698 0,7.47212 0,7.47212"
       id="path815-2-7-4-5"
       inkscape:connector-curvature="0" />
    <path
       style="fill:none;stroke:#000000;stroke-width:0.31172118;stroke-linecap:butt;stroke-linejoin:miter;stroke-miterlimit:4;stroke-dasharray:none;stroke-opacity:1"
       d="m 111.88965,274.57224 v 3.52257"
       id="path817-84-6-8-9"
       inkscape:connector-curvature="0" />
    <rect
       style="opacity:1;fill:none;fill-opacity:1;stroke:#042b04;stroke-width:0.14791477;stroke-linecap:round;stroke-linejoin:round;stroke-miterlimit:4;stroke-dasharray:none;stroke-dashoffset:0;stroke-opacity:1"
       id="rect1049"
       width="25.207693"
       height="8.3507242"
       x="20.933519"
       y="262.16666"
       ry="0.10211725" />
    <rect
       style="opacity:1;fill:none;fill-opacity:1;stroke:#042b04;stroke-width:0.14791477;stroke-linecap:round;stroke-linejoin:round;stroke-miterlimit:4;stroke-dasharray:none;stroke-dashoffset:0;stroke-opacity:1"
       id="rect1049-1"
       width="25.207695"
       height="8.3507242"
       x="53.989441"
       y="262.13019"
       ry="0.10211725" />
    <rect
       style="opacity:1;fill:none;fill-opacity:1;stroke:#042b04;stroke-width:0.14791477;stroke-linecap:round;stroke-linejoin:round;stroke-miterlimit:4;stroke-dasharray:none;stroke-dashoffset:0;stroke-opacity:1"
       id="rect1049-8"
       width="25.207695"
       height="8.3507242"
       x="93.750137"
       y="262.07248"
       ry="0.10211725" />
    <path
       style="fill:none;stroke:#000000;stroke-width:0.13585314;stroke-linecap:butt;stroke-linejoin:miter;stroke-miterlimit:4;stroke-dasharray:none;stroke-opacity:1;marker-start:url(#Tail)"
       d="m 23.417227,275.40247 -0.01023,-5.0364"
       id="path1072"
       inkscape:connector-curvature="0" />
    <path
       style="fill:none;stroke:#000000;stroke-width:0.13585314;stroke-linecap:butt;stroke-linejoin:miter;stroke-miterlimit:4;stroke-dasharray:none;stroke-opacity:1;marker-start:url(#Tail-0)"
       d="m 43.645316,275.3424 -0.01023,-5.03641"
       id="path1072-1"
       inkscape:connector-curvature="0" />
    <path
       style="fill:none;stroke:#000000;stroke-width:0.13585314;stroke-linecap:butt;stroke-linejoin:miter;stroke-miterlimit:4;stroke-dasharray:none;stroke-opacity:1;marker-start:url(#Tail-0-4)"
       d="m 56.841646,275.50034 -0.01022,-5.03641"
       id="path1072-1-4"
       inkscape:connector-curvature="0" />
    <path
       style="fill:none;stroke:#000000;stroke-width:0.13585314;stroke-linecap:butt;stroke-linejoin:miter;stroke-miterlimit:4;stroke-dasharray:none;stroke-opacity:1;marker-start:url(#Tail-0-4-1)"
       d="m 76.518103,275.43656 -0.01022,-5.0364"
       id="path1072-1-4-7"
       inkscape:connector-curvature="0" />
    <path
       style="fill:none;stroke:#000000;stroke-width:0.13585314;stroke-linecap:butt;stroke-linejoin:miter;stroke-miterlimit:4;stroke-dasharray:none;stroke-opacity:1;marker-start:url(#Tail-0-4-4)"
       d="m 96.847494,275.30593 -0.01019,-5.0364"
       id="path1072-1-4-9"
       inkscape:connector-curvature="0" />
    <path
       style="fill:none;stroke:#000000;stroke-width:0.13585314;stroke-linecap:butt;stroke-linejoin:miter;stroke-miterlimit:4;stroke-dasharray:none;stroke-opacity:1;marker-start:url(#Tail-0-4-7)"
       d="m 116.62722,275.42746 -0.0103,-5.03641"
       id="path1072-1-4-1"
       inkscape:connector-curvature="0" />
    <flowRoot
       xml:space="preserve"
       id="flowRoot7043"
       style="font-style:normal;font-variant:normal;font-weight:bold;font-stretch:normal;font-size:35.99370193px;line-height:1.25;font-family:Arial;-inkscape-font-specification:'Arial Bold';letter-spacing:0px;word-spacing:0px;fill:#008000;fill-opacity:1;stroke:none"
       transform="matrix(0.10781207,0,0,0.10781207,2.2485935,210.29097)"><flowRegion
         id="flowRegion7045"
         style="font-size:35.99370193px;fill:#008000"><rect
           id="rect7047"
           width="146.08653"
           height="103.33781"
           x="240.84508"
           y="499.33459"
           style="font-size:35.99370193px;fill:#008000" /></flowRegion><flowPara
         id="flowPara7049">PCU 1</flowPara></flowRoot>    <flowRoot
       xml:space="preserve"
       id="flowRoot7051"
       style="font-style:normal;font-variant:normal;font-weight:bold;font-stretch:normal;font-size:35.99370193px;line-height:1.25;font-family:Arial;-inkscape-font-specification:'Arial Bold';letter-spacing:0px;word-spacing:0px;fill:#008000;fill-opacity:1;stroke:none"
       transform="matrix(0.10781207,0,0,0.10781207,5.1496246,210.04638)"><flowRegion
         id="flowRegion7053"
         style="font-size:35.99370193px;fill:#008000"><rect
           id="rect7055"
           width="212.22653"
           height="102.98692"
           x="519.71832"
           y="502.15152"
           style="font-size:35.99370193px;fill:#008000" /></flowRegion><flowPara
         id="flowPara7057">PCU 2</flowPara></flowRoot>    <flowRoot
       xml:space="preserve"
       id="flowRoot7059"
       style="font-style:normal;font-variant:normal;font-weight:bold;font-stretch:normal;font-size:35.99370193px;line-height:1.25;font-family:Arial;-inkscape-font-specification:'Arial Bold';letter-spacing:0px;word-spacing:0px;opacity:1;fill:#008000;fill-opacity:1;stroke:none"
       transform="matrix(0.10781207,0,0,0.10781207,3.1110897,210.46179)"><flowRegion
         id="flowRegion7061"
         style="font-size:35.99370193px;fill:#008000"><rect
           id="rect7063"
           width="217.63525"
           height="104.00086"
           x="901.40845"
           y="497.92615"
           style="font-size:35.99370193px;fill:#008000" /></flowRegion><flowPara
         id="flowPara7065">PCU N</flowPara></flowRoot>    <flowRoot
       xml:space="preserve"
       id="flowRoot7067"
       style="font-style:normal;font-variant:normal;font-weight:normal;font-stretch:normal;font-size:35.99370193px;line-height:1.25;font-family:Arial;-inkscape-font-specification:Arial;letter-spacing:0px;word-spacing:0px;fill:#000000;fill-opacity:1;stroke:none"
       transform="matrix(0.10781207,0,0,0.10781207,1.8859275,207.54413)"><flowRegion
         id="flowRegion7069"
         style="font-style:normal;font-variant:normal;font-weight:normal;font-stretch:normal;font-size:35.99370193px;font-family:Arial;-inkscape-font-specification:Arial"><rect
           id="rect7071"
           width="292.43179"
           height="78.02211"
           x="177.46478"
           y="686.65851"
           style="font-style:normal;font-variant:normal;font-weight:normal;font-stretch:normal;font-size:35.99370193px;font-family:Arial;-inkscape-font-specification:Arial" /></flowRegion><flowPara
         id="flowPara7073">Batteriepack 1</flowPara></flowRoot>    <flowRoot
       xml:space="preserve"
       id="flowRoot7075"
       style="font-style:normal;font-variant:normal;font-weight:normal;font-stretch:normal;font-size:35.99370193px;line-height:1.25;font-family:Arial;-inkscape-font-specification:Arial;letter-spacing:0px;word-spacing:0px;fill:#000000;fill-opacity:1;stroke:none"
       transform="matrix(0.10781207,0,0,0.10781207,-1.2698576,208.87034)"><flowRegion
         id="flowRegion7077"
         style="font-style:normal;font-variant:normal;font-weight:normal;font-stretch:normal;font-size:35.99370193px;font-family:Arial;-inkscape-font-specification:Arial"><rect
           id="rect7079"
           width="281.46628"
           height="140.28297"
           x="512.67609"
           y="675.39093"
           style="font-style:normal;font-variant:normal;font-weight:normal;font-stretch:normal;font-size:35.99370193px;font-family:Arial;-inkscape-font-specification:Arial" /></flowRegion><flowPara
         id="flowPara7081">Batteriepack 2</flowPara></flowRoot>    <flowRoot
       xml:space="preserve"
       id="flowRoot7083"
       style="font-style:normal;font-variant:normal;font-weight:normal;font-stretch:normal;font-size:35.99370193px;line-height:1.25;font-family:Arial;-inkscape-font-specification:Arial;letter-spacing:0px;word-spacing:0px;fill:#000000;fill-opacity:1;stroke:none"
       transform="matrix(0.10781207,0,0,0.10781207,-0.44087894,208.87034)"><flowRegion
         id="flowRegion7085"
         style="font-style:normal;font-variant:normal;font-weight:normal;font-stretch:normal;font-size:35.99370193px;font-family:Arial;-inkscape-font-specification:Arial"><rect
           id="rect7087"
           width="288.53293"
           height="125.68616"
           x="874.64789"
           y="675.39093"
           style="font-style:normal;font-variant:normal;font-weight:normal;font-stretch:normal;font-size:35.99370193px;font-family:Arial;-inkscape-font-specification:Arial" /></flowRegion><flowPara
         id="flowPara7089">Batteriepack N</flowPara></flowRoot>    <path
       style="fill:none;stroke:#000000;stroke-width:0.59695625;stroke-linecap:butt;stroke-linejoin:miter;stroke-miterlimit:4;stroke-dasharray:0.59695627, 2.38782505;stroke-dashoffset:0;stroke-opacity:1"
       d="m 81.811482,285.09531 h 9.870101"
       id="path7091"
       inkscape:connector-curvature="0" />
    <rect
       style="opacity:1;fill:none;fill-opacity:1;stroke:#042b04;stroke-width:0.27503422;stroke-linecap:round;stroke-linejoin:round;stroke-miterlimit:4;stroke-dasharray:none;stroke-dashoffset:0;stroke-opacity:1"
       id="rect7093"
       width="35.609863"
       height="18.906584"
       x="65.15757"
       y="233.58005"
       ry="0.091482051" />
    <flowRoot
       xml:space="preserve"
       id="flowRoot7095"
       style="font-style:normal;font-variant:normal;font-weight:bold;font-stretch:normal;font-size:53.33333206px;line-height:1.25;font-family:Arial;-inkscape-font-specification:'Arial Bold';letter-spacing:0px;word-spacing:0px;fill:#000000;fill-opacity:0;stroke:none"
       transform="matrix(0.26458333,0,0,0.26458333,0,87)"><flowRegion
         id="flowRegion7097"
         style="font-size:53.33333206px;fill:#000000;fill-opacity:0"><rect
           id="rect7099"
           width="494.36618"
           height="216.9014"
           x="530.9859"
           y="245.81348"
           style="font-size:53.33333206px;fill:#000000;fill-opacity:0" /></flowRegion><flowPara
         id="flowPara7101" /></flowRoot>    <flowRoot
       xml:space="preserve"
       id="flowRoot7103"
       style="font-style:normal;font-variant:normal;font-weight:bold;font-stretch:normal;font-size:18.66666603px;line-height:1.25;font-family:Arial;-inkscape-font-specification:'Arial Bold';letter-spacing:0px;word-spacing:0px;fill:#000000;fill-opacity:1;stroke:none"
       transform="matrix(0.26458333,0,0,0.26458333,0,87)"><flowRegion
         id="flowRegion7105"><rect
           id="rect7107"
           width="126.76057"
           height="52.112675"
           x="173.23944"
           y="221.86983" /></flowRegion><flowPara
         id="flowPara7109" /></flowRoot>    <flowRoot
       xml:space="preserve"
       id="flowRoot7111"
       style="font-style:normal;font-variant:normal;font-weight:bold;font-stretch:normal;font-size:32.802845px;line-height:1.25;font-family:Arial;-inkscape-font-specification:'Arial Bold';letter-spacing:0px;word-spacing:0px;fill:#000000;fill-opacity:1;stroke:none"
       transform="matrix(0.10781207,0,0,0.10781207,23.300617,216.47555)"><flowRegion
         id="flowRegion7113"
         style="font-size:32.802845px"><rect
           id="rect7115"
           width="212.67606"
           height="95.774651"
           x="514.08453"
           y="228.91208"
           style="font-size:32.802845px" /></flowRegion><flowPara
         id="flowPara7117">BCU</flowPara></flowRoot>    <rect
       style="opacity:1;fill:#000000;fill-opacity:0;stroke:#070007;stroke-width:0.35246906;stroke-linecap:round;stroke-linejoin:round;stroke-miterlimit:4;stroke-dasharray:none;stroke-dashoffset:0;stroke-opacity:1"
       id="rect7121"
       width="2.7332635"
       height="5.010983"
       x="233.04781"
       y="-27.914566"
       ry="0.10212843"
       transform="rotate(90)" />
    <path
       style="fill:none;stroke:#000000;stroke-width:0.10781206px;stroke-linecap:butt;stroke-linejoin:miter;stroke-opacity:1"
       d="m 26.851636,233.0509 -3.036959,2.58143"
       id="path7125"
       inkscape:connector-curvature="0" />
    <path
       style="fill:none;stroke:#000000;stroke-width:0.13310154px;stroke-linecap:butt;stroke-linejoin:miter;stroke-opacity:1"
       d="m 25.482418,232.99005 v -8.49367 h 18.536624 v 21.84083 H 25.482418 v -10.61707"
       id="path7127"
       inkscape:connector-curvature="0" />
    <rect
       style="opacity:1;fill:#000000;fill-opacity:0;stroke:#042b04;stroke-width:0.35246906;stroke-linecap:round;stroke-linejoin:round;stroke-miterlimit:4;stroke-dasharray:none;stroke-dashoffset:0;stroke-opacity:1"
       id="rect7148"
       width="9.5664225"
       height="8.9590311"
       x="5.9893999"
       y="207.455"
       ry="0.10212843" />
    <path
       style="fill:none;stroke:#000000;stroke-width:0.35246906;stroke-linecap:butt;stroke-linejoin:miter;stroke-miterlimit:4;stroke-dasharray:none;stroke-opacity:1"
       d="M 6.0531658,209.1495 H 15.467738"
       id="path7150"
       inkscape:connector-curvature="0" />
    <path
       style="fill:none;stroke:#000000;stroke-width:0.35246906;stroke-linecap:butt;stroke-linejoin:miter;stroke-miterlimit:4;stroke-dasharray:none;stroke-opacity:1"
       d="M 6.0531658,211.23595 H 15.467738"
       id="path7150-7"
       inkscape:connector-curvature="0" />
    <path
       style="fill:none;stroke:#000000;stroke-width:0.35246906;stroke-linecap:butt;stroke-linejoin:miter;stroke-miterlimit:4;stroke-dasharray:none;stroke-opacity:1"
       d="m 6.205013,213.08242 h 9.414573"
       id="path7150-5"
       inkscape:connector-curvature="0" />
    <path
       style="fill:none;stroke:#000000;stroke-width:0.35246906;stroke-linecap:butt;stroke-linejoin:miter;stroke-miterlimit:4;stroke-dasharray:none;stroke-opacity:1"
       d="M 6.0379798,214.83473 H 15.452553"
       id="path7150-8"
       inkscape:connector-curvature="0" />
    <path
       style="fill:none;stroke:#000000;stroke-width:0.34090954;stroke-linecap:butt;stroke-linejoin:miter;stroke-miterlimit:4;stroke-dasharray:none;stroke-opacity:1"
       d="m 7.5200185,207.60167 v 8.80718"
       id="path7218"
       inkscape:connector-curvature="0" />
    <path
       style="fill:none;stroke:#000000;stroke-width:0.34090954;stroke-linecap:butt;stroke-linejoin:miter;stroke-miterlimit:4;stroke-dasharray:none;stroke-opacity:1"
       d="m 9.1144196,207.63716 v 8.8072"
       id="path7218-5"
       inkscape:connector-curvature="0" />
    <path
       style="fill:none;stroke:#000000;stroke-width:0.34090954;stroke-linecap:butt;stroke-linejoin:miter;stroke-miterlimit:4;stroke-dasharray:none;stroke-opacity:1"
       d="m 10.754375,207.46707 v 8.80717"
       id="path7218-0"
       inkscape:connector-curvature="0" />
    <path
       style="fill:none;stroke:#000000;stroke-width:0.34090954;stroke-linecap:butt;stroke-linejoin:miter;stroke-miterlimit:4;stroke-dasharray:none;stroke-opacity:1"
       d="m 12.291075,207.561 v 8.80717"
       id="path7218-8"
       inkscape:connector-curvature="0" />
    <path
       style="fill:none;stroke:#000000;stroke-width:0.34090954;stroke-linecap:butt;stroke-linejoin:miter;stroke-miterlimit:4;stroke-dasharray:none;stroke-opacity:1"
       d="m 13.961704,207.46605 v 8.80718"
       id="path7218-3"
       inkscape:connector-curvature="0" />
    <path
       style="fill:none;stroke:#000000;stroke-width:0.32823592;stroke-linecap:butt;stroke-linejoin:miter;stroke-miterlimit:4;stroke-dasharray:0.32823591, 1.31294366;stroke-dashoffset:9.64999962;stroke-opacity:1"
       d="m 22.254185,234.55636 -6.138664,0.11724"
       id="path7259"
       inkscape:connector-curvature="0" />
    <path
       style="fill:none;stroke:#000000;stroke-width:0.09394718px;stroke-linecap:butt;stroke-linejoin:miter;stroke-opacity:1"
       d="M 65.044444,238.17429 H 44.174545"
       id="path7261"
       inkscape:connector-curvature="0" />
    <rect
       style="opacity:1;fill:#000000;fill-opacity:0;stroke:#070007;stroke-width:0.25526348;stroke-linecap:round;stroke-linejoin:round;stroke-miterlimit:4;stroke-dasharray:none;stroke-dashoffset:2.64999938;stroke-opacity:1"
       id="rect7265"
       width="6.9737329"
       height="6.6243196"
       x="6.8651471"
       y="222.03595"
       ry="0.25100395" />
    <path
       style="fill:none;stroke:#000000;stroke-width:0.26458332px;stroke-linecap:butt;stroke-linejoin:miter;stroke-opacity:1"
       d="m 6.8651458,228.66024 6.9737322,-6.62431"
       id="path7267"
       inkscape:connector-curvature="0" />
    <flowRoot
       xml:space="preserve"
       id="flowRoot7269"
       style="font-style:normal;font-variant:normal;font-weight:bold;font-stretch:normal;font-size:18.66666603px;line-height:1.25;font-family:Arial;-inkscape-font-specification:'Arial Bold';letter-spacing:0px;word-spacing:0px;fill:#000000;fill-opacity:1;stroke:none"
       transform="matrix(0.26458333,0,0,0.26458333,-58.208364,218.05834)"><flowRegion
         id="flowRegion7271"><rect
           id="rect7273"
           width="39.361702"
           height="28.19149"
           x="260.10638"
           y="22.57498" /></flowRegion><flowPara
         id="flowPara7275">=</flowPara></flowRoot>    <text
       xml:space="preserve"
       style="font-style:normal;font-variant:normal;font-weight:bold;font-stretch:normal;font-size:4.93888855px;line-height:1.25;font-family:Arial;-inkscape-font-specification:'Arial Bold';letter-spacing:0px;word-spacing:0px;fill:#000000;fill-opacity:1;stroke:none;stroke-width:0.26458332"
       x="7.357604"
       y="225.47803"
       id="text7279"><tspan
         sodipodi:role="line"
         id="tspan7277"
         x="7.357604"
         y="225.47803"
         style="stroke-width:0.26458332">≈</tspan></text>
    <path
       style="fill:none;stroke:#0000e9;stroke-width:0.26499999;stroke-linecap:butt;stroke-linejoin:miter;stroke-miterlimit:4;stroke-dasharray:none;stroke-opacity:1"
       d="M 8.2181186,296.82363 V 237.09194"
       id="path1357"
       inkscape:connector-curvature="0" />
    <path
       style="fill:none;stroke:#0000f1;stroke-width:0.26458332px;stroke-linecap:butt;stroke-linejoin:miter;stroke-opacity:1"
       d="m 8.2181186,237.09194 -2.605745,-4.00883"
       id="path1359"
       inkscape:connector-curvature="0" />
    <path
       style="fill:none;stroke:#0000db;stroke-width:0.26458332px;stroke-linecap:butt;stroke-linejoin:miter;stroke-opacity:1"
       d="M 8.2181186,296.82363 H 127.28062 v -12.82828 h -8.21812"
       id="path1365"
       inkscape:connector-curvature="0" />
    <path
       style="fill:none;stroke:#fb0000;stroke-width:0.26458332px;stroke-linecap:butt;stroke-linejoin:miter;stroke-opacity:1"
       d="M 20.845959,283.99535 H 12.226957 V 237.29239"
       id="path1367"
       inkscape:connector-curvature="0" />
    <path
       style="fill:none;stroke:#ed0000;stroke-width:0.26458332px;stroke-linecap:butt;stroke-linejoin:miter;stroke-opacity:1"
       d="M 12.375281,237.69327 9.7695363,233.68444"
       id="path1359-2"
       inkscape:connector-curvature="0" />
    <path
       style="fill:none;stroke:#0000f1;stroke-width:0.26458332px;stroke-linecap:butt;stroke-linejoin:miter;stroke-opacity:1"
       d="m 8.2822605,233.08311 v -4.20928"
       id="path1399"
       inkscape:connector-curvature="0" />
    <path
       style="fill:none;stroke:#ed0000;stroke-width:0.26458332px;stroke-linecap:butt;stroke-linejoin:miter;stroke-opacity:1"
       d="m 12.298292,232.92676 v -4.20928"
       id="path1399-2"
       inkscape:connector-curvature="0" />
    <path
       style="fill:none;stroke:#000000;stroke-width:0.26458332px;stroke-linecap:butt;stroke-linejoin:miter;stroke-opacity:1"
       d="m 10.390292,221.98736 v -5.41194"
       id="path1416"
       inkscape:connector-curvature="0" />
    <path
       style="fill:none;stroke:#000000;stroke-width:0.26458332px;stroke-linecap:butt;stroke-linejoin:miter;stroke-opacity:1"
       d="m 45.901199,283.57039 h 7.817234"
       id="path1418"
       inkscape:connector-curvature="0" />
    <path
       style="fill:none;stroke:#000000;stroke-width:0.26458332px;stroke-linecap:butt;stroke-linejoin:miter;stroke-opacity:1"
       d="m 65.143623,249.30279 -49.10827,0.20044"
       id="path1422"
       inkscape:connector-curvature="0" />
    <path
       style="fill:none;stroke:#000000;stroke-width:0.26458332px;stroke-linecap:butt;stroke-linejoin:miter;stroke-opacity:1"
       d="m 16.035353,249.50323 v 17.23004"
       id="path1424"
       inkscape:connector-curvature="0" />
    <path
       style="fill:none;stroke:#000000;stroke-width:0.26458332px;stroke-linecap:butt;stroke-linejoin:miter;stroke-opacity:1"
       d="M 20.845959,266.69325 H 15.834911"
       id="path1428"
       inkscape:connector-curvature="0" />
    <flowRoot
       xml:space="preserve"
       id="flowRoot1430"
       style="font-style:normal;font-variant:normal;font-weight:bold;font-stretch:normal;font-size:18.66666603px;line-height:1.25;font-family:Arial;-inkscape-font-specification:'Arial Bold';letter-spacing:0px;word-spacing:0px;fill:#ff0000;fill-opacity:1;stroke:none"
       transform="matrix(0.26458333,0,0,0.26458333,0,209)"><flowRegion
         id="flowRegion1432"
         style="fill:#ff0000"><rect
           id="rect1434"
           width="75.757576"
           height="46.303116"
           x="60.60606"
           y="263.65903"
           style="fill:#ff0000" /></flowRegion><flowPara
         id="flowPara1436">+</flowPara></flowRoot>    <flowRoot
       xml:space="preserve"
       id="flowRoot1438"
       style="font-style:normal;font-variant:normal;font-weight:bold;font-stretch:normal;font-size:18.66666603px;line-height:1.25;font-family:Arial;-inkscape-font-specification:'Arial Bold';letter-spacing:0px;word-spacing:0px;fill:#0000ff;fill-opacity:1;stroke:none"
       transform="matrix(0.26458333,0,0,0.26458333,2.6458334,211.64585)"><flowRegion
         id="flowRegion1440"
         style="fill:#0000ff"><rect
           id="rect1442"
           width="30.443604"
           height="29.637997"
           x="450.617"
           y="253.80899"
           style="fill:#0000ff" /></flowRegion><flowPara
         id="flowPara1444">-</flowPara></flowRoot>    <path
       style="fill:none;stroke:#000000;stroke-width:0.26458332px;stroke-linecap:butt;stroke-linejoin:miter;stroke-opacity:1"
       d="m 46.10164,266.72271 h 8.017676"
       id="path1448"
       inkscape:connector-curvature="0" />
    <path
       style="fill:none;stroke:#000000;stroke-width:0.59695625;stroke-linecap:butt;stroke-linejoin:miter;stroke-miterlimit:4;stroke-dasharray:0.59695628, 2.38782508;stroke-dashoffset:0;stroke-opacity:1"
       d="m 81.552,266.73327 h 9.870101"
       id="path7091-3"
       inkscape:connector-curvature="0" />
    <flowRoot
       xml:space="preserve"
       id="flowRoot1465"
       style="font-style:normal;font-variant:normal;font-weight:bold;font-stretch:normal;font-size:14.66666698px;line-height:1.25;font-family:Arial;-inkscape-font-specification:'Arial Bold';letter-spacing:0px;word-spacing:0px;fill:#000000;fill-opacity:1;stroke:none"
       transform="matrix(0.26458333,0,0,0.26458333,3.1750001,214.82087)"><flowRegion
         id="flowRegion1467"
         style="font-size:14.66666698px"><rect
           id="rect1469"
           width="103.6885"
           height="68.726395"
           x="96.311501"
           y="58.568996"
           style="font-size:14.66666698px" /></flowRegion><flowPara
         id="flowPara1471">Security </flowPara><flowPara
         id="flowPara1473">Board</flowPara></flowRoot>    <flowRoot
       xml:space="preserve"
       id="flowRoot1475"
       style="font-style:normal;font-variant:normal;font-weight:bold;font-stretch:normal;font-size:14.66666698px;line-height:1.25;font-family:Arial;-inkscape-font-specification:'Arial Bold';letter-spacing:0px;word-spacing:0px;fill:#000000;fill-opacity:1;stroke:none"
       transform="matrix(0.26458333,0,0,0.26458333,-2.1166667,208.05834)"><flowRegion
         id="flowRegion1477"
         style="font-size:14.66666698px"><rect
           id="rect1479"
           width="53.030304"
           height="21.212122"
           x="83.333336"
           y="5.3089857"
           style="font-size:14.66666698px" /></flowRegion><flowPara
         id="flowPara1481">Netz</flowPara></flowRoot>    <flowRoot
       xml:space="preserve"
       id="flowRoot1483"
       style="font-style:normal;font-variant:normal;font-weight:bold;font-stretch:normal;font-size:14.66666698px;line-height:1.25;font-family:Arial;-inkscape-font-specification:'Arial Bold';letter-spacing:0px;word-spacing:0px;fill:#000000;fill-opacity:1;stroke:none"
       transform="matrix(0.26458333,0,0,0.26458333,1.5875,208.05834)"><flowRegion
         id="flowRegion1485"
         style="font-size:14.66666698px"><rect
           id="rect1487"
           width="41.634964"
           height="24.995352"
           x="52.304432"
           y="56.828785"
           style="font-size:14.66666698px" /></flowRegion><flowPara
         id="flowPara1489">WR</flowPara></flowRoot>    <flowRoot
       xml:space="preserve"
       id="flowRoot1491"
       style="font-style:italic;font-variant:normal;font-weight:normal;font-stretch:normal;font-size:12px;line-height:1.25;font-family:Arial;-inkscape-font-specification:'Arial Italic';letter-spacing:0px;word-spacing:0px;fill:#000000;fill-opacity:1;stroke:none"
       transform="matrix(0.26458333,0,0,0.26458333,7.4083337,228.69597)"><flowRegion
         id="flowRegion1493"
         style="font-style:italic;font-variant:normal;font-weight:normal;font-stretch:normal;font-size:12px;font-family:Arial;-inkscape-font-specification:'Arial Italic'"><rect
           id="rect1495"
           width="68.181816"
           height="33.333332"
           x="417.42426"
           y="160.61201"
           style="font-style:italic;font-variant:normal;font-weight:normal;font-stretch:normal;font-size:12px;font-family:Arial;-inkscape-font-specification:'Arial Italic'" /></flowRegion><flowPara
         id="flowPara1497">f(U,T)</flowPara></flowRoot>    <flowRoot
       xml:space="preserve"
       id="flowRoot1491-4"
       style="font-style:italic;font-variant:normal;font-weight:normal;font-stretch:normal;font-size:12px;line-height:1.25;font-family:Arial;-inkscape-font-specification:'Arial Italic';letter-spacing:0px;word-spacing:0px;fill:#000000;fill-opacity:1;stroke:none"
       transform="matrix(0.26458333,0,0,0.26458333,-33.101705,228.47809)"><flowRegion
         id="flowRegion1493-3"
         style="font-style:italic;font-variant:normal;font-weight:normal;font-stretch:normal;font-size:12px;font-family:Arial;-inkscape-font-specification:'Arial Italic'"><rect
           id="rect1495-9"
           width="68.181816"
           height="33.333332"
           x="417.42426"
           y="160.61201"
           style="font-style:italic;font-variant:normal;font-weight:normal;font-stretch:normal;font-size:12px;font-family:Arial;-inkscape-font-specification:'Arial Italic'" /></flowRegion><flowPara
         id="flowPara1497-7">f(U,T)</flowPara></flowRoot>    <flowRoot
       xml:space="preserve"
       id="flowRoot1491-70"
       style="font-style:italic;font-variant:normal;font-weight:normal;font-stretch:normal;font-size:12px;line-height:1.25;font-family:Arial;-inkscape-font-specification:'Arial Italic';letter-spacing:0px;word-spacing:0px;fill:#000000;fill-opacity:1;stroke:none"
       transform="matrix(0.26458333,0,0,0.26458333,-65.461047,228.27765)"><flowRegion
         id="flowRegion1493-37"
         style="font-style:italic;font-variant:normal;font-weight:normal;font-stretch:normal;font-size:12px;font-family:Arial;-inkscape-font-specification:'Arial Italic'"><rect
           id="rect1495-5"
           width="68.181816"
           height="33.333332"
           x="417.42426"
           y="160.61201"
           style="font-style:italic;font-variant:normal;font-weight:normal;font-stretch:normal;font-size:12px;font-family:Arial;-inkscape-font-specification:'Arial Italic'" /></flowRegion><flowPara
         id="flowPara1497-9">f(U,T)</flowPara></flowRoot>  </g>
</svg>
